Logging started at 2016-08-30 01:11:57
File name: C:\Users\Administrator\Documents\Sync\Dark-Asylum\Dark\.\data\logs\err\1472537517623 - Administrator - [Tue Aug 30][1.11AM].txt
System.getProperty("os.name"): "Windows Server 2012 R2"

[2016-08-30 02:56:09] java.lang.NullPointerException
[2016-08-30 02:56:09] 	at com.dark.rs2.content.DropTable.displayNpc(DropTable.java:177)
[2016-08-30 02:56:09] 	at com.dark.rs2.entity.player.net.in.impl.ClickButtonPacket.handle(ClickButtonPacket.java:124)
[2016-08-30 02:56:09] 	at com.dark.rs2.entity.player.net.in.PacketHandler.handlePacket(PacketHandler.java:151)
[2016-08-30 02:56:09] 	at com.dark.rs2.entity.player.net.Client.processIncomingPackets(Client.java:213)
[2016-08-30 02:56:09] 	at com.dark.rs2.entity.World.process(World.java:319)
[2016-08-30 02:56:09] 	at com.dark.core.GameThread.cycle(GameThread.java:124)
[2016-08-30 02:56:09] 	at com.dark.core.GameThread.run(GameThread.java:139)
[2016-08-30 05:30:05] java.lang.IndexOutOfBoundsException: Index: 4, Size: 2
[2016-08-30 05:30:05] 	at java.util.ArrayList.rangeCheck(Unknown Source)
[2016-08-30 05:30:05] 	at java.util.ArrayList.get(Unknown Source)
[2016-08-30 05:30:05] 	at com.dark.rs2.content.dialogue.OptionDialogue.execute(OptionDialogue.java:54)
[2016-08-30 05:30:05] 	at com.dark.rs2.content.dialogue.OptionDialogue.clickButton(OptionDialogue.java:92)
[2016-08-30 05:30:05] 	at com.dark.rs2.entity.player.net.in.impl.ClickButtonPacket.handle(ClickButtonPacket.java:1152)
[2016-08-30 05:30:05] 	at com.dark.rs2.entity.player.net.in.PacketHandler.handlePacket(PacketHandler.java:151)
[2016-08-30 05:30:05] 	at com.dark.rs2.entity.player.net.Client.processIncomingPackets(Client.java:213)
[2016-08-30 05:30:05] 	at com.dark.rs2.entity.World.process(World.java:319)
[2016-08-30 05:30:05] 	at com.dark.core.GameThread.cycle(GameThread.java:124)
[2016-08-30 05:30:05] 	at com.dark.core.GameThread.run(GameThread.java:139)
[2016-08-30 07:39:34] java.lang.NullPointerException
[2016-08-30 07:39:34] 	at com.dark.rs2.entity.player.Player.login(Player.java:1312)
[2016-08-30 07:39:34] 	at com.dark.core.LoginThread.cycle(LoginThread.java:41)
[2016-08-30 07:39:34] 	at com.dark.core.LoginThread.run(LoginThread.java:82)
[2016-08-30 07:39:37] java.lang.NullPointerException
[2016-08-30 07:39:37] 	at com.dark.rs2.entity.player.Player.login(Player.java:1312)
[2016-08-30 07:39:37] 	at com.dark.core.LoginThread.cycle(LoginThread.java:41)
[2016-08-30 07:39:37] 	at com.dark.core.LoginThread.run(LoginThread.java:82)
[2016-08-30 07:39:39] java.lang.NullPointerException
[2016-08-30 07:39:39] 	at com.dark.rs2.entity.player.Player.login(Player.java:1312)
[2016-08-30 07:39:39] 	at com.dark.core.LoginThread.cycle(LoginThread.java:41)
[2016-08-30 07:39:39] 	at com.dark.core.LoginThread.run(LoginThread.java:82)
[2016-08-30 07:39:44] java.lang.NullPointerException
[2016-08-30 07:39:44] 	at com.dark.rs2.entity.player.Player.login(Player.java:1312)
[2016-08-30 07:39:44] 	at com.dark.core.LoginThread.cycle(LoginThread.java:41)
[2016-08-30 07:39:44] 	at com.dark.core.LoginThread.run(LoginThread.java:82)
[2016-08-30 07:39:46] java.lang.NullPointerException
[2016-08-30 07:39:46] 	at com.dark.rs2.entity.player.Player.login(Player.java:1312)
[2016-08-30 07:39:46] 	at com.dark.core.LoginThread.cycle(LoginThread.java:41)
[2016-08-30 07:39:46] 	at com.dark.core.LoginThread.run(LoginThread.java:82)
[2016-08-30 07:39:48] java.lang.NullPointerException
[2016-08-30 07:39:48] 	at com.dark.rs2.entity.player.Player.login(Player.java:1312)
[2016-08-30 07:39:48] 	at com.dark.core.LoginThread.cycle(LoginThread.java:41)
[2016-08-30 07:39:48] 	at com.dark.core.LoginThread.run(LoginThread.java:82)
[2016-08-30 07:39:49] java.lang.NullPointerException
[2016-08-30 07:39:49] 	at com.dark.rs2.entity.player.Player.login(Player.java:1312)
[2016-08-30 07:39:49] 	at com.dark.core.LoginThread.cycle(LoginThread.java:41)
[2016-08-30 07:39:49] 	at com.dark.core.LoginThread.run(LoginThread.java:82)
[2016-08-30 07:41:02] java.lang.NullPointerException
[2016-08-30 07:41:02] 	at com.dark.rs2.entity.player.Player.login(Player.java:1312)
[2016-08-30 07:41:02] 	at com.dark.core.LoginThread.cycle(LoginThread.java:41)
[2016-08-30 07:41:02] 	at com.dark.core.LoginThread.run(LoginThread.java:82)
[2016-08-30 07:41:06] java.lang.NullPointerException
[2016-08-30 07:41:06] 	at com.dark.rs2.entity.player.Player.login(Player.java:1312)
[2016-08-30 07:41:06] 	at com.dark.core.LoginThread.cycle(LoginThread.java:41)
[2016-08-30 07:41:06] 	at com.dark.core.LoginThread.run(LoginThread.java:82)
[2016-08-30 07:41:08] java.lang.NullPointerException
[2016-08-30 07:41:08] 	at com.dark.rs2.entity.player.Player.login(Player.java:1312)
[2016-08-30 07:41:08] 	at com.dark.core.LoginThread.cycle(LoginThread.java:41)
[2016-08-30 07:41:08] 	at com.dark.core.LoginThread.run(LoginThread.java:82)
[2016-08-30 07:41:09] java.lang.NullPointerException
[2016-08-30 07:41:09] 	at com.dark.rs2.entity.player.Player.login(Player.java:1312)
[2016-08-30 07:41:09] 	at com.dark.core.LoginThread.cycle(LoginThread.java:41)
[2016-08-30 07:41:09] 	at com.dark.core.LoginThread.run(LoginThread.java:82)
[2016-08-30 07:41:10] java.lang.NullPointerException
[2016-08-30 07:41:10] 	at com.dark.rs2.entity.player.Player.login(Player.java:1312)
[2016-08-30 07:41:10] 	at com.dark.core.LoginThread.cycle(LoginThread.java:41)
[2016-08-30 07:41:10] 	at com.dark.core.LoginThread.run(LoginThread.java:82)
[2016-08-30 07:41:11] java.lang.NullPointerException
[2016-08-30 07:41:11] 	at com.dark.rs2.entity.player.Player.login(Player.java:1312)
[2016-08-30 07:41:11] 	at com.dark.core.LoginThread.cycle(LoginThread.java:41)
[2016-08-30 07:41:11] 	at com.dark.core.LoginThread.run(LoginThread.java:82)
[2016-08-30 07:41:12] java.lang.NullPointerException
[2016-08-30 07:41:12] 	at com.dark.rs2.entity.player.Player.login(Player.java:1312)
[2016-08-30 07:41:12] 	at com.dark.core.LoginThread.cycle(LoginThread.java:41)
[2016-08-30 07:41:12] 	at com.dark.core.LoginThread.run(LoginThread.java:82)
[2016-08-30 07:41:13] java.lang.NullPointerException
[2016-08-30 07:41:13] 	at com.dark.rs2.entity.player.Player.login(Player.java:1312)
[2016-08-30 07:41:13] 	at com.dark.core.LoginThread.cycle(LoginThread.java:41)
[2016-08-30 07:41:13] 	at com.dark.core.LoginThread.run(LoginThread.java:82)
[2016-08-30 07:41:13] java.lang.NullPointerException
[2016-08-30 07:41:13] 	at com.dark.rs2.entity.player.Player.login(Player.java:1312)
[2016-08-30 07:41:13] 	at com.dark.core.LoginThread.cycle(LoginThread.java:41)
[2016-08-30 07:41:13] 	at com.dark.core.LoginThread.run(LoginThread.java:82)
[2016-08-30 07:41:16] java.lang.NullPointerException
[2016-08-30 07:41:16] 	at com.dark.rs2.entity.player.Player.login(Player.java:1312)
[2016-08-30 07:41:16] 	at com.dark.core.LoginThread.cycle(LoginThread.java:41)
[2016-08-30 07:41:16] 	at com.dark.core.LoginThread.run(LoginThread.java:82)
[2016-08-30 07:41:17] java.lang.NullPointerException
[2016-08-30 07:41:17] 	at com.dark.rs2.entity.player.Player.login(Player.java:1312)
[2016-08-30 07:41:17] 	at com.dark.core.LoginThread.cycle(LoginThread.java:41)
[2016-08-30 07:41:17] 	at com.dark.core.LoginThread.run(LoginThread.java:82)
[2016-08-30 07:41:18] java.lang.NullPointerException
[2016-08-30 07:41:18] 	at com.dark.rs2.entity.player.Player.login(Player.java:1312)
[2016-08-30 07:41:18] 	at com.dark.core.LoginThread.cycle(LoginThread.java:41)
[2016-08-30 07:41:18] 	at com.dark.core.LoginThread.run(LoginThread.java:82)
[2016-08-30 07:41:18] java.lang.NullPointerException
[2016-08-30 07:41:18] 	at com.dark.rs2.entity.player.Player.login(Player.java:1312)
[2016-08-30 07:41:18] 	at com.dark.core.LoginThread.cycle(LoginThread.java:41)
[2016-08-30 07:41:18] 	at com.dark.core.LoginThread.run(LoginThread.java:82)
[2016-08-30 07:41:19] java.lang.NullPointerException
[2016-08-30 07:41:19] 	at com.dark.rs2.entity.player.Player.login(Player.java:1312)
[2016-08-30 07:41:19] 	at com.dark.core.LoginThread.cycle(LoginThread.java:41)
[2016-08-30 07:41:19] 	at com.dark.core.LoginThread.run(LoginThread.java:82)
[2016-08-30 07:41:20] java.lang.NullPointerException
[2016-08-30 07:41:20] 	at com.dark.rs2.entity.player.Player.login(Player.java:1312)
[2016-08-30 07:41:20] 	at com.dark.core.LoginThread.cycle(LoginThread.java:41)
[2016-08-30 07:41:20] 	at com.dark.core.LoginThread.run(LoginThread.java:82)
[2016-08-30 07:41:20] java.lang.NullPointerException
[2016-08-30 07:41:20] 	at com.dark.rs2.entity.player.Player.login(Player.java:1312)
[2016-08-30 07:41:20] 	at com.dark.core.LoginThread.cycle(LoginThread.java:41)
[2016-08-30 07:41:20] 	at com.dark.core.LoginThread.run(LoginThread.java:82)
[2016-08-30 07:41:21] java.lang.NullPointerException
[2016-08-30 07:41:21] 	at com.dark.rs2.entity.player.Player.login(Player.java:1312)
[2016-08-30 07:41:21] 	at com.dark.core.LoginThread.cycle(LoginThread.java:41)
[2016-08-30 07:41:21] 	at com.dark.core.LoginThread.run(LoginThread.java:82)
[2016-08-30 07:41:22] java.lang.NullPointerException
[2016-08-30 07:41:22] 	at com.dark.rs2.entity.player.Player.login(Player.java:1312)
[2016-08-30 07:41:22] 	at com.dark.core.LoginThread.cycle(LoginThread.java:41)
[2016-08-30 07:41:22] 	at com.dark.core.LoginThread.run(LoginThread.java:82)
[2016-08-30 07:41:23] java.lang.NullPointerException
[2016-08-30 07:41:23] 	at com.dark.rs2.entity.player.Player.login(Player.java:1312)
[2016-08-30 07:41:23] 	at com.dark.core.LoginThread.cycle(LoginThread.java:41)
[2016-08-30 07:41:23] 	at com.dark.core.LoginThread.run(LoginThread.java:82)
[2016-08-30 07:41:23] java.lang.NullPointerException
[2016-08-30 07:41:23] 	at com.dark.rs2.entity.player.Player.login(Player.java:1312)
[2016-08-30 07:41:23] 	at com.dark.core.LoginThread.cycle(LoginThread.java:41)
[2016-08-30 07:41:23] 	at com.dark.core.LoginThread.run(LoginThread.java:82)
[2016-08-30 07:41:24] java.lang.NullPointerException
[2016-08-30 07:41:24] 	at com.dark.rs2.entity.player.Player.login(Player.java:1312)
[2016-08-30 07:41:24] 	at com.dark.core.LoginThread.cycle(LoginThread.java:41)
[2016-08-30 07:41:24] 	at com.dark.core.LoginThread.run(LoginThread.java:82)
[2016-08-30 07:41:25] java.lang.NullPointerException
[2016-08-30 07:41:25] 	at com.dark.rs2.entity.player.Player.login(Player.java:1312)
[2016-08-30 07:41:25] 	at com.dark.core.LoginThread.cycle(LoginThread.java:41)
[2016-08-30 07:41:25] 	at com.dark.core.LoginThread.run(LoginThread.java:82)
[2016-08-30 07:41:25] java.lang.NullPointerException
[2016-08-30 07:41:25] 	at com.dark.rs2.entity.player.Player.login(Player.java:1312)
[2016-08-30 07:41:25] 	at com.dark.core.LoginThread.cycle(LoginThread.java:41)
[2016-08-30 07:41:25] 	at com.dark.core.LoginThread.run(LoginThread.java:82)
[2016-08-30 07:55:13] java.lang.IndexOutOfBoundsException: Readable byte limit exceeded: 12
[2016-08-30 07:55:13] 	at org.jboss.netty.buffer.AbstractChannelBuffer.readByte(AbstractChannelBuffer.java:236)
[2016-08-30 07:55:13] 	at com.dark.core.network.StreamBuffer$InBuffer.readByte(StreamBuffer.java:120)
[2016-08-30 07:55:13] 	at com.dark.core.network.StreamBuffer$InBuffer.readByte(StreamBuffer.java:107)
[2016-08-30 07:55:13] 	at com.dark.core.network.StreamBuffer$InBuffer.readShort(StreamBuffer.java:467)
[2016-08-30 07:55:13] 	at com.dark.core.network.StreamBuffer$InBuffer.readShort(StreamBuffer.java:412)
[2016-08-30 07:55:13] 	at com.dark.rs2.entity.player.net.in.impl.ItemPackets.handle(ItemPackets.java:1067)
[2016-08-30 07:55:13] 	at com.dark.rs2.entity.player.net.in.PacketHandler.handlePacket(PacketHandler.java:151)
[2016-08-30 07:55:13] 	at com.dark.rs2.entity.player.net.Client.processIncomingPackets(Client.java:213)
[2016-08-30 07:55:13] 	at com.dark.rs2.entity.World.process(World.java:319)
[2016-08-30 07:55:13] 	at com.dark.core.GameThread.cycle(GameThread.java:124)
[2016-08-30 07:55:13] 	at com.dark.core.GameThread.run(GameThread.java:139)
[2016-08-30 08:49:18] java.lang.NullPointerException
[2016-08-30 08:49:18] 	at com.dark.rs2.content.combat.formula.RangeFormulas.calculateRangeAttack(RangeFormulas.java:78)
[2016-08-30 08:49:18] 	at com.dark.rs2.content.combat.impl.Ranged.execute(Ranged.java:41)
[2016-08-30 08:49:18] 	at com.dark.rs2.content.combat.Combat.attack(Combat.java:92)
[2016-08-30 08:49:18] 	at com.dark.rs2.content.combat.Combat.process(Combat.java:215)
[2016-08-30 08:49:18] 	at com.dark.rs2.entity.player.Player.process(Player.java:1662)
[2016-08-30 08:49:18] 	at com.dark.rs2.entity.World.process(World.java:321)
[2016-08-30 08:49:18] 	at com.dark.core.GameThread.cycle(GameThread.java:124)
[2016-08-30 08:49:18] 	at com.dark.core.GameThread.run(GameThread.java:139)
[2016-08-30 08:49:18] java.lang.NullPointerException
[2016-08-30 08:49:18] 	at com.dark.rs2.entity.player.net.Client.send(Client.java:331)
[2016-08-30 08:49:18] 	at com.dark.rs2.entity.player.net.out.impl.SendLogout.execute(SendLogout.java:13)
[2016-08-30 08:49:18] 	at com.dark.rs2.entity.player.Player.logout(Player.java:1588)
[2016-08-30 08:49:18] 	at com.dark.rs2.entity.World.process(World.java:334)
[2016-08-30 08:49:18] 	at com.dark.core.GameThread.cycle(GameThread.java:124)
[2016-08-30 08:49:18] 	at com.dark.core.GameThread.run(GameThread.java:139)
[2016-08-30 09:10:33] java.lang.NullPointerException
[2016-08-30 09:10:33] 	at com.dark.rs2.entity.player.net.in.impl.SpawnTab.handle(SpawnTab.java:21)
[2016-08-30 09:10:33] 	at com.dark.rs2.entity.player.net.in.PacketHandler.handlePacket(PacketHandler.java:151)
[2016-08-30 09:10:33] 	at com.dark.rs2.entity.player.net.Client.processIncomingPackets(Client.java:213)
[2016-08-30 09:10:33] 	at com.dark.rs2.entity.World.process(World.java:319)
[2016-08-30 09:10:33] 	at com.dark.core.GameThread.cycle(GameThread.java:124)
[2016-08-30 09:10:33] 	at com.dark.core.GameThread.run(GameThread.java:139)
[2016-08-30 09:37:13] java.lang.NullPointerException
[2016-08-30 09:37:13] 	at com.dark.rs2.entity.player.Player.login(Player.java:1312)
[2016-08-30 09:37:13] 	at com.dark.core.LoginThread.cycle(LoginThread.java:41)
[2016-08-30 09:37:13] 	at com.dark.core.LoginThread.run(LoginThread.java:82)
[2016-08-30 09:37:17] java.lang.NullPointerException
[2016-08-30 09:37:17] 	at com.dark.rs2.entity.player.Player.login(Player.java:1312)
[2016-08-30 09:37:17] 	at com.dark.core.LoginThread.cycle(LoginThread.java:41)
[2016-08-30 09:37:17] 	at com.dark.core.LoginThread.run(LoginThread.java:82)
[2016-08-30 09:37:39] java.lang.NullPointerException
[2016-08-30 09:37:39] 	at com.dark.rs2.entity.player.Player.login(Player.java:1312)
[2016-08-30 09:37:39] 	at com.dark.core.LoginThread.cycle(LoginThread.java:41)
[2016-08-30 09:37:39] 	at com.dark.core.LoginThread.run(LoginThread.java:82)
[2016-08-30 09:39:01] java.lang.NullPointerException
[2016-08-30 09:39:01] 	at com.dark.rs2.entity.player.Player.login(Player.java:1312)
[2016-08-30 09:39:01] 	at com.dark.core.LoginThread.cycle(LoginThread.java:41)
[2016-08-30 09:39:01] 	at com.dark.core.LoginThread.run(LoginThread.java:82)
[2016-08-30 09:39:10] java.lang.NullPointerException
[2016-08-30 09:39:10] 	at com.dark.rs2.entity.player.Player.login(Player.java:1312)
[2016-08-30 09:39:10] 	at com.dark.core.LoginThread.cycle(LoginThread.java:41)
[2016-08-30 09:39:10] 	at com.dark.core.LoginThread.run(LoginThread.java:82)
[2016-08-30 09:39:28] java.lang.NullPointerException
[2016-08-30 09:39:28] 	at com.dark.rs2.entity.player.Player.login(Player.java:1312)
[2016-08-30 09:39:28] 	at com.dark.core.LoginThread.cycle(LoginThread.java:41)
[2016-08-30 09:39:28] 	at com.dark.core.LoginThread.run(LoginThread.java:82)
[2016-08-30 09:40:22] java.lang.NullPointerException
[2016-08-30 09:40:22] 	at com.dark.core.network.StreamBuffer$OutBuffer.writeHeader(StreamBuffer.java:748)
[2016-08-30 09:40:22] 	at com.dark.rs2.entity.player.net.out.impl.SendLogout.execute(SendLogout.java:12)
[2016-08-30 09:40:22] 	at com.dark.rs2.entity.player.Player.logout(Player.java:1588)
[2016-08-30 09:40:22] 	at com.dark.rs2.content.moderation.StaffTab.handle(StaffTab.java:246)
[2016-08-30 09:40:22] 	at com.dark.rs2.content.moderation.StaffTab.inputField(StaffTab.java:80)
[2016-08-30 09:40:22] 	at com.dark.rs2.entity.player.net.in.impl.InputFieldPacket.handle(InputFieldPacket.java:27)
[2016-08-30 09:40:22] 	at com.dark.rs2.entity.player.net.in.PacketHandler.handlePacket(PacketHandler.java:151)
[2016-08-30 09:40:22] 	at com.dark.rs2.entity.player.net.Client.processIncomingPackets(Client.java:213)
[2016-08-30 09:40:22] 	at com.dark.rs2.entity.World.process(World.java:319)
[2016-08-30 09:40:22] 	at com.dark.core.GameThread.cycle(GameThread.java:124)
[2016-08-30 09:40:22] 	at com.dark.core.GameThread.run(GameThread.java:139)
[2016-08-30 09:40:23] java.lang.NullPointerException
[2016-08-30 09:40:23] 	at com.dark.core.network.StreamBuffer$OutBuffer.writeHeader(StreamBuffer.java:748)
[2016-08-30 09:40:23] 	at com.dark.rs2.entity.player.net.out.impl.SendLogout.execute(SendLogout.java:12)
[2016-08-30 09:40:23] 	at com.dark.rs2.entity.player.Player.logout(Player.java:1588)
[2016-08-30 09:40:23] 	at com.dark.rs2.content.moderation.StaffTab.handle(StaffTab.java:246)
[2016-08-30 09:40:23] 	at com.dark.rs2.content.moderation.StaffTab.inputField(StaffTab.java:80)
[2016-08-30 09:40:23] 	at com.dark.rs2.entity.player.net.in.impl.InputFieldPacket.handle(InputFieldPacket.java:27)
[2016-08-30 09:40:23] 	at com.dark.rs2.entity.player.net.in.PacketHandler.handlePacket(PacketHandler.java:151)
[2016-08-30 09:40:23] 	at com.dark.rs2.entity.player.net.Client.processIncomingPackets(Client.java:213)
[2016-08-30 09:40:23] 	at com.dark.rs2.entity.World.process(World.java:319)
[2016-08-30 09:40:23] 	at com.dark.core.GameThread.cycle(GameThread.java:124)
[2016-08-30 09:40:23] 	at com.dark.core.GameThread.run(GameThread.java:139)
[2016-08-30 09:42:13] java.lang.NullPointerException
[2016-08-30 09:42:13] 	at com.dark.core.network.StreamBuffer$OutBuffer.writeHeader(StreamBuffer.java:748)
[2016-08-30 09:42:13] 	at com.dark.rs2.entity.player.net.out.impl.SendLogout.execute(SendLogout.java:12)
[2016-08-30 09:42:13] 	at com.dark.rs2.entity.player.Player.logout(Player.java:1588)
[2016-08-30 09:42:13] 	at com.dark.rs2.content.moderation.StaffTab.handle(StaffTab.java:246)
[2016-08-30 09:42:13] 	at com.dark.rs2.content.moderation.StaffTab.inputField(StaffTab.java:80)
[2016-08-30 09:42:13] 	at com.dark.rs2.entity.player.net.in.impl.InputFieldPacket.handle(InputFieldPacket.java:27)
[2016-08-30 09:42:13] 	at com.dark.rs2.entity.player.net.in.PacketHandler.handlePacket(PacketHandler.java:151)
[2016-08-30 09:42:13] 	at com.dark.rs2.entity.player.net.Client.processIncomingPackets(Client.java:213)
[2016-08-30 09:42:13] 	at com.dark.rs2.entity.World.process(World.java:319)
[2016-08-30 09:42:13] 	at com.dark.core.GameThread.cycle(GameThread.java:124)
[2016-08-30 09:42:13] 	at com.dark.core.GameThread.run(GameThread.java:139)
[2016-08-30 09:45:17] java.lang.NullPointerException
[2016-08-30 09:45:17] 	at com.dark.rs2.entity.player.Player.login(Player.java:1312)
[2016-08-30 09:45:17] 	at com.dark.core.LoginThread.cycle(LoginThread.java:41)
[2016-08-30 09:45:17] 	at com.dark.core.LoginThread.run(LoginThread.java:82)
[2016-08-30 09:54:17] java.lang.NullPointerException
[2016-08-30 09:54:17] 	at com.dark.rs2.entity.player.Player.login(Player.java:1312)
[2016-08-30 09:54:17] 	at com.dark.core.LoginThread.cycle(LoginThread.java:41)
[2016-08-30 09:54:17] 	at com.dark.core.LoginThread.run(LoginThread.java:82)
[2016-08-30 09:59:10] java.lang.NullPointerException
[2016-08-30 09:59:10] 	at com.dark.core.network.StreamBuffer$OutBuffer.writeHeader(StreamBuffer.java:748)
[2016-08-30 09:59:10] 	at com.dark.rs2.entity.player.net.out.impl.SendLogout.execute(SendLogout.java:12)
[2016-08-30 09:59:10] 	at com.dark.rs2.entity.player.Player.logout(Player.java:1588)
[2016-08-30 09:59:10] 	at com.dark.rs2.content.moderation.StaffTab.handle(StaffTab.java:246)
[2016-08-30 09:59:10] 	at com.dark.rs2.content.moderation.StaffTab.inputField(StaffTab.java:80)
[2016-08-30 09:59:10] 	at com.dark.rs2.entity.player.net.in.impl.InputFieldPacket.handle(InputFieldPacket.java:27)
[2016-08-30 09:59:10] 	at com.dark.rs2.entity.player.net.in.PacketHandler.handlePacket(PacketHandler.java:151)
[2016-08-30 09:59:10] 	at com.dark.rs2.entity.player.net.Client.processIncomingPackets(Client.java:213)
[2016-08-30 09:59:10] 	at com.dark.rs2.entity.World.process(World.java:319)
[2016-08-30 09:59:10] 	at com.dark.core.GameThread.cycle(GameThread.java:124)
[2016-08-30 09:59:10] 	at com.dark.core.GameThread.run(GameThread.java:139)
[2016-08-30 09:59:13] java.lang.NullPointerException
[2016-08-30 09:59:13] 	at com.dark.core.network.StreamBuffer$OutBuffer.writeHeader(StreamBuffer.java:748)
[2016-08-30 09:59:13] 	at com.dark.rs2.entity.player.net.out.impl.SendLogout.execute(SendLogout.java:12)
[2016-08-30 09:59:13] 	at com.dark.rs2.entity.player.Player.logout(Player.java:1588)
[2016-08-30 09:59:13] 	at com.dark.rs2.content.moderation.StaffTab.handle(StaffTab.java:246)
[2016-08-30 09:59:13] 	at com.dark.rs2.content.moderation.StaffTab.inputField(StaffTab.java:80)
[2016-08-30 09:59:13] 	at com.dark.rs2.entity.player.net.in.impl.InputFieldPacket.handle(InputFieldPacket.java:27)
[2016-08-30 09:59:13] 	at com.dark.rs2.entity.player.net.in.PacketHandler.handlePacket(PacketHandler.java:151)
[2016-08-30 09:59:13] 	at com.dark.rs2.entity.player.net.Client.processIncomingPackets(Client.java:213)
[2016-08-30 09:59:13] 	at com.dark.rs2.entity.World.process(World.java:319)
[2016-08-30 09:59:13] 	at com.dark.core.GameThread.cycle(GameThread.java:124)
[2016-08-30 09:59:13] 	at com.dark.core.GameThread.run(GameThread.java:139)
[2016-08-30 10:01:38] java.lang.NullPointerException
[2016-08-30 10:01:38] 	at com.dark.rs2.entity.player.Player.login(Player.java:1312)
[2016-08-30 10:01:38] 	at com.dark.core.LoginThread.cycle(LoginThread.java:41)
[2016-08-30 10:01:38] 	at com.dark.core.LoginThread.run(LoginThread.java:82)
[2016-08-30 10:03:38] java.lang.NullPointerException
[2016-08-30 10:03:38] 	at com.dark.rs2.entity.player.Player.login(Player.java:1312)
[2016-08-30 10:03:38] 	at com.dark.core.LoginThread.cycle(LoginThread.java:41)
[2016-08-30 10:03:38] 	at com.dark.core.LoginThread.run(LoginThread.java:82)
[2016-08-30 10:04:48] java.lang.NullPointerException
[2016-08-30 10:04:48] 	at com.dark.rs2.entity.player.Player.login(Player.java:1312)
[2016-08-30 10:04:48] 	at com.dark.core.LoginThread.cycle(LoginThread.java:41)
[2016-08-30 10:04:48] 	at com.dark.core.LoginThread.run(LoginThread.java:82)
[2016-08-30 10:05:54] java.lang.NullPointerException
[2016-08-30 10:05:54] 	at com.dark.rs2.entity.player.Player.login(Player.java:1312)
[2016-08-30 10:05:54] 	at com.dark.core.LoginThread.cycle(LoginThread.java:41)
[2016-08-30 10:05:54] 	at com.dark.core.LoginThread.run(LoginThread.java:82)
[2016-08-30 10:05:55] java.lang.NullPointerException
[2016-08-30 10:05:55] 	at com.dark.rs2.entity.player.Player.login(Player.java:1312)
[2016-08-30 10:05:55] 	at com.dark.core.LoginThread.cycle(LoginThread.java:41)
[2016-08-30 10:05:55] 	at com.dark.core.LoginThread.run(LoginThread.java:82)
[2016-08-30 10:05:56] java.lang.NullPointerException
[2016-08-30 10:05:56] 	at com.dark.rs2.entity.player.Player.login(Player.java:1312)
[2016-08-30 10:05:56] 	at com.dark.core.LoginThread.cycle(LoginThread.java:41)
[2016-08-30 10:05:56] 	at com.dark.core.LoginThread.run(LoginThread.java:82)
[2016-08-30 10:07:30] java.lang.NullPointerException
[2016-08-30 10:07:30] 	at com.dark.rs2.entity.player.Player.login(Player.java:1312)
[2016-08-30 10:07:30] 	at com.dark.core.LoginThread.cycle(LoginThread.java:41)
[2016-08-30 10:07:30] 	at com.dark.core.LoginThread.run(LoginThread.java:82)
[2016-08-30 10:09:55] java.lang.NullPointerException
[2016-08-30 10:09:55] 	at com.dark.rs2.entity.player.Player.login(Player.java:1312)
[2016-08-30 10:09:55] 	at com.dark.core.LoginThread.cycle(LoginThread.java:41)
[2016-08-30 10:09:55] 	at com.dark.core.LoginThread.run(LoginThread.java:82)
[2016-08-30 10:10:04] java.lang.NullPointerException
[2016-08-30 10:10:04] 	at com.dark.rs2.entity.player.Player.login(Player.java:1312)
[2016-08-30 10:10:04] 	at com.dark.core.LoginThread.cycle(LoginThread.java:41)
[2016-08-30 10:10:04] 	at com.dark.core.LoginThread.run(LoginThread.java:82)
[2016-08-30 10:23:38] java.lang.NullPointerException
[2016-08-30 10:23:38] 	at com.dark.rs2.entity.player.Player.login(Player.java:1312)
[2016-08-30 10:23:38] 	at com.dark.core.LoginThread.cycle(LoginThread.java:41)
[2016-08-30 10:23:38] 	at com.dark.core.LoginThread.run(LoginThread.java:82)
[2016-08-30 10:23:42] java.lang.NullPointerException
[2016-08-30 10:23:42] 	at com.dark.rs2.entity.player.Player.login(Player.java:1312)
[2016-08-30 10:23:42] 	at com.dark.core.LoginThread.cycle(LoginThread.java:41)
[2016-08-30 10:23:42] 	at com.dark.core.LoginThread.run(LoginThread.java:82)
[2016-08-30 10:25:30] java.lang.NullPointerException
[2016-08-30 10:25:30] 	at com.dark.rs2.entity.player.Player.login(Player.java:1312)
[2016-08-30 10:25:30] 	at com.dark.core.LoginThread.cycle(LoginThread.java:41)
[2016-08-30 10:25:30] 	at com.dark.core.LoginThread.run(LoginThread.java:82)
[2016-08-30 10:25:43] java.lang.NullPointerException
[2016-08-30 10:25:43] 	at com.dark.rs2.entity.player.Player.login(Player.java:1312)
[2016-08-30 10:25:43] 	at com.dark.core.LoginThread.cycle(LoginThread.java:41)
[2016-08-30 10:25:43] 	at com.dark.core.LoginThread.run(LoginThread.java:82)
[2016-08-30 10:27:23] java.lang.NullPointerException
[2016-08-30 10:27:23] 	at com.dark.rs2.entity.player.Player.login(Player.java:1312)
[2016-08-30 10:27:23] 	at com.dark.core.LoginThread.cycle(LoginThread.java:41)
[2016-08-30 10:27:23] 	at com.dark.core.LoginThread.run(LoginThread.java:82)
[2016-08-30 10:27:25] java.lang.NullPointerException
[2016-08-30 10:27:25] 	at com.dark.rs2.entity.player.Player.login(Player.java:1312)
[2016-08-30 10:27:25] 	at com.dark.core.LoginThread.cycle(LoginThread.java:41)
[2016-08-30 10:27:25] 	at com.dark.core.LoginThread.run(LoginThread.java:82)
[2016-08-30 10:36:14] java.lang.NullPointerException
[2016-08-30 10:36:14] 	at com.dark.rs2.entity.player.Player.login(Player.java:1312)
[2016-08-30 10:36:14] 	at com.dark.core.LoginThread.cycle(LoginThread.java:41)
[2016-08-30 10:36:14] 	at com.dark.core.LoginThread.run(LoginThread.java:82)
[2016-08-30 10:37:31] java.lang.NullPointerException
[2016-08-30 10:37:31] 	at com.dark.rs2.entity.player.Player.login(Player.java:1312)
[2016-08-30 10:37:31] 	at com.dark.core.LoginThread.cycle(LoginThread.java:41)
[2016-08-30 10:37:31] 	at com.dark.core.LoginThread.run(LoginThread.java:82)
[2016-08-30 10:38:07] java.lang.NullPointerException
[2016-08-30 10:38:07] 	at com.dark.rs2.entity.player.Player.login(Player.java:1312)
[2016-08-30 10:38:07] 	at com.dark.core.LoginThread.cycle(LoginThread.java:41)
[2016-08-30 10:38:07] 	at com.dark.core.LoginThread.run(LoginThread.java:82)
[2016-08-30 10:40:07] java.lang.NullPointerException
[2016-08-30 10:40:07] 	at com.dark.rs2.entity.player.Player.login(Player.java:1312)
[2016-08-30 10:40:07] 	at com.dark.core.LoginThread.cycle(LoginThread.java:41)
[2016-08-30 10:40:07] 	at com.dark.core.LoginThread.run(LoginThread.java:82)
[2016-08-30 11:13:14] java.lang.NullPointerException
[2016-08-30 11:13:14] 	at com.dark.rs2.entity.player.Player.login(Player.java:1312)
[2016-08-30 11:13:14] 	at com.dark.core.LoginThread.cycle(LoginThread.java:41)
[2016-08-30 11:13:14] 	at com.dark.core.LoginThread.run(LoginThread.java:82)
[2016-08-30 11:25:49] java.lang.NullPointerException
[2016-08-30 11:25:49] 	at com.dark.rs2.entity.player.Player.login(Player.java:1312)
[2016-08-30 11:25:49] 	at com.dark.core.LoginThread.cycle(LoginThread.java:41)
[2016-08-30 11:25:49] 	at com.dark.core.LoginThread.run(LoginThread.java:82)
[2016-08-30 11:25:51] java.lang.NullPointerException
[2016-08-30 11:25:51] 	at com.dark.rs2.entity.player.Player.login(Player.java:1312)
[2016-08-30 11:25:51] 	at com.dark.core.LoginThread.cycle(LoginThread.java:41)
[2016-08-30 11:25:51] 	at com.dark.core.LoginThread.run(LoginThread.java:82)
[2016-08-30 11:26:04] java.lang.NullPointerException
[2016-08-30 11:26:04] 	at com.dark.rs2.entity.player.Player.login(Player.java:1312)
[2016-08-30 11:26:04] 	at com.dark.core.LoginThread.cycle(LoginThread.java:41)
[2016-08-30 11:26:04] 	at com.dark.core.LoginThread.run(LoginThread.java:82)
[2016-08-30 11:28:38] java.lang.NullPointerException
[2016-08-30 11:28:38] 	at com.dark.rs2.entity.player.Player.login(Player.java:1312)
[2016-08-30 11:28:38] 	at com.dark.core.LoginThread.cycle(LoginThread.java:41)
[2016-08-30 11:28:38] 	at com.dark.core.LoginThread.run(LoginThread.java:82)
[2016-08-30 11:28:40] java.lang.NullPointerException
[2016-08-30 11:28:40] 	at com.dark.rs2.entity.player.Player.login(Player.java:1312)
[2016-08-30 11:28:40] 	at com.dark.core.LoginThread.cycle(LoginThread.java:41)
[2016-08-30 11:28:40] 	at com.dark.core.LoginThread.run(LoginThread.java:82)
[2016-08-30 12:33:27] java.lang.IndexOutOfBoundsException: Index: 4, Size: 4
[2016-08-30 12:33:27] 	at java.util.ArrayList.rangeCheck(Unknown Source)
[2016-08-30 12:33:27] 	at java.util.ArrayList.get(Unknown Source)
[2016-08-30 12:33:27] 	at com.dark.rs2.content.dialogue.OptionDialogue.execute(OptionDialogue.java:54)
[2016-08-30 12:33:27] 	at com.dark.rs2.content.dialogue.OptionDialogue.clickButton(OptionDialogue.java:92)
[2016-08-30 12:33:27] 	at com.dark.rs2.entity.player.net.in.impl.ClickButtonPacket.handle(ClickButtonPacket.java:1152)
[2016-08-30 12:33:27] 	at com.dark.rs2.entity.player.net.in.PacketHandler.handlePacket(PacketHandler.java:151)
[2016-08-30 12:33:27] 	at com.dark.rs2.entity.player.net.Client.processIncomingPackets(Client.java:213)
[2016-08-30 12:33:27] 	at com.dark.rs2.entity.World.process(World.java:319)
[2016-08-30 12:33:27] 	at com.dark.core.GameThread.cycle(GameThread.java:124)
[2016-08-30 12:33:27] 	at com.dark.core.GameThread.run(GameThread.java:139)
[2016-08-30 13:01:46] java.lang.NullPointerException
[2016-08-30 13:01:46] 	at com.dark.rs2.entity.player.net.in.impl.StringInputPacket.handle(StringInputPacket.java:56)
[2016-08-30 13:01:46] 	at com.dark.rs2.entity.player.net.in.PacketHandler.handlePacket(PacketHandler.java:151)
[2016-08-30 13:01:46] 	at com.dark.rs2.entity.player.net.Client.processIncomingPackets(Client.java:213)
[2016-08-30 13:01:46] 	at com.dark.rs2.entity.World.process(World.java:319)
[2016-08-30 13:01:46] 	at com.dark.core.GameThread.cycle(GameThread.java:124)
[2016-08-30 13:01:46] 	at com.dark.core.GameThread.run(GameThread.java:139)
[2016-08-30 14:54:03] java.lang.NullPointerException
[2016-08-30 14:54:03] 	at com.dark.rs2.entity.player.Player.login(Player.java:1312)
[2016-08-30 14:54:03] 	at com.dark.core.LoginThread.cycle(LoginThread.java:41)
[2016-08-30 14:54:03] 	at com.dark.core.LoginThread.run(LoginThread.java:82)
[2016-08-30 14:54:14] java.lang.NullPointerException
[2016-08-30 14:54:14] 	at com.dark.rs2.entity.player.Player.login(Player.java:1312)
[2016-08-30 14:54:14] 	at com.dark.core.LoginThread.cycle(LoginThread.java:41)
[2016-08-30 14:54:14] 	at com.dark.core.LoginThread.run(LoginThread.java:82)
[2016-08-30 14:54:23] java.lang.NullPointerException
[2016-08-30 14:54:23] 	at com.dark.rs2.entity.player.Player.login(Player.java:1312)
[2016-08-30 14:54:23] 	at com.dark.core.LoginThread.cycle(LoginThread.java:41)
[2016-08-30 14:54:23] 	at com.dark.core.LoginThread.run(LoginThread.java:82)
[2016-08-30 14:54:36] java.lang.NullPointerException
[2016-08-30 14:54:36] 	at com.dark.rs2.entity.player.Player.login(Player.java:1312)
[2016-08-30 14:54:36] 	at com.dark.core.LoginThread.cycle(LoginThread.java:41)
[2016-08-30 14:54:36] 	at com.dark.core.LoginThread.run(LoginThread.java:82)
[2016-08-30 14:55:49] java.lang.NullPointerException
[2016-08-30 14:55:49] 	at com.dark.rs2.entity.player.Player.login(Player.java:1312)
[2016-08-30 14:55:49] 	at com.dark.core.LoginThread.cycle(LoginThread.java:41)
[2016-08-30 14:55:49] 	at com.dark.core.LoginThread.run(LoginThread.java:82)
[2016-08-30 14:56:22] java.lang.NullPointerException
[2016-08-30 14:56:22] 	at com.dark.rs2.entity.player.Player.login(Player.java:1312)
[2016-08-30 14:56:22] 	at com.dark.core.LoginThread.cycle(LoginThread.java:41)
[2016-08-30 14:56:22] 	at com.dark.core.LoginThread.run(LoginThread.java:82)
[2016-08-30 14:56:25] java.lang.NullPointerException
[2016-08-30 14:56:25] 	at com.dark.rs2.entity.player.Player.login(Player.java:1312)
[2016-08-30 14:56:25] 	at com.dark.core.LoginThread.cycle(LoginThread.java:41)
[2016-08-30 14:56:25] 	at com.dark.core.LoginThread.run(LoginThread.java:82)
[2016-08-30 14:56:33] java.lang.NullPointerException
[2016-08-30 14:56:34] 	at com.dark.rs2.entity.player.Player.login(Player.java:1312)
[2016-08-30 14:56:34] 	at com.dark.core.LoginThread.cycle(LoginThread.java:41)
[2016-08-30 14:56:34] 	at com.dark.core.LoginThread.run(LoginThread.java:82)
[2016-08-30 14:56:37] java.lang.NullPointerException
[2016-08-30 14:56:37] 	at com.dark.rs2.entity.player.Player.login(Player.java:1312)
[2016-08-30 14:56:37] 	at com.dark.core.LoginThread.cycle(LoginThread.java:41)
[2016-08-30 14:56:37] 	at com.dark.core.LoginThread.run(LoginThread.java:82)
[2016-08-30 14:56:48] java.lang.NullPointerException
[2016-08-30 14:56:48] 	at com.dark.rs2.entity.player.Player.login(Player.java:1312)
[2016-08-30 14:56:48] 	at com.dark.core.LoginThread.cycle(LoginThread.java:41)
[2016-08-30 14:56:48] 	at com.dark.core.LoginThread.run(LoginThread.java:82)
[2016-08-30 14:56:50] java.lang.NullPointerException
[2016-08-30 14:56:50] 	at com.dark.rs2.entity.player.Player.login(Player.java:1312)
[2016-08-30 14:56:50] 	at com.dark.core.LoginThread.cycle(LoginThread.java:41)
[2016-08-30 14:56:50] 	at com.dark.core.LoginThread.run(LoginThread.java:82)
[2016-08-30 14:56:51] java.lang.NullPointerException
[2016-08-30 14:56:51] 	at com.dark.rs2.entity.player.Player.login(Player.java:1312)
[2016-08-30 14:56:51] 	at com.dark.core.LoginThread.cycle(LoginThread.java:41)
[2016-08-30 14:56:51] 	at com.dark.core.LoginThread.run(LoginThread.java:82)
[2016-08-30 14:56:53] java.lang.NullPointerException
[2016-08-30 14:56:53] 	at com.dark.rs2.entity.player.Player.login(Player.java:1312)
[2016-08-30 14:56:53] 	at com.dark.core.LoginThread.cycle(LoginThread.java:41)
[2016-08-30 14:56:53] 	at com.dark.core.LoginThread.run(LoginThread.java:82)
[2016-08-30 14:56:55] java.lang.NullPointerException
[2016-08-30 14:56:55] 	at com.dark.rs2.entity.player.Player.login(Player.java:1312)
[2016-08-30 14:56:55] 	at com.dark.core.LoginThread.cycle(LoginThread.java:41)
[2016-08-30 14:56:55] 	at com.dark.core.LoginThread.run(LoginThread.java:82)
[2016-08-30 14:56:59] java.lang.NullPointerException
[2016-08-30 14:56:59] 	at com.dark.rs2.entity.player.Player.login(Player.java:1312)
[2016-08-30 14:56:59] 	at com.dark.core.LoginThread.cycle(LoginThread.java:41)
[2016-08-30 14:56:59] 	at com.dark.core.LoginThread.run(LoginThread.java:82)
[2016-08-30 14:57:11] java.lang.NullPointerException
[2016-08-30 14:57:11] 	at com.dark.rs2.entity.player.Player.login(Player.java:1312)
[2016-08-30 14:57:11] 	at com.dark.core.LoginThread.cycle(LoginThread.java:41)
[2016-08-30 14:57:11] 	at com.dark.core.LoginThread.run(LoginThread.java:82)
[2016-08-30 14:58:05] java.lang.NullPointerException
[2016-08-30 14:58:05] 	at com.dark.rs2.entity.player.Player.login(Player.java:1312)
[2016-08-30 14:58:05] 	at com.dark.core.LoginThread.cycle(LoginThread.java:41)
[2016-08-30 14:58:05] 	at com.dark.core.LoginThread.run(LoginThread.java:82)
[2016-08-30 14:58:28] java.lang.NullPointerException
[2016-08-30 14:58:28] 	at com.dark.rs2.entity.player.Player.login(Player.java:1312)
[2016-08-30 14:58:28] 	at com.dark.core.LoginThread.cycle(LoginThread.java:41)
[2016-08-30 14:58:28] 	at com.dark.core.LoginThread.run(LoginThread.java:82)
[2016-08-30 15:02:50] java.lang.NullPointerException
[2016-08-30 15:02:50] 	at com.dark.rs2.entity.player.Player.login(Player.java:1312)
[2016-08-30 15:02:50] 	at com.dark.core.LoginThread.cycle(LoginThread.java:41)
[2016-08-30 15:02:50] 	at com.dark.core.LoginThread.run(LoginThread.java:82)
[2016-08-30 15:54:37] java.lang.NullPointerException
[2016-08-30 15:54:37] 	at com.dark.rs2.entity.player.Player.login(Player.java:1312)
[2016-08-30 15:54:37] 	at com.dark.core.LoginThread.cycle(LoginThread.java:41)
[2016-08-30 15:54:37] 	at com.dark.core.LoginThread.run(LoginThread.java:82)
[2016-08-30 15:54:47] java.lang.NullPointerException
[2016-08-30 15:54:47] 	at com.dark.rs2.entity.player.Player.login(Player.java:1312)
[2016-08-30 15:54:47] 	at com.dark.core.LoginThread.cycle(LoginThread.java:41)
[2016-08-30 15:54:47] 	at com.dark.core.LoginThread.run(LoginThread.java:82)
[2016-08-30 16:02:41] java.lang.NullPointerException
[2016-08-30 16:02:41] 	at com.dark.rs2.entity.player.Player.login(Player.java:1312)
[2016-08-30 16:02:41] 	at com.dark.core.LoginThread.cycle(LoginThread.java:41)
[2016-08-30 16:02:41] 	at com.dark.core.LoginThread.run(LoginThread.java:82)
[2016-08-30 16:04:42] java.lang.NullPointerException
[2016-08-30 16:04:42] 	at com.dark.rs2.entity.player.Player.login(Player.java:1312)
[2016-08-30 16:04:42] 	at com.dark.core.LoginThread.cycle(LoginThread.java:41)
[2016-08-30 16:04:42] 	at com.dark.core.LoginThread.run(LoginThread.java:82)
[2016-08-30 17:13:51] java.lang.IndexOutOfBoundsException: Index: 4, Size: 4
[2016-08-30 17:13:51] 	at java.util.ArrayList.rangeCheck(Unknown Source)
[2016-08-30 17:13:51] 	at java.util.ArrayList.get(Unknown Source)
[2016-08-30 17:13:51] 	at com.dark.rs2.content.dialogue.OptionDialogue.execute(OptionDialogue.java:54)
[2016-08-30 17:13:51] 	at com.dark.rs2.content.dialogue.OptionDialogue.clickButton(OptionDialogue.java:92)
[2016-08-30 17:13:51] 	at com.dark.rs2.entity.player.net.in.impl.ClickButtonPacket.handle(ClickButtonPacket.java:1152)
[2016-08-30 17:13:51] 	at com.dark.rs2.entity.player.net.in.PacketHandler.handlePacket(PacketHandler.java:151)
[2016-08-30 17:13:51] 	at com.dark.rs2.entity.player.net.Client.processIncomingPackets(Client.java:213)
[2016-08-30 17:13:51] 	at com.dark.rs2.entity.World.process(World.java:319)
[2016-08-30 17:13:51] 	at com.dark.core.GameThread.cycle(GameThread.java:124)
[2016-08-30 17:13:51] 	at com.dark.core.GameThread.run(GameThread.java:139)
[2016-08-30 17:13:51] java.lang.IndexOutOfBoundsException: Index: 4, Size: 4
[2016-08-30 17:13:51] 	at java.util.ArrayList.rangeCheck(Unknown Source)
[2016-08-30 17:13:51] 	at java.util.ArrayList.get(Unknown Source)
[2016-08-30 17:13:51] 	at com.dark.rs2.content.dialogue.OptionDialogue.execute(OptionDialogue.java:54)
[2016-08-30 17:13:51] 	at com.dark.rs2.content.dialogue.OptionDialogue.clickButton(OptionDialogue.java:92)
[2016-08-30 17:13:51] 	at com.dark.rs2.entity.player.net.in.impl.ClickButtonPacket.handle(ClickButtonPacket.java:1152)
[2016-08-30 17:13:51] 	at com.dark.rs2.entity.player.net.in.PacketHandler.handlePacket(PacketHandler.java:151)
[2016-08-30 17:13:51] 	at com.dark.rs2.entity.player.net.Client.processIncomingPackets(Client.java:213)
[2016-08-30 17:13:51] 	at com.dark.rs2.entity.World.process(World.java:319)
[2016-08-30 17:13:51] 	at com.dark.core.GameThread.cycle(GameThread.java:124)
[2016-08-30 17:13:51] 	at com.dark.core.GameThread.run(GameThread.java:139)
[2016-08-30 17:13:51] java.lang.IndexOutOfBoundsException: Index: 4, Size: 4
[2016-08-30 17:13:51] 	at java.util.ArrayList.rangeCheck(Unknown Source)
[2016-08-30 17:13:51] 	at java.util.ArrayList.get(Unknown Source)
[2016-08-30 17:13:51] 	at com.dark.rs2.content.dialogue.OptionDialogue.execute(OptionDialogue.java:54)
[2016-08-30 17:13:51] 	at com.dark.rs2.content.dialogue.OptionDialogue.clickButton(OptionDialogue.java:92)
[2016-08-30 17:13:51] 	at com.dark.rs2.entity.player.net.in.impl.ClickButtonPacket.handle(ClickButtonPacket.java:1152)
[2016-08-30 17:13:51] 	at com.dark.rs2.entity.player.net.in.PacketHandler.handlePacket(PacketHandler.java:151)
[2016-08-30 17:13:51] 	at com.dark.rs2.entity.player.net.Client.processIncomingPackets(Client.java:213)
[2016-08-30 17:13:51] 	at com.dark.rs2.entity.World.process(World.java:319)
[2016-08-30 17:13:51] 	at com.dark.core.GameThread.cycle(GameThread.java:124)
[2016-08-30 17:13:51] 	at com.dark.core.GameThread.run(GameThread.java:139)
[2016-08-30 17:13:51] java.lang.IndexOutOfBoundsException: Index: 4, Size: 4
[2016-08-30 17:13:51] 	at java.util.ArrayList.rangeCheck(Unknown Source)
[2016-08-30 17:13:51] 	at java.util.ArrayList.get(Unknown Source)
[2016-08-30 17:13:51] 	at com.dark.rs2.content.dialogue.OptionDialogue.execute(OptionDialogue.java:54)
[2016-08-30 17:13:51] 	at com.dark.rs2.content.dialogue.OptionDialogue.clickButton(OptionDialogue.java:92)
[2016-08-30 17:13:51] 	at com.dark.rs2.entity.player.net.in.impl.ClickButtonPacket.handle(ClickButtonPacket.java:1152)
[2016-08-30 17:13:51] 	at com.dark.rs2.entity.player.net.in.PacketHandler.handlePacket(PacketHandler.java:151)
[2016-08-30 17:13:51] 	at com.dark.rs2.entity.player.net.Client.processIncomingPackets(Client.java:213)
[2016-08-30 17:13:51] 	at com.dark.rs2.entity.World.process(World.java:319)
[2016-08-30 17:13:51] 	at com.dark.core.GameThread.cycle(GameThread.java:124)
[2016-08-30 17:13:51] 	at com.dark.core.GameThread.run(GameThread.java:139)
[2016-08-30 17:21:06] java.lang.IndexOutOfBoundsException: Index: 4, Size: 4
[2016-08-30 17:21:06] 	at java.util.ArrayList.rangeCheck(Unknown Source)
[2016-08-30 17:21:06] 	at java.util.ArrayList.get(Unknown Source)
[2016-08-30 17:21:06] 	at com.dark.rs2.content.dialogue.OptionDialogue.execute(OptionDialogue.java:54)
[2016-08-30 17:21:06] 	at com.dark.rs2.content.dialogue.OptionDialogue.clickButton(OptionDialogue.java:92)
[2016-08-30 17:21:06] 	at com.dark.rs2.entity.player.net.in.impl.ClickButtonPacket.handle(ClickButtonPacket.java:1152)
[2016-08-30 17:21:06] 	at com.dark.rs2.entity.player.net.in.PacketHandler.handlePacket(PacketHandler.java:151)
[2016-08-30 17:21:06] 	at com.dark.rs2.entity.player.net.Client.processIncomingPackets(Client.java:213)
[2016-08-30 17:21:06] 	at com.dark.rs2.entity.World.process(World.java:319)
[2016-08-30 17:21:06] 	at com.dark.core.GameThread.cycle(GameThread.java:124)
[2016-08-30 17:21:06] 	at com.dark.core.GameThread.run(GameThread.java:139)
[2016-08-30 17:30:22] java.lang.IndexOutOfBoundsException: Index: 4, Size: 4
[2016-08-30 17:30:22] 	at java.util.ArrayList.rangeCheck(Unknown Source)
[2016-08-30 17:30:22] 	at java.util.ArrayList.get(Unknown Source)
[2016-08-30 17:30:22] 	at com.dark.rs2.content.dialogue.OptionDialogue.execute(OptionDialogue.java:54)
[2016-08-30 17:30:22] 	at com.dark.rs2.content.dialogue.OptionDialogue.clickButton(OptionDialogue.java:92)
[2016-08-30 17:30:22] 	at com.dark.rs2.entity.player.net.in.impl.ClickButtonPacket.handle(ClickButtonPacket.java:1152)
[2016-08-30 17:30:22] 	at com.dark.rs2.entity.player.net.in.PacketHandler.handlePacket(PacketHandler.java:151)
[2016-08-30 17:30:22] 	at com.dark.rs2.entity.player.net.Client.processIncomingPackets(Client.java:213)
[2016-08-30 17:30:22] 	at com.dark.rs2.entity.World.process(World.java:319)
[2016-08-30 17:30:22] 	at com.dark.core.GameThread.cycle(GameThread.java:124)
[2016-08-30 17:30:22] 	at com.dark.core.GameThread.run(GameThread.java:139)
[2016-08-30 17:30:23] java.lang.IndexOutOfBoundsException: Index: 4, Size: 4
[2016-08-30 17:30:23] 	at java.util.ArrayList.rangeCheck(Unknown Source)
[2016-08-30 17:30:23] 	at java.util.ArrayList.get(Unknown Source)
[2016-08-30 17:30:23] 	at com.dark.rs2.content.dialogue.OptionDialogue.execute(OptionDialogue.java:54)
[2016-08-30 17:30:23] 	at com.dark.rs2.content.dialogue.OptionDialogue.clickButton(OptionDialogue.java:92)
[2016-08-30 17:30:23] 	at com.dark.rs2.entity.player.net.in.impl.ClickButtonPacket.handle(ClickButtonPacket.java:1152)
[2016-08-30 17:30:23] 	at com.dark.rs2.entity.player.net.in.PacketHandler.handlePacket(PacketHandler.java:151)
[2016-08-30 17:30:23] 	at com.dark.rs2.entity.player.net.Client.processIncomingPackets(Client.java:213)
[2016-08-30 17:30:23] 	at com.dark.rs2.entity.World.process(World.java:319)
[2016-08-30 17:30:23] 	at com.dark.core.GameThread.cycle(GameThread.java:124)
[2016-08-30 17:30:23] 	at com.dark.core.GameThread.run(GameThread.java:139)
[2016-08-30 17:30:23] java.lang.IndexOutOfBoundsException: Index: 4, Size: 4
[2016-08-30 17:30:23] 	at java.util.ArrayList.rangeCheck(Unknown Source)
[2016-08-30 17:30:23] 	at java.util.ArrayList.get(Unknown Source)
[2016-08-30 17:30:23] 	at com.dark.rs2.content.dialogue.OptionDialogue.execute(OptionDialogue.java:54)
[2016-08-30 17:30:23] 	at com.dark.rs2.content.dialogue.OptionDialogue.clickButton(OptionDialogue.java:92)
[2016-08-30 17:30:23] 	at com.dark.rs2.entity.player.net.in.impl.ClickButtonPacket.handle(ClickButtonPacket.java:1152)
[2016-08-30 17:30:23] 	at com.dark.rs2.entity.player.net.in.PacketHandler.handlePacket(PacketHandler.java:151)
[2016-08-30 17:30:23] 	at com.dark.rs2.entity.player.net.Client.processIncomingPackets(Client.java:213)
[2016-08-30 17:30:23] 	at com.dark.rs2.entity.World.process(World.java:319)
[2016-08-30 17:30:23] 	at com.dark.core.GameThread.cycle(GameThread.java:124)
[2016-08-30 17:30:23] 	at com.dark.core.GameThread.run(GameThread.java:139)
[2016-08-30 17:41:15] java.lang.IndexOutOfBoundsException: Index: 4, Size: 4
[2016-08-30 17:41:15] 	at java.util.ArrayList.rangeCheck(Unknown Source)
[2016-08-30 17:41:15] 	at java.util.ArrayList.get(Unknown Source)
[2016-08-30 17:41:15] 	at com.dark.rs2.content.dialogue.OptionDialogue.execute(OptionDialogue.java:54)
[2016-08-30 17:41:15] 	at com.dark.rs2.content.dialogue.OptionDialogue.clickButton(OptionDialogue.java:92)
[2016-08-30 17:41:15] 	at com.dark.rs2.entity.player.net.in.impl.ClickButtonPacket.handle(ClickButtonPacket.java:1152)
[2016-08-30 17:41:15] 	at com.dark.rs2.entity.player.net.in.PacketHandler.handlePacket(PacketHandler.java:151)
[2016-08-30 17:41:15] 	at com.dark.rs2.entity.player.net.Client.processIncomingPackets(Client.java:213)
[2016-08-30 17:41:15] 	at com.dark.rs2.entity.World.process(World.java:319)
[2016-08-30 17:41:15] 	at com.dark.core.GameThread.cycle(GameThread.java:124)
[2016-08-30 17:41:15] 	at com.dark.core.GameThread.run(GameThread.java:139)
[2016-08-30 17:41:15] java.lang.IndexOutOfBoundsException: Index: 4, Size: 4
[2016-08-30 17:41:15] 	at java.util.ArrayList.rangeCheck(Unknown Source)
[2016-08-30 17:41:15] 	at java.util.ArrayList.get(Unknown Source)
[2016-08-30 17:41:15] 	at com.dark.rs2.content.dialogue.OptionDialogue.execute(OptionDialogue.java:54)
[2016-08-30 17:41:15] 	at com.dark.rs2.content.dialogue.OptionDialogue.clickButton(OptionDialogue.java:92)
[2016-08-30 17:41:15] 	at com.dark.rs2.entity.player.net.in.impl.ClickButtonPacket.handle(ClickButtonPacket.java:1152)
[2016-08-30 17:41:15] 	at com.dark.rs2.entity.player.net.in.PacketHandler.handlePacket(PacketHandler.java:151)
[2016-08-30 17:41:15] 	at com.dark.rs2.entity.player.net.Client.processIncomingPackets(Client.java:213)
[2016-08-30 17:41:15] 	at com.dark.rs2.entity.World.process(World.java:319)
[2016-08-30 17:41:15] 	at com.dark.core.GameThread.cycle(GameThread.java:124)
[2016-08-30 17:41:15] 	at com.dark.core.GameThread.run(GameThread.java:139)
[2016-08-30 17:41:15] java.lang.IndexOutOfBoundsException: Index: 4, Size: 4
[2016-08-30 17:41:15] 	at java.util.ArrayList.rangeCheck(Unknown Source)
[2016-08-30 17:41:15] 	at java.util.ArrayList.get(Unknown Source)
[2016-08-30 17:41:15] 	at com.dark.rs2.content.dialogue.OptionDialogue.execute(OptionDialogue.java:54)
[2016-08-30 17:41:15] 	at com.dark.rs2.content.dialogue.OptionDialogue.clickButton(OptionDialogue.java:92)
[2016-08-30 17:41:15] 	at com.dark.rs2.entity.player.net.in.impl.ClickButtonPacket.handle(ClickButtonPacket.java:1152)
[2016-08-30 17:41:15] 	at com.dark.rs2.entity.player.net.in.PacketHandler.handlePacket(PacketHandler.java:151)
[2016-08-30 17:41:15] 	at com.dark.rs2.entity.player.net.Client.processIncomingPackets(Client.java:213)
[2016-08-30 17:41:15] 	at com.dark.rs2.entity.World.process(World.java:319)
[2016-08-30 17:41:15] 	at com.dark.core.GameThread.cycle(GameThread.java:124)
[2016-08-30 17:41:15] 	at com.dark.core.GameThread.run(GameThread.java:139)
[2016-08-30 17:41:16] java.lang.IndexOutOfBoundsException: Index: 4, Size: 4
[2016-08-30 17:41:16] 	at java.util.ArrayList.rangeCheck(Unknown Source)
[2016-08-30 17:41:16] 	at java.util.ArrayList.get(Unknown Source)
[2016-08-30 17:41:16] 	at com.dark.rs2.content.dialogue.OptionDialogue.execute(OptionDialogue.java:54)
[2016-08-30 17:41:16] 	at com.dark.rs2.content.dialogue.OptionDialogue.clickButton(OptionDialogue.java:92)
[2016-08-30 17:41:16] 	at com.dark.rs2.entity.player.net.in.impl.ClickButtonPacket.handle(ClickButtonPacket.java:1152)
[2016-08-30 17:41:16] 	at com.dark.rs2.entity.player.net.in.PacketHandler.handlePacket(PacketHandler.java:151)
[2016-08-30 17:41:16] 	at com.dark.rs2.entity.player.net.Client.processIncomingPackets(Client.java:213)
[2016-08-30 17:41:16] 	at com.dark.rs2.entity.World.process(World.java:319)
[2016-08-30 17:41:16] 	at com.dark.core.GameThread.cycle(GameThread.java:124)
[2016-08-30 17:41:16] 	at com.dark.core.GameThread.run(GameThread.java:139)
[2016-08-30 17:41:16] java.lang.IndexOutOfBoundsException: Index: 4, Size: 4
[2016-08-30 17:41:16] 	at java.util.ArrayList.rangeCheck(Unknown Source)
[2016-08-30 17:41:16] 	at java.util.ArrayList.get(Unknown Source)
[2016-08-30 17:41:16] 	at com.dark.rs2.content.dialogue.OptionDialogue.execute(OptionDialogue.java:54)
[2016-08-30 17:41:16] 	at com.dark.rs2.content.dialogue.OptionDialogue.clickButton(OptionDialogue.java:92)
[2016-08-30 17:41:16] 	at com.dark.rs2.entity.player.net.in.impl.ClickButtonPacket.handle(ClickButtonPacket.java:1152)
[2016-08-30 17:41:16] 	at com.dark.rs2.entity.player.net.in.PacketHandler.handlePacket(PacketHandler.java:151)
[2016-08-30 17:41:16] 	at com.dark.rs2.entity.player.net.Client.processIncomingPackets(Client.java:213)
[2016-08-30 17:41:16] 	at com.dark.rs2.entity.World.process(World.java:319)
[2016-08-30 17:41:16] 	at com.dark.core.GameThread.cycle(GameThread.java:124)
[2016-08-30 17:41:16] 	at com.dark.core.GameThread.run(GameThread.java:139)
[2016-08-30 17:48:13] java.lang.IndexOutOfBoundsException: Index: 4, Size: 4
[2016-08-30 17:48:13] 	at java.util.ArrayList.rangeCheck(Unknown Source)
[2016-08-30 17:48:13] 	at java.util.ArrayList.get(Unknown Source)
[2016-08-30 17:48:13] 	at com.dark.rs2.content.dialogue.OptionDialogue.execute(OptionDialogue.java:54)
[2016-08-30 17:48:13] 	at com.dark.rs2.content.dialogue.OptionDialogue.clickButton(OptionDialogue.java:92)
[2016-08-30 17:48:13] 	at com.dark.rs2.entity.player.net.in.impl.ClickButtonPacket.handle(ClickButtonPacket.java:1152)
[2016-08-30 17:48:13] 	at com.dark.rs2.entity.player.net.in.PacketHandler.handlePacket(PacketHandler.java:151)
[2016-08-30 17:48:13] 	at com.dark.rs2.entity.player.net.Client.processIncomingPackets(Client.java:213)
[2016-08-30 17:48:13] 	at com.dark.rs2.entity.World.process(World.java:319)
[2016-08-30 17:48:13] 	at com.dark.core.GameThread.cycle(GameThread.java:124)
[2016-08-30 17:48:13] 	at com.dark.core.GameThread.run(GameThread.java:139)
[2016-08-30 17:54:57] java.lang.IndexOutOfBoundsException: Index: 4, Size: 4
[2016-08-30 17:54:57] 	at java.util.ArrayList.rangeCheck(Unknown Source)
[2016-08-30 17:54:57] 	at java.util.ArrayList.get(Unknown Source)
[2016-08-30 17:54:57] 	at com.dark.rs2.content.dialogue.OptionDialogue.execute(OptionDialogue.java:54)
[2016-08-30 17:54:57] 	at com.dark.rs2.content.dialogue.OptionDialogue.clickButton(OptionDialogue.java:92)
[2016-08-30 17:54:57] 	at com.dark.rs2.entity.player.net.in.impl.ClickButtonPacket.handle(ClickButtonPacket.java:1152)
[2016-08-30 17:54:57] 	at com.dark.rs2.entity.player.net.in.PacketHandler.handlePacket(PacketHandler.java:151)
[2016-08-30 17:54:57] 	at com.dark.rs2.entity.player.net.Client.processIncomingPackets(Client.java:213)
[2016-08-30 17:54:57] 	at com.dark.rs2.entity.World.process(World.java:319)
[2016-08-30 17:54:57] 	at com.dark.core.GameThread.cycle(GameThread.java:124)
[2016-08-30 17:54:57] 	at com.dark.core.GameThread.run(GameThread.java:139)
[2016-08-30 17:54:57] java.lang.IndexOutOfBoundsException: Index: 4, Size: 4
[2016-08-30 17:54:57] 	at java.util.ArrayList.rangeCheck(Unknown Source)
[2016-08-30 17:54:57] 	at java.util.ArrayList.get(Unknown Source)
[2016-08-30 17:54:57] 	at com.dark.rs2.content.dialogue.OptionDialogue.execute(OptionDialogue.java:54)
[2016-08-30 17:54:57] 	at com.dark.rs2.content.dialogue.OptionDialogue.clickButton(OptionDialogue.java:92)
[2016-08-30 17:54:57] 	at com.dark.rs2.entity.player.net.in.impl.ClickButtonPacket.handle(ClickButtonPacket.java:1152)
[2016-08-30 17:54:57] 	at com.dark.rs2.entity.player.net.in.PacketHandler.handlePacket(PacketHandler.java:151)
[2016-08-30 17:54:57] 	at com.dark.rs2.entity.player.net.Client.processIncomingPackets(Client.java:213)
[2016-08-30 17:54:57] 	at com.dark.rs2.entity.World.process(World.java:319)
[2016-08-30 17:54:57] 	at com.dark.core.GameThread.cycle(GameThread.java:124)
[2016-08-30 17:54:57] 	at com.dark.core.GameThread.run(GameThread.java:139)
[2016-08-30 17:54:57] java.lang.IndexOutOfBoundsException: Index: 4, Size: 4
[2016-08-30 17:54:57] 	at java.util.ArrayList.rangeCheck(Unknown Source)
[2016-08-30 17:54:57] 	at java.util.ArrayList.get(Unknown Source)
[2016-08-30 17:54:57] 	at com.dark.rs2.content.dialogue.OptionDialogue.execute(OptionDialogue.java:54)
[2016-08-30 17:54:57] 	at com.dark.rs2.content.dialogue.OptionDialogue.clickButton(OptionDialogue.java:92)
[2016-08-30 17:54:57] 	at com.dark.rs2.entity.player.net.in.impl.ClickButtonPacket.handle(ClickButtonPacket.java:1152)
[2016-08-30 17:54:57] 	at com.dark.rs2.entity.player.net.in.PacketHandler.handlePacket(PacketHandler.java:151)
[2016-08-30 17:54:57] 	at com.dark.rs2.entity.player.net.Client.processIncomingPackets(Client.java:213)
[2016-08-30 17:54:57] 	at com.dark.rs2.entity.World.process(World.java:319)
[2016-08-30 17:54:57] 	at com.dark.core.GameThread.cycle(GameThread.java:124)
[2016-08-30 17:54:57] 	at com.dark.core.GameThread.run(GameThread.java:139)
[2016-08-30 18:02:54] java.lang.IndexOutOfBoundsException: Index: 4, Size: 4
[2016-08-30 18:02:54] 	at java.util.ArrayList.rangeCheck(Unknown Source)
[2016-08-30 18:02:54] 	at java.util.ArrayList.get(Unknown Source)
[2016-08-30 18:02:54] 	at com.dark.rs2.content.dialogue.OptionDialogue.execute(OptionDialogue.java:54)
[2016-08-30 18:02:54] 	at com.dark.rs2.content.dialogue.OptionDialogue.clickButton(OptionDialogue.java:92)
[2016-08-30 18:02:54] 	at com.dark.rs2.entity.player.net.in.impl.ClickButtonPacket.handle(ClickButtonPacket.java:1152)
[2016-08-30 18:02:54] 	at com.dark.rs2.entity.player.net.in.PacketHandler.handlePacket(PacketHandler.java:151)
[2016-08-30 18:02:54] 	at com.dark.rs2.entity.player.net.Client.processIncomingPackets(Client.java:213)
[2016-08-30 18:02:54] 	at com.dark.rs2.entity.World.process(World.java:319)
[2016-08-30 18:02:54] 	at com.dark.core.GameThread.cycle(GameThread.java:124)
[2016-08-30 18:02:54] 	at com.dark.core.GameThread.run(GameThread.java:139)
[2016-08-30 18:02:54] java.lang.IndexOutOfBoundsException: Index: 4, Size: 4
[2016-08-30 18:02:54] 	at java.util.ArrayList.rangeCheck(Unknown Source)
[2016-08-30 18:02:54] 	at java.util.ArrayList.get(Unknown Source)
[2016-08-30 18:02:54] 	at com.dark.rs2.content.dialogue.OptionDialogue.execute(OptionDialogue.java:54)
[2016-08-30 18:02:54] 	at com.dark.rs2.content.dialogue.OptionDialogue.clickButton(OptionDialogue.java:92)
[2016-08-30 18:02:54] 	at com.dark.rs2.entity.player.net.in.impl.ClickButtonPacket.handle(ClickButtonPacket.java:1152)
[2016-08-30 18:02:54] 	at com.dark.rs2.entity.player.net.in.PacketHandler.handlePacket(PacketHandler.java:151)
[2016-08-30 18:02:54] 	at com.dark.rs2.entity.player.net.Client.processIncomingPackets(Client.java:213)
[2016-08-30 18:02:54] 	at com.dark.rs2.entity.World.process(World.java:319)
[2016-08-30 18:02:54] 	at com.dark.core.GameThread.cycle(GameThread.java:124)
[2016-08-30 18:02:54] 	at com.dark.core.GameThread.run(GameThread.java:139)
[2016-08-30 18:02:55] java.lang.IndexOutOfBoundsException: Index: 4, Size: 4
[2016-08-30 18:02:55] 	at java.util.ArrayList.rangeCheck(Unknown Source)
[2016-08-30 18:02:55] 	at java.util.ArrayList.get(Unknown Source)
[2016-08-30 18:02:55] 	at com.dark.rs2.content.dialogue.OptionDialogue.execute(OptionDialogue.java:54)
[2016-08-30 18:02:55] 	at com.dark.rs2.content.dialogue.OptionDialogue.clickButton(OptionDialogue.java:92)
[2016-08-30 18:02:55] 	at com.dark.rs2.entity.player.net.in.impl.ClickButtonPacket.handle(ClickButtonPacket.java:1152)
[2016-08-30 18:02:55] 	at com.dark.rs2.entity.player.net.in.PacketHandler.handlePacket(PacketHandler.java:151)
[2016-08-30 18:02:55] 	at com.dark.rs2.entity.player.net.Client.processIncomingPackets(Client.java:213)
[2016-08-30 18:02:55] 	at com.dark.rs2.entity.World.process(World.java:319)
[2016-08-30 18:02:55] 	at com.dark.core.GameThread.cycle(GameThread.java:124)
[2016-08-30 18:02:55] 	at com.dark.core.GameThread.run(GameThread.java:139)
[2016-08-30 18:02:55] java.lang.IndexOutOfBoundsException: Index: 4, Size: 4
[2016-08-30 18:02:55] 	at java.util.ArrayList.rangeCheck(Unknown Source)
[2016-08-30 18:02:55] 	at java.util.ArrayList.get(Unknown Source)
[2016-08-30 18:02:55] 	at com.dark.rs2.content.dialogue.OptionDialogue.execute(OptionDialogue.java:54)
[2016-08-30 18:02:55] 	at com.dark.rs2.content.dialogue.OptionDialogue.clickButton(OptionDialogue.java:92)
[2016-08-30 18:02:55] 	at com.dark.rs2.entity.player.net.in.impl.ClickButtonPacket.handle(ClickButtonPacket.java:1152)
[2016-08-30 18:02:55] 	at com.dark.rs2.entity.player.net.in.PacketHandler.handlePacket(PacketHandler.java:151)
[2016-08-30 18:02:55] 	at com.dark.rs2.entity.player.net.Client.processIncomingPackets(Client.java:213)
[2016-08-30 18:02:55] 	at com.dark.rs2.entity.World.process(World.java:319)
[2016-08-30 18:02:55] 	at com.dark.core.GameThread.cycle(GameThread.java:124)
[2016-08-30 18:02:55] 	at com.dark.core.GameThread.run(GameThread.java:139)
[2016-08-30 18:02:55] java.lang.IndexOutOfBoundsException: Index: 4, Size: 4
[2016-08-30 18:02:55] 	at java.util.ArrayList.rangeCheck(Unknown Source)
[2016-08-30 18:02:55] 	at java.util.ArrayList.get(Unknown Source)
[2016-08-30 18:02:55] 	at com.dark.rs2.content.dialogue.OptionDialogue.execute(OptionDialogue.java:54)
[2016-08-30 18:02:55] 	at com.dark.rs2.content.dialogue.OptionDialogue.clickButton(OptionDialogue.java:92)
[2016-08-30 18:02:55] 	at com.dark.rs2.entity.player.net.in.impl.ClickButtonPacket.handle(ClickButtonPacket.java:1152)
[2016-08-30 18:02:55] 	at com.dark.rs2.entity.player.net.in.PacketHandler.handlePacket(PacketHandler.java:151)
[2016-08-30 18:02:55] 	at com.dark.rs2.entity.player.net.Client.processIncomingPackets(Client.java:213)
[2016-08-30 18:02:55] 	at com.dark.rs2.entity.World.process(World.java:319)
[2016-08-30 18:02:55] 	at com.dark.core.GameThread.cycle(GameThread.java:124)
[2016-08-30 18:02:55] 	at com.dark.core.GameThread.run(GameThread.java:139)
[2016-08-30 19:48:54] java.lang.NullPointerException
[2016-08-30 19:48:54] 	at com.dark.rs2.content.combat.formula.MagicFormulas.getEffectiveMagicAccuracy(MagicFormulas.java:38)
[2016-08-30 19:48:54] 	at com.dark.rs2.content.combat.formula.MagicFormulas.getMagicAttackRoll(MagicFormulas.java:53)
[2016-08-30 19:48:54] 	at com.dark.rs2.content.combat.impl.Magic.finish(Magic.java:74)
[2016-08-30 19:48:54] 	at com.dark.rs2.content.combat.impl.Magic.execute(Magic.java:67)
[2016-08-30 19:48:54] 	at com.dark.rs2.content.combat.Combat.attack(Combat.java:87)
[2016-08-30 19:48:54] 	at com.dark.rs2.content.combat.Combat.process(Combat.java:215)
[2016-08-30 19:48:54] 	at com.dark.rs2.entity.player.Player.process(Player.java:1662)
[2016-08-30 19:48:54] 	at com.dark.rs2.entity.World.process(World.java:321)
[2016-08-30 19:48:54] 	at com.dark.core.GameThread.cycle(GameThread.java:124)
[2016-08-30 19:48:54] 	at com.dark.core.GameThread.run(GameThread.java:139)
[2016-08-30 19:48:54] java.lang.NullPointerException
[2016-08-30 19:48:54] 	at com.dark.rs2.entity.player.net.Client.send(Client.java:331)
[2016-08-30 19:48:54] 	at com.dark.rs2.entity.player.net.out.impl.SendLogout.execute(SendLogout.java:13)
[2016-08-30 19:48:54] 	at com.dark.rs2.entity.player.Player.logout(Player.java:1588)
[2016-08-30 19:48:54] 	at com.dark.rs2.entity.World.process(World.java:334)
[2016-08-30 19:48:54] 	at com.dark.core.GameThread.cycle(GameThread.java:124)
[2016-08-30 19:48:54] 	at com.dark.core.GameThread.run(GameThread.java:139)
[2016-08-30 21:09:11] java.lang.NullPointerException
[2016-08-30 21:09:11] 	at com.dark.rs2.content.DropTable.displayNpc(DropTable.java:177)
[2016-08-30 21:09:11] 	at com.dark.rs2.entity.player.net.in.impl.ClickButtonPacket.handle(ClickButtonPacket.java:124)
[2016-08-30 21:09:11] 	at com.dark.rs2.entity.player.net.in.PacketHandler.handlePacket(PacketHandler.java:151)
[2016-08-30 21:09:11] 	at com.dark.rs2.entity.player.net.Client.processIncomingPackets(Client.java:213)
[2016-08-30 21:09:11] 	at com.dark.rs2.entity.World.process(World.java:319)
[2016-08-30 21:09:11] 	at com.dark.core.GameThread.cycle(GameThread.java:124)
[2016-08-30 21:09:11] 	at com.dark.core.GameThread.run(GameThread.java:139)
[2016-08-30 21:19:18] hit=5
[2016-08-30 21:19:22] hit=8
[2016-08-30 21:19:27] hit=59
[2016-08-30 21:19:31] hit=88
[2016-08-30 21:19:35] hit=12
[2016-08-30 21:19:39] hit=55
[2016-08-30 21:24:16] hit=33
[2016-08-30 21:24:21] hit=21
[2016-08-30 21:24:25] hit=19
[2016-08-30 21:24:29] hit=49
[2016-08-30 21:28:28] hit=34
[2016-08-30 21:28:32] hit=60
[2016-08-30 21:28:37] hit=38
[2016-08-30 21:28:41] hit=19
[2016-08-30 21:32:55] hit=27
[2016-08-30 21:32:59] hit=34
[2016-08-30 21:33:03] hit=11
[2016-08-30 21:33:07] hit=37
[2016-08-30 21:33:12] hit=80
[2016-08-30 21:33:16] hit=61
[2016-08-30 21:33:20] hit=8
[2016-08-30 21:39:23] hit=41
[2016-08-30 21:39:27] hit=65
[2016-08-30 21:39:31] hit=52
[2016-08-30 21:44:06] hit=60
[2016-08-30 21:44:10] hit=80
[2016-08-30 21:44:14] hit=28
[2016-08-30 21:44:18] hit=7
[2016-08-30 21:49:36] hit=32
[2016-08-30 21:49:40] hit=6
[2016-08-30 21:49:44] hit=64
[2016-08-30 21:49:48] hit=99
[2016-08-30 21:49:52] hit=28
[2016-08-30 21:53:33] hit=1
[2016-08-30 21:53:37] hit=18
[2016-08-30 21:53:41] hit=96
[2016-08-30 21:53:45] hit=102
