{
  "essAmount": 0,
  "username": "612",
  "password": "oscarstinks39",
  "x": 3429,
  "y": 2892,
  "z": 0,
  "rights": 11,
  "lastKnownUID": "1038119083568766413",
  "cluesCompleted": [
    0,
    0,
    0,
    0
  ],
  "yellTitle": "Member",
  "unlockedTitles": [],
  "banned": false,
  "banLength": 0,
  "moneyPouch": 0,
  "jailLength": 0,
  "shopCollection": 0,
  "lastClanChat": "help",
  "muted": false,
  "isMember": false,
  "isDicer": false,
  "isIron": true,
  "isUltimateIron": false,
  "jailed": false,
  "muteLength": 0,
  "fightCavesWave": 0,
  "magicBook": 1151,
  "prayerBook": 5608,
  "retaliate": true,
  "expLock": false,
  "gwkc": [
    0,
    0,
    0,
    0
  ],
  "poisoned": false,
  "poisonDmg": 0,
  "slayerTask": "Dust devil",
  "slayerAmount": 40,
  "slayerDifficulty": "HIGH",
  "skillsLevel": [
    99,
    99,
    99,
    90,
    70,
    47,
    1,
    81,
    72,
    42,
    81,
    1,
    84,
    60,
    52,
    63,
    52,
    99,
    86,
    55,
    1,
    1,
    84,
    1,
    1
  ],
  "experience": [
    3.9988533333333336E7,
    1.4117333333333332E7,
    2.1874133333333336E7,
    2.5491934E7,
    752400.0,
    78412.5,
    0.0,
    2349060.0,
    941875.0,
    50180.0,
    2232120.0,
    0.0,
    2980262.25,
    287340.0,
    124250.0,
    394485.0,
    128649.99952316284,
    1.3324E7,
    3865392.0,
    174002.5,
    0.0,
    0.0,
    2992314.0,
    0.0,
    0.0
  ],
  "gender": 0,
  "appearance": [
    2,
    18,
    26,
    34,
    37,
    42,
    11
  ],
  "colours": [
    1,
    1,
    2,
    5,
    1
  ],
  "left": 0,
  "skullIcon": -1,
  "bright": 4,
  "multipleMouse": 0,
  "chatEffects": 0,
  "splitPrivate": 1,
  "transparentPanel": 0,
  "transparentChatbox": 0,
  "sideStones": 0,
  "acceptAid": 0,
  "pouchPayment": false,
  "friends": [
    "ult dbz",
    "dbz",
    "goten",
    "iron pfraru",
    "eirik",
    "stefanos"
  ],
  "ignores": [],
  "yearCreated": 2016,
  "dayCreated": 195,
  "recoilStage": -1,
  "spec": 95,
  "attackStyle": "ACCURATE",
  "attackType": "SLASH",
  "energy": 100.0,
  "lastLoginDay": 211,
  "lastLoginYear": 0,
  "host": "63.231.146.73",
  "votePoints": 1,
  "degrading": [
    null,
    null,
    null,
    null,
    null,
    null,
    null,
    null,
    null,
    null,
    null,
    null,
    null,
    null,
    null,
    null,
    null,
    null,
    null,
    null,
    null,
    null,
    null,
    null,
    null,
    null,
    null,
    null,
    null,
    null,
    null,
    null,
    null,
    null,
    null,
    null,
    null,
    null,
    null,
    null,
    null,
    null,
    null,
    null,
    null,
    null,
    null,
    null,
    null,
    null
  ],
  "dragonFireShieldCharges": 0,
  "slayerPoints": 75,
  "musicVolume": 3,
  "soundVolume": 3,
  "savedArrows": [
    null,
    null,
    null,
    null,
    null,
    null,
    null,
    null,
    null,
    null,
    null,
    null,
    null,
    null,
    null,
    null,
    null,
    null,
    null,
    null,
    null,
    null,
    null,
    null,
    null,
    null,
    null,
    null,
    null,
    null,
    null,
    null,
    null,
    null,
    null,
    null,
    null,
    null,
    null,
    null
  ],
  "wantsTrivia": true,
  "triviaNotification": false,
  "deaths": 0,
  "kills": 0,
  "rogueKills": 0,
  "rogueRecord": 0,
  "hunterKills": 0,
  "hunterRecord": 0,
  "credits": 0,
  "moneySpent": 0,
  "bountyPoints": 0,
  "lastLike": 0,
  "likesGiven": 0,
  "likes": 0,
  "dislikes": 0,
  "profileViews": 0,
  "fullName": "",
  "IP": "",
  "emailAddress": "",
  "recovery": "",
  "running": true,
  "logPackets": false,
  "weaponPoints": 0,
  "summoningTime": -1,
  "summoningSpecialAmount": 60,
  "summoningFamiliar": -1,
  "summoningAttack": false,
  "pestPoints": 40,
  "triviaPoints": 6,
  "abyssalPoints": 0,
  "teleblockTime": 0,
  "blackMarks": 0,
  "rareDropEP": 4.591,
  "rareDropsReceived": 122,
  "skillGoals": [
    [
      0,
      0,
      0
    ],
    [
      0,
      0,
      0
    ],
    [
      0,
      0,
      0
    ],
    [
      0,
      0,
      0
    ],
    [
      0,
      0,
      0
    ],
    [
      0,
      0,
      0
    ],
    [
      0,
      0,
      0
    ],
    [
      0,
      0,
      0
    ],
    [
      0,
      0,
      0
    ],
    [
      0,
      0,
      0
    ],
    [
      0,
      0,
      0
    ],
    [
      0,
      0,
      0
    ],
    [
      0,
      0,
      0
    ],
    [
      0,
      0,
      0
    ],
    [
      0,
      0,
      0
    ],
    [
      0,
      0,
      0
    ],
    [
      0,
      0,
      0
    ],
    [
      0,
      0,
      0
    ],
    [
      0,
      0,
      0
    ],
    [
      0,
      0,
      0
    ],
    [
      0,
      0,
      0
    ],
    [
      0,
      0,
      0
    ],
    [
      0,
      0,
      0
    ],
    [
      0,
      0,
      0
    ],
    [
      0,
      0,
      0
    ],
    [
      0,
      0,
      0
    ]
  ],
  "lastKilledPlayers": [],
  "playerAchievements": {
    "USE_THE_SUPER_HEATING_SPELL_25_TIMES": 0,
    "DIE_50_TIME": 0,
    "COMPLETE_10_SLAYER_TASKS": 10,
    "FAIL_15_TIMES_THIEVING_STALLS": 0,
    "KILL_10_MITH": 0,
    "VIEW_TABLE": 1,
    "BURN_500_LOGS": 0,
    "MINE_500_ROCKS": 85,
    "EAT_100_FOODS": 100,
    "OPEN_5_MBOX": 3,
    "KILL_75_COWS": 27,
    "OBTAIN_10_RARE_DROPS": 0,
    "KILL_1_PLAYER": 0,
    "KILL_1_GORILLA": 0,
    "KILL_ROCK_CRABS": 18,
    "EQUIP_DRAGON_CLAWS": 0,
    "ANSWER_15_TRIVIABOTS_CORRECTLY": 14,
    "CHOP_DOWN_350_TREES": 80,
    "RESET_1_STATISTICS": 0,
    "BURN_200_LOGS": 0,
    "COMPLETE_100_SLAYER_TASKS": 19,
    "OBTAIN_1_BOSS_PET": 1,
    "DIE_10_TIME": 0,
    "OBTAIN_25_FIRECAPES": 1,
    "STRING_50_AMULETS": 0,
    "KILL_100_ZULRAHS": 0,
    "KILL_100_CALLISTO": 0,
    "SETUP_A_BANK_PIN": 0,
    "COMPLETE_100_BARB_COURSES": 5,
    "KILL_250_SKELETAL_WYVERNS": 0,
    "CRAFT_1000_NATURE_RUNES": 0,
    "DRINK_100_POTIONS": 100,
    "DIE_1_TIME": 0,
    "SPEND_5000000_ON_SHOPS": 746908,
    "COOK_250_FOODS": 250,
    "BURY_500_BONES": 10,
    "KILL_50_PLAYER": 0,
    "KILL_KING_BLACK_DRAGON": 0,
    "CUT_250_GEMS": 250,
    "KILL_100_CYCLOPS": 62,
    "WIN_30_PEST_CONTROL_GAMES": 4,
    "BURY_150_BONES": 10,
    "EXCHANGE_500_ITEMS_PILES": 0,
    "SPEND_100000000_ON_SHOPS": 746908,
    "OPEN_50_CRYSTAL_CHESTS": 50,
    "KILL_15_PLAYER": 0,
    "VISIT_DZ": 0,
    "CAST_VENGEANCE_350_TIMES": 0,
    "SHEAR_10_SHEEPS": 0,
    "HIGH_ALCH_250_ITEMS": 0,
    "ANSWER_30_TRIVIABOTS_CORRECTLY": 14,
    "OBTAIN_3_BOSS_PET": 1,
    "CHANGE_APPEARANCE": 1,
    "CHOP_DOWN_150_TREES": 80,
    "KILL_150_KRAKENS": 0,
    "KILL_25_KRAKENS": 0,
    "EARN_500_PEST_CONTROL_POINTS": 40,
    "SHEAR_150_SHEEPS": 0,
    "COMPLETE_50_GNOME_COURSES": 6,
    "CATCH_25_IMPLINGS": 25,
    "ENCHANT_500_BOLTS": 0,
    "OBTAIN_10_FIRECAPES": 1,
    "OPEN_15_ITEM_SETS": 0,
    "EARN_100_PEST_CONTROL_POINTS": 40,
    "THIEVE_100_TIMES_FROM_STALLS": 0,
    "VOTE_5_TIMES": 1,
    "COOK_500_FOODS": 500,
    "DO_A_SKILLCAPE_EMOTE": 0,
    "OPEN_10_CASKET": 2,
    "CATCH_100_IMPLINGS": 100,
    "OPEN_25_MBOX": 3
  },
  "achievementsPoints": 20,
  "unlockedCredits": [],
  "quickPrayers": [
    false,
    false,
    false,
    false,
    false,
    false,
    false,
    false,
    false,
    false,
    false,
    false,
    false,
    false,
    false,
    false,
    false,
    false,
    true,
    false,
    false,
    false,
    false,
    false,
    false,
    false
  ],
  "LastLoginYear": 0,
  "LastLoginMonth": 0,
  "LastLoginDate": 0,
  "LoginStreak": 0,
  "playerProperties": {
    "PROPERTY_MOB_GIANT_MOLE": 0.0,
    "PROPERTY_MOB_KREE\u0027ARRA": 0.0,
    "PROPERTY_MOB_SEA_TROLL_QUEEN": 0.0,
    "PROPERTY_MOB_TZTOK-JAD": 1.0,
    "PROPERTY_MOB_ABYSSAL_DEMON": 38.0,
    "PROPERTY_MOB_ZULRAH": 0.0,
    "PROPERTY_MOB_COMMANDER_ZILYANA": 0.0,
    "PROPERTY_MOB_DAGANNOTH_SUPREME": 0.0,
    "PROPERTY_MOB_CRAZY_ARCHAEOLOGIST": 0.0,
    "PROPERTY_MOB_KING_BLACK_DRAGON": 0.0,
    "PROPERTY_MOB_CHAOS_ELEMENTAL": 0.0,
    "PROPERTY_MOB_DARK_BEAST": 0.0,
    "PROPERTY_MOB_DAGANNOTH_REX": 0.0,
    "PROPERTY_MOB_CORPOREAL_BEAST": 0.0,
    "PROPERTY_MOB_K\u0027RIL_TSUTSAROTH": 0.0,
    "PROPERTY_MOB_VENENATIS": 0.0,
    "PROPERTY_MOB_CALLISTO": 0.0,
    "PROPERTY_MOB_VET\u0027ION_REBORN": 0.0,
    "PROPERTY_MOB_GENERAL_GRAARDOR": 0.0,
    "PROPERTY_MOB_DAGANNOTH_PRIME": 0.0,
    "PROPERTY_MOB_ANCIENT_GORILLA": 0.0,
    "PROPERTY_MOB_NECHRYAEL": 41.0,
    "PROPERTY_MOB_KRAKEN": 0.0,
    "PROPERTY_MOB_SCORPIA": 0.0,
    "PROPERTY_MOB_CHAOS_FANATIC": 0.0,
    "PROPERTY_BARROWS_BARROWS_CHESTS": 0.0,
    "PROPERTY_MOB_BARRELCHEST": 0.0
  },
  "expCounter": 4.8803386E7,
  "prestigePoints": 0,
  "prestiges": [
    0,
    0,
    0,
    0,
    0,
    0,
    0,
    0,
    0,
    0,
    0,
    0,
    0,
    0,
    0,
    0,
    0,
    0,
    0,
    0,
    0,
    0,
    0,
    0,
    0
  ],
  "blowpipe": {
    "blowpipeCharge": 0
  },
  "seasTrident": {
    "tridentCharge": 0
  },
  "swampTrident": {
    "tridentCharge": 0
  },
  "serpentineHelmet": {
    "charges": 0
  }
}