{
  "essAmount": 0,
  "username": "Austin6661",
  "password": "tinyanus6661",
  "x": 3427,
  "y": 2891,
  "z": 0,
  "rights": 0,
  "lastKnownUID": "-251165161740064927",
  "cluesCompleted": [
    0,
    0,
    2,
    0
  ],
  "yellTitle": "Member",
  "unlockedTitles": [],
  "banned": false,
  "banLength": 0,
  "moneyPouch": 0,
  "jailLength": 0,
  "shopCollection": 0,
  "lastClanChat": "help",
  "muted": false,
  "isMember": false,
  "isDicer": false,
  "isIron": false,
  "isUltimateIron": false,
  "jailed": false,
  "muteLength": 0,
  "fightCavesWave": 0,
  "magicBook": 1151,
  "prayerBook": 5608,
  "retaliate": true,
  "expLock": false,
  "gwkc": [
    0,
    0,
    0,
    0
  ],
  "poisoned": false,
  "poisonDmg": 0,
  "slayerTask": "Gargoyle",
  "slayerAmount": 20,
  "slayerDifficulty": "HIGH",
  "skillsLevel": [
    99,
    99,
    99,
    99,
    99,
    71,
    71,
    1,
    1,
    1,
    1,
    1,
    1,
    1,
    1,
    2,
    55,
    62,
    82,
    1,
    1,
    1,
    1,
    1,
    1
  ],
  "experience": [
    1.3082133333333336E7,
    1.3270653333333332E7,
    1.5690133333333332E7,
    2.8605198E7,
    4.892228E7,
    871887.5,
    841648.5000000024,
    0.0,
    0.0,
    0.0,
    0.0,
    0.0,
    0.0,
    0.0,
    0.0,
    105.0,
    179449.99904632568,
    342250.0,
    2429856.0,
    0.0,
    0.0,
    0.0,
    0.0,
    0.0,
    0.0
  ],
  "gender": 0,
  "appearance": [
    3,
    18,
    26,
    34,
    38,
    42,
    14
  ],
  "colours": [
    9,
    10,
    6,
    3,
    7
  ],
  "left": 0,
  "skullIcon": -1,
  "bright": 4,
  "multipleMouse": 0,
  "chatEffects": 0,
  "splitPrivate": 1,
  "transparentPanel": 0,
  "transparentChatbox": 0,
  "sideStones": 0,
  "acceptAid": 0,
  "pouchPayment": false,
  "friends": [
    "natsu5623"
  ],
  "ignores": [],
  "yearCreated": 2016,
  "dayCreated": 191,
  "recoilStage": 29,
  "spec": 85,
  "attackStyle": "AGGRESSIVE",
  "attackType": "CRUSH",
  "energy": 100.0,
  "lastLoginDay": 212,
  "lastLoginYear": 0,
  "host": "71.28.122.100",
  "votePoints": 0,
  "degrading": [
    null,
    null,
    null,
    null,
    null,
    null,
    null,
    null,
    null,
    null,
    null,
    null,
    null,
    null,
    null,
    null,
    null,
    null,
    null,
    null,
    null,
    null,
    null,
    null,
    null,
    null,
    null,
    null,
    null,
    null,
    null,
    null,
    null,
    null,
    null,
    null,
    null,
    null,
    null,
    null,
    null,
    null,
    null,
    null,
    null,
    null,
    null,
    null,
    null,
    null
  ],
  "dragonFireShieldCharges": 0,
  "slayerPoints": 28,
  "musicVolume": 3,
  "soundVolume": 3,
  "savedArrows": [
    null,
    null,
    null,
    null,
    null,
    null,
    null,
    null,
    null,
    null,
    null,
    null,
    null,
    null,
    null,
    null,
    null,
    null,
    null,
    null,
    null,
    null,
    null,
    null,
    null,
    null,
    null,
    null,
    null,
    null,
    null,
    null,
    null,
    null,
    null,
    null,
    null,
    null,
    null,
    null
  ],
  "wantsTrivia": true,
  "triviaNotification": false,
  "deaths": 0,
  "kills": 0,
  "rogueKills": 0,
  "rogueRecord": 0,
  "hunterKills": 0,
  "hunterRecord": 0,
  "credits": 0,
  "moneySpent": 0,
  "bountyPoints": 200000,
  "lastLike": 0,
  "likesGiven": 0,
  "likes": 0,
  "dislikes": 0,
  "profileViews": 0,
  "fullName": "",
  "IP": "",
  "emailAddress": "",
  "recovery": "",
  "running": true,
  "logPackets": false,
  "weaponPoints": 0,
  "summoningTime": -1,
  "summoningSpecialAmount": 60,
  "summoningFamiliar": -1,
  "summoningAttack": false,
  "pestPoints": 25,
  "triviaPoints": 0,
  "abyssalPoints": 1210,
  "teleblockTime": 0,
  "blackMarks": 0,
  "rareDropEP": 0.7925,
  "rareDropsReceived": 66,
  "skillGoals": [
    [
      0,
      0,
      0
    ],
    [
      0,
      0,
      0
    ],
    [
      0,
      0,
      0
    ],
    [
      0,
      0,
      0
    ],
    [
      0,
      0,
      0
    ],
    [
      0,
      0,
      0
    ],
    [
      0,
      0,
      0
    ],
    [
      0,
      0,
      0
    ],
    [
      0,
      0,
      0
    ],
    [
      0,
      0,
      0
    ],
    [
      0,
      0,
      0
    ],
    [
      0,
      0,
      0
    ],
    [
      0,
      0,
      0
    ],
    [
      0,
      0,
      0
    ],
    [
      0,
      0,
      0
    ],
    [
      0,
      0,
      0
    ],
    [
      0,
      0,
      0
    ],
    [
      0,
      0,
      0
    ],
    [
      0,
      0,
      0
    ],
    [
      0,
      0,
      0
    ],
    [
      0,
      0,
      0
    ],
    [
      0,
      0,
      0
    ],
    [
      0,
      0,
      0
    ],
    [
      0,
      0,
      0
    ],
    [
      0,
      0,
      0
    ],
    [
      0,
      0,
      0
    ]
  ],
  "lastKilledPlayers": [],
  "playerAchievements": {
    "USE_THE_SUPER_HEATING_SPELL_25_TIMES": 0,
    "DIE_50_TIME": 4,
    "COMPLETE_10_SLAYER_TASKS": 8,
    "FAIL_15_TIMES_THIEVING_STALLS": 0,
    "KILL_10_MITH": 0,
    "VIEW_TABLE": 1,
    "BURN_500_LOGS": 0,
    "MINE_500_ROCKS": 0,
    "EAT_100_FOODS": 100,
    "OPEN_5_MBOX": 3,
    "KILL_75_COWS": 0,
    "OBTAIN_10_RARE_DROPS": 0,
    "KILL_1_PLAYER": 0,
    "KILL_1_GORILLA": 0,
    "KILL_ROCK_CRABS": 48,
    "EQUIP_DRAGON_CLAWS": 0,
    "ANSWER_15_TRIVIABOTS_CORRECTLY": 0,
    "CHOP_DOWN_350_TREES": 0,
    "RESET_1_STATISTICS": 0,
    "BURN_200_LOGS": 0,
    "COMPLETE_100_SLAYER_TASKS": 8,
    "OBTAIN_1_BOSS_PET": 0,
    "DIE_10_TIME": 4,
    "OBTAIN_25_FIRECAPES": 2,
    "STRING_50_AMULETS": 0,
    "KILL_100_ZULRAHS": 1,
    "KILL_100_CALLISTO": 0,
    "SETUP_A_BANK_PIN": 1,
    "COMPLETE_100_BARB_COURSES": 10,
    "KILL_250_SKELETAL_WYVERNS": 0,
    "CRAFT_1000_NATURE_RUNES": 0,
    "DRINK_100_POTIONS": 100,
    "DIE_1_TIME": 1,
    "SPEND_5000000_ON_SHOPS": 2643855,
    "COOK_250_FOODS": 0,
    "BURY_500_BONES": 32,
    "KILL_50_PLAYER": 0,
    "KILL_KING_BLACK_DRAGON": 0,
    "CUT_250_GEMS": 0,
    "KILL_100_CYCLOPS": 69,
    "WIN_30_PEST_CONTROL_GAMES": 26,
    "BURY_150_BONES": 32,
    "EXCHANGE_500_ITEMS_PILES": 0,
    "SPEND_100000000_ON_SHOPS": 2643855,
    "OPEN_50_CRYSTAL_CHESTS": 40,
    "KILL_15_PLAYER": 0,
    "VISIT_DZ": 0,
    "CAST_VENGEANCE_350_TIMES": 0,
    "SHEAR_10_SHEEPS": 0,
    "HIGH_ALCH_250_ITEMS": 150,
    "ANSWER_30_TRIVIABOTS_CORRECTLY": 0,
    "OBTAIN_3_BOSS_PET": 0,
    "CHANGE_APPEARANCE": 1,
    "CHOP_DOWN_150_TREES": 0,
    "KILL_150_KRAKENS": 0,
    "KILL_25_KRAKENS": 0,
    "EARN_500_PEST_CONTROL_POINTS": 20,
    "SHEAR_150_SHEEPS": 0,
    "COMPLETE_50_GNOME_COURSES": 3,
    "CATCH_25_IMPLINGS": 0,
    "ENCHANT_500_BOLTS": 0,
    "OBTAIN_10_FIRECAPES": 2,
    "OPEN_15_ITEM_SETS": 0,
    "EARN_100_PEST_CONTROL_POINTS": 20,
    "THIEVE_100_TIMES_FROM_STALLS": 0,
    "VOTE_5_TIMES": 0,
    "COOK_500_FOODS": 0,
    "DO_A_SKILLCAPE_EMOTE": 0,
    "OPEN_10_CASKET": 4,
    "CATCH_100_IMPLINGS": 0,
    "OPEN_25_MBOX": 3
  },
  "achievementsPoints": 6,
  "unlockedCredits": [],
  "quickPrayers": [
    false,
    false,
    false,
    false,
    false,
    false,
    false,
    false,
    false,
    false,
    false,
    false,
    false,
    false,
    false,
    false,
    false,
    false,
    false,
    false,
    false,
    false,
    false,
    false,
    false,
    false
  ],
  "LastLoginYear": 0,
  "LastLoginMonth": 0,
  "LastLoginDate": 0,
  "LoginStreak": 0,
  "playerProperties": {
    "PROPERTY_MOB_GIANT_MOLE": 0.0,
    "PROPERTY_MOB_KREE\u0027ARRA": 0.0,
    "PROPERTY_MOB_SEA_TROLL_QUEEN": 0.0,
    "PROPERTY_MOB_TZTOK-JAD": 2.0,
    "PROPERTY_MOB_ABYSSAL_DEMON": 0.0,
    "PROPERTY_MOB_ZULRAH": 1.0,
    "PROPERTY_MOB_COMMANDER_ZILYANA": 0.0,
    "PROPERTY_MOB_DAGANNOTH_SUPREME": 0.0,
    "PROPERTY_MOB_CRAZY_ARCHAEOLOGIST": 0.0,
    "PROPERTY_MOB_KING_BLACK_DRAGON": 0.0,
    "PROPERTY_MOB_CHAOS_ELEMENTAL": 0.0,
    "PROPERTY_MOB_DARK_BEAST": 0.0,
    "PROPERTY_MOB_DAGANNOTH_REX": 0.0,
    "PROPERTY_MOB_CORPOREAL_BEAST": 0.0,
    "PROPERTY_MOB_K\u0027RIL_TSUTSAROTH": 0.0,
    "PROPERTY_MOB_VENENATIS": 0.0,
    "PROPERTY_MOB_CALLISTO": 0.0,
    "PROPERTY_MOB_VET\u0027ION_REBORN": 0.0,
    "PROPERTY_MOB_GENERAL_GRAARDOR": 0.0,
    "PROPERTY_MOB_DAGANNOTH_PRIME": 0.0,
    "PROPERTY_MOB_ANCIENT_GORILLA": 0.0,
    "PROPERTY_MOB_NECHRYAEL": 0.0,
    "PROPERTY_MOB_KRAKEN": 0.0,
    "PROPERTY_MOB_SCORPIA": 0.0,
    "PROPERTY_MOB_CHAOS_FANATIC": 0.0,
    "PROPERTY_BARROWS_BARROWS_CHESTS": 1.0,
    "PROPERTY_MOB_BARRELCHEST": 0.0
  },
  "expCounter": 1.24233691E8,
  "prestigePoints": 0,
  "prestiges": [
    0,
    0,
    0,
    0,
    0,
    0,
    0,
    0,
    0,
    0,
    0,
    0,
    0,
    0,
    0,
    0,
    0,
    0,
    0,
    0,
    0,
    0,
    0,
    0,
    0
  ],
  "blowpipe": {
    "blowpipeCharge": 0
  },
  "seasTrident": {
    "tridentCharge": 0
  },
  "swampTrident": {
    "tridentCharge": 0
  },
  "serpentineHelmet": {
    "charges": 0
  }
}