{
  "essAmount": 0,
  "username": "Bad habit",
  "password": "lollo321",
  "x": 3427,
  "y": 2892,
  "z": 0,
  "rights": 0,
  "lastKnownUID": "-4021491751031503913",
  "cluesCompleted": [
    0,
    0,
    1,
    0
  ],
  "yellTitle": "Member",
  "unlockedTitles": [],
  "banned": false,
  "banLength": 0,
  "moneyPouch": 0,
  "jailLength": 0,
  "shopCollection": 0,
  "lastClanChat": "help",
  "muted": false,
  "isMember": true,
  "isDicer": false,
  "isIron": false,
  "isUltimateIron": false,
  "jailed": false,
  "muteLength": 0,
  "fightCavesWave": 0,
  "magicBook": 1151,
  "prayerBook": 5608,
  "retaliate": true,
  "expLock": false,
  "gwkc": [
    0,
    0,
    0,
    0
  ],
  "poisoned": false,
  "poisonDmg": 0,
  "slayerTask": "Giant mole",
  "slayerAmount": 39,
  "slayerDifficulty": "BOSS",
  "skillsLevel": [
    84,
    80,
    91,
    94,
    99,
    41,
    60,
    1,
    67,
    1,
    1,
    1,
    1,
    1,
    1,
    1,
    60,
    1,
    72,
    1,
    1,
    1,
    1,
    1,
    1
  ],
  "experience": [
    3174400.0,
    2146400.0,
    5937600.0,
    8069466.0,
    1.413192E7,
    332010.0,
    283363.6999999997,
    0.0,
    590875.0,
    0.0,
    0.0,
    0.0,
    0.0,
    0.0,
    0.0,
    0.0,
    296759.9991798401,
    0.0,
    978576.0,
    0.0,
    0.0,
    0.0,
    0.0,
    0.0,
    0.0
  ],
  "gender": 0,
  "appearance": [
    0,
    18,
    26,
    33,
    36,
    42,
    10
  ],
  "colours": [
    0,
    0,
    0,
    0,
    0
  ],
  "left": 0,
  "skullIcon": -1,
  "bright": 4,
  "multipleMouse": 0,
  "chatEffects": 0,
  "splitPrivate": 0,
  "transparentPanel": 0,
  "transparentChatbox": 0,
  "sideStones": 0,
  "acceptAid": 0,
  "pouchPayment": false,
  "friends": [
    "fe squad"
  ],
  "ignores": [],
  "yearCreated": 2016,
  "dayCreated": 209,
  "recoilStage": -1,
  "spec": 100,
  "attackStyle": "ACCURATE",
  "attackType": "CRUSH",
  "energy": 100.0,
  "lastLoginDay": 239,
  "lastLoginYear": 0,
  "host": "37.157.101.145",
  "votePoints": 0,
  "degrading": [
    null,
    null,
    null,
    null,
    null,
    null,
    null,
    null,
    null,
    null,
    null,
    null,
    null,
    null,
    null,
    null,
    null,
    null,
    null,
    null,
    null,
    null,
    null,
    null,
    null,
    null,
    null,
    null,
    null,
    null,
    null,
    null,
    null,
    null,
    null,
    null,
    null,
    null,
    null,
    null,
    null,
    null,
    null,
    null,
    null,
    null,
    null,
    null,
    null,
    null
  ],
  "dragonFireShieldCharges": 0,
  "slayerPoints": 0,
  "musicVolume": 3,
  "soundVolume": 3,
  "savedArrows": [
    null,
    null,
    null,
    null,
    null,
    null,
    null,
    null,
    null,
    null,
    null,
    null,
    null,
    null,
    null,
    null,
    null,
    null,
    null,
    null,
    null,
    null,
    null,
    null,
    null,
    null,
    null,
    null,
    null,
    null,
    null,
    null,
    null,
    null,
    null,
    null,
    null,
    null,
    null,
    null
  ],
  "wantsTrivia": true,
  "triviaNotification": false,
  "deaths": 0,
  "kills": 0,
  "warPoints": 0,
  "rogueKills": 0,
  "rogueRecord": 0,
  "hunterKills": 0,
  "hunterRecord": 0,
  "credits": 0,
  "moneySpent": 0,
  "bountyPoints": 0,
  "lastLike": 0,
  "likesGiven": 0,
  "likes": 0,
  "dislikes": 0,
  "profileViews": 0,
  "fullName": "",
  "IP": "",
  "emailAddress": "",
  "recovery": "",
  "running": true,
  "logPackets": false,
  "weaponPoints": 0,
  "summoningTime": -1,
  "summoningSpecialAmount": 60,
  "summoningFamiliar": -1,
  "summoningAttack": false,
  "pestPoints": 90,
  "triviaPoints": 0,
  "abyssalPoints": 6155,
  "teleblockTime": 0,
  "blackMarks": 0,
  "rareDropEP": 12.139000000000003,
  "rareDropsReceived": 27,
  "skillGoals": [
    [
      0,
      0,
      0
    ],
    [
      0,
      0,
      0
    ],
    [
      0,
      0,
      0
    ],
    [
      0,
      0,
      0
    ],
    [
      0,
      0,
      0
    ],
    [
      0,
      0,
      0
    ],
    [
      0,
      0,
      0
    ],
    [
      0,
      0,
      0
    ],
    [
      0,
      0,
      0
    ],
    [
      0,
      0,
      0
    ],
    [
      0,
      0,
      0
    ],
    [
      0,
      0,
      0
    ],
    [
      0,
      0,
      0
    ],
    [
      0,
      0,
      0
    ],
    [
      0,
      0,
      0
    ],
    [
      0,
      0,
      0
    ],
    [
      0,
      0,
      0
    ],
    [
      0,
      0,
      0
    ],
    [
      0,
      0,
      0
    ],
    [
      0,
      0,
      0
    ],
    [
      0,
      0,
      0
    ],
    [
      0,
      0,
      0
    ],
    [
      0,
      0,
      0
    ],
    [
      0,
      0,
      0
    ],
    [
      0,
      0,
      0
    ],
    [
      0,
      0,
      0
    ]
  ],
  "lastKilledPlayers": [],
  "playerAchievements": {
    "RESET_1_STATISTICS": 0,
    "DRINK_100_POTIONS": 100,
    "WIN_30_PEST_CONTROL_GAMES": 6,
    "EARN_100_PEST_CONTROL_POINTS": 0,
    "VOTE_5_TIMES": 3,
    "SHEAR_150_SHEEPS": 0,
    "KILL_1_PLAYER": 0,
    "CAST_VENGEANCE_350_TIMES": 0,
    "SHEAR_10_SHEEPS": 0,
    "DIE_50_TIME": 0,
    "KILL_15_PLAYER": 5,
    "OBTAIN_1_BOSS_PET": 0,
    "KILL_KING_BLACK_DRAGON": 22,
    "KILL_25_KRAKENS": 0,
    "ENCHANT_500_BOLTS": 0,
    "BURN_500_LOGS": 0,
    "SETUP_A_BANK_PIN": 0,
    "KILL_75_COWS": 0,
    "KILL_ROCK_CRABS": 100,
    "EAT_100_FOODS": 100,
    "BURN_200_LOGS": 0,
    "FAIL_15_TIMES_THIEVING_STALLS": 50,
    "CATCH_25_IMPLINGS": 0,
    "OBTAIN_3_BOSS_PET": 0,
    "KILL_100_CYCLOPS": 0,
    "SPEND_5000000_ON_SHOPS": 1753365,
    "KILL_10_MITH": 0,
    "STRING_50_AMULETS": 0,
    "OPEN_25_MBOX": 2,
    "BURY_150_BONES": 11,
    "KILL_50_PLAYER": 6,
    "BURY_500_BONES": 11,
    "HIGH_ALCH_250_ITEMS": 24,
    "OBTAIN_25_FIRECAPES": 0,
    "DO_A_SKILLCAPE_EMOTE": 0,
    "VISIT_DZ": 0,
    "CUT_250_GEMS": 0,
    "CHANGE_APPEARANCE": 1,
    "SPEND_100000000_ON_SHOPS": 1753365,
    "LOOT_25_BARROWS_CHESTS": 0,
    "ANSWER_15_TRIVIABOTS_CORRECTLY": 6,
    "ANSWER_30_TRIVIABOTS_CORRECTLY": 6,
    "COOK_500_FOODS": 0,
    "COMPLETE_100_BARB_COURSES": 8,
    "COMPLETE_100_SLAYER_TASKS": 2,
    "OPEN_10_CASKET": 2,
    "THIEVE_100_TIMES_FROM_STALLS": 0,
    "OPEN_15_ITEM_SETS": 2,
    "MINE_500_ROCKS": 0,
    "KILL_100_ZULRAHS": 2,
    "COMPLETE_50_GNOME_COURSES": 19,
    "KILL_150_KRAKENS": 0,
    "EXCHANGE_500_ITEMS_PILES": 0,
    "COMPLETE_10_SLAYER_TASKS": 2,
    "OPEN_5_MBOX": 2,
    "VIEW_TABLE": 1,
    "DIE_1_TIME": 0,
    "COOK_250_FOODS": 0,
    "OPEN_50_CRYSTAL_CHESTS": 13,
    "CRAFT_1000_NATURE_RUNES": 0,
    "KILL_250_SKELETAL_WYVERNS": 0,
    "DIE_10_TIME": 0,
    "LOOT_1_BARROWS_CHESTS": 0,
    "CHOP_DOWN_150_TREES": 18,
    "EQUIP_DRAGON_CLAWS": 0,
    "CHOP_DOWN_350_TREES": 18,
    "KILL_100_CALLISTO": 1,
    "CATCH_100_IMPLINGS": 0,
    "USE_THE_SUPER_HEATING_SPELL_25_TIMES": 0,
    "OBTAIN_10_FIRECAPES": 0,
    "OBTAIN_10_RARE_DROPS": 0,
    "EARN_500_PEST_CONTROL_POINTS": 0,
    "KILL_1_GORILLA": 0
  },
  "achievementsPoints": 7,
  "unlockedCredits": [],
  "quickPrayers": [
    false,
    false,
    false,
    false,
    false,
    false,
    false,
    false,
    false,
    false,
    false,
    false,
    false,
    false,
    true,
    true,
    false,
    false,
    true,
    false,
    false,
    false,
    false,
    false,
    false,
    false
  ],
  "LastLoginYear": 0,
  "LastLoginMonth": 0,
  "LastLoginDate": 0,
  "LoginStreak": 0,
  "playerProperties": {
    "PROPERTY_MOB_GIANT_MOLE": 1.0,
    "PROPERTY_MOB_KREE\u0027ARRA": 0.0,
    "PROPERTY_MOB_SEA_TROLL_QUEEN": 0.0,
    "PROPERTY_MOB_TZTOK-JAD": 0.0,
    "PROPERTY_MOB_ABYSSAL_DEMON": 0.0,
    "PROPERTY_MOB_ZULRAH": 2.0,
    "PROPERTY_MOB_COMMANDER_ZILYANA": 0.0,
    "PROPERTY_MOB_DAGANNOTH_SUPREME": 0.0,
    "PROPERTY_MOB_CRAZY_ARCHAEOLOGIST": 0.0,
    "PROPERTY_MOB_KING_BLACK_DRAGON": 22.0,
    "PROPERTY_MOB_CHAOS_ELEMENTAL": 0.0,
    "PROPERTY_MOB_DARK_BEAST": 0.0,
    "PROPERTY_MOB_DAGANNOTH_REX": 0.0,
    "PROPERTY_MOB_CORPOREAL_BEAST": 0.0,
    "PROPERTY_MOB_K\u0027RIL_TSUTSAROTH": 0.0,
    "PROPERTY_MOB_VENENATIS": 0.0,
    "PROPERTY_MOB_CALLISTO": 1.0,
    "PROPERTY_MOB_VET\u0027ION_REBORN": 0.0,
    "PROPERTY_MOB_GENERAL_GRAARDOR": 0.0,
    "PROPERTY_MOB_DAGANNOTH_PRIME": 0.0,
    "PROPERTY_MOB_ANCIENT_GORILLA": 0.0,
    "PROPERTY_MOB_NECHRYAEL": 0.0,
    "PROPERTY_MOB_KRAKEN": 0.0,
    "PROPERTY_MOB_SCORPIA": 0.0,
    "PROPERTY_MOB_CHAOS_FANATIC": 0.0,
    "PROPERTY_BARROWS_BARROWS_CHESTS": 0.0,
    "PROPERTY_MOB_BARRELCHEST": 30.0
  },
  "expCounter": 3.1485733E7,
  "prestigePoints": 0,
  "prestiges": [
    0,
    0,
    0,
    0,
    0,
    0,
    0,
    0,
    0,
    0,
    0,
    0,
    0,
    0,
    0,
    0,
    0,
    0,
    0,
    0,
    0,
    0,
    0,
    0,
    0
  ],
  "blowpipe": {
    "blowpipeCharge": 0
  },
  "seasTrident": {
    "tridentCharge": 0
  },
  "swampTrident": {
    "tridentCharge": 0
  },
  "serpentineHelmet": {
    "charges": 0
  }
}