{
  "essAmount": 0,
  "username": "Bay",
  "password": "kinqzo",
  "x": 3432,
  "y": 2892,
  "z": 0,
  "rights": 8,
  "lastKnownUID": "4892212188367797769",
  "cluesCompleted": [
    0,
    0,
    1,
    0
  ],
  "yellTitle": "Member",
  "unlockedTitles": [],
  "banned": false,
  "banLength": 0,
  "moneyPouch": 0,
  "jailLength": 0,
  "shopCollection": 0,
  "lastClanChat": "help",
  "muted": false,
  "isMember": true,
  "isDicer": false,
  "isIron": false,
  "isHard": false,
  "isUltimateIron": false,
  "jailed": false,
  "muteLength": 0,
  "fightCavesWave": 0,
  "magicBook": 1151,
  "prayerBook": 5608,
  "retaliate": true,
  "expLock": false,
  "gwkc": [
    0,
    0,
    0,
    0
  ],
  "poisoned": false,
  "poisonDmg": 0,
  "slayerTask": "Zulrah",
  "slayerAmount": 21,
  "slayerDifficulty": "BOSS",
  "skillsLevel": [
    99,
    99,
    99,
    99,
    99,
    99,
    99,
    99,
    99,
    99,
    99,
    99,
    99,
    60,
    85,
    6,
    83,
    99,
    99,
    10,
    26,
    1,
    37,
    1,
    1
  ],
  "experience": [
    3.0989866666666605E7,
    3.12353266666666E7,
    1.0628826666666643E8,
    1.89550892E8,
    2.0E8,
    1.38567425E7,
    1.53454437E7,
    1.3071453E7,
    1.41590625E7,
    1.3212072E7,
    1.323725E7,
    1.3162912E7,
    1.3118784E7,
    290382.0,
    3310000.0,
    560.0,
    2705319.976043701,
    1.3568625E7,
    4.4776376E7,
    1260.0,
    8775.0,
    0.0,
    30342.0,
    0.0,
    0.0
  ],
  "gender": 0,
  "appearance": [
    3,
    21,
    26,
    33,
    36,
    42,
    14
  ],
  "colours": [
    5,
    1,
    4,
    2,
    2
  ],
  "left": 0,
  "skullIcon": -1,
  "bright": 4,
  "multipleMouse": 0,
  "chatEffects": 0,
  "splitPrivate": 1,
  "transparentPanel": 0,
  "transparentChatbox": 0,
  "sideStones": 0,
  "acceptAid": 0,
  "pouchPayment": false,
  "friends": [
    "jamian",
    "soft",
    "matt",
    "goten",
    "zulrah",
    "dr buttsecks",
    "derek",
    "x",
    "dbz",
    "mr barrows",
    "jackson",
    "slime",
    "dabs",
    "iron pfraru",
    "pfraru",
    "cheese",
    "inflexion",
    "the bros 2",
    "serci",
    "kefun",
    "iron vihtic",
    "bruce lee",
    "bigboy",
    "john",
    "white",
    "luuckie",
    "christian",
    "dalby",
    "range owns6",
    "views",
    "ads",
    "datsik",
    "trihard",
    "purerangsaw",
    "bradrl",
    "komasan",
    "hunter",
    "roger",
    "rat",
    "kgahdlfh",
    "defence pro1",
    "pantera",
    "iron pvm",
    "kangaroo",
    "skill vision",
    "n",
    "yang",
    "ushio",
    "nate",
    "mark donalds",
    "trapper",
    "timian",
    "graco",
    "jermaine",
    "ehhhzylo",
    "thc",
    "rolex"
  ],
  "ignores": [],
  "yearCreated": 2016,
  "dayCreated": 181,
  "recoilStage": 22,
  "spec": 100,
  "attackStyle": "AGGRESSIVE",
  "attackType": "CRUSH",
  "energy": 100.0,
  "lastLoginDay": 245,
  "lastLoginYear": 0,
  "host": "96.252.72.153",
  "votePoints": 0,
  "degrading": [
    null,
    null,
    null,
    null,
    null,
    null,
    null,
    null,
    null,
    null,
    null,
    null,
    null,
    null,
    null,
    null,
    null,
    null,
    null,
    null,
    null,
    null,
    null,
    null,
    null,
    null,
    null,
    null,
    null,
    null,
    null,
    null,
    null,
    null,
    null,
    null,
    null,
    null,
    null,
    null,
    null,
    null,
    null,
    null,
    null,
    null,
    null,
    null,
    null,
    null
  ],
  "dragonFireShieldCharges": 0,
  "slayerPoints": 21,
  "musicVolume": 3,
  "soundVolume": 3,
  "savedArrows": [
    null,
    null,
    null,
    null,
    null,
    null,
    null,
    null,
    null,
    null,
    null,
    null,
    null,
    null,
    null,
    null,
    null,
    null,
    null,
    null,
    null,
    null,
    null,
    null,
    null,
    null,
    null,
    null,
    null,
    null,
    null,
    null,
    null,
    null,
    null,
    null,
    null,
    null,
    null,
    null
  ],
  "wantsTrivia": true,
  "triviaNotification": false,
  "deaths": 0,
  "kills": 0,
  "warPoints": 0,
  "rogueKills": 0,
  "rogueRecord": 0,
  "hunterKills": 0,
  "hunterRecord": 0,
  "credits": 43300,
  "moneySpent": 665,
  "bountyPoints": 500000,
  "lastLike": 0,
  "likesGiven": 0,
  "likes": 0,
  "dislikes": 0,
  "profileViews": 0,
  "fullName": "",
  "IP": "",
  "emailAddress": "",
  "recovery": "",
  "running": true,
  "logPackets": false,
  "weaponPoints": 0,
  "summoningTime": -1,
  "summoningSpecialAmount": 60,
  "summoningFamiliar": -1,
  "summoningAttack": false,
  "pestPoints": 0,
  "triviaPoints": 4,
  "abyssalPoints": 6190,
  "teleblockTime": 0,
  "blackMarks": 0,
  "rareDropEP": 1.5165,
  "rareDropsReceived": -52,
  "skillGoals": [
    [
      0,
      0,
      0
    ],
    [
      0,
      0,
      0
    ],
    [
      0,
      0,
      0
    ],
    [
      0,
      0,
      0
    ],
    [
      0,
      0,
      0
    ],
    [
      0,
      0,
      0
    ],
    [
      0,
      0,
      0
    ],
    [
      0,
      0,
      0
    ],
    [
      0,
      0,
      0
    ],
    [
      0,
      0,
      0
    ],
    [
      0,
      0,
      0
    ],
    [
      0,
      0,
      0
    ],
    [
      0,
      0,
      0
    ],
    [
      0,
      0,
      0
    ],
    [
      0,
      0,
      0
    ],
    [
      0,
      0,
      0
    ],
    [
      0,
      0,
      0
    ],
    [
      0,
      0,
      0
    ],
    [
      0,
      0,
      0
    ],
    [
      0,
      0,
      0
    ],
    [
      0,
      0,
      0
    ],
    [
      0,
      0,
      0
    ],
    [
      0,
      0,
      0
    ],
    [
      0,
      0,
      0
    ],
    [
      0,
      0,
      0
    ],
    [
      0,
      0,
      0
    ]
  ],
  "lastKilledPlayers": [],
  "playerAchievements": {
    "SHEAR_150_SHEEPS": 0,
    "DRINK_100_POTIONS": 100,
    "OPEN_50_CRYSTAL_CHESTS": 50,
    "ENCHANT_500_BOLTS": 1,
    "OBTAIN_1_BOSS_PET": 0,
    "KILL_50_PLAYER": 0,
    "KILL_1_GORILLA": 0,
    "EARN_100_PEST_CONTROL_POINTS": 0,
    "DIE_10_TIME": 10,
    "CATCH_25_IMPLINGS": 15,
    "EAT_100_FOODS": 100,
    "USE_THE_SUPER_HEATING_SPELL_25_TIMES": 0,
    "ANSWER_15_TRIVIABOTS_CORRECTLY": 15,
    "KILL_1_PLAYER": 0,
    "BURY_500_BONES": 79,
    "SPEND_5000000_ON_SHOPS": 70429417,
    "ANSWER_30_TRIVIABOTS_CORRECTLY": 24,
    "KILL_100_CYCLOPS": 100,
    "VIEW_TABLE": 1,
    "RESET_1_STATISTICS": 0,
    "BURN_500_LOGS": 500,
    "OBTAIN_10_RARE_DROPS": 0,
    "COMPLETE_100_SLAYER_TASKS": 59,
    "OPEN_15_ITEM_SETS": 7,
    "OBTAIN_3_BOSS_PET": 0,
    "KILL_10_MITH": 0,
    "CATCH_100_IMPLINGS": 15,
    "BURY_150_BONES": 79,
    "KILL_100_ZULRAHS": 100,
    "COMPLETE_10_SLAYER_TASKS": 10,
    "KILL_ROCK_CRABS": 100,
    "COOK_500_FOODS": 500,
    "KILL_250_SKELETAL_WYVERNS": 78,
    "KILL_15_PLAYER": 0,
    "SETUP_A_BANK_PIN": 0,
    "CAST_VENGEANCE_350_TIMES": 0,
    "DIE_1_TIME": 1,
    "DIE_50_TIME": 23,
    "WIN_30_PEST_CONTROL_GAMES": 0,
    "EQUIP_DRAGON_CLAWS": 0,
    "OBTAIN_10_FIRECAPES": 1,
    "THIEVE_100_TIMES_FROM_STALLS": 100,
    "COMPLETE_50_GNOME_COURSES": 3,
    "CUT_250_GEMS": 250,
    "STRING_50_AMULETS": 0,
    "VISIT_DZ": 1,
    "EXCHANGE_500_ITEMS_PILES": 0,
    "MINE_500_ROCKS": 500,
    "DO_A_SKILLCAPE_EMOTE": 0,
    "SHEAR_10_SHEEPS": 0,
    "BURN_200_LOGS": 200,
    "CHANGE_APPEARANCE": 1,
    "KILL_100_CALLISTO": 46,
    "FAIL_15_TIMES_THIEVING_STALLS": 0,
    "CHOP_DOWN_350_TREES": 174,
    "OPEN_25_MBOX": 25,
    "KILL_150_KRAKENS": 5,
    "OPEN_5_MBOX": 5,
    "CHOP_DOWN_150_TREES": 150,
    "EARN_500_PEST_CONTROL_POINTS": 0,
    "KILL_25_KRAKENS": 5,
    "SPEND_100000000_ON_SHOPS": 70429417,
    "KILL_75_COWS": 0,
    "COOK_250_FOODS": 250,
    "OPEN_10_CASKET": 5,
    "KILL_KING_BLACK_DRAGON": 50,
    "OBTAIN_25_FIRECAPES": 1,
    "VOTE_5_TIMES": 1,
    "LOOT_1_BARROWS_CHESTS": 0,
    "LOOT_25_BARROWS_CHESTS": 0,
    "HIGH_ALCH_250_ITEMS": 4,
    "COMPLETE_100_BARB_COURSES": 8,
    "CRAFT_1000_NATURE_RUNES": 0
  },
  "achievementsPoints": 2,
  "unlockedCredits": [],
  "quickPrayers": [
    false,
    false,
    false,
    false,
    false,
    false,
    false,
    false,
    false,
    false,
    false,
    false,
    false,
    false,
    false,
    false,
    false,
    false,
    true,
    false,
    false,
    false,
    false,
    false,
    false,
    false
  ],
  "LastLoginYear": 0,
  "LastLoginMonth": 0,
  "LastLoginDate": 0,
  "LoginStreak": 0,
  "playerProperties": {
    "PROPERTY_MOB_GIANT_MOLE": 87.0,
    "PROPERTY_MOB_KREE\u0027ARRA": 9.0,
    "PROPERTY_MOB_SEA_TROLL_QUEEN": 0.0,
    "PROPERTY_MOB_TZTOK-JAD": 1.0,
    "PROPERTY_MOB_ABYSSAL_DEMON": 213.0,
    "PROPERTY_MOB_ZULRAH": 222.0,
    "PROPERTY_MOB_COMMANDER_ZILYANA": 0.0,
    "PROPERTY_MOB_DAGANNOTH_SUPREME": 0.0,
    "PROPERTY_MOB_CRAZY_ARCHAEOLOGIST": 0.0,
    "PROPERTY_MOB_KING_BLACK_DRAGON": 80.0,
    "PROPERTY_MOB_CHAOS_ELEMENTAL": 44.0,
    "PROPERTY_MOB_DARK_BEAST": 0.0,
    "PROPERTY_MOB_DAGANNOTH_REX": 28.0,
    "PROPERTY_MOB_CORPOREAL_BEAST": 0.0,
    "PROPERTY_MOB_K\u0027RIL_TSUTSAROTH": 0.0,
    "PROPERTY_MOB_VENENATIS": 0.0,
    "PROPERTY_MOB_CALLISTO": 46.0,
    "PROPERTY_MOB_VET\u0027ION_REBORN": 0.0,
    "PROPERTY_MOB_GENERAL_GRAARDOR": 3.0,
    "PROPERTY_MOB_DAGANNOTH_PRIME": 0.0,
    "PROPERTY_MOB_ANCIENT_GORILLA": 0.0,
    "PROPERTY_MOB_NECHRYAEL": 0.0,
    "PROPERTY_MOB_KRAKEN": 5.0,
    "PROPERTY_MOB_SCORPIA": 0.0,
    "PROPERTY_MOB_CHAOS_FANATIC": 54.0,
    "PROPERTY_BARROWS_BARROWS_CHESTS": 2.0,
    "PROPERTY_MOB_BARRELCHEST": 2.0
  },
  "expCounter": 1.08109258E8,
  "prestigePoints": 0,
  "prestiges": [
    0,
    0,
    0,
    0,
    0,
    0,
    0,
    0,
    0,
    0,
    0,
    0,
    0,
    0,
    0,
    0,
    0,
    0,
    0,
    0,
    0,
    0,
    0,
    0,
    0
  ],
  "blowpipe": {
    "blowpipeCharge": 46392
  },
  "seasTrident": {
    "tridentCharge": 927
  },
  "swampTrident": {
    "tridentCharge": -359
  },
  "serpentineHelmet": {
    "charges": 1
  }
}