{
  "essAmount": 0,
  "username": "Bonecrusher",
  "password": "pullukka4356",
  "x": 3429,
  "y": 2930,
  "z": 0,
  "rights": 11,
  "lastKnownUID": "1038119083568766413",
  "cluesCompleted": [
    0,
    0,
    6,
    0
  ],
  "yellTitle": "Member",
  "unlockedTitles": [],
  "banned": false,
  "banLength": 0,
  "moneyPouch": 0,
  "jailLength": 0,
  "shopCollection": 0,
  "lastClanChat": "help",
  "muted": false,
  "isMember": true,
  "isDicer": false,
  "isIron": true,
  "isHard": false,
  "isUltimateIron": false,
  "jailed": false,
  "muteLength": 0,
  "fightCavesWave": 0,
  "magicBook": 1151,
  "prayerBook": 5608,
  "retaliate": true,
  "expLock": false,
  "gwkc": [
    0,
    0,
    0,
    0
  ],
  "poisoned": false,
  "poisonDmg": 0,
  "slayerTask": "Zulrah",
  "slayerAmount": 2,
  "slayerDifficulty": "BOSS",
  "skillsLevel": [
    99,
    99,
    99,
    99,
    99,
    99,
    99,
    99,
    99,
    99,
    99,
    99,
    99,
    99,
    99,
    99,
    99,
    99,
    99,
    99,
    99,
    1,
    99,
    1,
    1
  ],
  "experience": [
    2.0E8,
    2.0E8,
    1.246541333333338E8,
    2.0E8,
    2.0E8,
    1.39332425E7,
    1.3157812599999769E7,
    1.30543E7,
    1.6885625E7,
    1.3045432E7,
    1.381909E7,
    1.3036836E7,
    1.313179E7,
    1.308293E7,
    1.65105E7,
    1.732178E7,
    1.3183719866752625E7,
    3.22845E7,
    6.3611132E7,
    1.539965E7,
    1.3408965E7,
    0.0,
    1.3077116E7,
    0.0,
    0.0
  ],
  "gender": 0,
  "appearance": [
    3,
    22,
    26,
    33,
    36,
    42,
    10
  ],
  "colours": [
    1,
    1,
    2,
    3,
    6
  ],
  "left": 0,
  "skullIcon": -1,
  "bright": 4,
  "multipleMouse": 0,
  "chatEffects": 0,
  "splitPrivate": 1,
  "transparentPanel": 0,
  "transparentChatbox": 0,
  "sideStones": 0,
  "acceptAid": 0,
  "pouchPayment": false,
  "friends": [
    "kangaroo",
    "john",
    "jamian",
    "bigboy",
    "iron sadboy",
    "derek",
    "gimmieurstof",
    "soft",
    "stefanos",
    "roger",
    "og stef",
    "goten",
    "b",
    "bar",
    "doodat11",
    "martin",
    "jamo",
    "iron pvm",
    "hard",
    "iron caboose",
    "kayne"
  ],
  "ignores": [],
  "yearCreated": 2016,
  "dayCreated": 208,
  "recoilStage": -92,
  "spec": 100,
  "attackStyle": "CONTROLLED",
  "attackType": "SLASH",
  "energy": 100.0,
  "lastLoginDay": 246,
  "lastLoginYear": 0,
  "host": "5-76-83-27-nat.elisa-mobile.fi/85.76.83.27",
  "votePoints": 0,
  "degrading": [
    null,
    null,
    null,
    null,
    null,
    null,
    null,
    null,
    null,
    null,
    null,
    null,
    null,
    null,
    null,
    null,
    null,
    null,
    null,
    null,
    null,
    null,
    null,
    null,
    null,
    null,
    null,
    null,
    null,
    null,
    null,
    null,
    null,
    null,
    null,
    null,
    null,
    null,
    null,
    null,
    null,
    null,
    null,
    null,
    null,
    null,
    null,
    null,
    null,
    null
  ],
  "dragonFireShieldCharges": 50,
  "slayerPoints": 1460,
  "musicVolume": 3,
  "soundVolume": 3,
  "savedArrows": [
    null,
    null,
    null,
    null,
    null,
    null,
    null,
    null,
    null,
    null,
    null,
    null,
    null,
    null,
    null,
    null,
    null,
    null,
    null,
    null,
    null,
    null,
    null,
    null,
    null,
    null,
    null,
    null,
    null,
    null,
    null,
    null,
    null,
    null,
    null,
    null,
    null,
    null,
    null,
    null
  ],
  "wantsTrivia": true,
  "triviaNotification": false,
  "deaths": 0,
  "kills": 0,
  "warPoints": 0,
  "rogueKills": 0,
  "rogueRecord": 0,
  "hunterKills": 0,
  "hunterRecord": 0,
  "credits": 60970,
  "moneySpent": 6215,
  "bountyPoints": 3893238,
  "lastLike": 0,
  "likesGiven": 0,
  "likes": 0,
  "dislikes": 0,
  "profileViews": 0,
  "fullName": "",
  "IP": "",
  "emailAddress": "",
  "recovery": "",
  "pins": "6534",
  "running": true,
  "logPackets": true,
  "weaponPoints": 0,
  "summoningTime": -1,
  "summoningSpecialAmount": 60,
  "summoningFamiliar": -1,
  "summoningAttack": false,
  "pestPoints": 5,
  "triviaPoints": 6,
  "abyssalPoints": 3693,
  "teleblockTime": 0,
  "blackMarks": 0,
  "rareDropEP": 1.0295,
  "rareDropsReceived": -73,
  "skillGoals": [
    [
      0,
      0,
      0
    ],
    [
      0,
      0,
      0
    ],
    [
      0,
      0,
      0
    ],
    [
      0,
      0,
      0
    ],
    [
      0,
      0,
      0
    ],
    [
      0,
      0,
      0
    ],
    [
      0,
      0,
      0
    ],
    [
      0,
      0,
      0
    ],
    [
      0,
      0,
      0
    ],
    [
      0,
      0,
      0
    ],
    [
      0,
      0,
      0
    ],
    [
      0,
      0,
      0
    ],
    [
      0,
      0,
      0
    ],
    [
      0,
      0,
      0
    ],
    [
      0,
      0,
      0
    ],
    [
      0,
      0,
      0
    ],
    [
      0,
      0,
      0
    ],
    [
      0,
      0,
      0
    ],
    [
      0,
      0,
      0
    ],
    [
      0,
      0,
      0
    ],
    [
      0,
      0,
      0
    ],
    [
      0,
      0,
      0
    ],
    [
      0,
      0,
      0
    ],
    [
      0,
      0,
      0
    ],
    [
      0,
      0,
      0
    ],
    [
      0,
      0,
      0
    ]
  ],
  "lastKilledPlayers": [],
  "playerAchievements": {
    "SHEAR_150_SHEEPS": 11,
    "DRINK_100_POTIONS": 100,
    "OPEN_50_CRYSTAL_CHESTS": 50,
    "ENCHANT_500_BOLTS": 1,
    "OBTAIN_1_BOSS_PET": 1,
    "KILL_50_PLAYER": 18,
    "KILL_1_GORILLA": 1,
    "EARN_100_PEST_CONTROL_POINTS": 100,
    "DIE_10_TIME": 10,
    "CATCH_25_IMPLINGS": 25,
    "EAT_100_FOODS": 100,
    "USE_THE_SUPER_HEATING_SPELL_25_TIMES": 25,
    "ANSWER_15_TRIVIABOTS_CORRECTLY": 15,
    "KILL_1_PLAYER": 1,
    "BURY_500_BONES": 152,
    "SPEND_5000000_ON_SHOPS": 79534830,
    "ANSWER_30_TRIVIABOTS_CORRECTLY": 30,
    "KILL_100_CYCLOPS": 84,
    "VIEW_TABLE": 1,
    "RESET_1_STATISTICS": 0,
    "BURN_500_LOGS": 500,
    "OBTAIN_10_RARE_DROPS": 1,
    "COMPLETE_100_SLAYER_TASKS": 100,
    "OPEN_15_ITEM_SETS": 4,
    "OBTAIN_3_BOSS_PET": 10,
    "KILL_10_MITH": 3,
    "CATCH_100_IMPLINGS": 100,
    "BURY_150_BONES": 150,
    "KILL_100_ZULRAHS": 100,
    "COMPLETE_10_SLAYER_TASKS": 10,
    "KILL_ROCK_CRABS": 58,
    "COOK_500_FOODS": 500,
    "KILL_250_SKELETAL_WYVERNS": 250,
    "KILL_15_PLAYER": 37,
    "SETUP_A_BANK_PIN": 1,
    "CAST_VENGEANCE_350_TIMES": 0,
    "DIE_1_TIME": 1,
    "DIE_50_TIME": 39,
    "WIN_30_PEST_CONTROL_GAMES": 27,
    "EQUIP_DRAGON_CLAWS": 0,
    "OBTAIN_10_FIRECAPES": 10,
    "THIEVE_100_TIMES_FROM_STALLS": 100,
    "COMPLETE_50_GNOME_COURSES": 8,
    "CUT_250_GEMS": 250,
    "STRING_50_AMULETS": 2,
    "VISIT_DZ": 1,
    "EXCHANGE_500_ITEMS_PILES": 1974,
    "MINE_500_ROCKS": 500,
    "DO_A_SKILLCAPE_EMOTE": 1,
    "SHEAR_10_SHEEPS": 10,
    "BURN_200_LOGS": 200,
    "CHANGE_APPEARANCE": 1,
    "KILL_100_CALLISTO": 100,
    "FAIL_15_TIMES_THIEVING_STALLS": 50,
    "CHOP_DOWN_350_TREES": 338,
    "OPEN_25_MBOX": 25,
    "KILL_150_KRAKENS": 10,
    "OPEN_5_MBOX": 5,
    "CHOP_DOWN_150_TREES": 150,
    "EARN_500_PEST_CONTROL_POINTS": 270,
    "KILL_25_KRAKENS": 10,
    "SPEND_100000000_ON_SHOPS": 79534830,
    "KILL_75_COWS": 75,
    "COOK_250_FOODS": 250,
    "OPEN_10_CASKET": 10,
    "KILL_KING_BLACK_DRAGON": 50,
    "OBTAIN_25_FIRECAPES": 11,
    "VOTE_5_TIMES": 0,
    "LOOT_1_BARROWS_CHESTS": 1,
    "LOOT_25_BARROWS_CHESTS": 2,
    "HIGH_ALCH_250_ITEMS": 250,
    "COMPLETE_100_BARB_COURSES": 1,
    "CRAFT_1000_NATURE_RUNES": 6334
  },
  "achievementsPoints": 8,
  "unlockedCredits": [],
  "quickPrayers": [
    false,
    false,
    false,
    false,
    false,
    false,
    false,
    false,
    false,
    false,
    false,
    false,
    false,
    false,
    false,
    false,
    false,
    false,
    false,
    false,
    false,
    false,
    false,
    false,
    false,
    false
  ],
  "LastLoginYear": 0,
  "LastLoginMonth": 0,
  "LastLoginDate": 0,
  "LoginStreak": 0,
  "playerProperties": {
    "PROPERTY_MOB_GIANT_MOLE": 163.0,
    "PROPERTY_MOB_KREE\u0027ARRA": 2.0,
    "PROPERTY_MOB_SEA_TROLL_QUEEN": 0.0,
    "PROPERTY_MOB_TZTOK-JAD": 11.0,
    "PROPERTY_MOB_ABYSSAL_DEMON": 233.0,
    "PROPERTY_MOB_ZULRAH": 102.0,
    "PROPERTY_MOB_COMMANDER_ZILYANA": 0.0,
    "PROPERTY_MOB_DAGANNOTH_SUPREME": 25.0,
    "PROPERTY_MOB_CRAZY_ARCHAEOLOGIST": 0.0,
    "PROPERTY_MOB_KING_BLACK_DRAGON": 252.0,
    "PROPERTY_MOB_CHAOS_ELEMENTAL": 0.0,
    "PROPERTY_MOB_DARK_BEAST": 36.0,
    "PROPERTY_MOB_DAGANNOTH_REX": 0.0,
    "PROPERTY_MOB_CORPOREAL_BEAST": 0.0,
    "PROPERTY_MOB_K\u0027RIL_TSUTSAROTH": 0.0,
    "PROPERTY_MOB_VENENATIS": 0.0,
    "PROPERTY_MOB_CALLISTO": 185.0,
    "PROPERTY_MOB_VET\u0027ION_REBORN": 0.0,
    "PROPERTY_MOB_GENERAL_GRAARDOR": 0.0,
    "PROPERTY_MOB_DAGANNOTH_PRIME": 55.0,
    "PROPERTY_MOB_ANCIENT_GORILLA": 2.0,
    "PROPERTY_MOB_NECHRYAEL": 0.0,
    "PROPERTY_MOB_KRAKEN": 10.0,
    "PROPERTY_MOB_SCORPIA": 0.0,
    "PROPERTY_MOB_CHAOS_FANATIC": 10.0,
    "PROPERTY_BARROWS_BARROWS_CHESTS": 4.0,
    "PROPERTY_MOB_BARRELCHEST": 4.0
  },
  "expCounter": 8.48822546E8,
  "prestigePoints": 0,
  "prestiges": [
    0,
    0,
    0,
    0,
    0,
    0,
    0,
    0,
    0,
    0,
    0,
    0,
    0,
    0,
    0,
    0,
    0,
    0,
    0,
    0,
    0,
    0,
    0,
    0,
    0
  ],
  "blowpipe": {
    "blowpipeAmmo": {
      "id": 11230,
      "amount": 15935
    },
    "blowpipeCharge": 47402
  },
  "seasTrident": {
    "tridentCharge": 0
  },
  "swampTrident": {
    "tridentCharge": 0
  },
  "serpentineHelmet": {
    "charges": 0
  }
}