{
  "essAmount": 0,
  "username": "Bruce lee",
  "password": "mlgcarbon78",
  "x": 3429,
  "y": 2892,
  "z": 0,
  "rights": 5,
  "lastKnownUID": "1038119083568766413",
  "cluesCompleted": [
    0,
    2,
    1,
    0
  ],
  "yellTitle": "Member",
  "unlockedTitles": [],
  "banned": false,
  "banLength": 0,
  "moneyPouch": 0,
  "jailLength": 0,
  "shopCollection": 0,
  "lastClanChat": "help",
  "muted": false,
  "isMember": true,
  "isDicer": false,
  "isIron": false,
  "isHard": false,
  "isUltimateIron": false,
  "jailed": false,
  "muteLength": 0,
  "fightCavesWave": 0,
  "magicBook": 12855,
  "prayerBook": 5608,
  "retaliate": true,
  "expLock": false,
  "gwkc": [
    0,
    0,
    0,
    0
  ],
  "poisoned": false,
  "poisonDmg": 0,
  "slayerTask": "Giant mole",
  "slayerAmount": 34,
  "slayerDifficulty": "BOSS",
  "skillsLevel": [
    99,
    99,
    99,
    111,
    98,
    99,
    94,
    99,
    87,
    99,
    99,
    77,
    99,
    95,
    84,
    52,
    71,
    70,
    99,
    49,
    30,
    1,
    84,
    1,
    1
  ],
  "experience": [
    1.2322026666666675E8,
    2.431440666666665E7,
    1.2250666666666678E8,
    1.475777E7,
    1.281632E7,
    1.39487975E7,
    7969836.299999974,
    1.308133E7,
    4035000.0,
    1.316976E7,
    1.314206E7,
    1605360.0,
    1.39832385E7,
    9140305.0,
    2964750.0,
    135835.0,
    859179.9919128418,
    751500.0,
    1.3384276E7,
    100065.0,
    14625.0,
    0.0,
    3220724.0,
    0.0,
    0.0
  ],
  "gender": 0,
  "appearance": [
    1,
    18,
    27,
    34,
    38,
    42,
    11
  ],
  "colours": [
    11,
    15,
    2,
    4,
    5
  ],
  "left": 0,
  "skullIcon": -1,
  "bright": 4,
  "multipleMouse": 0,
  "chatEffects": 0,
  "splitPrivate": 1,
  "transparentPanel": 0,
  "transparentChatbox": 0,
  "sideStones": 0,
  "acceptAid": 0,
  "pouchPayment": false,
  "friends": [
    "gratata",
    "stefanos",
    "graco",
    "ironhide",
    "jamian",
    "gimmieurstof",
    "legend",
    "prafu",
    "nick",
    "michael",
    "dabs",
    "slime",
    "proxy spam",
    "nick v2",
    "chloe",
    "paranoid",
    "goten",
    "hunter",
    "john",
    "ironseek",
    "lawendy",
    "tehdark12",
    "dad",
    "db",
    "dbz",
    "kangaroo",
    "mark donalds",
    "beyblades",
    "jlaw12",
    "king pking",
    "disturbed",
    "fe squad",
    "i master i",
    "n",
    "matt",
    "rat",
    "docile"
  ],
  "ignores": [
    "nate2",
    "serci",
    "no honour",
    "pfraru",
    "shannon",
    "floid",
    "trapper",
    "not leigh",
    "rogers voice"
  ],
  "yearCreated": 2016,
  "dayCreated": 184,
  "recoilStage": 33,
  "spec": 100,
  "attackStyle": "AGGRESSIVE",
  "attackType": "SLASH",
  "energy": 100.0,
  "lastLoginDay": 242,
  "lastLoginYear": 0,
  "host": "69.141.239.34",
  "votePoints": 0,
  "degrading": [
    null,
    null,
    null,
    null,
    null,
    null,
    null,
    null,
    null,
    null,
    null,
    null,
    null,
    null,
    null,
    null,
    null,
    null,
    null,
    null,
    null,
    null,
    null,
    null,
    null,
    null,
    null,
    null,
    null,
    null,
    null,
    null,
    null,
    null,
    null,
    null,
    null,
    null,
    null,
    null,
    null,
    null,
    null,
    null,
    null,
    null,
    null,
    null,
    null,
    null
  ],
  "dragonFireShieldCharges": 50,
  "slayerPoints": 174,
  "musicVolume": 3,
  "soundVolume": 3,
  "savedArrows": [
    null,
    null,
    null,
    null,
    null,
    null,
    null,
    null,
    null,
    null,
    null,
    null,
    null,
    null,
    null,
    null,
    null,
    null,
    null,
    null,
    null,
    null,
    null,
    null,
    null,
    null,
    null,
    null,
    null,
    null,
    null,
    null,
    null,
    null,
    null,
    null,
    null,
    null,
    null,
    null
  ],
  "wantsTrivia": true,
  "triviaNotification": false,
  "deaths": 0,
  "kills": 0,
  "warPoints": 0,
  "rogueKills": 0,
  "rogueRecord": 0,
  "hunterKills": 0,
  "hunterRecord": 0,
  "credits": 120,
  "moneySpent": 5,
  "bountyPoints": 0,
  "lastLike": 0,
  "likesGiven": 0,
  "likes": 0,
  "dislikes": 0,
  "profileViews": 0,
  "fullName": "",
  "IP": "",
  "emailAddress": "",
  "recovery": "",
  "pins": "4476",
  "running": true,
  "logPackets": true,
  "weaponPoints": 0,
  "summoningTime": -1,
  "summoningSpecialAmount": 60,
  "summoningFamiliar": -1,
  "summoningAttack": false,
  "pestPoints": 45,
  "triviaPoints": 5,
  "abyssalPoints": 100,
  "teleblockTime": 0,
  "blackMarks": 0,
  "rareDropEP": 6.5698500000000015,
  "rareDropsReceived": 74,
  "skillGoals": [
    [
      0,
      0,
      0
    ],
    [
      0,
      0,
      0
    ],
    [
      0,
      0,
      0
    ],
    [
      0,
      0,
      0
    ],
    [
      0,
      0,
      0
    ],
    [
      0,
      0,
      0
    ],
    [
      0,
      0,
      0
    ],
    [
      0,
      0,
      0
    ],
    [
      0,
      0,
      0
    ],
    [
      0,
      0,
      0
    ],
    [
      0,
      0,
      0
    ],
    [
      0,
      0,
      0
    ],
    [
      0,
      0,
      0
    ],
    [
      0,
      0,
      0
    ],
    [
      0,
      0,
      0
    ],
    [
      0,
      0,
      0
    ],
    [
      0,
      0,
      0
    ],
    [
      0,
      0,
      0
    ],
    [
      0,
      0,
      0
    ],
    [
      0,
      0,
      0
    ],
    [
      0,
      0,
      0
    ],
    [
      0,
      0,
      0
    ],
    [
      0,
      0,
      0
    ],
    [
      0,
      0,
      0
    ],
    [
      0,
      0,
      0
    ],
    [
      0,
      0,
      0
    ]
  ],
  "lastKilledPlayers": [],
  "playerAchievements": {
    "EQUIP_DRAGON_CLAWS": 1,
    "OBTAIN_10_FIRECAPES": 2,
    "STRING_50_AMULETS": 13,
    "CRAFT_1000_NATURE_RUNES": 0,
    "COMPLETE_100_BARB_COURSES": 8,
    "EARN_100_PEST_CONTROL_POINTS": 100,
    "EARN_500_PEST_CONTROL_POINTS": 460,
    "OPEN_50_CRYSTAL_CHESTS": 50,
    "KILL_1_PLAYER": 0,
    "RESET_1_STATISTICS": 1,
    "EAT_100_FOODS": 100,
    "SHEAR_10_SHEEPS": 0,
    "OPEN_5_MBOX": 5,
    "KILL_100_ZULRAHS": 14,
    "KILL_15_PLAYER": 0,
    "LOOT_25_BARROWS_CHESTS": 0,
    "OPEN_10_CASKET": 10,
    "DIE_50_TIME": 32,
    "DIE_10_TIME": 10,
    "COMPLETE_10_SLAYER_TASKS": 10,
    "KILL_ROCK_CRABS": 20,
    "OBTAIN_3_BOSS_PET": 3,
    "MINE_500_ROCKS": 500,
    "OPEN_25_MBOX": 25,
    "SETUP_A_BANK_PIN": 1,
    "SPEND_5000000_ON_SHOPS": 206660735,
    "OBTAIN_1_BOSS_PET": 1,
    "KILL_KING_BLACK_DRAGON": 40,
    "OBTAIN_10_RARE_DROPS": 0,
    "ANSWER_15_TRIVIABOTS_CORRECTLY": 5,
    "COMPLETE_100_SLAYER_TASKS": 28,
    "KILL_1_GORILLA": 1,
    "THIEVE_100_TIMES_FROM_STALLS": 1,
    "LOOT_1_BARROWS_CHESTS": 0,
    "BURN_500_LOGS": 270,
    "CATCH_100_IMPLINGS": 100,
    "CUT_250_GEMS": 250,
    "FAIL_15_TIMES_THIEVING_STALLS": 0,
    "VIEW_TABLE": 1,
    "USE_THE_SUPER_HEATING_SPELL_25_TIMES": 0,
    "COOK_500_FOODS": 500,
    "EXCHANGE_500_ITEMS_PILES": 0,
    "KILL_10_MITH": 2,
    "SPEND_100000000_ON_SHOPS": 206660735,
    "KILL_150_KRAKENS": 0,
    "DO_A_SKILLCAPE_EMOTE": 0,
    "KILL_50_PLAYER": 0,
    "COMPLETE_50_GNOME_COURSES": 3,
    "KILL_75_COWS": 31,
    "KILL_100_CYCLOPS": 93,
    "BURY_500_BONES": 250,
    "BURY_150_BONES": 150,
    "BURN_200_LOGS": 200,
    "SHEAR_150_SHEEPS": 0,
    "KILL_100_CALLISTO": 28,
    "WIN_30_PEST_CONTROL_GAMES": 30,
    "CAST_VENGEANCE_350_TIMES": 25,
    "ENCHANT_500_BOLTS": 0,
    "KILL_250_SKELETAL_WYVERNS": 0,
    "VOTE_5_TIMES": 0,
    "KILL_25_KRAKENS": 0,
    "CHOP_DOWN_350_TREES": 194,
    "CHANGE_APPEARANCE": 1,
    "OPEN_15_ITEM_SETS": 7,
    "CHOP_DOWN_150_TREES": 150,
    "DIE_1_TIME": 1,
    "CATCH_25_IMPLINGS": 25,
    "HIGH_ALCH_250_ITEMS": 151,
    "VISIT_DZ": 1,
    "DRINK_100_POTIONS": 100,
    "COOK_250_FOODS": 250,
    "OBTAIN_25_FIRECAPES": 2,
    "ANSWER_30_TRIVIABOTS_CORRECTLY": 5
  },
  "achievementsPoints": 24,
  "unlockedCredits": [],
  "quickPrayers": [
    false,
    false,
    false,
    false,
    false,
    false,
    false,
    false,
    false,
    false,
    true,
    false,
    false,
    false,
    false,
    false,
    false,
    false,
    true,
    false,
    false,
    false,
    false,
    false,
    false,
    true
  ],
  "LastLoginYear": 0,
  "LastLoginMonth": 0,
  "LastLoginDate": 0,
  "LoginStreak": 0,
  "playerProperties": {
    "PROPERTY_MOB_GIANT_MOLE": 28.0,
    "PROPERTY_MOB_KREE\u0027ARRA": 29.0,
    "PROPERTY_MOB_SEA_TROLL_QUEEN": 0.0,
    "PROPERTY_MOB_TZTOK-JAD": 2.0,
    "PROPERTY_MOB_ABYSSAL_DEMON": 661.0,
    "PROPERTY_MOB_ZULRAH": 14.0,
    "PROPERTY_MOB_COMMANDER_ZILYANA": 10.0,
    "PROPERTY_MOB_DAGANNOTH_SUPREME": 3.0,
    "PROPERTY_MOB_CRAZY_ARCHAEOLOGIST": 3.0,
    "PROPERTY_MOB_KING_BLACK_DRAGON": 40.0,
    "PROPERTY_MOB_CHAOS_ELEMENTAL": 0.0,
    "PROPERTY_MOB_DARK_BEAST": 43.0,
    "PROPERTY_MOB_DAGANNOTH_REX": 7.0,
    "PROPERTY_MOB_CORPOREAL_BEAST": 0.0,
    "PROPERTY_MOB_K\u0027RIL_TSUTSAROTH": 5.0,
    "PROPERTY_MOB_VENENATIS": 0.0,
    "PROPERTY_MOB_CALLISTO": 28.0,
    "PROPERTY_MOB_VET\u0027ION_REBORN": 0.0,
    "PROPERTY_MOB_GENERAL_GRAARDOR": 95.0,
    "PROPERTY_MOB_DAGANNOTH_PRIME": 15.0,
    "PROPERTY_MOB_ANCIENT_GORILLA": 13.0,
    "PROPERTY_MOB_NECHRYAEL": 0.0,
    "PROPERTY_MOB_KRAKEN": 0.0,
    "PROPERTY_MOB_SCORPIA": 3.0,
    "PROPERTY_MOB_CHAOS_FANATIC": 1.0,
    "PROPERTY_BARROWS_BARROWS_CHESTS": 0.0,
    "PROPERTY_MOB_BARRELCHEST": 1.0
  },
  "expCounter": 1.7035509E7,
  "prestigePoints": 0,
  "prestiges": [
    0,
    0,
    0,
    0,
    0,
    0,
    0,
    0,
    0,
    0,
    0,
    0,
    0,
    0,
    0,
    0,
    0,
    0,
    0,
    0,
    0,
    0,
    0,
    0,
    0
  ],
  "blowpipe": {
    "blowpipeAmmo": {
      "id": 11230,
      "amount": 10000
    },
    "blowpipeCharge": -46489
  },
  "seasTrident": {
    "tridentCharge": 2500
  },
  "swampTrident": {
    "tridentCharge": 0
  },
  "serpentineHelmet": {
    "charges": 1
  }
}