{
  "essAmount": 0,
  "username": "Devilmaycry",
  "password": "afterlight9926",
  "x": 3427,
  "y": 2892,
  "z": 0,
  "rights": 0,
  "lastKnownUID": "1038119083568766413",
  "cluesCompleted": [
    2,
    1,
    0,
    0
  ],
  "yellTitle": "Member",
  "unlockedTitles": [],
  "banned": false,
  "banLength": 0,
  "moneyPouch": 0,
  "jailLength": 0,
  "shopCollection": 0,
  "lastClanChat": "help",
  "muted": false,
  "isMember": true,
  "isDicer": false,
  "isIron": false,
  "isUltimateIron": false,
  "jailed": false,
  "muteLength": 0,
  "fightCavesWave": 0,
  "magicBook": 1151,
  "prayerBook": 5608,
  "retaliate": true,
  "expLock": false,
  "gwkc": [
    0,
    0,
    0,
    0
  ],
  "poisoned": false,
  "poisonDmg": 0,
  "slayerTask": "Zulrah",
  "slayerAmount": 27,
  "slayerDifficulty": "BOSS",
  "skillsLevel": [
    96,
    99,
    99,
    97,
    99,
    98,
    58,
    1,
    1,
    1,
    1,
    1,
    1,
    1,
    1,
    1,
    33,
    43,
    99,
    1,
    1,
    1,
    1,
    1,
    1
  ],
  "experience": [
    1.0438666666666668E7,
    1.5088474666666663E8,
    1.3077066666666666E7,
    2.0E8,
    2.0E8,
    1.336132E7,
    231601.0,
    0.0,
    0.0,
    0.0,
    0.0,
    0.0,
    0.0,
    0.0,
    0.0,
    0.0,
    18800.0,
    52750.0,
    7.1081528E7,
    0.0,
    0.0,
    0.0,
    0.0,
    0.0,
    0.0
  ],
  "gender": 1,
  "appearance": [
    48,
    58,
    61,
    67,
    72,
    79,
    -1
  ],
  "colours": [
    5,
    5,
    6,
    0,
    0
  ],
  "left": 0,
  "skullIcon": -1,
  "bright": 4,
  "multipleMouse": 0,
  "chatEffects": 0,
  "splitPrivate": 1,
  "transparentPanel": 0,
  "transparentChatbox": 0,
  "sideStones": 0,
  "acceptAid": 0,
  "pouchPayment": false,
  "friends": [
    "bigboy",
    "tor",
    "purerangesaw",
    "lawendy",
    "whatbruv",
    "goten",
    "ushio",
    "organic",
    "ehhzylo",
    "ehhhzylo",
    "derek",
    "derek123",
    "nick",
    "views",
    "cheese",
    "shreadmaster",
    "anthony123",
    "1",
    "kaneki",
    "hex",
    "range owns6",
    "jlaw12",
    "the bros 2",
    "d4rk k0",
    "morgzy"
  ],
  "ignores": [],
  "yearCreated": 2016,
  "dayCreated": 205,
  "recoilStage": -1,
  "spec": 100,
  "attackStyle": "DEFENSIVE",
  "attackType": "CRUSH",
  "energy": 100.0,
  "lastLoginDay": 232,
  "lastLoginYear": 0,
  "host": "0106bc4dfb232d43.gv.shawcable.net/184.66.152.142",
  "votePoints": 0,
  "degrading": [
    null,
    null,
    null,
    null,
    null,
    null,
    null,
    null,
    null,
    null,
    null,
    null,
    null,
    null,
    null,
    null,
    null,
    null,
    null,
    null,
    null,
    null,
    null,
    null,
    null,
    null,
    null,
    null,
    null,
    null,
    null,
    null,
    null,
    null,
    null,
    null,
    null,
    null,
    null,
    null,
    null,
    null,
    null,
    null,
    null,
    null,
    null,
    null,
    null,
    null
  ],
  "dragonFireShieldCharges": 50,
  "slayerPoints": 15,
  "musicVolume": 3,
  "soundVolume": 3,
  "savedArrows": [
    null,
    null,
    null,
    null,
    null,
    null,
    null,
    null,
    null,
    null,
    null,
    null,
    null,
    null,
    null,
    null,
    null,
    null,
    null,
    null,
    null,
    null,
    null,
    null,
    null,
    null,
    null,
    null,
    null,
    null,
    null,
    null,
    null,
    null,
    null,
    null,
    null,
    null,
    null,
    null
  ],
  "wantsTrivia": true,
  "triviaNotification": false,
  "deaths": 0,
  "kills": 0,
  "warPoints": 0,
  "rogueKills": 0,
  "rogueRecord": 0,
  "hunterKills": 0,
  "hunterRecord": 0,
  "credits": 0,
  "moneySpent": 0,
  "bountyPoints": 0,
  "lastLike": 0,
  "likesGiven": 0,
  "likes": 0,
  "dislikes": 0,
  "profileViews": 0,
  "fullName": "",
  "IP": "",
  "emailAddress": "",
  "recovery": "",
  "pins": "9926",
  "running": true,
  "logPackets": false,
  "weaponPoints": 0,
  "summoningTime": -1,
  "summoningSpecialAmount": 60,
  "summoningFamiliar": -1,
  "summoningAttack": false,
  "pestPoints": 10,
  "triviaPoints": 2,
  "abyssalPoints": 6825,
  "teleblockTime": 0,
  "blackMarks": 0,
  "rareDropEP": 0.0,
  "rareDropsReceived": 26,
  "skillGoals": [
    [
      0,
      0,
      0
    ],
    [
      0,
      0,
      0
    ],
    [
      0,
      0,
      0
    ],
    [
      0,
      0,
      0
    ],
    [
      0,
      0,
      0
    ],
    [
      0,
      0,
      0
    ],
    [
      0,
      0,
      0
    ],
    [
      0,
      0,
      0
    ],
    [
      0,
      0,
      0
    ],
    [
      0,
      0,
      0
    ],
    [
      0,
      0,
      0
    ],
    [
      0,
      0,
      0
    ],
    [
      0,
      0,
      0
    ],
    [
      0,
      0,
      0
    ],
    [
      0,
      0,
      0
    ],
    [
      0,
      0,
      0
    ],
    [
      0,
      0,
      0
    ],
    [
      0,
      0,
      0
    ],
    [
      0,
      0,
      0
    ],
    [
      0,
      0,
      0
    ],
    [
      0,
      0,
      0
    ],
    [
      0,
      0,
      0
    ],
    [
      0,
      0,
      0
    ],
    [
      0,
      0,
      0
    ],
    [
      0,
      0,
      0
    ],
    [
      0,
      0,
      0
    ]
  ],
  "lastKilledPlayers": [],
  "playerAchievements": {
    "KILL_75_COWS": 0,
    "KILL_100_CALLISTO": 100,
    "SHEAR_10_SHEEPS": 0,
    "COMPLETE_10_SLAYER_TASKS": 10,
    "BURN_500_LOGS": 0,
    "CHOP_DOWN_350_TREES": 0,
    "BURN_200_LOGS": 0,
    "KILL_150_KRAKENS": 26,
    "KILL_25_KRAKENS": 25,
    "EQUIP_DRAGON_CLAWS": 0,
    "BURY_150_BONES": 84,
    "RESET_1_STATISTICS": 0,
    "FAIL_15_TIMES_THIEVING_STALLS": 50,
    "DIE_10_TIME": 10,
    "KILL_KING_BLACK_DRAGON": 50,
    "MINE_500_ROCKS": 0,
    "VIEW_TABLE": 1,
    "DIE_1_TIME": 1,
    "ANSWER_30_TRIVIABOTS_CORRECTLY": 18,
    "COMPLETE_50_GNOME_COURSES": 1,
    "USE_THE_SUPER_HEATING_SPELL_25_TIMES": 0,
    "COOK_500_FOODS": 0,
    "KILL_100_ZULRAHS": 100,
    "LOOT_1_BARROWS_CHESTS": 0,
    "LOOT_25_BARROWS_CHESTS": 0,
    "DRINK_100_POTIONS": 100,
    "VISIT_DZ": 1,
    "VOTE_5_TIMES": 0,
    "COOK_250_FOODS": 0,
    "CATCH_100_IMPLINGS": 0,
    "BURY_500_BONES": 84,
    "DIE_50_TIME": 50,
    "COMPLETE_100_SLAYER_TASKS": 62,
    "EXCHANGE_500_ITEMS_PILES": 0,
    "KILL_1_GORILLA": 1,
    "OPEN_5_MBOX": 5,
    "COMPLETE_100_BARB_COURSES": 0,
    "CATCH_25_IMPLINGS": 0,
    "OBTAIN_10_FIRECAPES": 1,
    "KILL_15_PLAYER": 18,
    "SPEND_5000000_ON_SHOPS": 121178581,
    "KILL_250_SKELETAL_WYVERNS": 0,
    "KILL_1_PLAYER": 0,
    "CHANGE_APPEARANCE": 1,
    "CRAFT_1000_NATURE_RUNES": 0,
    "ANSWER_15_TRIVIABOTS_CORRECTLY": 15,
    "EAT_100_FOODS": 100,
    "ENCHANT_500_BOLTS": 0,
    "STRING_50_AMULETS": 0,
    "OBTAIN_1_BOSS_PET": 0,
    "SETUP_A_BANK_PIN": 1,
    "OPEN_10_CASKET": 6,
    "SHEAR_150_SHEEPS": 0,
    "OPEN_50_CRYSTAL_CHESTS": 50,
    "KILL_100_CYCLOPS": 0,
    "KILL_10_MITH": 0,
    "WIN_30_PEST_CONTROL_GAMES": 30,
    "OPEN_25_MBOX": 25,
    "THIEVE_100_TIMES_FROM_STALLS": 1,
    "OBTAIN_25_FIRECAPES": 1,
    "EARN_100_PEST_CONTROL_POINTS": 100,
    "OPEN_15_ITEM_SETS": 1,
    "OBTAIN_3_BOSS_PET": 0,
    "KILL_50_PLAYER": 0,
    "DO_A_SKILLCAPE_EMOTE": 1,
    "KILL_ROCK_CRABS": 3,
    "CUT_250_GEMS": 0,
    "EARN_500_PEST_CONTROL_POINTS": 500,
    "HIGH_ALCH_250_ITEMS": 0,
    "SPEND_100000000_ON_SHOPS": 121178581,
    "OBTAIN_10_RARE_DROPS": 0,
    "CHOP_DOWN_150_TREES": 0,
    "CAST_VENGEANCE_350_TIMES": 0
  },
  "achievementsPoints": 0,
  "unlockedCredits": [],
  "quickPrayers": [
    false,
    false,
    false,
    false,
    false,
    false,
    false,
    false,
    false,
    false,
    false,
    false,
    false,
    true,
    false,
    false,
    false,
    true,
    false,
    true,
    false,
    false,
    false,
    false,
    false,
    false
  ],
  "LastLoginYear": 0,
  "LastLoginMonth": 0,
  "LastLoginDate": 0,
  "LoginStreak": 0,
  "playerProperties": {
    "PROPERTY_MOB_GIANT_MOLE": 25.0,
    "PROPERTY_MOB_KREE\u0027ARRA": 2.0,
    "PROPERTY_MOB_SEA_TROLL_QUEEN": 0.0,
    "PROPERTY_MOB_TZTOK-JAD": 1.0,
    "PROPERTY_MOB_ABYSSAL_DEMON": 33.0,
    "PROPERTY_MOB_ZULRAH": 844.0,
    "PROPERTY_MOB_COMMANDER_ZILYANA": 2.0,
    "PROPERTY_MOB_DAGANNOTH_SUPREME": 1.0,
    "PROPERTY_MOB_CRAZY_ARCHAEOLOGIST": 0.0,
    "PROPERTY_MOB_KING_BLACK_DRAGON": 117.0,
    "PROPERTY_MOB_CHAOS_ELEMENTAL": 26.0,
    "PROPERTY_MOB_DARK_BEAST": 0.0,
    "PROPERTY_MOB_DAGANNOTH_REX": 0.0,
    "PROPERTY_MOB_CORPOREAL_BEAST": 0.0,
    "PROPERTY_MOB_K\u0027RIL_TSUTSAROTH": 0.0,
    "PROPERTY_MOB_VENENATIS": 0.0,
    "PROPERTY_MOB_CALLISTO": 117.0,
    "PROPERTY_MOB_VET\u0027ION_REBORN": 0.0,
    "PROPERTY_MOB_GENERAL_GRAARDOR": 2.0,
    "PROPERTY_MOB_DAGANNOTH_PRIME": 66.0,
    "PROPERTY_MOB_ANCIENT_GORILLA": 15.0,
    "PROPERTY_MOB_NECHRYAEL": 0.0,
    "PROPERTY_MOB_KRAKEN": 26.0,
    "PROPERTY_MOB_SCORPIA": 0.0,
    "PROPERTY_MOB_CHAOS_FANATIC": 71.0,
    "PROPERTY_BARROWS_BARROWS_CHESTS": 0.0,
    "PROPERTY_MOB_BARRELCHEST": 63.0
  },
  "expCounter": 8.0780052E7,
  "prestigePoints": 0,
  "prestiges": [
    0,
    0,
    0,
    0,
    0,
    0,
    0,
    0,
    0,
    0,
    0,
    0,
    0,
    0,
    0,
    0,
    0,
    0,
    0,
    0,
    0,
    0,
    0,
    0,
    0
  ],
  "blowpipe": {
    "blowpipeAmmo": {
      "id": 11230,
      "amount": 6306
    },
    "blowpipeCharge": -31327
  },
  "seasTrident": {
    "tridentCharge": 0
  },
  "swampTrident": {
    "tridentCharge": 0
  },
  "serpentineHelmet": {
    "charges": 0
  }
}