{
  "essAmount": 0,
  "username": "Doppelganger",
  "password": "asdf1234",
  "x": 3203,
  "y": 3435,
  "z": 0,
  "rights": 11,
  "lastKnownUID": "1038119083568766413",
  "cluesCompleted": [
    0,
    3,
    1,
    0
  ],
  "yellTitle": "Member",
  "unlockedTitles": [],
  "banned": false,
  "banLength": 0,
  "moneyPouch": 0,
  "jailLength": 0,
  "shopCollection": 0,
  "lastClanChat": "help",
  "muted": false,
  "isMember": false,
  "isDicer": false,
  "isIron": true,
  "isUltimateIron": false,
  "jailed": false,
  "muteLength": 0,
  "fightCavesWave": 0,
  "magicBook": 1151,
  "prayerBook": 5608,
  "retaliate": true,
  "expLock": false,
  "gwkc": [
    0,
    0,
    0,
    0
  ],
  "poisoned": true,
  "poisonDmg": 5,
  "slayerTask": "Smoke devil",
  "slayerAmount": 17,
  "slayerDifficulty": "HIGH",
  "skillsLevel": [
    99,
    99,
    99,
    99,
    99,
    8,
    69,
    80,
    41,
    51,
    80,
    1,
    72,
    64,
    80,
    72,
    65,
    58,
    77,
    54,
    54,
    1,
    76,
    1,
    1
  ],
  "experience": [
    1.78864E7,
    1.306244E7,
    2.0744E7,
    2.56651E7,
    2.7533E7,
    1229610.0,
    700624.0,
    2142340.0,
    45312.5,
    118320.0,
    2021910.0,
    0.0,
    988972.25,
    416590.0,
    2036750.0,
    982030.0,
    469169.99797821045,
    226500.0,
    1610928.0,
    162925.0,
    163170.0,
    0.0,
    1376284.0,
    0.0,
    0.0
  ],
  "gender": 0,
  "appearance": [
    7,
    21,
    27,
    33,
    39,
    43,
    11
  ],
  "colours": [
    8,
    1,
    2,
    3,
    1
  ],
  "left": 0,
  "skullIcon": -1,
  "bright": 4,
  "multipleMouse": 0,
  "chatEffects": 0,
  "splitPrivate": 1,
  "transparentPanel": 0,
  "transparentChatbox": 0,
  "sideStones": 0,
  "acceptAid": 0,
  "pouchPayment": false,
  "friends": [
    "jamian",
    "stefanos",
    "ipkpros",
    "pressure",
    "tor",
    "slime",
    "shredmaster",
    "iron tor",
    "goten",
    "bitcoin",
    "derek",
    "hard",
    "legend",
    "soft",
    "john",
    "lol omg",
    "dr buttsecks",
    "bigboy",
    "afk",
    "inflexion",
    "kangaroo",
    "iron pfraru",
    "gibby"
  ],
  "ignores": [],
  "yearCreated": 2016,
  "dayCreated": 190,
  "recoilStage": 32,
  "spec": 100,
  "attackStyle": "AGGRESSIVE",
  "attackType": "CRUSH",
  "energy": 100.0,
  "lastLoginDay": 231,
  "lastLoginYear": 0,
  "host": "75.120.146.79",
  "votePoints": 0,
  "degrading": [
    null,
    null,
    null,
    null,
    null,
    null,
    null,
    null,
    null,
    null,
    null,
    null,
    null,
    null,
    null,
    null,
    null,
    null,
    null,
    null,
    null,
    null,
    null,
    null,
    null,
    null,
    null,
    null,
    null,
    null,
    null,
    null,
    null,
    null,
    null,
    null,
    null,
    null,
    null,
    null,
    null,
    null,
    null,
    null,
    null,
    null,
    null,
    null,
    null,
    null
  ],
  "dragonFireShieldCharges": 0,
  "slayerPoints": 8,
  "musicVolume": 3,
  "soundVolume": 3,
  "savedArrows": [
    null,
    null,
    null,
    null,
    null,
    null,
    null,
    null,
    null,
    null,
    null,
    null,
    null,
    null,
    null,
    null,
    null,
    null,
    null,
    null,
    null,
    null,
    null,
    null,
    null,
    null,
    null,
    null,
    null,
    null,
    null,
    null,
    null,
    null,
    null,
    null,
    null,
    null,
    null,
    null
  ],
  "wantsTrivia": true,
  "triviaNotification": false,
  "deaths": 0,
  "kills": 0,
  "warPoints": 0,
  "rogueKills": 0,
  "rogueRecord": 0,
  "hunterKills": 0,
  "hunterRecord": 0,
  "credits": 0,
  "moneySpent": 0,
  "bountyPoints": 200000,
  "lastLike": 0,
  "likesGiven": 0,
  "likes": 0,
  "dislikes": 0,
  "profileViews": 0,
  "fullName": "",
  "IP": "",
  "emailAddress": "",
  "recovery": "",
  "running": true,
  "logPackets": false,
  "weaponPoints": 0,
  "summoningTime": -1,
  "summoningSpecialAmount": 60,
  "summoningFamiliar": -1,
  "summoningAttack": false,
  "pestPoints": 0,
  "triviaPoints": 2,
  "abyssalPoints": 235,
  "teleblockTime": 0,
  "blackMarks": 0,
  "rareDropEP": 1.8144,
  "rareDropsReceived": 42,
  "skillGoals": [
    [
      0,
      0,
      0
    ],
    [
      0,
      0,
      0
    ],
    [
      0,
      0,
      0
    ],
    [
      0,
      0,
      0
    ],
    [
      0,
      0,
      0
    ],
    [
      0,
      0,
      0
    ],
    [
      0,
      0,
      0
    ],
    [
      0,
      0,
      0
    ],
    [
      0,
      0,
      0
    ],
    [
      0,
      0,
      0
    ],
    [
      0,
      0,
      0
    ],
    [
      0,
      0,
      0
    ],
    [
      0,
      0,
      0
    ],
    [
      0,
      0,
      0
    ],
    [
      0,
      0,
      0
    ],
    [
      0,
      0,
      0
    ],
    [
      0,
      0,
      0
    ],
    [
      0,
      0,
      0
    ],
    [
      0,
      0,
      0
    ],
    [
      0,
      0,
      0
    ],
    [
      0,
      0,
      0
    ],
    [
      0,
      0,
      0
    ],
    [
      0,
      0,
      0
    ],
    [
      0,
      0,
      0
    ],
    [
      0,
      0,
      0
    ],
    [
      0,
      0,
      0
    ]
  ],
  "lastKilledPlayers": [],
  "playerAchievements": {
    "SHEAR_10_SHEEPS": 0,
    "OBTAIN_10_RARE_DROPS": 0,
    "COMPLETE_100_SLAYER_TASKS": 6,
    "CHANGE_APPEARANCE": 1,
    "KILL_150_KRAKENS": 0,
    "STRING_50_AMULETS": 0,
    "EXCHANGE_500_ITEMS_PILES": 0,
    "COOK_500_FOODS": 500,
    "RESET_1_STATISTICS": 0,
    "CHOP_DOWN_350_TREES": 68,
    "MINE_500_ROCKS": 461,
    "EARN_100_PEST_CONTROL_POINTS": 70,
    "EAT_100_FOODS": 100,
    "DIE_1_TIME": 1,
    "HIGH_ALCH_250_ITEMS": 0,
    "ANSWER_30_TRIVIABOTS_CORRECTLY": 23,
    "OBTAIN_10_FIRECAPES": 1,
    "VOTE_5_TIMES": 0,
    "OPEN_50_CRYSTAL_CHESTS": 21,
    "SHEAR_150_SHEEPS": 0,
    "KILL_ROCK_CRABS": 5,
    "ANSWER_15_TRIVIABOTS_CORRECTLY": 15,
    "SETUP_A_BANK_PIN": 0,
    "KILL_1_PLAYER": 0,
    "FAIL_15_TIMES_THIEVING_STALLS": 0,
    "BURY_150_BONES": 6,
    "ENCHANT_500_BOLTS": 0,
    "DRINK_100_POTIONS": 100,
    "OBTAIN_1_BOSS_PET": 0,
    "OPEN_10_CASKET": 0,
    "WIN_30_PEST_CONTROL_GAMES": 7,
    "DIE_50_TIME": 7,
    "KILL_100_CYCLOPS": 0,
    "BURY_500_BONES": 6,
    "KILL_1_GORILLA": 1,
    "OPEN_5_MBOX": 5,
    "KILL_50_PLAYER": 0,
    "EQUIP_DRAGON_CLAWS": 0,
    "KILL_250_SKELETAL_WYVERNS": 0,
    "BURN_200_LOGS": 0,
    "CUT_250_GEMS": 250,
    "KILL_KING_BLACK_DRAGON": 0,
    "COMPLETE_100_BARB_COURSES": 21,
    "BURN_500_LOGS": 0,
    "SPEND_100000000_ON_SHOPS": 1456488,
    "CAST_VENGEANCE_350_TIMES": 0,
    "KILL_100_ZULRAHS": 19,
    "EARN_500_PEST_CONTROL_POINTS": 70,
    "DO_A_SKILLCAPE_EMOTE": 0,
    "CATCH_25_IMPLINGS": 25,
    "COOK_250_FOODS": 250,
    "OBTAIN_25_FIRECAPES": 1,
    "VIEW_TABLE": 1,
    "CRAFT_1000_NATURE_RUNES": 0,
    "OBTAIN_3_BOSS_PET": 0,
    "KILL_75_COWS": 75,
    "COMPLETE_50_GNOME_COURSES": 5,
    "OPEN_15_ITEM_SETS": 0,
    "VISIT_DZ": 0,
    "SPEND_5000000_ON_SHOPS": 1456488,
    "CHOP_DOWN_150_TREES": 68,
    "COMPLETE_10_SLAYER_TASKS": 6,
    "KILL_15_PLAYER": 0,
    "OPEN_25_MBOX": 6,
    "USE_THE_SUPER_HEATING_SPELL_25_TIMES": 0,
    "KILL_100_CALLISTO": 0,
    "KILL_10_MITH": 10,
    "DIE_10_TIME": 7,
    "KILL_25_KRAKENS": 0,
    "THIEVE_100_TIMES_FROM_STALLS": 0,
    "CATCH_100_IMPLINGS": 100
  },
  "achievementsPoints": 4,
  "unlockedCredits": [],
  "quickPrayers": [
    false,
    false,
    false,
    false,
    false,
    false,
    false,
    false,
    false,
    false,
    false,
    false,
    false,
    false,
    false,
    false,
    false,
    false,
    true,
    false,
    false,
    false,
    false,
    false,
    false,
    false
  ],
  "LastLoginYear": 0,
  "LastLoginMonth": 0,
  "LastLoginDate": 0,
  "LoginStreak": 0,
  "playerProperties": {
    "PROPERTY_MOB_GIANT_MOLE": 0.0,
    "PROPERTY_MOB_KREE\u0027ARRA": 0.0,
    "PROPERTY_MOB_SEA_TROLL_QUEEN": 1.0,
    "PROPERTY_MOB_TZTOK-JAD": 1.0,
    "PROPERTY_MOB_ABYSSAL_DEMON": 0.0,
    "PROPERTY_MOB_ZULRAH": 19.0,
    "PROPERTY_MOB_COMMANDER_ZILYANA": 0.0,
    "PROPERTY_MOB_DAGANNOTH_SUPREME": 0.0,
    "PROPERTY_MOB_CRAZY_ARCHAEOLOGIST": 0.0,
    "PROPERTY_MOB_KING_BLACK_DRAGON": 0.0,
    "PROPERTY_MOB_CHAOS_ELEMENTAL": 0.0,
    "PROPERTY_MOB_DARK_BEAST": 0.0,
    "PROPERTY_MOB_DAGANNOTH_REX": 0.0,
    "PROPERTY_MOB_CORPOREAL_BEAST": 0.0,
    "PROPERTY_MOB_K\u0027RIL_TSUTSAROTH": 0.0,
    "PROPERTY_MOB_VENENATIS": 0.0,
    "PROPERTY_MOB_CALLISTO": 0.0,
    "PROPERTY_MOB_VET\u0027ION_REBORN": 0.0,
    "PROPERTY_MOB_GENERAL_GRAARDOR": 0.0,
    "PROPERTY_MOB_DAGANNOTH_PRIME": 0.0,
    "PROPERTY_MOB_ANCIENT_GORILLA": 2.0,
    "PROPERTY_MOB_NECHRYAEL": 0.0,
    "PROPERTY_MOB_KRAKEN": 0.0,
    "PROPERTY_MOB_SCORPIA": 0.0,
    "PROPERTY_MOB_CHAOS_FANATIC": 0.0,
    "PROPERTY_BARROWS_BARROWS_CHESTS": 23.0,
    "PROPERTY_MOB_BARRELCHEST": 0.0
  },
  "expCounter": 0.0,
  "prestigePoints": 0,
  "prestiges": [
    0,
    0,
    0,
    0,
    0,
    0,
    0,
    0,
    0,
    0,
    0,
    0,
    0,
    0,
    0,
    0,
    0,
    0,
    0,
    0,
    0,
    0,
    0,
    0,
    0
  ],
  "blowpipe": {
    "blowpipeCharge": 0
  },
  "seasTrident": {
    "tridentCharge": 0
  },
  "swampTrident": {
    "tridentCharge": 0
  },
  "serpentineHelmet": {
    "charges": 0
  }
}