{
  "essAmount": 0,
  "username": "Dre333",
  "password": "Workout33",
  "x": 3566,
  "y": 3275,
  "z": 0,
  "rights": 11,
  "lastKnownUID": "1038119083568766413",
  "cluesCompleted": [
    0,
    0,
    0,
    0
  ],
  "yellTitle": "Member",
  "unlockedTitles": [],
  "banned": false,
  "banLength": 0,
  "moneyPouch": 0,
  "jailLength": 0,
  "shopCollection": 0,
  "lastClanChat": "help",
  "muted": false,
  "isMember": false,
  "isDicer": false,
  "isIron": true,
  "isUltimateIron": false,
  "jailed": false,
  "muteLength": 0,
  "fightCavesWave": 0,
  "magicBook": 1151,
  "prayerBook": 5608,
  "retaliate": true,
  "expLock": false,
  "gwkc": [
    0,
    0,
    0,
    0
  ],
  "poisoned": false,
  "poisonDmg": 0,
  "slayerTask": "Aberrant spectre",
  "slayerAmount": 37,
  "slayerDifficulty": "HIGH",
  "skillsLevel": [
    89,
    85,
    99,
    86,
    99,
    61,
    70,
    81,
    84,
    80,
    80,
    8,
    38,
    60,
    68,
    2,
    36,
    49,
    83,
    1,
    1,
    1,
    1,
    1,
    1
  ],
  "experience": [
    5176000.0,
    3424800.0,
    1.3108E7,
    1.1527998E7,
    1.350888E7,
    778132.5,
    748158.5,
    2406010.0,
    3029125.0,
    2035396.0,
    2138400.0,
    960.0,
    30602.25,
    279730.0,
    655500.0,
    105.0,
    25950.0,
    98000.0,
    2920848.0,
    0.0,
    0.0,
    0.0,
    0.0,
    0.0,
    0.0
  ],
  "gender": 0,
  "appearance": [
    0,
    18,
    26,
    33,
    36,
    42,
    10
  ],
  "colours": [
    0,
    0,
    0,
    0,
    0
  ],
  "left": 0,
  "skullIcon": -1,
  "bright": 4,
  "multipleMouse": 0,
  "chatEffects": 0,
  "splitPrivate": 0,
  "transparentPanel": 0,
  "transparentChatbox": 0,
  "sideStones": 0,
  "acceptAid": 0,
  "pouchPayment": false,
  "friends": [],
  "ignores": [],
  "yearCreated": 2016,
  "dayCreated": 225,
  "recoilStage": -1,
  "spec": 100,
  "attackStyle": "ACCURATE",
  "attackType": "STAB",
  "energy": 100.0,
  "lastLoginDay": 231,
  "lastLoginYear": 0,
  "host": "ol-457b7428.dyn.optonline.net/69.123.116.40",
  "votePoints": 0,
  "degrading": [
    null,
    null,
    null,
    null,
    null,
    null,
    null,
    null,
    null,
    null,
    null,
    null,
    null,
    null,
    null,
    null,
    null,
    null,
    null,
    null,
    null,
    null,
    null,
    null,
    null,
    null,
    null,
    null,
    null,
    null,
    null,
    null,
    null,
    null,
    null,
    null,
    null,
    null,
    null,
    null,
    null,
    null,
    null,
    null,
    null,
    null,
    null,
    null,
    null,
    null
  ],
  "dragonFireShieldCharges": 0,
  "slayerPoints": 10,
  "musicVolume": 3,
  "soundVolume": 3,
  "savedArrows": [
    null,
    null,
    null,
    null,
    null,
    null,
    null,
    null,
    null,
    null,
    null,
    null,
    null,
    null,
    null,
    null,
    null,
    null,
    null,
    null,
    null,
    null,
    null,
    null,
    null,
    null,
    null,
    null,
    null,
    null,
    null,
    null,
    null,
    null,
    null,
    null,
    null,
    null,
    null,
    null
  ],
  "wantsTrivia": true,
  "triviaNotification": false,
  "deaths": 0,
  "kills": 0,
  "warPoints": 0,
  "rogueKills": 0,
  "rogueRecord": 0,
  "hunterKills": 0,
  "hunterRecord": 0,
  "credits": 50,
  "moneySpent": 0,
  "bountyPoints": 0,
  "lastLike": 0,
  "likesGiven": 0,
  "likes": 0,
  "dislikes": 0,
  "profileViews": 0,
  "fullName": "",
  "IP": "",
  "emailAddress": "",
  "recovery": "",
  "running": true,
  "logPackets": false,
  "weaponPoints": 0,
  "summoningTime": -1,
  "summoningSpecialAmount": 60,
  "summoningFamiliar": -1,
  "summoningAttack": false,
  "pestPoints": 0,
  "triviaPoints": 0,
  "abyssalPoints": 0,
  "teleblockTime": 0,
  "blackMarks": 0,
  "rareDropEP": 2.0025,
  "rareDropsReceived": 70,
  "skillGoals": [
    [
      0,
      0,
      0
    ],
    [
      0,
      0,
      0
    ],
    [
      0,
      0,
      0
    ],
    [
      0,
      0,
      0
    ],
    [
      11356400,
      99,
      0
    ],
    [
      0,
      0,
      0
    ],
    [
      0,
      0,
      0
    ],
    [
      1376490,
      80,
      0
    ],
    [
      0,
      0,
      0
    ],
    [
      0,
      0,
      0
    ],
    [
      34320,
      75,
      0
    ],
    [
      0,
      0,
      0
    ],
    [
      0,
      0,
      0
    ],
    [
      0,
      0,
      0
    ],
    [
      311750,
      75,
      0
    ],
    [
      0,
      0,
      0
    ],
    [
      0,
      0,
      0
    ],
    [
      0,
      0,
      0
    ],
    [
      0,
      0,
      0
    ],
    [
      0,
      0,
      0
    ],
    [
      0,
      0,
      0
    ],
    [
      0,
      0,
      0
    ],
    [
      0,
      0,
      0
    ],
    [
      0,
      0,
      0
    ],
    [
      0,
      0,
      0
    ],
    [
      0,
      0,
      0
    ]
  ],
  "lastKilledPlayers": [],
  "playerAchievements": {
    "SHEAR_10_SHEEPS": 0,
    "OBTAIN_10_RARE_DROPS": 0,
    "COMPLETE_100_SLAYER_TASKS": 13,
    "CHANGE_APPEARANCE": 1,
    "KILL_150_KRAKENS": 0,
    "STRING_50_AMULETS": 0,
    "EXCHANGE_500_ITEMS_PILES": 0,
    "COOK_500_FOODS": 500,
    "RESET_1_STATISTICS": 0,
    "CHOP_DOWN_350_TREES": 113,
    "MINE_500_ROCKS": 289,
    "EARN_100_PEST_CONTROL_POINTS": 0,
    "EAT_100_FOODS": 100,
    "DIE_1_TIME": 0,
    "HIGH_ALCH_250_ITEMS": 0,
    "ANSWER_30_TRIVIABOTS_CORRECTLY": 0,
    "OBTAIN_10_FIRECAPES": 0,
    "VOTE_5_TIMES": 0,
    "OPEN_50_CRYSTAL_CHESTS": 31,
    "SHEAR_150_SHEEPS": 0,
    "KILL_ROCK_CRABS": 0,
    "ANSWER_15_TRIVIABOTS_CORRECTLY": 0,
    "SETUP_A_BANK_PIN": 0,
    "KILL_1_PLAYER": 0,
    "FAIL_15_TIMES_THIEVING_STALLS": 0,
    "BURY_150_BONES": 150,
    "ENCHANT_500_BOLTS": 0,
    "DRINK_100_POTIONS": 8,
    "OBTAIN_1_BOSS_PET": 1,
    "OPEN_10_CASKET": 1,
    "WIN_30_PEST_CONTROL_GAMES": 0,
    "DIE_50_TIME": 0,
    "KILL_100_CYCLOPS": 0,
    "BURY_500_BONES": 190,
    "KILL_1_GORILLA": 0,
    "OPEN_5_MBOX": 5,
    "KILL_50_PLAYER": 0,
    "EQUIP_DRAGON_CLAWS": 0,
    "KILL_250_SKELETAL_WYVERNS": 0,
    "BURN_200_LOGS": 1,
    "CUT_250_GEMS": 0,
    "KILL_KING_BLACK_DRAGON": 0,
    "COMPLETE_100_BARB_COURSES": 0,
    "BURN_500_LOGS": 1,
    "SPEND_100000000_ON_SHOPS": 72383,
    "CAST_VENGEANCE_350_TIMES": 0,
    "KILL_100_ZULRAHS": 0,
    "EARN_500_PEST_CONTROL_POINTS": 0,
    "DO_A_SKILLCAPE_EMOTE": 0,
    "CATCH_25_IMPLINGS": 0,
    "COOK_250_FOODS": 250,
    "OBTAIN_25_FIRECAPES": 0,
    "VIEW_TABLE": 1,
    "CRAFT_1000_NATURE_RUNES": 0,
    "OBTAIN_3_BOSS_PET": 0,
    "KILL_75_COWS": 75,
    "COMPLETE_50_GNOME_COURSES": 3,
    "OPEN_15_ITEM_SETS": 0,
    "VISIT_DZ": 0,
    "SPEND_5000000_ON_SHOPS": 72383,
    "CHOP_DOWN_150_TREES": 113,
    "COMPLETE_10_SLAYER_TASKS": 10,
    "KILL_15_PLAYER": 0,
    "OPEN_25_MBOX": 9,
    "USE_THE_SUPER_HEATING_SPELL_25_TIMES": 0,
    "KILL_100_CALLISTO": 0,
    "KILL_10_MITH": 0,
    "DIE_10_TIME": 0,
    "KILL_25_KRAKENS": 0,
    "THIEVE_100_TIMES_FROM_STALLS": 100,
    "CATCH_100_IMPLINGS": 0
  },
  "achievementsPoints": 6,
  "unlockedCredits": [],
  "quickPrayers": [
    false,
    false,
    false,
    false,
    false,
    false,
    false,
    false,
    false,
    false,
    false,
    false,
    false,
    false,
    false,
    false,
    false,
    false,
    false,
    false,
    false,
    false,
    false,
    false,
    false,
    false
  ],
  "LastLoginYear": 0,
  "LastLoginMonth": 0,
  "LastLoginDate": 0,
  "LoginStreak": 0,
  "playerProperties": {
    "PROPERTY_MOB_GIANT_MOLE": 0.0,
    "PROPERTY_MOB_KREE\u0027ARRA": 0.0,
    "PROPERTY_MOB_SEA_TROLL_QUEEN": 0.0,
    "PROPERTY_MOB_TZTOK-JAD": 0.0,
    "PROPERTY_MOB_ABYSSAL_DEMON": 0.0,
    "PROPERTY_MOB_ZULRAH": 0.0,
    "PROPERTY_MOB_COMMANDER_ZILYANA": 0.0,
    "PROPERTY_MOB_DAGANNOTH_SUPREME": 0.0,
    "PROPERTY_MOB_CRAZY_ARCHAEOLOGIST": 0.0,
    "PROPERTY_MOB_KING_BLACK_DRAGON": 0.0,
    "PROPERTY_MOB_CHAOS_ELEMENTAL": 0.0,
    "PROPERTY_MOB_DARK_BEAST": 0.0,
    "PROPERTY_MOB_DAGANNOTH_REX": 0.0,
    "PROPERTY_MOB_CORPOREAL_BEAST": 0.0,
    "PROPERTY_MOB_K\u0027RIL_TSUTSAROTH": 0.0,
    "PROPERTY_MOB_VENENATIS": 0.0,
    "PROPERTY_MOB_CALLISTO": 0.0,
    "PROPERTY_MOB_VET\u0027ION_REBORN": 0.0,
    "PROPERTY_MOB_GENERAL_GRAARDOR": 0.0,
    "PROPERTY_MOB_DAGANNOTH_PRIME": 0.0,
    "PROPERTY_MOB_ANCIENT_GORILLA": 0.0,
    "PROPERTY_MOB_NECHRYAEL": 0.0,
    "PROPERTY_MOB_KRAKEN": 0.0,
    "PROPERTY_MOB_SCORPIA": 0.0,
    "PROPERTY_MOB_CHAOS_FANATIC": 0.0,
    "PROPERTY_BARROWS_BARROWS_CHESTS": 1.0,
    "PROPERTY_MOB_BARRELCHEST": 0.0
  },
  "expCounter": 2.8095676E7,
  "prestigePoints": 0,
  "prestiges": [
    0,
    0,
    0,
    0,
    0,
    0,
    0,
    0,
    0,
    0,
    0,
    0,
    0,
    0,
    0,
    0,
    0,
    0,
    0,
    0,
    0,
    0,
    0,
    0,
    0
  ],
  "blowpipe": {
    "blowpipeCharge": 0
  },
  "seasTrident": {
    "tridentCharge": 0
  },
  "swampTrident": {
    "tridentCharge": 0
  },
  "serpentineHelmet": {
    "charges": 0
  }
}