{
  "essAmount": 0,
  "username": "Dylan",
  "password": "bat4geez",
  "x": 3429,
  "y": 2892,
  "z": 0,
  "rights": 0,
  "lastKnownUID": "1038119083568766413",
  "cluesCompleted": [
    0,
    2,
    2,
    0
  ],
  "yellTitle": "Member",
  "unlockedTitles": [],
  "banned": false,
  "banLength": 0,
  "moneyPouch": 0,
  "jailLength": 0,
  "shopCollection": 0,
  "lastClanChat": "help",
  "muted": false,
  "isMember": false,
  "isDicer": false,
  "isIron": false,
  "isUltimateIron": false,
  "jailed": false,
  "muteLength": 0,
  "fightCavesWave": 0,
  "magicBook": 1151,
  "prayerBook": 5608,
  "retaliate": true,
  "expLock": false,
  "gwkc": [
    0,
    0,
    0,
    0
  ],
  "poisoned": false,
  "poisonDmg": 0,
  "slayerTask": "Abyssal demon",
  "slayerAmount": 19,
  "slayerDifficulty": "HIGH",
  "skillsLevel": [
    99,
    99,
    99,
    99,
    99,
    71,
    56,
    1,
    1,
    1,
    1,
    1,
    1,
    1,
    1,
    1,
    52,
    46,
    86,
    1,
    1,
    1,
    1,
    1,
    1
  ],
  "experience": [
    2.25696E7,
    1.347452E7,
    3.3824E7,
    3.0027766E7,
    3.449052E7,
    818167.5,
    192950.69999999995,
    0.0,
    0.0,
    0.0,
    0.0,
    0.0,
    0.0,
    0.0,
    0.0,
    0.0,
    126568.99967575073,
    73825.0,
    3944976.0,
    0.0,
    0.0,
    0.0,
    0.0,
    0.0,
    0.0
  ],
  "gender": 0,
  "appearance": [
    0,
    18,
    26,
    33,
    36,
    42,
    10
  ],
  "colours": [
    0,
    0,
    0,
    0,
    0
  ],
  "left": 0,
  "skullIcon": -1,
  "bright": 4,
  "multipleMouse": 0,
  "chatEffects": 0,
  "splitPrivate": 0,
  "transparentPanel": 0,
  "transparentChatbox": 0,
  "sideStones": 0,
  "acceptAid": 0,
  "pouchPayment": false,
  "friends": [
    "a wild vayne",
    "olleking",
    "cheeyman2",
    "goten",
    "soft",
    "roger",
    "jamian",
    "michael",
    "pressure",
    "extfallen",
    "dr buttsecks",
    "sad stycal",
    "bounce up",
    "nate",
    "mr barrows",
    "pug",
    "iron pfraru",
    "derek"
  ],
  "ignores": [],
  "yearCreated": 2016,
  "dayCreated": 181,
  "recoilStage": -1,
  "spec": 100,
  "attackStyle": "AGGRESSIVE",
  "attackType": "CRUSH",
  "energy": 100.0,
  "lastLoginDay": 208,
  "lastLoginYear": 0,
  "host": "83.161.195.181",
  "votePoints": 0,
  "degrading": [
    null,
    null,
    null,
    null,
    null,
    null,
    null,
    null,
    null,
    null,
    null,
    null,
    null,
    null,
    null,
    null,
    null,
    null,
    null,
    null,
    null,
    null,
    null,
    null,
    null,
    null,
    null,
    null,
    null,
    null,
    null,
    null,
    null,
    null,
    null,
    null,
    null,
    null,
    null,
    null,
    null,
    null,
    null,
    null,
    null,
    null,
    null,
    null,
    null,
    null
  ],
  "dragonFireShieldCharges": 0,
  "slayerPoints": 36,
  "musicVolume": 3,
  "soundVolume": 3,
  "savedArrows": [
    null,
    null,
    null,
    null,
    null,
    null,
    null,
    null,
    null,
    null,
    null,
    null,
    null,
    null,
    null,
    null,
    null,
    null,
    null,
    null,
    null,
    null,
    null,
    null,
    null,
    null,
    null,
    null,
    null,
    null,
    null,
    null,
    null,
    null,
    null,
    null,
    null,
    null,
    null,
    null
  ],
  "wantsTrivia": true,
  "triviaNotification": false,
  "deaths": 0,
  "kills": 0,
  "rogueKills": 0,
  "rogueRecord": 0,
  "hunterKills": 0,
  "hunterRecord": 0,
  "credits": 0,
  "moneySpent": 0,
  "bountyPoints": 0,
  "lastLike": 0,
  "likesGiven": 0,
  "likes": 0,
  "dislikes": 0,
  "profileViews": 0,
  "fullName": "",
  "IP": "",
  "emailAddress": "",
  "recovery": "",
  "running": true,
  "logPackets": false,
  "weaponPoints": 0,
  "summoningTime": -1,
  "summoningSpecialAmount": 60,
  "summoningFamiliar": -1,
  "summoningAttack": false,
  "pestPoints": 15,
  "triviaPoints": 10,
  "abyssalPoints": 10,
  "teleblockTime": 0,
  "blackMarks": 0,
  "rareDropEP": 0.31360000000000005,
  "rareDropsReceived": 73,
  "skillGoals": [
    [
      0,
      0,
      0
    ],
    [
      0,
      0,
      0
    ],
    [
      0,
      0,
      0
    ],
    [
      0,
      0,
      0
    ],
    [
      0,
      0,
      0
    ],
    [
      0,
      0,
      0
    ],
    [
      0,
      0,
      0
    ],
    [
      0,
      0,
      0
    ],
    [
      0,
      0,
      0
    ],
    [
      0,
      0,
      0
    ],
    [
      0,
      0,
      0
    ],
    [
      0,
      0,
      0
    ],
    [
      0,
      0,
      0
    ],
    [
      0,
      0,
      0
    ],
    [
      0,
      0,
      0
    ],
    [
      0,
      0,
      0
    ],
    [
      0,
      0,
      0
    ],
    [
      0,
      0,
      0
    ],
    [
      0,
      0,
      0
    ],
    [
      0,
      0,
      0
    ],
    [
      0,
      0,
      0
    ],
    [
      0,
      0,
      0
    ],
    [
      0,
      0,
      0
    ],
    [
      0,
      0,
      0
    ],
    [
      0,
      0,
      0
    ],
    [
      0,
      0,
      0
    ]
  ],
  "lastKilledPlayers": [],
  "playerAchievements": {
    "COMPLETE_10_SLAYER_TASKS": 10,
    "CRAFT_1000_NATURE_RUNES": 0,
    "KILL_1_PLAYER": 0,
    "KILL_15_PLAYER": 0,
    "EAT_100_FOODS": 100,
    "OBTAIN_1_BOSS_PET": 0,
    "OBTAIN_10_RARE_DROPS": 0,
    "SHEAR_150_SHEEPS": 0,
    "USE_THE_SUPER_HEATING_SPELL_25_TIMES": 0,
    "COMPLETE_100_BARB_COURSES": 3,
    "SPEND_100000000_ON_SHOPS": 2721635,
    "DIE_50_TIME": 5,
    "KILL_75_COWS": 0,
    "FAIL_15_TIMES_THIEVING_STALLS": 0,
    "EARN_500_PEST_CONTROL_POINTS": 170,
    "KILL_100_ZULRAHS": 1,
    "COMPLETE_50_GNOME_COURSES": 9,
    "VOTE_5_TIMES": 0,
    "KILL_25_KRAKENS": 0,
    "OPEN_5_MBOX": 5,
    "BURN_200_LOGS": 0,
    "CATCH_25_IMPLINGS": 0,
    "MINE_500_ROCKS": 0,
    "KILL_100_CALLISTO": 0,
    "DRINK_100_POTIONS": 100,
    "DO_A_SKILLCAPE_EMOTE": 0,
    "WIN_30_PEST_CONTROL_GAMES": 17,
    "COOK_250_FOODS": 0,
    "EXCHANGE_500_ITEMS_PILES": 0,
    "KILL_10_MITH": 0,
    "THIEVE_100_TIMES_FROM_STALLS": 0,
    "CHANGE_APPEARANCE": 1,
    "CHOP_DOWN_350_TREES": 0,
    "KILL_1_GORILLA": 0,
    "KILL_250_SKELETAL_WYVERNS": 0,
    "HIGH_ALCH_250_ITEMS": 4,
    "DIE_10_TIME": 5,
    "RESET_1_STATISTICS": 0,
    "ENCHANT_500_BOLTS": 0,
    "ANSWER_15_TRIVIABOTS_CORRECTLY": 15,
    "OPEN_50_CRYSTAL_CHESTS": 37,
    "OBTAIN_10_FIRECAPES": 1,
    "BURY_150_BONES": 5,
    "OPEN_10_CASKET": 0,
    "CHOP_DOWN_150_TREES": 0,
    "COOK_500_FOODS": 0,
    "SETUP_A_BANK_PIN": 0,
    "EQUIP_DRAGON_CLAWS": 0,
    "SPEND_5000000_ON_SHOPS": 2721635,
    "EARN_100_PEST_CONTROL_POINTS": 100,
    "CAST_VENGEANCE_350_TIMES": 0,
    "KILL_50_PLAYER": 0,
    "OPEN_15_ITEM_SETS": 3,
    "KILL_ROCK_CRABS": 19,
    "ANSWER_30_TRIVIABOTS_CORRECTLY": 30,
    "KILL_KING_BLACK_DRAGON": 0,
    "KILL_100_CYCLOPS": 0,
    "CATCH_100_IMPLINGS": 0,
    "CUT_250_GEMS": 0,
    "BURY_500_BONES": 5,
    "DIE_1_TIME": 1,
    "OBTAIN_25_FIRECAPES": 1,
    "OPEN_25_MBOX": 7,
    "VISIT_DZ": 0,
    "VIEW_TABLE": 1,
    "SHEAR_10_SHEEPS": 0,
    "KILL_150_KRAKENS": 0,
    "STRING_50_AMULETS": 0,
    "OBTAIN_3_BOSS_PET": 0,
    "BURN_500_LOGS": 0,
    "COMPLETE_100_SLAYER_TASKS": 15
  },
  "achievementsPoints": 14,
  "unlockedCredits": [],
  "quickPrayers": [
    false,
    false,
    false,
    false,
    false,
    false,
    false,
    false,
    false,
    false,
    false,
    false,
    false,
    false,
    false,
    false,
    false,
    false,
    false,
    false,
    false,
    false,
    false,
    false,
    false,
    false
  ],
  "LastLoginYear": 0,
  "LastLoginMonth": 0,
  "LastLoginDate": 0,
  "LoginStreak": 0,
  "playerProperties": {
    "PROPERTY_MOB_GIANT_MOLE": 0.0,
    "PROPERTY_MOB_KREE\u0027ARRA": 0.0,
    "PROPERTY_MOB_SEA_TROLL_QUEEN": 1.0,
    "PROPERTY_MOB_TZTOK-JAD": 1.0,
    "PROPERTY_MOB_ABYSSAL_DEMON": 151.0,
    "PROPERTY_MOB_ZULRAH": 1.0,
    "PROPERTY_MOB_COMMANDER_ZILYANA": 0.0,
    "PROPERTY_MOB_DAGANNOTH_SUPREME": 0.0,
    "PROPERTY_MOB_CRAZY_ARCHAEOLOGIST": 0.0,
    "PROPERTY_MOB_KING_BLACK_DRAGON": 0.0,
    "PROPERTY_MOB_CHAOS_ELEMENTAL": 0.0,
    "PROPERTY_MOB_DARK_BEAST": 0.0,
    "PROPERTY_MOB_DAGANNOTH_REX": 0.0,
    "PROPERTY_MOB_CORPOREAL_BEAST": 0.0,
    "PROPERTY_MOB_K\u0027RIL_TSUTSAROTH": 0.0,
    "PROPERTY_MOB_VENENATIS": 0.0,
    "PROPERTY_MOB_CALLISTO": 0.0,
    "PROPERTY_MOB_VET\u0027ION_REBORN": 0.0,
    "PROPERTY_MOB_GENERAL_GRAARDOR": 0.0,
    "PROPERTY_MOB_DAGANNOTH_PRIME": 0.0,
    "PROPERTY_MOB_ANCIENT_GORILLA": 0.0,
    "PROPERTY_MOB_NECHRYAEL": 0.0,
    "PROPERTY_MOB_KRAKEN": 0.0,
    "PROPERTY_MOB_SCORPIA": 0.0,
    "PROPERTY_MOB_CHAOS_FANATIC": 0.0,
    "PROPERTY_BARROWS_BARROWS_CHESTS": 13.0,
    "PROPERTY_MOB_BARRELCHEST": 0.0
  },
  "expCounter": 1.34337583E8,
  "prestigePoints": 0,
  "prestiges": [
    0,
    0,
    0,
    0,
    0,
    0,
    0,
    0,
    0,
    0,
    0,
    0,
    0,
    0,
    0,
    0,
    0,
    0,
    0,
    0,
    0,
    0,
    0,
    0,
    0
  ],
  "blowpipe": {
    "blowpipeCharge": 0
  },
  "seasTrident": {
    "tridentCharge": 0
  },
  "swampTrident": {
    "tridentCharge": 0
  },
  "serpentineHelmet": {
    "charges": 0
  }
}