{
  "essAmount": 0,
  "username": "Gld",
  "password": "demon35425",
  "x": 3439,
  "y": 2897,
  "z": 0,
  "rights": 0,
  "lastKnownUID": "4896356730794260765",
  "cluesCompleted": [
    1,
    1,
    0,
    0
  ],
  "yellTitle": "Member",
  "unlockedTitles": [],
  "banned": false,
  "banLength": 0,
  "moneyPouch": 0,
  "jailLength": 0,
  "shopCollection": 0,
  "lastClanChat": "help",
  "muted": false,
  "isMember": true,
  "isDicer": false,
  "isIron": false,
  "isUltimateIron": false,
  "jailed": false,
  "muteLength": 0,
  "fightCavesWave": 0,
  "magicBook": 1151,
  "prayerBook": 5608,
  "retaliate": false,
  "expLock": false,
  "gwkc": [
    0,
    0,
    0,
    0
  ],
  "poisoned": false,
  "poisonDmg": 0,
  "slayerTask": "Callisto",
  "slayerAmount": 40,
  "slayerDifficulty": "BOSS",
  "skillsLevel": [
    99,
    99,
    99,
    99,
    99,
    97,
    62,
    90,
    1,
    1,
    88,
    1,
    83,
    1,
    1,
    1,
    99,
    99,
    99,
    1,
    53,
    1,
    1,
    1,
    1
  ],
  "experience": [
    2.2880800000000123E7,
    2.2872800000000127E7,
    2.4977600000000097E7,
    7.7349698E7,
    1.779096E8,
    1.09010375E7,
    336852.2999999996,
    5408720.0,
    0.0,
    0.0,
    4748480.0,
    0.0,
    2866547.25,
    0.0,
    0.0,
    0.0,
    1.3183529865264893E7,
    1.30421E7,
    2.0710344E7,
    0.0,
    143640.0,
    0.0,
    0.0,
    0.0,
    0.0
  ],
  "gender": 0,
  "appearance": [
    1,
    18,
    26,
    33,
    36,
    42,
    10
  ],
  "colours": [
    0,
    1,
    2,
    0,
    0
  ],
  "left": 0,
  "skullIcon": -1,
  "bright": 4,
  "multipleMouse": 0,
  "chatEffects": 0,
  "splitPrivate": 1,
  "transparentPanel": 0,
  "transparentChatbox": 0,
  "sideStones": 0,
  "acceptAid": 0,
  "pouchPayment": false,
  "friends": [
    "h0ly",
    "ash tray"
  ],
  "ignores": [],
  "yearCreated": 2016,
  "dayCreated": 211,
  "recoilStage": -1,
  "spec": 100,
  "attackStyle": "AGGRESSIVE",
  "attackType": "CRUSH",
  "energy": 100.0,
  "lastLoginDay": 233,
  "lastLoginYear": 0,
  "host": "08-192-87-4.lightspeed.bcvloh.sbcglobal.net/108.192.87.4",
  "votePoints": 0,
  "degrading": [
    null,
    null,
    null,
    null,
    null,
    null,
    null,
    null,
    null,
    null,
    null,
    null,
    null,
    null,
    null,
    null,
    null,
    null,
    null,
    null,
    null,
    null,
    null,
    null,
    null,
    null,
    null,
    null,
    null,
    null,
    null,
    null,
    null,
    null,
    null,
    null,
    null,
    null,
    null,
    null,
    null,
    null,
    null,
    null,
    null,
    null,
    null,
    null,
    null,
    null
  ],
  "dragonFireShieldCharges": 0,
  "slayerPoints": 13,
  "musicVolume": 3,
  "soundVolume": 3,
  "savedArrows": [
    null,
    null,
    null,
    null,
    null,
    null,
    null,
    null,
    null,
    null,
    null,
    null,
    null,
    null,
    null,
    null,
    null,
    null,
    null,
    null,
    null,
    null,
    null,
    null,
    null,
    null,
    null,
    null,
    null,
    null,
    null,
    null,
    null,
    null,
    null,
    null,
    null,
    null,
    null,
    null
  ],
  "wantsTrivia": true,
  "triviaNotification": false,
  "deaths": 0,
  "kills": 0,
  "warPoints": 0,
  "rogueKills": 0,
  "rogueRecord": 0,
  "hunterKills": 0,
  "hunterRecord": 0,
  "credits": 40,
  "moneySpent": 0,
  "bountyPoints": 50000,
  "lastLike": 0,
  "likesGiven": 0,
  "likes": 0,
  "dislikes": 0,
  "profileViews": 0,
  "fullName": "",
  "IP": "",
  "emailAddress": "",
  "recovery": "",
  "pins": "3542",
  "running": true,
  "logPackets": false,
  "weaponPoints": 0,
  "summoningTime": -1,
  "summoningSpecialAmount": 60,
  "summoningFamiliar": -1,
  "summoningAttack": false,
  "pestPoints": 0,
  "triviaPoints": 3,
  "abyssalPoints": 4237,
  "teleblockTime": 0,
  "blackMarks": 0,
  "rareDropEP": 10.467000000000004,
  "rareDropsReceived": 109,
  "skillGoals": [
    [
      0,
      0,
      0
    ],
    [
      0,
      0,
      0
    ],
    [
      0,
      0,
      0
    ],
    [
      0,
      0,
      0
    ],
    [
      0,
      0,
      0
    ],
    [
      0,
      0,
      0
    ],
    [
      0,
      0,
      0
    ],
    [
      0,
      0,
      0
    ],
    [
      0,
      0,
      0
    ],
    [
      0,
      0,
      0
    ],
    [
      0,
      0,
      0
    ],
    [
      0,
      0,
      0
    ],
    [
      0,
      0,
      0
    ],
    [
      0,
      0,
      0
    ],
    [
      0,
      0,
      0
    ],
    [
      0,
      0,
      0
    ],
    [
      0,
      0,
      0
    ],
    [
      0,
      0,
      0
    ],
    [
      0,
      0,
      0
    ],
    [
      0,
      0,
      0
    ],
    [
      0,
      0,
      0
    ],
    [
      0,
      0,
      0
    ],
    [
      0,
      0,
      0
    ],
    [
      0,
      0,
      0
    ],
    [
      0,
      0,
      0
    ],
    [
      0,
      0,
      0
    ]
  ],
  "lastKilledPlayers": [],
  "playerAchievements": {
    "KILL_75_COWS": 53,
    "KILL_100_CALLISTO": 24,
    "SHEAR_10_SHEEPS": 10,
    "COMPLETE_10_SLAYER_TASKS": 10,
    "BURN_500_LOGS": 0,
    "CHOP_DOWN_350_TREES": 0,
    "BURN_200_LOGS": 0,
    "KILL_150_KRAKENS": 1,
    "KILL_25_KRAKENS": 1,
    "EQUIP_DRAGON_CLAWS": 0,
    "BURY_150_BONES": 18,
    "RESET_1_STATISTICS": 0,
    "FAIL_15_TIMES_THIEVING_STALLS": 50,
    "DIE_10_TIME": 10,
    "KILL_KING_BLACK_DRAGON": 50,
    "MINE_500_ROCKS": 0,
    "VIEW_TABLE": 1,
    "DIE_1_TIME": 1,
    "ANSWER_30_TRIVIABOTS_CORRECTLY": 3,
    "COMPLETE_50_GNOME_COURSES": 3,
    "USE_THE_SUPER_HEATING_SPELL_25_TIMES": 0,
    "COOK_500_FOODS": 500,
    "KILL_100_ZULRAHS": 100,
    "LOOT_1_BARROWS_CHESTS": 0,
    "LOOT_25_BARROWS_CHESTS": 0,
    "DRINK_100_POTIONS": 100,
    "VISIT_DZ": 0,
    "VOTE_5_TIMES": 5,
    "COOK_250_FOODS": 250,
    "CATCH_100_IMPLINGS": 0,
    "BURY_500_BONES": 18,
    "DIE_50_TIME": 10,
    "COMPLETE_100_SLAYER_TASKS": 30,
    "EXCHANGE_500_ITEMS_PILES": 0,
    "KILL_1_GORILLA": 1,
    "OPEN_5_MBOX": 5,
    "COMPLETE_100_BARB_COURSES": 17,
    "CATCH_25_IMPLINGS": 0,
    "OBTAIN_10_FIRECAPES": 1,
    "KILL_15_PLAYER": 40,
    "SPEND_5000000_ON_SHOPS": 38475169,
    "KILL_250_SKELETAL_WYVERNS": 79,
    "KILL_1_PLAYER": 0,
    "CHANGE_APPEARANCE": 1,
    "CRAFT_1000_NATURE_RUNES": 60,
    "ANSWER_15_TRIVIABOTS_CORRECTLY": 3,
    "EAT_100_FOODS": 100,
    "ENCHANT_500_BOLTS": 1,
    "STRING_50_AMULETS": 0,
    "OBTAIN_1_BOSS_PET": 0,
    "SETUP_A_BANK_PIN": 1,
    "OPEN_10_CASKET": 10,
    "SHEAR_150_SHEEPS": 10,
    "OPEN_50_CRYSTAL_CHESTS": 50,
    "KILL_100_CYCLOPS": 19,
    "KILL_10_MITH": 0,
    "WIN_30_PEST_CONTROL_GAMES": 0,
    "OPEN_25_MBOX": 16,
    "THIEVE_100_TIMES_FROM_STALLS": 0,
    "OBTAIN_25_FIRECAPES": 0,
    "EARN_100_PEST_CONTROL_POINTS": 0,
    "OPEN_15_ITEM_SETS": 8,
    "OBTAIN_3_BOSS_PET": 0,
    "KILL_50_PLAYER": 2,
    "DO_A_SKILLCAPE_EMOTE": 1,
    "KILL_ROCK_CRABS": 56,
    "CUT_250_GEMS": 250,
    "EARN_500_PEST_CONTROL_POINTS": 0,
    "HIGH_ALCH_250_ITEMS": 36,
    "SPEND_100000000_ON_SHOPS": 38475169,
    "OBTAIN_10_RARE_DROPS": 0,
    "CHOP_DOWN_150_TREES": 0,
    "CAST_VENGEANCE_350_TIMES": 0
  },
  "achievementsPoints": 5,
  "unlockedCredits": [],
  "quickPrayers": [
    false,
    false,
    false,
    false,
    false,
    false,
    false,
    false,
    false,
    false,
    false,
    false,
    false,
    false,
    false,
    false,
    false,
    false,
    true,
    false,
    false,
    false,
    false,
    false,
    false,
    false
  ],
  "LastLoginYear": 0,
  "LastLoginMonth": 0,
  "LastLoginDate": 0,
  "LoginStreak": 0,
  "playerProperties": {
    "PROPERTY_MOB_GIANT_MOLE": 0.0,
    "PROPERTY_MOB_KREE\u0027ARRA": 0.0,
    "PROPERTY_MOB_SEA_TROLL_QUEEN": 0.0,
    "PROPERTY_MOB_TZTOK-JAD": 1.0,
    "PROPERTY_MOB_ABYSSAL_DEMON": 38.0,
    "PROPERTY_MOB_ZULRAH": 125.0,
    "PROPERTY_MOB_COMMANDER_ZILYANA": 0.0,
    "PROPERTY_MOB_DAGANNOTH_SUPREME": 0.0,
    "PROPERTY_MOB_CRAZY_ARCHAEOLOGIST": 0.0,
    "PROPERTY_MOB_KING_BLACK_DRAGON": 57.0,
    "PROPERTY_MOB_CHAOS_ELEMENTAL": 0.0,
    "PROPERTY_MOB_DARK_BEAST": 0.0,
    "PROPERTY_MOB_DAGANNOTH_REX": 0.0,
    "PROPERTY_MOB_CORPOREAL_BEAST": 0.0,
    "PROPERTY_MOB_K\u0027RIL_TSUTSAROTH": 0.0,
    "PROPERTY_MOB_VENENATIS": 0.0,
    "PROPERTY_MOB_CALLISTO": 24.0,
    "PROPERTY_MOB_VET\u0027ION_REBORN": 0.0,
    "PROPERTY_MOB_GENERAL_GRAARDOR": 0.0,
    "PROPERTY_MOB_DAGANNOTH_PRIME": 0.0,
    "PROPERTY_MOB_ANCIENT_GORILLA": 1.0,
    "PROPERTY_MOB_NECHRYAEL": 0.0,
    "PROPERTY_MOB_KRAKEN": 1.0,
    "PROPERTY_MOB_SCORPIA": 0.0,
    "PROPERTY_MOB_CHAOS_FANATIC": 0.0,
    "PROPERTY_BARROWS_BARROWS_CHESTS": 2.0,
    "PROPERTY_MOB_BARRELCHEST": 0.0
  },
  "expCounter": 1.1206302E7,
  "prestigePoints": 0,
  "prestiges": [
    0,
    0,
    0,
    0,
    0,
    0,
    0,
    0,
    0,
    0,
    0,
    0,
    0,
    0,
    0,
    0,
    0,
    0,
    0,
    0,
    0,
    0,
    0,
    0,
    0
  ],
  "blowpipe": {
    "blowpipeCharge": 0
  },
  "seasTrident": {
    "tridentCharge": 0
  },
  "swampTrident": {
    "tridentCharge": 0
  },
  "serpentineHelmet": {
    "charges": 0
  }
}