{
  "essAmount": 0,
  "username": "Hard",
  "password": "thomas1564123",
  "x": 3038,
  "y": 9777,
  "z": 0,
  "rights": 12,
  "lastKnownUID": "2070702418915496064",
  "cluesCompleted": [
    0,
    0,
    0,
    0
  ],
  "yellTitle": "Member",
  "unlockedTitles": [],
  "banned": false,
  "banLength": 0,
  "moneyPouch": 0,
  "jailLength": 0,
  "shopCollection": 0,
  "lastClanChat": "help",
  "muted": false,
  "isMember": true,
  "isDicer": false,
  "isIron": false,
  "isHard": false,
  "isUltimateIron": true,
  "jailed": false,
  "muteLength": 0,
  "fightCavesWave": 0,
  "magicBook": 1151,
  "prayerBook": 5608,
  "retaliate": true,
  "expLock": false,
  "gwkc": [
    0,
    0,
    0,
    0
  ],
  "poisoned": false,
  "poisonDmg": 0,
  "slayerTask": "Hellhound",
  "slayerAmount": 14,
  "slayerDifficulty": "HIGH",
  "skillsLevel": [
    99,
    99,
    99,
    99,
    99,
    99,
    99,
    99,
    99,
    99,
    99,
    99,
    99,
    99,
    99,
    99,
    99,
    99,
    99,
    99,
    99,
    1,
    99,
    1,
    1
  ],
  "experience": [
    1.30352E7,
    2.280584E7,
    2.16368E7,
    9.2221492E7,
    2.0E8,
    1.303577E7,
    1.30709303E7,
    1.473288E7,
    2.8473375E7,
    1.3043788E7,
    1.442254E7,
    1.3039368E7,
    1.3106275E7,
    1.3058105E7,
    2.7279125E7,
    1.377915E7,
    1.305731987543106E7,
    4.9060675E7,
    1.3037616E7,
    1.34789375E7,
    1.559412E7,
    0.0,
    1.6470688E7,
    0.0,
    0.0
  ],
  "gender": 0,
  "appearance": [
    3,
    18,
    26,
    33,
    36,
    42,
    10
  ],
  "colours": [
    5,
    1,
    2,
    0,
    1
  ],
  "left": 0,
  "skullIcon": -1,
  "bright": 4,
  "multipleMouse": 0,
  "chatEffects": 0,
  "splitPrivate": 1,
  "transparentPanel": 0,
  "transparentChatbox": 0,
  "sideStones": 0,
  "acceptAid": 0,
  "pouchPayment": false,
  "friends": [
    "roger",
    "jamian",
    "goten",
    "matt",
    "pressure",
    "ult dbz",
    "destiny",
    "derek",
    "tehdark12",
    "nick",
    "spartan milf",
    "john",
    "bigboy",
    "inflexion",
    "jamo",
    "n",
    "tors voice",
    "dark asylum",
    "luuckie",
    "ryan v",
    "kittyhello",
    "michael",
    "iron caboose",
    "bonecrusher",
    "theblkkid",
    "soft",
    "nate",
    "ultscape",
    "bruce lee",
    "derek123"
  ],
  "ignores": [],
  "yearCreated": 2016,
  "dayCreated": 181,
  "recoilStage": -1,
  "spec": 100,
  "attackStyle": "AGGRESSIVE",
  "attackType": "STAB",
  "energy": 100.0,
  "lastLoginDay": 242,
  "lastLoginYear": 0,
  "host": "2.104.153.244",
  "votePoints": 0,
  "degrading": [
    null,
    null,
    null,
    null,
    null,
    null,
    null,
    null,
    null,
    null,
    null,
    null,
    null,
    null,
    null,
    null,
    null,
    null,
    null,
    null,
    null,
    null,
    null,
    null,
    null,
    null,
    null,
    null,
    null,
    null,
    null,
    null,
    null,
    null,
    null,
    null,
    null,
    null,
    null,
    null,
    null,
    null,
    null,
    null,
    null,
    null,
    null,
    null,
    null,
    null
  ],
  "dragonFireShieldCharges": 0,
  "slayerPoints": 0,
  "musicVolume": 3,
  "soundVolume": 3,
  "savedArrows": [
    null,
    null,
    null,
    null,
    null,
    null,
    null,
    null,
    null,
    null,
    null,
    null,
    null,
    null,
    null,
    null,
    null,
    null,
    null,
    null,
    null,
    null,
    null,
    null,
    null,
    null,
    null,
    null,
    null,
    null,
    null,
    null,
    null,
    null,
    null,
    null,
    null,
    null,
    null,
    null
  ],
  "wantsTrivia": true,
  "triviaNotification": false,
  "deaths": 0,
  "kills": 0,
  "warPoints": 0,
  "rogueKills": 0,
  "rogueRecord": 0,
  "hunterKills": 0,
  "hunterRecord": 0,
  "credits": 100,
  "moneySpent": 5,
  "bountyPoints": 600000,
  "lastLike": 0,
  "likesGiven": 0,
  "likes": 0,
  "dislikes": 0,
  "profileViews": 0,
  "fullName": "",
  "IP": "",
  "emailAddress": "",
  "recovery": "",
  "running": true,
  "logPackets": false,
  "weaponPoints": 0,
  "summoningTime": -1,
  "summoningSpecialAmount": 60,
  "summoningFamiliar": -1,
  "summoningAttack": false,
  "pestPoints": 10,
  "triviaPoints": 4,
  "abyssalPoints": 0,
  "teleblockTime": 0,
  "blackMarks": 0,
  "rareDropEP": 0.34374999999999994,
  "rareDropsReceived": -101,
  "skillGoals": [
    [
      0,
      0,
      0
    ],
    [
      0,
      0,
      0
    ],
    [
      0,
      0,
      0
    ],
    [
      0,
      0,
      0
    ],
    [
      0,
      0,
      0
    ],
    [
      0,
      0,
      0
    ],
    [
      0,
      0,
      0
    ],
    [
      0,
      0,
      0
    ],
    [
      0,
      0,
      0
    ],
    [
      0,
      0,
      0
    ],
    [
      0,
      0,
      0
    ],
    [
      0,
      0,
      0
    ],
    [
      0,
      0,
      0
    ],
    [
      0,
      0,
      0
    ],
    [
      0,
      0,
      0
    ],
    [
      0,
      0,
      0
    ],
    [
      0,
      0,
      0
    ],
    [
      0,
      0,
      0
    ],
    [
      0,
      0,
      0
    ],
    [
      0,
      0,
      0
    ],
    [
      0,
      0,
      0
    ],
    [
      0,
      0,
      0
    ],
    [
      0,
      0,
      0
    ],
    [
      0,
      0,
      0
    ],
    [
      0,
      0,
      0
    ],
    [
      0,
      0,
      0
    ]
  ],
  "lastKilledPlayers": [],
  "playerAchievements": {
    "EQUIP_DRAGON_CLAWS": 0,
    "COOK_500_FOODS": 500,
    "SPEND_5000000_ON_SHOPS": 21955815,
    "SHEAR_150_SHEEPS": 1,
    "EAT_100_FOODS": 100,
    "ENCHANT_500_BOLTS": 0,
    "KILL_100_CYCLOPS": 0,
    "OBTAIN_1_BOSS_PET": 1,
    "KILL_25_KRAKENS": 0,
    "VISIT_DZ": 1,
    "OBTAIN_3_BOSS_PET": 0,
    "KILL_150_KRAKENS": 0,
    "DO_A_SKILLCAPE_EMOTE": 0,
    "KILL_250_SKELETAL_WYVERNS": 0,
    "CHOP_DOWN_150_TREES": 150,
    "KILL_100_ZULRAHS": 50,
    "CRAFT_1000_NATURE_RUNES": 1200,
    "KILL_10_MITH": 0,
    "KILL_75_COWS": 75,
    "CAST_VENGEANCE_350_TIMES": 0,
    "DIE_1_TIME": 1,
    "COMPLETE_100_SLAYER_TASKS": 7,
    "OBTAIN_25_FIRECAPES": 0,
    "ANSWER_15_TRIVIABOTS_CORRECTLY": 4,
    "KILL_1_GORILLA": 0,
    "KILL_KING_BLACK_DRAGON": 0,
    "OBTAIN_10_RARE_DROPS": 0,
    "MINE_500_ROCKS": 500,
    "CHANGE_APPEARANCE": 1,
    "EARN_100_PEST_CONTROL_POINTS": 0,
    "CHOP_DOWN_350_TREES": 350,
    "BURY_500_BONES": 9,
    "OPEN_5_MBOX": 5,
    "KILL_15_PLAYER": 0,
    "BURN_500_LOGS": 500,
    "KILL_100_CALLISTO": 0,
    "VIEW_TABLE": 1,
    "OBTAIN_10_FIRECAPES": 0,
    "KILL_ROCK_CRABS": 0,
    "VOTE_5_TIMES": 0,
    "DIE_50_TIME": 1,
    "ANSWER_30_TRIVIABOTS_CORRECTLY": 4,
    "EARN_500_PEST_CONTROL_POINTS": 0,
    "HIGH_ALCH_250_ITEMS": 3,
    "RESET_1_STATISTICS": 0,
    "DIE_10_TIME": 1,
    "USE_THE_SUPER_HEATING_SPELL_25_TIMES": 25,
    "OPEN_50_CRYSTAL_CHESTS": 50,
    "LOOT_1_BARROWS_CHESTS": 0,
    "BURY_150_BONES": 9,
    "OPEN_15_ITEM_SETS": 0,
    "KILL_50_PLAYER": 0,
    "THIEVE_100_TIMES_FROM_STALLS": 100,
    "BURN_200_LOGS": 200,
    "OPEN_25_MBOX": 25,
    "EXCHANGE_500_ITEMS_PILES": 671462,
    "KILL_1_PLAYER": 1,
    "SETUP_A_BANK_PIN": 0,
    "CATCH_100_IMPLINGS": 100,
    "COMPLETE_50_GNOME_COURSES": 3,
    "SHEAR_10_SHEEPS": 1,
    "COMPLETE_10_SLAYER_TASKS": 7,
    "STRING_50_AMULETS": 1,
    "COOK_250_FOODS": 250,
    "CUT_250_GEMS": 250,
    "WIN_30_PEST_CONTROL_GAMES": 17,
    "LOOT_25_BARROWS_CHESTS": 0,
    "DRINK_100_POTIONS": 44,
    "FAIL_15_TIMES_THIEVING_STALLS": 0,
    "CATCH_25_IMPLINGS": 25,
    "OPEN_10_CASKET": 6,
    "SPEND_100000000_ON_SHOPS": 21955815,
    "COMPLETE_100_BARB_COURSES": 7
  },
  "achievementsPoints": 40,
  "unlockedCredits": [],
  "quickPrayers": [
    false,
    false,
    false,
    false,
    false,
    false,
    false,
    false,
    false,
    false,
    false,
    false,
    false,
    false,
    false,
    false,
    true,
    false,
    false,
    true,
    false,
    false,
    false,
    false,
    false,
    false
  ],
  "LastLoginYear": 0,
  "LastLoginMonth": 0,
  "LastLoginDate": 0,
  "LoginStreak": 0,
  "playerProperties": {
    "PROPERTY_MOB_GIANT_MOLE": 0.0,
    "PROPERTY_MOB_KREE\u0027ARRA": 0.0,
    "PROPERTY_MOB_SEA_TROLL_QUEEN": 0.0,
    "PROPERTY_MOB_TZTOK-JAD": 0.0,
    "PROPERTY_MOB_ABYSSAL_DEMON": 170.0,
    "PROPERTY_MOB_ZULRAH": 50.0,
    "PROPERTY_MOB_COMMANDER_ZILYANA": 0.0,
    "PROPERTY_MOB_DAGANNOTH_SUPREME": 0.0,
    "PROPERTY_MOB_CRAZY_ARCHAEOLOGIST": 0.0,
    "PROPERTY_MOB_KING_BLACK_DRAGON": 0.0,
    "PROPERTY_MOB_CHAOS_ELEMENTAL": 0.0,
    "PROPERTY_MOB_DARK_BEAST": 0.0,
    "PROPERTY_MOB_DAGANNOTH_REX": 0.0,
    "PROPERTY_MOB_CORPOREAL_BEAST": 0.0,
    "PROPERTY_MOB_K\u0027RIL_TSUTSAROTH": 0.0,
    "PROPERTY_MOB_VENENATIS": 0.0,
    "PROPERTY_MOB_CALLISTO": 0.0,
    "PROPERTY_MOB_VET\u0027ION_REBORN": 0.0,
    "PROPERTY_MOB_GENERAL_GRAARDOR": 0.0,
    "PROPERTY_MOB_DAGANNOTH_PRIME": 0.0,
    "PROPERTY_MOB_ANCIENT_GORILLA": 0.0,
    "PROPERTY_MOB_NECHRYAEL": 0.0,
    "PROPERTY_MOB_KRAKEN": 0.0,
    "PROPERTY_MOB_SCORPIA": 0.0,
    "PROPERTY_MOB_CHAOS_FANATIC": 0.0,
    "PROPERTY_BARROWS_BARROWS_CHESTS": 7.0,
    "PROPERTY_MOB_BARRELCHEST": 3.0
  },
  "expCounter": 875.0,
  "prestigePoints": 0,
  "prestiges": [
    0,
    0,
    0,
    0,
    0,
    0,
    0,
    0,
    0,
    0,
    0,
    0,
    0,
    0,
    0,
    0,
    0,
    0,
    0,
    0,
    0,
    0,
    0,
    0,
    0
  ],
  "blowpipe": {
    "blowpipeCharge": 0
  },
  "seasTrident": {
    "tridentCharge": 0
  },
  "swampTrident": {
    "tridentCharge": 0
  },
  "serpentineHelmet": {
    "charges": 0
  }
}