{
  "essAmount": 0,
  "username": "I g0dz i",
  "password": "kvp1994",
  "x": 3435,
  "y": 2899,
  "z": 0,
  "rights": 8,
  "lastKnownUID": "1038119083568766413",
  "cluesCompleted": [
    1,
    0,
    0,
    0
  ],
  "yellTitle": "Member",
  "unlockedTitles": [],
  "banned": false,
  "banLength": 0,
  "moneyPouch": 0,
  "jailLength": 0,
  "shopCollection": 0,
  "lastClanChat": "help",
  "muted": false,
  "isMember": true,
  "isDicer": false,
  "isIron": false,
  "isHard": false,
  "isUltimateIron": false,
  "jailed": false,
  "muteLength": 0,
  "fightCavesWave": 0,
  "magicBook": 12855,
  "prayerBook": 5608,
  "retaliate": true,
  "expLock": false,
  "gwkc": [
    0,
    0,
    0,
    0
  ],
  "poisoned": false,
  "poisonDmg": 0,
  "slayerTask": "Gargoyle",
  "slayerAmount": 23,
  "slayerDifficulty": "HIGH",
  "skillsLevel": [
    99,
    99,
    99,
    51,
    99,
    99,
    99,
    99,
    99,
    99,
    99,
    99,
    99,
    99,
    99,
    99,
    99,
    99,
    99,
    99,
    99,
    99,
    99,
    99,
    99
  ],
  "experience": [
    1.3075764333333334E7,
    1.3075764333333334E7,
    1.3150964333333334E7,
    1.3209991E7,
    1.3088991E7,
    1.3034431E7,
    1.3342895E7,
    1.3034431E7,
    1.3334431E7,
    1.3034431E7,
    1.3734431E7,
    1.3334431E7,
    1.3034431E7,
    1.3034431E7,
    1.3734431E7,
    1.3034431E7,
    1.4034431E7,
    1.3734431E7,
    1.3534431E7,
    1.3034431E7,
    1.3034431E7,
    1.3034431E7,
    1.3034431E7,
    1.3034431E7,
    1.3034431E7
  ],
  "gender": 0,
  "appearance": [
    1,
    18,
    27,
    33,
    36,
    42,
    10
  ],
  "colours": [
    1,
    1,
    2,
    0,
    0
  ],
  "left": 0,
  "skullIcon": -1,
  "bright": 4,
  "multipleMouse": 0,
  "chatEffects": 0,
  "splitPrivate": 1,
  "transparentPanel": 0,
  "transparentChatbox": 0,
  "sideStones": 0,
  "acceptAid": 0,
  "pouchPayment": false,
  "friends": [
    "goten",
    "inflexion",
    "pressure",
    "floid",
    "john",
    "jamian",
    "shreadmaster",
    "soft",
    "derek",
    "hellbent",
    "zulrah",
    "kha",
    "bigboy",
    "slave",
    "tehdark12",
    "matt",
    "tuckah",
    "sluge",
    "range owns6",
    "derek123",
    "roger",
    "deadkid",
    "ur bad kid",
    "dabs",
    "beyblades",
    "1earn2fear",
    "tors voice",
    "jamo",
    "kangaroo",
    "kayne"
  ],
  "ignores": [],
  "yearCreated": 2016,
  "dayCreated": 204,
  "recoilStage": -1,
  "spec": 20,
  "attackStyle": "AGGRESSIVE",
  "attackType": "CRUSH",
  "energy": 100.0,
  "lastLoginDay": 246,
  "lastLoginYear": 0,
  "host": "pc75198-craw7-2-0-cust234.16-3.cable.virginm.net/77.98.196.235",
  "votePoints": 0,
  "degrading": [
    null,
    null,
    null,
    null,
    null,
    null,
    null,
    null,
    null,
    null,
    null,
    null,
    null,
    null,
    null,
    null,
    null,
    null,
    null,
    null,
    null,
    null,
    null,
    null,
    null,
    null,
    null,
    null,
    null,
    null,
    null,
    null,
    null,
    null,
    null,
    null,
    null,
    null,
    null,
    null,
    null,
    null,
    null,
    null,
    null,
    null,
    null,
    null,
    null,
    null
  ],
  "dragonFireShieldCharges": 49,
  "slayerPoints": 17,
  "musicVolume": 3,
  "soundVolume": 3,
  "savedArrows": [
    null,
    null,
    null,
    null,
    null,
    null,
    null,
    null,
    null,
    null,
    null,
    null,
    null,
    null,
    null,
    null,
    null,
    null,
    null,
    null,
    null,
    null,
    null,
    null,
    null,
    null,
    null,
    null,
    null,
    null,
    null,
    null,
    null,
    null,
    null,
    null,
    null,
    null,
    null,
    null
  ],
  "wantsTrivia": true,
  "triviaNotification": false,
  "deaths": 0,
  "kills": 0,
  "warPoints": 0,
  "rogueKills": 0,
  "rogueRecord": 0,
  "hunterKills": 0,
  "hunterRecord": 0,
  "credits": 599124,
  "moneySpent": 10605,
  "bountyPoints": 200000,
  "lastLike": 0,
  "likesGiven": 0,
  "likes": 0,
  "dislikes": 0,
  "profileViews": 0,
  "fullName": "",
  "IP": "",
  "emailAddress": "",
  "recovery": "",
  "pins": "1994",
  "running": true,
  "logPackets": false,
  "weaponPoints": 0,
  "summoningTime": -1,
  "summoningSpecialAmount": 60,
  "summoningFamiliar": -1,
  "summoningAttack": false,
  "pestPoints": 15,
  "triviaPoints": 0,
  "abyssalPoints": 870,
  "teleblockTime": 0,
  "blackMarks": 0,
  "rareDropEP": 0.0,
  "rareDropsReceived": -115,
  "skillGoals": [
    [
      0,
      0,
      0
    ],
    [
      0,
      0,
      0
    ],
    [
      0,
      0,
      0
    ],
    [
      0,
      0,
      0
    ],
    [
      0,
      0,
      0
    ],
    [
      0,
      0,
      0
    ],
    [
      0,
      0,
      0
    ],
    [
      0,
      0,
      0
    ],
    [
      0,
      0,
      0
    ],
    [
      0,
      0,
      0
    ],
    [
      0,
      0,
      0
    ],
    [
      0,
      0,
      0
    ],
    [
      0,
      0,
      0
    ],
    [
      0,
      0,
      0
    ],
    [
      0,
      0,
      0
    ],
    [
      0,
      0,
      0
    ],
    [
      0,
      0,
      0
    ],
    [
      0,
      0,
      0
    ],
    [
      0,
      0,
      0
    ],
    [
      0,
      0,
      0
    ],
    [
      0,
      0,
      0
    ],
    [
      0,
      0,
      0
    ],
    [
      0,
      0,
      0
    ],
    [
      0,
      0,
      0
    ],
    [
      0,
      0,
      0
    ],
    [
      0,
      0,
      0
    ]
  ],
  "lastKilledPlayers": [],
  "playerAchievements": {
    "SHEAR_150_SHEEPS": 0,
    "DRINK_100_POTIONS": 100,
    "OPEN_50_CRYSTAL_CHESTS": 50,
    "ENCHANT_500_BOLTS": 1,
    "OBTAIN_1_BOSS_PET": 0,
    "KILL_50_PLAYER": 2,
    "KILL_1_GORILLA": 0,
    "EARN_100_PEST_CONTROL_POINTS": 100,
    "DIE_10_TIME": 10,
    "CATCH_25_IMPLINGS": 25,
    "EAT_100_FOODS": 100,
    "USE_THE_SUPER_HEATING_SPELL_25_TIMES": 0,
    "ANSWER_15_TRIVIABOTS_CORRECTLY": 0,
    "KILL_1_PLAYER": 0,
    "BURY_500_BONES": 52,
    "SPEND_5000000_ON_SHOPS": 34182021,
    "ANSWER_30_TRIVIABOTS_CORRECTLY": 0,
    "KILL_100_CYCLOPS": 100,
    "VIEW_TABLE": 1,
    "RESET_1_STATISTICS": 1,
    "BURN_500_LOGS": 0,
    "OBTAIN_10_RARE_DROPS": 0,
    "COMPLETE_100_SLAYER_TASKS": 16,
    "OPEN_15_ITEM_SETS": 5,
    "OBTAIN_3_BOSS_PET": 0,
    "KILL_10_MITH": 10,
    "CATCH_100_IMPLINGS": 60,
    "BURY_150_BONES": 52,
    "KILL_100_ZULRAHS": 0,
    "COMPLETE_10_SLAYER_TASKS": 10,
    "KILL_ROCK_CRABS": 100,
    "COOK_500_FOODS": 163,
    "KILL_250_SKELETAL_WYVERNS": 250,
    "KILL_15_PLAYER": 21,
    "SETUP_A_BANK_PIN": 1,
    "CAST_VENGEANCE_350_TIMES": 12,
    "DIE_1_TIME": 1,
    "DIE_50_TIME": 32,
    "WIN_30_PEST_CONTROL_GAMES": 30,
    "EQUIP_DRAGON_CLAWS": 0,
    "OBTAIN_10_FIRECAPES": 3,
    "THIEVE_100_TIMES_FROM_STALLS": 65,
    "COMPLETE_50_GNOME_COURSES": 7,
    "CUT_250_GEMS": 250,
    "STRING_50_AMULETS": 0,
    "VISIT_DZ": 1,
    "EXCHANGE_500_ITEMS_PILES": 0,
    "MINE_500_ROCKS": 0,
    "DO_A_SKILLCAPE_EMOTE": 1,
    "SHEAR_10_SHEEPS": 0,
    "BURN_200_LOGS": 0,
    "CHANGE_APPEARANCE": 1,
    "KILL_100_CALLISTO": 0,
    "FAIL_15_TIMES_THIEVING_STALLS": 7,
    "CHOP_DOWN_350_TREES": 0,
    "OPEN_25_MBOX": 25,
    "KILL_150_KRAKENS": 3,
    "OPEN_5_MBOX": 5,
    "CHOP_DOWN_150_TREES": 0,
    "EARN_500_PEST_CONTROL_POINTS": 370,
    "KILL_25_KRAKENS": 3,
    "SPEND_100000000_ON_SHOPS": 34182021,
    "KILL_75_COWS": 75,
    "COOK_250_FOODS": 163,
    "OPEN_10_CASKET": 6,
    "KILL_KING_BLACK_DRAGON": 0,
    "OBTAIN_25_FIRECAPES": 3,
    "VOTE_5_TIMES": 1,
    "LOOT_1_BARROWS_CHESTS": 0,
    "LOOT_25_BARROWS_CHESTS": 0,
    "HIGH_ALCH_250_ITEMS": 186,
    "COMPLETE_100_BARB_COURSES": 3,
    "CRAFT_1000_NATURE_RUNES": 634
  },
  "achievementsPoints": 7,
  "unlockedCredits": [],
  "quickPrayers": [
    false,
    false,
    false,
    false,
    false,
    false,
    false,
    false,
    false,
    false,
    false,
    false,
    false,
    false,
    false,
    false,
    false,
    false,
    false,
    false,
    false,
    false,
    false,
    false,
    false,
    true
  ],
  "LastLoginYear": 0,
  "LastLoginMonth": 0,
  "LastLoginDate": 0,
  "LoginStreak": 0,
  "playerProperties": {
    "PROPERTY_MOB_GIANT_MOLE": 0.0,
    "PROPERTY_MOB_KREE\u0027ARRA": 0.0,
    "PROPERTY_MOB_SEA_TROLL_QUEEN": 1.0,
    "PROPERTY_MOB_TZTOK-JAD": 3.0,
    "PROPERTY_MOB_ABYSSAL_DEMON": 46.0,
    "PROPERTY_MOB_ZULRAH": 0.0,
    "PROPERTY_MOB_COMMANDER_ZILYANA": 0.0,
    "PROPERTY_MOB_DAGANNOTH_SUPREME": 0.0,
    "PROPERTY_MOB_CRAZY_ARCHAEOLOGIST": 2.0,
    "PROPERTY_MOB_KING_BLACK_DRAGON": 0.0,
    "PROPERTY_MOB_CHAOS_ELEMENTAL": 0.0,
    "PROPERTY_MOB_DARK_BEAST": 0.0,
    "PROPERTY_MOB_DAGANNOTH_REX": 0.0,
    "PROPERTY_MOB_CORPOREAL_BEAST": 0.0,
    "PROPERTY_MOB_K\u0027RIL_TSUTSAROTH": 0.0,
    "PROPERTY_MOB_VENENATIS": 0.0,
    "PROPERTY_MOB_CALLISTO": 0.0,
    "PROPERTY_MOB_VET\u0027ION_REBORN": 0.0,
    "PROPERTY_MOB_GENERAL_GRAARDOR": 0.0,
    "PROPERTY_MOB_DAGANNOTH_PRIME": 0.0,
    "PROPERTY_MOB_ANCIENT_GORILLA": 0.0,
    "PROPERTY_MOB_NECHRYAEL": 1.0,
    "PROPERTY_MOB_KRAKEN": 3.0,
    "PROPERTY_MOB_SCORPIA": 0.0,
    "PROPERTY_MOB_CHAOS_FANATIC": 0.0,
    "PROPERTY_BARROWS_BARROWS_CHESTS": 13.0,
    "PROPERTY_MOB_BARRELCHEST": 29.0
  },
  "expCounter": 1.310133E8,
  "prestigePoints": 0,
  "prestiges": [
    0,
    0,
    0,
    0,
    0,
    0,
    0,
    0,
    0,
    0,
    0,
    0,
    0,
    0,
    0,
    0,
    0,
    0,
    0,
    0,
    0,
    0,
    0,
    0,
    0
  ],
  "blowpipe": {
    "blowpipeAmmo": {
      "id": 11230,
      "amount": 4998
    },
    "blowpipeCharge": 47982
  },
  "seasTrident": {
    "tridentCharge": 0
  },
  "swampTrident": {
    "tridentCharge": 0
  },
  "serpentineHelmet": {
    "charges": 0
  }
}