{
  "essAmount": 0,
  "username": "Ipkpros",
  "password": "cameron123",
  "x": 3427,
  "y": 2891,
  "z": 0,
  "rights": 11,
  "lastKnownUID": "-8747304807464579200",
  "cluesCompleted": [
    0,
    1,
    2,
    0
  ],
  "yellTitle": "Member",
  "unlockedTitles": [],
  "banned": false,
  "banLength": 0,
  "moneyPouch": 0,
  "jailLength": 0,
  "shopCollection": 0,
  "lastClanChat": "help",
  "muted": false,
  "isMember": true,
  "isDicer": false,
  "isIron": true,
  "isUltimateIron": false,
  "jailed": false,
  "muteLength": 0,
  "fightCavesWave": 0,
  "magicBook": 1151,
  "prayerBook": 5608,
  "retaliate": true,
  "expLock": false,
  "gwkc": [
    0,
    0,
    0,
    0
  ],
  "poisoned": false,
  "poisonDmg": 0,
  "slayerTask": "Chaos Fanatic",
  "slayerAmount": 15,
  "slayerDifficulty": "BOSS",
  "skillsLevel": [
    99,
    99,
    99,
    99,
    99,
    99,
    92,
    93,
    38,
    40,
    86,
    1,
    91,
    67,
    99,
    81,
    62,
    85,
    98,
    78,
    67,
    1,
    85,
    1,
    1
  ],
  "experience": [
    6.505546666666668E7,
    1.327370666666667E7,
    1.2199466666666664E8,
    1.36065208E8,
    2.0E8,
    1.4750645E7,
    7066763.299999961,
    7684782.0,
    31875.0,
    39280.0,
    3667660.0,
    0.0,
    6370710.5,
    600349.0,
    1.3220875E7,
    2379300.0,
    367894.0,
    3272400.0,
    1.2285264E7,
    1765942.5,
    588240.0,
    0.0,
    3292510.0,
    0.0,
    0.0
  ],
  "gender": 0,
  "appearance": [
    0,
    18,
    26,
    33,
    36,
    42,
    10
  ],
  "colours": [
    0,
    0,
    0,
    0,
    0
  ],
  "left": 0,
  "skullIcon": -1,
  "bright": 4,
  "multipleMouse": 0,
  "chatEffects": 0,
  "splitPrivate": 1,
  "transparentPanel": 0,
  "transparentChatbox": 0,
  "sideStones": 0,
  "acceptAid": 0,
  "pouchPayment": false,
  "friends": [
    "jamian",
    "z75",
    "goten",
    "jamo",
    "shmavo",
    "shreadmaster",
    "doppleganger",
    "zulrah",
    "jackson",
    "sillu",
    "micheal",
    "michael",
    "o",
    "dustin",
    "beerus"
  ],
  "ignores": [],
  "yearCreated": 2016,
  "dayCreated": 181,
  "recoilStage": 27,
  "spec": 100,
  "attackStyle": "AGGRESSIVE",
  "attackType": "CRUSH",
  "energy": 77.0,
  "lastLoginDay": 241,
  "lastLoginYear": 0,
  "host": "86.140.74.116",
  "votePoints": 0,
  "degrading": [
    null,
    null,
    null,
    null,
    null,
    null,
    null,
    null,
    null,
    null,
    null,
    null,
    null,
    null,
    null,
    null,
    null,
    null,
    null,
    null,
    null,
    null,
    null,
    null,
    null,
    null,
    null,
    null,
    null,
    null,
    null,
    null,
    null,
    null,
    null,
    null,
    null,
    null,
    null,
    null,
    null,
    null,
    null,
    null,
    null,
    null,
    null,
    null,
    null,
    null
  ],
  "dragonFireShieldCharges": 0,
  "slayerPoints": 121,
  "musicVolume": 3,
  "soundVolume": 3,
  "savedArrows": [
    null,
    null,
    null,
    null,
    null,
    null,
    null,
    null,
    null,
    null,
    null,
    null,
    null,
    null,
    null,
    null,
    null,
    null,
    null,
    null,
    null,
    null,
    null,
    null,
    null,
    null,
    null,
    null,
    null,
    null,
    null,
    null,
    null,
    null,
    null,
    null,
    null,
    null,
    null,
    null
  ],
  "wantsTrivia": true,
  "triviaNotification": false,
  "deaths": 0,
  "kills": 0,
  "warPoints": 0,
  "rogueKills": 0,
  "rogueRecord": 0,
  "hunterKills": 0,
  "hunterRecord": 0,
  "credits": 180,
  "moneySpent": 10,
  "bountyPoints": 1300000,
  "lastLike": 0,
  "likesGiven": 0,
  "likes": 0,
  "dislikes": 0,
  "profileViews": 0,
  "fullName": "",
  "IP": "",
  "emailAddress": "",
  "recovery": "",
  "running": true,
  "logPackets": false,
  "weaponPoints": 0,
  "summoningTime": -1,
  "summoningSpecialAmount": 60,
  "summoningFamiliar": -1,
  "summoningAttack": false,
  "pestPoints": 5,
  "triviaPoints": 0,
  "abyssalPoints": 5295,
  "teleblockTime": 0,
  "blackMarks": 0,
  "rareDropEP": 11.992500000000009,
  "rareDropsReceived": -125,
  "skillGoals": [
    [
      0,
      0,
      0
    ],
    [
      0,
      0,
      0
    ],
    [
      0,
      0,
      0
    ],
    [
      0,
      0,
      0
    ],
    [
      0,
      0,
      0
    ],
    [
      0,
      0,
      0
    ],
    [
      0,
      0,
      0
    ],
    [
      0,
      0,
      0
    ],
    [
      0,
      0,
      0
    ],
    [
      0,
      0,
      0
    ],
    [
      0,
      0,
      0
    ],
    [
      0,
      0,
      0
    ],
    [
      0,
      0,
      0
    ],
    [
      0,
      0,
      0
    ],
    [
      0,
      0,
      0
    ],
    [
      0,
      0,
      0
    ],
    [
      0,
      0,
      0
    ],
    [
      0,
      0,
      0
    ],
    [
      0,
      0,
      0
    ],
    [
      0,
      0,
      0
    ],
    [
      0,
      0,
      0
    ],
    [
      0,
      0,
      0
    ],
    [
      0,
      0,
      0
    ],
    [
      0,
      0,
      0
    ],
    [
      0,
      0,
      0
    ],
    [
      0,
      0,
      0
    ]
  ],
  "lastKilledPlayers": [],
  "playerAchievements": {
    "RESET_1_STATISTICS": 0,
    "DRINK_100_POTIONS": 100,
    "WIN_30_PEST_CONTROL_GAMES": 30,
    "EARN_100_PEST_CONTROL_POINTS": 100,
    "VOTE_5_TIMES": 5,
    "SHEAR_150_SHEEPS": 10,
    "KILL_1_PLAYER": 0,
    "CAST_VENGEANCE_350_TIMES": 0,
    "SHEAR_10_SHEEPS": 10,
    "DIE_50_TIME": 50,
    "KILL_15_PLAYER": 0,
    "OBTAIN_1_BOSS_PET": 1,
    "KILL_KING_BLACK_DRAGON": 2,
    "KILL_25_KRAKENS": 2,
    "ENCHANT_500_BOLTS": 1,
    "BURN_500_LOGS": 0,
    "SETUP_A_BANK_PIN": 0,
    "KILL_75_COWS": 75,
    "KILL_ROCK_CRABS": 66,
    "EAT_100_FOODS": 100,
    "BURN_200_LOGS": 0,
    "FAIL_15_TIMES_THIEVING_STALLS": 0,
    "CATCH_25_IMPLINGS": 25,
    "OBTAIN_3_BOSS_PET": 0,
    "KILL_100_CYCLOPS": 0,
    "SPEND_5000000_ON_SHOPS": 9107063,
    "KILL_10_MITH": 0,
    "STRING_50_AMULETS": 2,
    "OPEN_25_MBOX": 13,
    "BURY_150_BONES": 150,
    "KILL_50_PLAYER": 21,
    "BURY_500_BONES": 173,
    "HIGH_ALCH_250_ITEMS": 250,
    "OBTAIN_25_FIRECAPES": 1,
    "DO_A_SKILLCAPE_EMOTE": 1,
    "VISIT_DZ": 1,
    "CUT_250_GEMS": 250,
    "CHANGE_APPEARANCE": 1,
    "SPEND_100000000_ON_SHOPS": 9107063,
    "LOOT_25_BARROWS_CHESTS": 0,
    "ANSWER_15_TRIVIABOTS_CORRECTLY": 3,
    "ANSWER_30_TRIVIABOTS_CORRECTLY": 3,
    "COOK_500_FOODS": 500,
    "COMPLETE_100_BARB_COURSES": 0,
    "COMPLETE_100_SLAYER_TASKS": 22,
    "OPEN_10_CASKET": 4,
    "THIEVE_100_TIMES_FROM_STALLS": 100,
    "OPEN_15_ITEM_SETS": 1,
    "MINE_500_ROCKS": 500,
    "KILL_100_ZULRAHS": 51,
    "COMPLETE_50_GNOME_COURSES": 33,
    "KILL_150_KRAKENS": 2,
    "EXCHANGE_500_ITEMS_PILES": 0,
    "COMPLETE_10_SLAYER_TASKS": 10,
    "OPEN_5_MBOX": 5,
    "VIEW_TABLE": 1,
    "DIE_1_TIME": 1,
    "COOK_250_FOODS": 250,
    "OPEN_50_CRYSTAL_CHESTS": 50,
    "CRAFT_1000_NATURE_RUNES": 0,
    "KILL_250_SKELETAL_WYVERNS": 0,
    "DIE_10_TIME": 10,
    "LOOT_1_BARROWS_CHESTS": 0,
    "CHOP_DOWN_150_TREES": 22,
    "EQUIP_DRAGON_CLAWS": 0,
    "CHOP_DOWN_350_TREES": 22,
    "KILL_100_CALLISTO": 0,
    "CATCH_100_IMPLINGS": 100,
    "USE_THE_SUPER_HEATING_SPELL_25_TIMES": 8,
    "OBTAIN_10_FIRECAPES": 2,
    "OBTAIN_10_RARE_DROPS": 0,
    "EARN_500_PEST_CONTROL_POINTS": 460,
    "KILL_1_GORILLA": 0
  },
  "achievementsPoints": 9,
  "unlockedCredits": [],
  "quickPrayers": [
    false,
    false,
    false,
    false,
    false,
    false,
    false,
    false,
    false,
    false,
    false,
    false,
    false,
    false,
    false,
    false,
    false,
    false,
    true,
    false,
    false,
    false,
    false,
    false,
    false,
    true
  ],
  "LastLoginYear": 0,
  "LastLoginMonth": 0,
  "LastLoginDate": 0,
  "LoginStreak": 0,
  "playerProperties": {
    "PROPERTY_MOB_GIANT_MOLE": 87.0,
    "PROPERTY_MOB_KREE\u0027ARRA": 2.0,
    "PROPERTY_MOB_SEA_TROLL_QUEEN": 0.0,
    "PROPERTY_MOB_TZTOK-JAD": 2.0,
    "PROPERTY_MOB_ABYSSAL_DEMON": 55.0,
    "PROPERTY_MOB_ZULRAH": 51.0,
    "PROPERTY_MOB_COMMANDER_ZILYANA": 0.0,
    "PROPERTY_MOB_DAGANNOTH_SUPREME": 2.0,
    "PROPERTY_MOB_CRAZY_ARCHAEOLOGIST": 24.0,
    "PROPERTY_MOB_KING_BLACK_DRAGON": 2.0,
    "PROPERTY_MOB_CHAOS_ELEMENTAL": 37.0,
    "PROPERTY_MOB_DARK_BEAST": 0.0,
    "PROPERTY_MOB_DAGANNOTH_REX": 6.0,
    "PROPERTY_MOB_CORPOREAL_BEAST": 0.0,
    "PROPERTY_MOB_K\u0027RIL_TSUTSAROTH": 0.0,
    "PROPERTY_MOB_VENENATIS": 0.0,
    "PROPERTY_MOB_CALLISTO": 0.0,
    "PROPERTY_MOB_VET\u0027ION_REBORN": 0.0,
    "PROPERTY_MOB_GENERAL_GRAARDOR": 0.0,
    "PROPERTY_MOB_DAGANNOTH_PRIME": 25.0,
    "PROPERTY_MOB_ANCIENT_GORILLA": 0.0,
    "PROPERTY_MOB_NECHRYAEL": 0.0,
    "PROPERTY_MOB_KRAKEN": 2.0,
    "PROPERTY_MOB_SCORPIA": 2.0,
    "PROPERTY_MOB_CHAOS_FANATIC": 44.0,
    "PROPERTY_BARROWS_BARROWS_CHESTS": 96.0,
    "PROPERTY_MOB_BARRELCHEST": 20.0
  },
  "expCounter": 5206168.0,
  "prestigePoints": 0,
  "prestiges": [
    0,
    0,
    0,
    0,
    0,
    0,
    0,
    0,
    0,
    0,
    0,
    0,
    0,
    0,
    0,
    0,
    0,
    0,
    0,
    0,
    0,
    0,
    0,
    0,
    0
  ],
  "blowpipe": {
    "blowpipeCharge": 0
  },
  "seasTrident": {
    "tridentCharge": 0
  },
  "swampTrident": {
    "tridentCharge": 0
  },
  "serpentineHelmet": {
    "charges": 0
  }
}