{
  "essAmount": 0,
  "username": "Iron omar",
  "password": "okmijn1",
  "x": 3429,
  "y": 2892,
  "z": 0,
  "rights": 5,
  "lastKnownUID": "1038119083568766413",
  "cluesCompleted": [
    0,
    1,
    0,
    0
  ],
  "yellTitle": "Member",
  "unlockedTitles": [],
  "banned": false,
  "banLength": 0,
  "moneyPouch": 0,
  "jailLength": 0,
  "shopCollection": 0,
  "lastClanChat": "help",
  "muted": false,
  "isMember": true,
  "isDicer": false,
  "isIron": false,
  "isUltimateIron": false,
  "jailed": false,
  "muteLength": 0,
  "fightCavesWave": 0,
  "magicBook": 12855,
  "prayerBook": 5608,
  "retaliate": true,
  "expLock": false,
  "gwkc": [
    0,
    0,
    0,
    0
  ],
  "poisoned": false,
  "poisonDmg": 0,
  "slayerAmount": 0,
  "slayerDifficulty": "BOSS",
  "skillsLevel": [
    99,
    99,
    99,
    79,
    99,
    99,
    42,
    52,
    75,
    71,
    51,
    1,
    75,
    1,
    1,
    77,
    50,
    93,
    97,
    82,
    44,
    1,
    91,
    1,
    1
  ],
  "experience": [
    1.4702933333333332E7,
    1.3159233333333328E7,
    1.8267733333333332E7,
    5.369219E7,
    1.2697146E8,
    1.30443975E7,
    46652.0,
    125460.0,
    1213250.0,
    817792.0,
    119680.0,
    0.0,
    1286862.5,
    0.0,
    0.0,
    1498945.0,
    102699.99952316284,
    7292375.0,
    1.176168E7,
    2463947.5,
    60480.0,
    0.0,
    5929352.0,
    0.0,
    0.0
  ],
  "gender": 0,
  "appearance": [
    0,
    18,
    26,
    33,
    36,
    42,
    10
  ],
  "colours": [
    0,
    0,
    0,
    0,
    0
  ],
  "left": 0,
  "skullIcon": -1,
  "bright": 4,
  "multipleMouse": 0,
  "chatEffects": 0,
  "splitPrivate": 1,
  "transparentPanel": 0,
  "transparentChatbox": 0,
  "sideStones": 0,
  "acceptAid": 0,
  "pouchPayment": false,
  "friends": [
    "school",
    "inflexion",
    "kangaroo",
    "scott",
    "edin",
    "derek",
    "white",
    "zulrah",
    "goten",
    "matt",
    "trapper",
    "range owns6",
    "tuckah",
    "luuckie",
    "bruce lee",
    "ehhhzylo",
    "xhax",
    "jake xd"
  ],
  "ignores": [
    "deadkid"
  ],
  "yearCreated": 2016,
  "dayCreated": 218,
  "recoilStage": 38,
  "spec": 100,
  "attackStyle": "AGGRESSIVE",
  "attackType": "CRUSH",
  "energy": 100.0,
  "lastLoginDay": 231,
  "lastLoginYear": 0,
  "host": "p-84-119-180-97.unity-media.net/84.119.180.97",
  "votePoints": 1,
  "degrading": [
    null,
    null,
    null,
    null,
    null,
    null,
    null,
    null,
    null,
    null,
    null,
    null,
    null,
    null,
    null,
    null,
    null,
    null,
    null,
    null,
    null,
    null,
    null,
    null,
    null,
    null,
    null,
    null,
    null,
    null,
    null,
    null,
    null,
    null,
    null,
    null,
    null,
    null,
    null,
    null,
    null,
    null,
    null,
    null,
    null,
    null,
    null,
    null,
    null,
    null
  ],
  "dragonFireShieldCharges": 0,
  "slayerPoints": 18,
  "musicVolume": 3,
  "soundVolume": 3,
  "savedArrows": [
    null,
    null,
    null,
    null,
    null,
    null,
    null,
    null,
    null,
    null,
    null,
    null,
    null,
    null,
    null,
    null,
    null,
    null,
    null,
    null,
    null,
    null,
    null,
    null,
    null,
    null,
    null,
    null,
    null,
    null,
    null,
    null,
    null,
    null,
    null,
    null,
    null,
    null,
    null,
    null
  ],
  "wantsTrivia": true,
  "triviaNotification": false,
  "deaths": 0,
  "kills": 0,
  "warPoints": 0,
  "rogueKills": 0,
  "rogueRecord": 0,
  "hunterKills": 0,
  "hunterRecord": 0,
  "credits": 0,
  "moneySpent": 20,
  "bountyPoints": 0,
  "lastLike": 0,
  "likesGiven": 0,
  "likes": 0,
  "dislikes": 0,
  "profileViews": 0,
  "fullName": "",
  "IP": "",
  "emailAddress": "",
  "recovery": "",
  "pins": "1415",
  "running": true,
  "logPackets": false,
  "weaponPoints": 0,
  "summoningTime": -1,
  "summoningSpecialAmount": 60,
  "summoningFamiliar": -1,
  "summoningAttack": false,
  "pestPoints": 10,
  "triviaPoints": 0,
  "abyssalPoints": 4260,
  "teleblockTime": 0,
  "blackMarks": 0,
  "rareDropEP": 11.83149999999999,
  "rareDropsReceived": 51,
  "skillGoals": [
    [
      0,
      0,
      0
    ],
    [
      0,
      0,
      0
    ],
    [
      0,
      0,
      0
    ],
    [
      0,
      0,
      0
    ],
    [
      0,
      0,
      0
    ],
    [
      0,
      0,
      0
    ],
    [
      0,
      0,
      0
    ],
    [
      0,
      0,
      0
    ],
    [
      0,
      0,
      0
    ],
    [
      0,
      0,
      0
    ],
    [
      0,
      0,
      0
    ],
    [
      0,
      0,
      0
    ],
    [
      0,
      0,
      0
    ],
    [
      0,
      0,
      0
    ],
    [
      0,
      0,
      0
    ],
    [
      0,
      0,
      0
    ],
    [
      0,
      0,
      0
    ],
    [
      0,
      0,
      0
    ],
    [
      0,
      0,
      0
    ],
    [
      0,
      0,
      0
    ],
    [
      0,
      0,
      0
    ],
    [
      0,
      0,
      0
    ],
    [
      0,
      0,
      0
    ],
    [
      0,
      0,
      0
    ],
    [
      0,
      0,
      0
    ],
    [
      0,
      0,
      0
    ]
  ],
  "lastKilledPlayers": [],
  "playerAchievements": {
    "SHEAR_10_SHEEPS": 10,
    "OBTAIN_10_RARE_DROPS": 0,
    "COMPLETE_100_SLAYER_TASKS": 20,
    "CHANGE_APPEARANCE": 1,
    "KILL_150_KRAKENS": 30,
    "STRING_50_AMULETS": 0,
    "EXCHANGE_500_ITEMS_PILES": 0,
    "COOK_500_FOODS": 40,
    "RESET_1_STATISTICS": 0,
    "CHOP_DOWN_350_TREES": 39,
    "MINE_500_ROCKS": 0,
    "EARN_100_PEST_CONTROL_POINTS": 0,
    "EAT_100_FOODS": 100,
    "DIE_1_TIME": 1,
    "HIGH_ALCH_250_ITEMS": 0,
    "ANSWER_30_TRIVIABOTS_CORRECTLY": 30,
    "OBTAIN_10_FIRECAPES": 0,
    "VOTE_5_TIMES": 5,
    "OPEN_50_CRYSTAL_CHESTS": 49,
    "SHEAR_150_SHEEPS": 10,
    "KILL_ROCK_CRABS": 17,
    "ANSWER_15_TRIVIABOTS_CORRECTLY": 15,
    "SETUP_A_BANK_PIN": 1,
    "KILL_1_PLAYER": 1,
    "FAIL_15_TIMES_THIEVING_STALLS": 50,
    "BURY_150_BONES": 6,
    "ENCHANT_500_BOLTS": 1,
    "DRINK_100_POTIONS": 100,
    "OBTAIN_1_BOSS_PET": 0,
    "OPEN_10_CASKET": 4,
    "WIN_30_PEST_CONTROL_GAMES": 30,
    "DIE_50_TIME": 12,
    "KILL_100_CYCLOPS": 0,
    "BURY_500_BONES": 6,
    "KILL_1_GORILLA": 1,
    "OPEN_5_MBOX": 5,
    "KILL_50_PLAYER": 2,
    "EQUIP_DRAGON_CLAWS": 0,
    "KILL_250_SKELETAL_WYVERNS": 0,
    "BURN_200_LOGS": 0,
    "CUT_250_GEMS": 168,
    "KILL_KING_BLACK_DRAGON": 0,
    "COMPLETE_100_BARB_COURSES": 5,
    "BURN_500_LOGS": 0,
    "SPEND_100000000_ON_SHOPS": 39165559,
    "CAST_VENGEANCE_350_TIMES": 0,
    "KILL_100_ZULRAHS": 87,
    "EARN_500_PEST_CONTROL_POINTS": 0,
    "DO_A_SKILLCAPE_EMOTE": 0,
    "CATCH_25_IMPLINGS": 25,
    "COOK_250_FOODS": 40,
    "OBTAIN_25_FIRECAPES": 0,
    "VIEW_TABLE": 1,
    "CRAFT_1000_NATURE_RUNES": 0,
    "OBTAIN_3_BOSS_PET": 0,
    "KILL_75_COWS": 0,
    "COMPLETE_50_GNOME_COURSES": 3,
    "OPEN_15_ITEM_SETS": 0,
    "VISIT_DZ": 1,
    "SPEND_5000000_ON_SHOPS": 39165559,
    "CHOP_DOWN_150_TREES": 39,
    "COMPLETE_10_SLAYER_TASKS": 10,
    "KILL_15_PLAYER": 2,
    "OPEN_25_MBOX": 25,
    "USE_THE_SUPER_HEATING_SPELL_25_TIMES": 0,
    "KILL_100_CALLISTO": 0,
    "KILL_10_MITH": 0,
    "DIE_10_TIME": 10,
    "KILL_25_KRAKENS": 25,
    "THIEVE_100_TIMES_FROM_STALLS": 100,
    "CATCH_100_IMPLINGS": 100
  },
  "achievementsPoints": 0,
  "unlockedCredits": [],
  "quickPrayers": [
    false,
    false,
    false,
    false,
    false,
    false,
    false,
    false,
    false,
    false,
    false,
    false,
    false,
    false,
    false,
    false,
    false,
    false,
    false,
    false,
    false,
    false,
    false,
    false,
    false,
    true
  ],
  "LastLoginYear": 0,
  "LastLoginMonth": 0,
  "LastLoginDate": 0,
  "LoginStreak": 0,
  "playerProperties": {
    "PROPERTY_MOB_GIANT_MOLE": 0.0,
    "PROPERTY_MOB_KREE\u0027ARRA": 0.0,
    "PROPERTY_MOB_SEA_TROLL_QUEEN": 0.0,
    "PROPERTY_MOB_TZTOK-JAD": 0.0,
    "PROPERTY_MOB_ABYSSAL_DEMON": 95.0,
    "PROPERTY_MOB_ZULRAH": 87.0,
    "PROPERTY_MOB_COMMANDER_ZILYANA": 0.0,
    "PROPERTY_MOB_DAGANNOTH_SUPREME": 0.0,
    "PROPERTY_MOB_CRAZY_ARCHAEOLOGIST": 0.0,
    "PROPERTY_MOB_KING_BLACK_DRAGON": 0.0,
    "PROPERTY_MOB_CHAOS_ELEMENTAL": 0.0,
    "PROPERTY_MOB_DARK_BEAST": 0.0,
    "PROPERTY_MOB_DAGANNOTH_REX": 0.0,
    "PROPERTY_MOB_CORPOREAL_BEAST": 0.0,
    "PROPERTY_MOB_K\u0027RIL_TSUTSAROTH": 0.0,
    "PROPERTY_MOB_VENENATIS": 0.0,
    "PROPERTY_MOB_CALLISTO": 0.0,
    "PROPERTY_MOB_VET\u0027ION_REBORN": 0.0,
    "PROPERTY_MOB_GENERAL_GRAARDOR": 0.0,
    "PROPERTY_MOB_DAGANNOTH_PRIME": 0.0,
    "PROPERTY_MOB_ANCIENT_GORILLA": 21.0,
    "PROPERTY_MOB_NECHRYAEL": 0.0,
    "PROPERTY_MOB_KRAKEN": 30.0,
    "PROPERTY_MOB_SCORPIA": 0.0,
    "PROPERTY_MOB_CHAOS_FANATIC": 0.0,
    "PROPERTY_BARROWS_BARROWS_CHESTS": 0.0,
    "PROPERTY_MOB_BARRELCHEST": 0.0
  },
  "expCounter": 1.64542191E8,
  "prestigePoints": 0,
  "prestiges": [
    0,
    0,
    0,
    0,
    0,
    0,
    0,
    0,
    0,
    0,
    0,
    0,
    0,
    0,
    0,
    0,
    0,
    0,
    0,
    0,
    0,
    0,
    0,
    0,
    0
  ],
  "blowpipe": {
    "blowpipeAmmo": {
      "id": 11230,
      "amount": 513
    },
    "blowpipeCharge": 8486
  },
  "seasTrident": {
    "tridentCharge": 0
  },
  "swampTrident": {
    "tridentCharge": 0
  },
  "serpentineHelmet": {
    "charges": 0
  }
}