{
  "essAmount": 0,
  "username": "Iron rng",
  "password": "wonnow",
  "x": 3436,
  "y": 2887,
  "z": 0,
  "rights": 8,
  "lastKnownUID": "1038119083568766413",
  "cluesCompleted": [
    0,
    1,
    0,
    0
  ],
  "yellTitle": "Member",
  "playerTitle": {
    "title": "Hardcore",
    "color": 10430563,
    "suffix": false
  },
  "unlockedTitles": [],
  "banned": false,
  "banLength": 0,
  "moneyPouch": 0,
  "jailLength": 0,
  "shopCollection": 0,
  "lastClanChat": "help",
  "muted": false,
  "isMember": true,
  "isDicer": false,
  "isIron": false,
  "isHard": true,
  "isUltimateIron": false,
  "jailed": false,
  "muteLength": 0,
  "fightCavesWave": 0,
  "magicBook": 12855,
  "prayerBook": 5608,
  "retaliate": true,
  "expLock": false,
  "gwkc": [
    0,
    0,
    0,
    0
  ],
  "poisoned": true,
  "poisonDmg": 0,
  "slayerTask": "Zulrah",
  "slayerAmount": 30,
  "slayerDifficulty": "BOSS",
  "skillsLevel": [
    101,
    101,
    101,
    99,
    99,
    91,
    99,
    99,
    99,
    99,
    99,
    99,
    99,
    99,
    99,
    99,
    99,
    99,
    99,
    99,
    99,
    99,
    99,
    99,
    99
  ],
  "experience": [
    1.3035871E7,
    1.3035871E7,
    1.3035871E7,
    1.30358674E7,
    1.3034431E7,
    1.3034431E7,
    1.3034431E7,
    1.3034431E7,
    1.3134431E7,
    1.3034431E7,
    1.3114431E7,
    1.3194431E7,
    1.3034431E7,
    1.3034431E7,
    1.3234431E7,
    1.3034431E7,
    1.3134431E7,
    1.3194431E7,
    1.3194431E7,
    1.3034431E7,
    1.3034431E7,
    1.3034431E7,
    1.3034431E7,
    1.3034431E7,
    1.3034431E7
  ],
  "gender": 0,
  "appearance": [
    2,
    24,
    27,
    33,
    40,
    42,
    11
  ],
  "colours": [
    9,
    1,
    1,
    0,
    0
  ],
  "left": 0,
  "skullIcon": -1,
  "bright": 4,
  "multipleMouse": 0,
  "chatEffects": 0,
  "splitPrivate": 1,
  "transparentPanel": 0,
  "transparentChatbox": 0,
  "sideStones": 0,
  "acceptAid": 0,
  "pouchPayment": false,
  "friends": [
    "ushio",
    "leigh",
    "goten",
    "bigboy",
    "matt",
    "komasan",
    "spinz50",
    "the bros 2",
    "jamian",
    "gimmieurstof",
    "bonecrusher"
  ],
  "ignores": [],
  "yearCreated": 2016,
  "dayCreated": 219,
  "recoilStage": 11,
  "spec": 100,
  "attackStyle": "CONTROLLED",
  "attackType": "STAB",
  "energy": 100.0,
  "lastLoginDay": 247,
  "lastLoginYear": 0,
  "host": "v-76-4-237-156.dhcp.embarqhsd.net/76.4.237.156",
  "votePoints": 753,
  "degrading": [
    null,
    null,
    null,
    null,
    null,
    null,
    null,
    null,
    null,
    null,
    null,
    null,
    null,
    null,
    null,
    null,
    null,
    null,
    null,
    null,
    null,
    null,
    null,
    null,
    null,
    null,
    null,
    null,
    null,
    null,
    null,
    null,
    null,
    null,
    null,
    null,
    null,
    null,
    null,
    null,
    null,
    null,
    null,
    null,
    null,
    null,
    null,
    null,
    null,
    null
  ],
  "dragonFireShieldCharges": 0,
  "slayerPoints": 3,
  "musicVolume": 3,
  "soundVolume": 3,
  "savedArrows": [
    null,
    null,
    null,
    null,
    null,
    null,
    null,
    null,
    null,
    null,
    null,
    null,
    null,
    null,
    null,
    null,
    null,
    null,
    null,
    null,
    null,
    null,
    null,
    null,
    null,
    null,
    null,
    null,
    null,
    null,
    null,
    null,
    null,
    null,
    null,
    null,
    null,
    null,
    null,
    null
  ],
  "wantsTrivia": true,
  "triviaNotification": false,
  "deaths": 0,
  "kills": 0,
  "warPoints": 0,
  "rogueKills": 0,
  "rogueRecord": 0,
  "hunterKills": 0,
  "hunterRecord": 0,
  "credits": 342349,
  "moneySpent": 18875,
  "bountyPoints": 41458912,
  "lastLike": 0,
  "likesGiven": 0,
  "likes": 0,
  "dislikes": 0,
  "profileViews": 0,
  "fullName": "",
  "IP": "",
  "emailAddress": "",
  "recovery": "",
  "running": true,
  "logPackets": false,
  "weaponPoints": 0,
  "summoningTime": -1,
  "summoningSpecialAmount": 60,
  "summoningFamiliar": -1,
  "summoningAttack": false,
  "pestPoints": 3907,
  "triviaPoints": 1,
  "abyssalPoints": 9479,
  "teleblockTime": 0,
  "blackMarks": 0,
  "rareDropEP": 9.347550000000005,
  "rareDropsReceived": 93,
  "skillGoals": [
    [
      0,
      0,
      0
    ],
    [
      0,
      0,
      0
    ],
    [
      0,
      0,
      0
    ],
    [
      0,
      0,
      0
    ],
    [
      0,
      0,
      0
    ],
    [
      0,
      0,
      0
    ],
    [
      0,
      0,
      0
    ],
    [
      0,
      0,
      0
    ],
    [
      0,
      0,
      0
    ],
    [
      0,
      0,
      0
    ],
    [
      0,
      0,
      0
    ],
    [
      0,
      0,
      0
    ],
    [
      0,
      0,
      0
    ],
    [
      0,
      0,
      0
    ],
    [
      1852875,
      99,
      0
    ],
    [
      0,
      0,
      0
    ],
    [
      0,
      0,
      0
    ],
    [
      0,
      0,
      0
    ],
    [
      0,
      0,
      0
    ],
    [
      0,
      0,
      0
    ],
    [
      0,
      0,
      0
    ],
    [
      0,
      0,
      0
    ],
    [
      0,
      0,
      0
    ],
    [
      0,
      0,
      0
    ],
    [
      0,
      0,
      0
    ],
    [
      0,
      0,
      0
    ]
  ],
  "lastKilledPlayers": [],
  "playerAchievements": {
    "DIE_10_TIME": 10,
    "STRING_50_AMULETS": 1,
    "KILL_250_SKELETAL_WYVERNS": 102,
    "SHEAR_150_SHEEPS": 8,
    "CATCH_100_IMPLINGS": 100,
    "HIGH_ALCH_250_ITEMS": 0,
    "BURN_200_LOGS": 82,
    "BURY_150_BONES": 82,
    "CATCH_25_IMPLINGS": 25,
    "COMPLETE_100_SLAYER_TASKS": 19,
    "OPEN_5_MBOX": 5,
    "KILL_15_PLAYER": 0,
    "DRINK_100_POTIONS": 100,
    "OBTAIN_10_FIRECAPES": 1,
    "CHOP_DOWN_350_TREES": 116,
    "ANSWER_30_TRIVIABOTS_CORRECTLY": 11,
    "KILL_100_ZULRAHS": 38,
    "VIEW_TABLE": 1,
    "KILL_150_KRAKENS": 0,
    "FAIL_15_TIMES_THIEVING_STALLS": 50,
    "CHOP_DOWN_150_TREES": 116,
    "SPEND_5000000_ON_SHOPS": 10994505,
    "COMPLETE_10_SLAYER_TASKS": 10,
    "KILL_KING_BLACK_DRAGON": 8,
    "OBTAIN_25_FIRECAPES": 1,
    "OPEN_25_MBOX": 25,
    "LOOT_1_BARROWS_CHESTS": 0,
    "DIE_50_TIME": 28,
    "EARN_100_PEST_CONTROL_POINTS": 0,
    "COMPLETE_100_BARB_COURSES": 8,
    "SPEND_100000000_ON_SHOPS": 10994505,
    "KILL_75_COWS": 10,
    "KILL_100_CALLISTO": 0,
    "DO_A_SKILLCAPE_EMOTE": 1,
    "ENCHANT_500_BOLTS": 1,
    "COMPLETE_50_GNOME_COURSES": 4,
    "KILL_10_MITH": 0,
    "DIE_1_TIME": 1,
    "ANSWER_15_TRIVIABOTS_CORRECTLY": 11,
    "KILL_100_CYCLOPS": 100,
    "OBTAIN_10_RARE_DROPS": 1,
    "VISIT_DZ": 0,
    "CRAFT_1000_NATURE_RUNES": 0,
    "EQUIP_DRAGON_CLAWS": 0,
    "VOTE_5_TIMES": 0,
    "KILL_50_PLAYER": 1,
    "EARN_500_PEST_CONTROL_POINTS": 0,
    "OBTAIN_3_BOSS_PET": 0,
    "OBTAIN_1_BOSS_PET": 1,
    "THIEVE_100_TIMES_FROM_STALLS": 27,
    "KILL_1_GORILLA": 1,
    "COOK_250_FOODS": 250,
    "USE_THE_SUPER_HEATING_SPELL_25_TIMES": 0,
    "KILL_ROCK_CRABS": 32,
    "OPEN_10_CASKET": 3,
    "RESET_1_STATISTICS": 0,
    "LOOT_25_BARROWS_CHESTS": 0,
    "EAT_100_FOODS": 100,
    "BURY_500_BONES": 82,
    "OPEN_50_CRYSTAL_CHESTS": 42,
    "WIN_30_PEST_CONTROL_GAMES": 10,
    "MINE_500_ROCKS": 193,
    "SETUP_A_BANK_PIN": 0,
    "EXCHANGE_500_ITEMS_PILES": 0,
    "KILL_1_PLAYER": 1,
    "OPEN_15_ITEM_SETS": 15,
    "CHANGE_APPEARANCE": 1,
    "KILL_25_KRAKENS": 0,
    "BURN_500_LOGS": 82,
    "CAST_VENGEANCE_350_TIMES": 0,
    "CUT_250_GEMS": 6,
    "COOK_500_FOODS": 500,
    "SHEAR_10_SHEEPS": 8
  },
  "achievementsPoints": 35,
  "unlockedCredits": [],
  "quickPrayers": [
    false,
    false,
    false,
    false,
    false,
    false,
    false,
    false,
    false,
    false,
    false,
    false,
    false,
    false,
    false,
    false,
    false,
    false,
    true,
    false,
    false,
    false,
    false,
    false,
    false,
    true
  ],
  "LastLoginYear": 0,
  "LastLoginMonth": 0,
  "LastLoginDate": 0,
  "LoginStreak": 0,
  "playerProperties": {
    "PROPERTY_MOB_GIANT_MOLE": 40.0,
    "PROPERTY_MOB_KREE\u0027ARRA": 2.0,
    "PROPERTY_MOB_SEA_TROLL_QUEEN": 0.0,
    "PROPERTY_MOB_TZTOK-JAD": 1.0,
    "PROPERTY_MOB_ABYSSAL_DEMON": 48.0,
    "PROPERTY_MOB_ZULRAH": 38.0,
    "PROPERTY_MOB_COMMANDER_ZILYANA": 0.0,
    "PROPERTY_MOB_DAGANNOTH_SUPREME": 0.0,
    "PROPERTY_MOB_CRAZY_ARCHAEOLOGIST": 0.0,
    "PROPERTY_MOB_KING_BLACK_DRAGON": 8.0,
    "PROPERTY_MOB_CHAOS_ELEMENTAL": 0.0,
    "PROPERTY_MOB_DARK_BEAST": 22.0,
    "PROPERTY_MOB_DAGANNOTH_REX": 0.0,
    "PROPERTY_MOB_CORPOREAL_BEAST": 0.0,
    "PROPERTY_MOB_K\u0027RIL_TSUTSAROTH": 0.0,
    "PROPERTY_MOB_VENENATIS": 0.0,
    "PROPERTY_MOB_CALLISTO": 0.0,
    "PROPERTY_MOB_VET\u0027ION_REBORN": 0.0,
    "PROPERTY_MOB_GENERAL_GRAARDOR": 0.0,
    "PROPERTY_MOB_DAGANNOTH_PRIME": 1.0,
    "PROPERTY_MOB_ANCIENT_GORILLA": 2.0,
    "PROPERTY_MOB_NECHRYAEL": 0.0,
    "PROPERTY_MOB_KRAKEN": 0.0,
    "PROPERTY_MOB_SCORPIA": 0.0,
    "PROPERTY_MOB_CHAOS_FANATIC": 0.0,
    "PROPERTY_BARROWS_BARROWS_CHESTS": 3.0,
    "PROPERTY_MOB_BARRELCHEST": 2.0
  },
  "expCounter": 1.61950196E8,
  "prestigePoints": 0,
  "prestiges": [
    0,
    0,
    0,
    0,
    0,
    0,
    0,
    0,
    0,
    0,
    0,
    0,
    0,
    0,
    0,
    0,
    0,
    0,
    0,
    0,
    0,
    0,
    0,
    0,
    0
  ],
  "blowpipe": {
    "blowpipeAmmo": {
      "id": 11230,
      "amount": 61
    },
    "blowpipeCharge": 39000
  },
  "seasTrident": {
    "tridentCharge": 0
  },
  "swampTrident": {
    "tridentCharge": 0
  },
  "serpentineHelmet": {
    "charges": 15
  }
}