{
  "essAmount": 0,
  "username": "Iron monkey",
  "password": "batman",
  "x": 3414,
  "y": 2913,
  "z": 0,
  "rights": 11,
  "lastKnownUID": "1038119083568766413",
  "cluesCompleted": [
    0,
    1,
    0,
    0
  ],
  "yellTitle": "Member",
  "unlockedTitles": [],
  "banned": false,
  "banLength": 0,
  "moneyPouch": 0,
  "jailLength": 0,
  "shopCollection": 0,
  "lastClanChat": "help",
  "muted": false,
  "isMember": true,
  "isDicer": false,
  "isIron": true,
  "isHard": false,
  "isUltimateIron": false,
  "jailed": false,
  "muteLength": 0,
  "fightCavesWave": 0,
  "magicBook": 1151,
  "prayerBook": 5608,
  "retaliate": true,
  "expLock": false,
  "gwkc": [
    0,
    0,
    0,
    0
  ],
  "poisoned": false,
  "poisonDmg": 0,
  "slayerTask": "Cerberus",
  "slayerAmount": 33,
  "slayerDifficulty": "BOSS",
  "skillsLevel": [
    99,
    99,
    99,
    99,
    99,
    99,
    99,
    99,
    99,
    99,
    99,
    99,
    99,
    99,
    99,
    99,
    99,
    99,
    99,
    99,
    99,
    99,
    99,
    99,
    99
  ],
  "experience": [
    1.3034431E7,
    1.3034431E7,
    1.3034431E7,
    1.3034431E7,
    1.3034431E7,
    1.3034431E7,
    1.3034431E7,
    1.3034431E7,
    1.3034431E7,
    1.3034431E7,
    1.3134431E7,
    1.3134431E7,
    1.3034431E7,
    1.3034431E7,
    1.3334431E7,
    1.3034431E7,
    1.3034431E7,
    1.3234431E7,
    1.3034431E7,
    1.3034431E7,
    1.3034431E7,
    1.3034431E7,
    1.3034431E7,
    1.3034431E7,
    1.3034431E7
  ],
  "gender": 0,
  "appearance": [
    0,
    18,
    26,
    33,
    36,
    42,
    10
  ],
  "colours": [
    0,
    0,
    0,
    0,
    0
  ],
  "left": 0,
  "skullIcon": -1,
  "bright": 4,
  "multipleMouse": 0,
  "chatEffects": 0,
  "splitPrivate": 1,
  "transparentPanel": 0,
  "transparentChatbox": 0,
  "sideStones": 0,
  "acceptAid": 0,
  "pouchPayment": false,
  "friends": [
    "iron bro",
    "rolex",
    "unreal chris",
    "jamian",
    "goten",
    "jihadi john",
    "soft",
    "hentai"
  ],
  "ignores": [],
  "yearCreated": 2016,
  "dayCreated": 231,
  "recoilStage": 8,
  "spec": 100,
  "attackStyle": "AGGRESSIVE",
  "attackType": "STAB",
  "energy": 100.0,
  "lastLoginDay": 247,
  "lastLoginYear": 0,
  "host": "pe-65-24-201-216.insight.res.rr.com/65.24.201.216",
  "votePoints": 0,
  "degrading": [
    null,
    null,
    null,
    null,
    null,
    null,
    null,
    null,
    null,
    null,
    null,
    null,
    null,
    null,
    null,
    null,
    null,
    null,
    null,
    null,
    null,
    null,
    null,
    null,
    null,
    null,
    null,
    null,
    null,
    null,
    null,
    null,
    null,
    null,
    null,
    null,
    null,
    null,
    null,
    null,
    null,
    null,
    null,
    null,
    null,
    null,
    null,
    null,
    null,
    null
  ],
  "dragonFireShieldCharges": 0,
  "slayerPoints": 185,
  "musicVolume": 3,
  "soundVolume": 3,
  "savedArrows": [
    null,
    null,
    null,
    null,
    null,
    null,
    null,
    null,
    null,
    null,
    null,
    null,
    null,
    null,
    null,
    null,
    null,
    null,
    null,
    null,
    null,
    null,
    null,
    null,
    null,
    null,
    null,
    null,
    null,
    null,
    null,
    null,
    null,
    null,
    null,
    null,
    null,
    null,
    null,
    null
  ],
  "wantsTrivia": true,
  "triviaNotification": false,
  "deaths": 0,
  "kills": 0,
  "warPoints": 0,
  "rogueKills": 0,
  "rogueRecord": 0,
  "hunterKills": 0,
  "hunterRecord": 0,
  "credits": 206,
  "moneySpent": 115,
  "bountyPoints": 550000,
  "lastLike": 0,
  "likesGiven": 0,
  "likes": 0,
  "dislikes": 0,
  "profileViews": 0,
  "fullName": "",
  "IP": "",
  "emailAddress": "",
  "recovery": "",
  "pins": "2486",
  "running": true,
  "logPackets": true,
  "weaponPoints": 0,
  "summoningTime": -1,
  "summoningSpecialAmount": 60,
  "summoningFamiliar": -1,
  "summoningAttack": false,
  "pestPoints": 0,
  "triviaPoints": 14,
  "abyssalPoints": 1129,
  "teleblockTime": 0,
  "blackMarks": 0,
  "rareDropEP": 1.6650000000000005,
  "rareDropsReceived": 126,
  "skillGoals": [
    [
      0,
      0,
      0
    ],
    [
      0,
      0,
      0
    ],
    [
      0,
      0,
      0
    ],
    [
      0,
      0,
      0
    ],
    [
      0,
      0,
      0
    ],
    [
      0,
      0,
      0
    ],
    [
      0,
      0,
      0
    ],
    [
      0,
      0,
      0
    ],
    [
      0,
      0,
      0
    ],
    [
      0,
      0,
      0
    ],
    [
      0,
      0,
      0
    ],
    [
      0,
      0,
      0
    ],
    [
      0,
      0,
      0
    ],
    [
      0,
      0,
      0
    ],
    [
      0,
      0,
      0
    ],
    [
      0,
      0,
      0
    ],
    [
      0,
      0,
      0
    ],
    [
      0,
      0,
      0
    ],
    [
      0,
      0,
      0
    ],
    [
      0,
      0,
      0
    ],
    [
      0,
      0,
      0
    ],
    [
      0,
      0,
      0
    ],
    [
      0,
      0,
      0
    ],
    [
      0,
      0,
      0
    ],
    [
      0,
      0,
      0
    ],
    [
      0,
      0,
      0
    ]
  ],
  "lastKilledPlayers": [],
  "playerAchievements": {
    "DIE_10_TIME": 8,
    "STRING_50_AMULETS": 0,
    "KILL_250_SKELETAL_WYVERNS": 25,
    "SHEAR_150_SHEEPS": 0,
    "CATCH_100_IMPLINGS": 100,
    "HIGH_ALCH_250_ITEMS": 250,
    "BURN_200_LOGS": 0,
    "BURY_150_BONES": 74,
    "CATCH_25_IMPLINGS": 25,
    "COMPLETE_100_SLAYER_TASKS": 16,
    "OPEN_5_MBOX": 5,
    "KILL_15_PLAYER": 0,
    "DRINK_100_POTIONS": 100,
    "OBTAIN_10_FIRECAPES": 1,
    "CHOP_DOWN_350_TREES": 127,
    "ANSWER_30_TRIVIABOTS_CORRECTLY": 30,
    "KILL_100_ZULRAHS": 52,
    "VIEW_TABLE": 1,
    "KILL_150_KRAKENS": 22,
    "FAIL_15_TIMES_THIEVING_STALLS": 50,
    "CHOP_DOWN_150_TREES": 127,
    "SPEND_5000000_ON_SHOPS": 12388541,
    "COMPLETE_10_SLAYER_TASKS": 10,
    "KILL_KING_BLACK_DRAGON": 7,
    "OBTAIN_25_FIRECAPES": 1,
    "OPEN_25_MBOX": 25,
    "LOOT_1_BARROWS_CHESTS": 0,
    "DIE_50_TIME": 8,
    "EARN_100_PEST_CONTROL_POINTS": 0,
    "COMPLETE_100_BARB_COURSES": 7,
    "SPEND_100000000_ON_SHOPS": 12388541,
    "KILL_75_COWS": 15,
    "KILL_100_CALLISTO": 0,
    "DO_A_SKILLCAPE_EMOTE": 0,
    "ENCHANT_500_BOLTS": 0,
    "COMPLETE_50_GNOME_COURSES": 3,
    "KILL_10_MITH": 0,
    "DIE_1_TIME": 1,
    "ANSWER_15_TRIVIABOTS_CORRECTLY": 15,
    "KILL_100_CYCLOPS": 100,
    "OBTAIN_10_RARE_DROPS": 1,
    "VISIT_DZ": 1,
    "CRAFT_1000_NATURE_RUNES": 2542,
    "EQUIP_DRAGON_CLAWS": 1,
    "VOTE_5_TIMES": 1,
    "KILL_50_PLAYER": 0,
    "EARN_500_PEST_CONTROL_POINTS": 0,
    "OBTAIN_3_BOSS_PET": 0,
    "OBTAIN_1_BOSS_PET": 1,
    "THIEVE_100_TIMES_FROM_STALLS": 100,
    "KILL_1_GORILLA": 0,
    "COOK_250_FOODS": 250,
    "USE_THE_SUPER_HEATING_SPELL_25_TIMES": 0,
    "KILL_ROCK_CRABS": 8,
    "OPEN_10_CASKET": 10,
    "RESET_1_STATISTICS": 0,
    "LOOT_25_BARROWS_CHESTS": 0,
    "EAT_100_FOODS": 100,
    "BURY_500_BONES": 74,
    "OPEN_50_CRYSTAL_CHESTS": 50,
    "WIN_30_PEST_CONTROL_GAMES": 0,
    "MINE_500_ROCKS": 99,
    "SETUP_A_BANK_PIN": 1,
    "EXCHANGE_500_ITEMS_PILES": 0,
    "KILL_1_PLAYER": 1,
    "OPEN_15_ITEM_SETS": 3,
    "CHANGE_APPEARANCE": 1,
    "KILL_25_KRAKENS": 22,
    "BURN_500_LOGS": 0,
    "CAST_VENGEANCE_350_TIMES": 0,
    "CUT_250_GEMS": 250,
    "COOK_500_FOODS": 500,
    "SHEAR_10_SHEEPS": 0
  },
  "achievementsPoints": 48,
  "unlockedCredits": [],
  "quickPrayers": [
    false,
    false,
    false,
    false,
    false,
    false,
    false,
    false,
    false,
    false,
    false,
    false,
    false,
    false,
    false,
    false,
    true,
    false,
    false,
    false,
    false,
    false,
    false,
    false,
    false,
    true
  ],
  "LastLoginYear": 0,
  "LastLoginMonth": 0,
  "LastLoginDate": 0,
  "LoginStreak": 0,
  "playerProperties": {
    "PROPERTY_MOB_GIANT_MOLE": 22.0,
    "PROPERTY_MOB_KREE\u0027ARRA": 0.0,
    "PROPERTY_MOB_SEA_TROLL_QUEEN": 0.0,
    "PROPERTY_MOB_TZTOK-JAD": 1.0,
    "PROPERTY_MOB_ABYSSAL_DEMON": 42.0,
    "PROPERTY_MOB_ZULRAH": 52.0,
    "PROPERTY_MOB_COMMANDER_ZILYANA": 0.0,
    "PROPERTY_MOB_DAGANNOTH_SUPREME": 16.0,
    "PROPERTY_MOB_CRAZY_ARCHAEOLOGIST": 0.0,
    "PROPERTY_MOB_KING_BLACK_DRAGON": 7.0,
    "PROPERTY_MOB_CHAOS_ELEMENTAL": 0.0,
    "PROPERTY_MOB_DARK_BEAST": 0.0,
    "PROPERTY_MOB_DAGANNOTH_REX": 3.0,
    "PROPERTY_MOB_CORPOREAL_BEAST": 0.0,
    "PROPERTY_MOB_K\u0027RIL_TSUTSAROTH": 0.0,
    "PROPERTY_MOB_VENENATIS": 0.0,
    "PROPERTY_MOB_CALLISTO": 0.0,
    "PROPERTY_MOB_VET\u0027ION_REBORN": 0.0,
    "PROPERTY_MOB_GENERAL_GRAARDOR": 0.0,
    "PROPERTY_MOB_DAGANNOTH_PRIME": 4.0,
    "PROPERTY_MOB_ANCIENT_GORILLA": 0.0,
    "PROPERTY_MOB_NECHRYAEL": 0.0,
    "PROPERTY_MOB_KRAKEN": 22.0,
    "PROPERTY_MOB_SCORPIA": 0.0,
    "PROPERTY_MOB_CHAOS_FANATIC": 0.0,
    "PROPERTY_BARROWS_BARROWS_CHESTS": 0.0,
    "PROPERTY_MOB_BARRELCHEST": 0.0
  },
  "expCounter": 4.41660687E8,
  "prestigePoints": 0,
  "prestiges": [
    0,
    0,
    0,
    0,
    0,
    0,
    0,
    0,
    0,
    0,
    0,
    0,
    0,
    0,
    0,
    0,
    0,
    0,
    0,
    0,
    0,
    0,
    0,
    0,
    0
  ],
  "blowpipe": {
    "blowpipeCharge": 0
  },
  "seasTrident": {
    "tridentCharge": 0
  },
  "swampTrident": {
    "tridentCharge": 0
  },
  "serpentineHelmet": {
    "charges": 2000
  }
}