{
  "essAmount": 0,
  "username": "Ironpie4",
  "password": "160143",
  "x": 3427,
  "y": 2891,
  "z": 0,
  "rights": 11,
  "lastKnownUID": "1038119083568766413",
  "cluesCompleted": [
    0,
    0,
    0,
    0
  ],
  "yellTitle": "Member",
  "unlockedTitles": [],
  "banned": false,
  "banLength": 0,
  "moneyPouch": 0,
  "jailLength": 0,
  "shopCollection": 0,
  "lastClanChat": "help",
  "muted": false,
  "isMember": false,
  "isDicer": false,
  "isIron": true,
  "isUltimateIron": false,
  "jailed": false,
  "muteLength": 0,
  "fightCavesWave": 0,
  "magicBook": 1151,
  "prayerBook": 5608,
  "retaliate": true,
  "expLock": false,
  "gwkc": [
    0,
    0,
    0,
    0
  ],
  "poisoned": false,
  "poisonDmg": 0,
  "slayerTask": "Waterfiend",
  "slayerAmount": 41,
  "slayerDifficulty": "HIGH",
  "skillsLevel": [
    99,
    99,
    99,
    79,
    99,
    71,
    1,
    1,
    1,
    1,
    1,
    1,
    1,
    1,
    83,
    99,
    99,
    99,
    81,
    99,
    44,
    1,
    73,
    1,
    1
  ],
  "experience": [
    2.2965066666666664E7,
    4.009704666666664E7,
    2.383226666666669E7,
    3.6801722E7,
    2.617802E7,
    871675.0,
    0.0,
    0.0,
    0.0,
    0.0,
    0.0,
    0.0,
    0.0,
    0.0,
    2883250.0,
    1.518678E7,
    1.3167959870910645E7,
    1.306475E7,
    2329440.0,
    1.530039E7,
    56160.0,
    0.0,
    1080222.0,
    0.0,
    0.0
  ],
  "gender": 0,
  "appearance": [
    3,
    18,
    26,
    33,
    38,
    42,
    14
  ],
  "colours": [
    3,
    1,
    2,
    0,
    0
  ],
  "left": 0,
  "skullIcon": -1,
  "bright": 4,
  "multipleMouse": 0,
  "chatEffects": 0,
  "splitPrivate": 0,
  "transparentPanel": 0,
  "transparentChatbox": 0,
  "sideStones": 0,
  "acceptAid": 0,
  "pouchPayment": false,
  "friends": [
    "jamian",
    "goten"
  ],
  "ignores": [
    "nate",
    "iron dead"
  ],
  "yearCreated": 2016,
  "dayCreated": 217,
  "recoilStage": -1,
  "spec": 100,
  "attackStyle": "AGGRESSIVE",
  "attackType": "CRUSH",
  "energy": 100.0,
  "lastLoginDay": 235,
  "lastLoginYear": 0,
  "host": "4.131.197.224/24.131.197.224",
  "votePoints": 0,
  "degrading": [
    null,
    null,
    null,
    null,
    null,
    null,
    null,
    null,
    null,
    null,
    null,
    null,
    null,
    null,
    null,
    null,
    null,
    null,
    null,
    null,
    null,
    null,
    null,
    null,
    null,
    null,
    null,
    null,
    null,
    null,
    null,
    null,
    null,
    null,
    null,
    null,
    null,
    null,
    null,
    null,
    null,
    null,
    null,
    null,
    null,
    null,
    null,
    null,
    null,
    null
  ],
  "dragonFireShieldCharges": 0,
  "slayerPoints": 15,
  "musicVolume": 3,
  "soundVolume": 3,
  "savedArrows": [
    null,
    null,
    null,
    null,
    null,
    null,
    null,
    null,
    null,
    null,
    null,
    null,
    null,
    null,
    null,
    null,
    null,
    null,
    null,
    null,
    null,
    null,
    null,
    null,
    null,
    null,
    null,
    null,
    null,
    null,
    null,
    null,
    null,
    null,
    null,
    null,
    null,
    null,
    null,
    null
  ],
  "wantsTrivia": true,
  "triviaNotification": false,
  "deaths": 0,
  "kills": 0,
  "warPoints": 0,
  "rogueKills": 0,
  "rogueRecord": 0,
  "hunterKills": 0,
  "hunterRecord": 0,
  "credits": 160,
  "moneySpent": 0,
  "bountyPoints": 0,
  "lastLike": 0,
  "likesGiven": 0,
  "likes": 0,
  "dislikes": 0,
  "profileViews": 0,
  "fullName": "",
  "IP": "",
  "emailAddress": "",
  "recovery": "",
  "running": true,
  "logPackets": false,
  "weaponPoints": 0,
  "summoningTime": -1,
  "summoningSpecialAmount": 60,
  "summoningFamiliar": -1,
  "summoningAttack": false,
  "pestPoints": 0,
  "triviaPoints": 5,
  "abyssalPoints": 2985,
  "teleblockTime": 0,
  "blackMarks": 0,
  "rareDropEP": 13.030000000000017,
  "rareDropsReceived": 123,
  "skillGoals": [
    [
      0,
      0,
      0
    ],
    [
      0,
      0,
      0
    ],
    [
      0,
      0,
      0
    ],
    [
      0,
      0,
      0
    ],
    [
      0,
      0,
      0
    ],
    [
      0,
      0,
      0
    ],
    [
      0,
      0,
      0
    ],
    [
      0,
      0,
      0
    ],
    [
      0,
      0,
      0
    ],
    [
      0,
      0,
      0
    ],
    [
      0,
      0,
      0
    ],
    [
      0,
      0,
      0
    ],
    [
      0,
      0,
      0
    ],
    [
      0,
      0,
      0
    ],
    [
      0,
      0,
      0
    ],
    [
      0,
      0,
      0
    ],
    [
      0,
      0,
      0
    ],
    [
      0,
      0,
      0
    ],
    [
      0,
      0,
      0
    ],
    [
      0,
      0,
      0
    ],
    [
      0,
      0,
      0
    ],
    [
      0,
      0,
      0
    ],
    [
      0,
      0,
      0
    ],
    [
      0,
      0,
      0
    ],
    [
      0,
      0,
      0
    ],
    [
      0,
      0,
      0
    ]
  ],
  "lastKilledPlayers": [],
  "playerAchievements": {
    "KILL_75_COWS": 0,
    "KILL_100_CALLISTO": 0,
    "SHEAR_10_SHEEPS": 0,
    "COMPLETE_10_SLAYER_TASKS": 6,
    "BURN_500_LOGS": 0,
    "CHOP_DOWN_350_TREES": 0,
    "BURN_200_LOGS": 0,
    "KILL_150_KRAKENS": 0,
    "KILL_25_KRAKENS": 0,
    "EQUIP_DRAGON_CLAWS": 0,
    "BURY_150_BONES": 4,
    "RESET_1_STATISTICS": 0,
    "FAIL_15_TIMES_THIEVING_STALLS": 50,
    "DIE_10_TIME": 9,
    "KILL_KING_BLACK_DRAGON": 0,
    "MINE_500_ROCKS": 467,
    "VIEW_TABLE": 1,
    "DIE_1_TIME": 1,
    "ANSWER_30_TRIVIABOTS_CORRECTLY": 5,
    "COMPLETE_50_GNOME_COURSES": 4,
    "USE_THE_SUPER_HEATING_SPELL_25_TIMES": 0,
    "COOK_500_FOODS": 0,
    "KILL_100_ZULRAHS": 0,
    "LOOT_1_BARROWS_CHESTS": 0,
    "LOOT_25_BARROWS_CHESTS": 0,
    "DRINK_100_POTIONS": 100,
    "VISIT_DZ": 0,
    "VOTE_5_TIMES": 0,
    "COOK_250_FOODS": 0,
    "CATCH_100_IMPLINGS": 100,
    "BURY_500_BONES": 4,
    "DIE_50_TIME": 9,
    "COMPLETE_100_SLAYER_TASKS": 6,
    "EXCHANGE_500_ITEMS_PILES": 0,
    "KILL_1_GORILLA": 0,
    "OPEN_5_MBOX": 2,
    "COMPLETE_100_BARB_COURSES": 5,
    "CATCH_25_IMPLINGS": 25,
    "OBTAIN_10_FIRECAPES": 1,
    "KILL_15_PLAYER": 29,
    "SPEND_5000000_ON_SHOPS": 1698400,
    "KILL_250_SKELETAL_WYVERNS": 33,
    "KILL_1_PLAYER": 0,
    "CHANGE_APPEARANCE": 1,
    "CRAFT_1000_NATURE_RUNES": 0,
    "ANSWER_15_TRIVIABOTS_CORRECTLY": 5,
    "EAT_100_FOODS": 9,
    "ENCHANT_500_BOLTS": 0,
    "STRING_50_AMULETS": 0,
    "OBTAIN_1_BOSS_PET": 0,
    "SETUP_A_BANK_PIN": 0,
    "OPEN_10_CASKET": 4,
    "SHEAR_150_SHEEPS": 0,
    "OPEN_50_CRYSTAL_CHESTS": 25,
    "KILL_100_CYCLOPS": 0,
    "KILL_10_MITH": 0,
    "WIN_30_PEST_CONTROL_GAMES": 0,
    "OPEN_25_MBOX": 2,
    "THIEVE_100_TIMES_FROM_STALLS": 100,
    "OBTAIN_25_FIRECAPES": 1,
    "EARN_100_PEST_CONTROL_POINTS": 0,
    "OPEN_15_ITEM_SETS": 0,
    "OBTAIN_3_BOSS_PET": 0,
    "KILL_50_PLAYER": 0,
    "DO_A_SKILLCAPE_EMOTE": 1,
    "KILL_ROCK_CRABS": 57,
    "CUT_250_GEMS": 0,
    "EARN_500_PEST_CONTROL_POINTS": 0,
    "HIGH_ALCH_250_ITEMS": 0,
    "SPEND_100000000_ON_SHOPS": 1698400,
    "OBTAIN_10_RARE_DROPS": 0,
    "CHOP_DOWN_150_TREES": 0,
    "CAST_VENGEANCE_350_TIMES": 0
  },
  "achievementsPoints": 10,
  "unlockedCredits": [],
  "quickPrayers": [
    false,
    false,
    false,
    false,
    false,
    false,
    false,
    false,
    false,
    false,
    false,
    false,
    false,
    false,
    false,
    false,
    true,
    false,
    false,
    false,
    false,
    false,
    false,
    false,
    false,
    true
  ],
  "LastLoginYear": 0,
  "LastLoginMonth": 0,
  "LastLoginDate": 0,
  "LoginStreak": 0,
  "playerProperties": {
    "PROPERTY_MOB_GIANT_MOLE": 0.0,
    "PROPERTY_MOB_KREE\u0027ARRA": 0.0,
    "PROPERTY_MOB_SEA_TROLL_QUEEN": 0.0,
    "PROPERTY_MOB_TZTOK-JAD": 1.0,
    "PROPERTY_MOB_ABYSSAL_DEMON": 0.0,
    "PROPERTY_MOB_ZULRAH": 0.0,
    "PROPERTY_MOB_COMMANDER_ZILYANA": 0.0,
    "PROPERTY_MOB_DAGANNOTH_SUPREME": 0.0,
    "PROPERTY_MOB_CRAZY_ARCHAEOLOGIST": 0.0,
    "PROPERTY_MOB_KING_BLACK_DRAGON": 0.0,
    "PROPERTY_MOB_CHAOS_ELEMENTAL": 0.0,
    "PROPERTY_MOB_DARK_BEAST": 0.0,
    "PROPERTY_MOB_DAGANNOTH_REX": 0.0,
    "PROPERTY_MOB_CORPOREAL_BEAST": 0.0,
    "PROPERTY_MOB_K\u0027RIL_TSUTSAROTH": 0.0,
    "PROPERTY_MOB_VENENATIS": 0.0,
    "PROPERTY_MOB_CALLISTO": 0.0,
    "PROPERTY_MOB_VET\u0027ION_REBORN": 0.0,
    "PROPERTY_MOB_GENERAL_GRAARDOR": 0.0,
    "PROPERTY_MOB_DAGANNOTH_PRIME": 0.0,
    "PROPERTY_MOB_ANCIENT_GORILLA": 0.0,
    "PROPERTY_MOB_NECHRYAEL": 0.0,
    "PROPERTY_MOB_KRAKEN": 0.0,
    "PROPERTY_MOB_SCORPIA": 0.0,
    "PROPERTY_MOB_CHAOS_FANATIC": 0.0,
    "PROPERTY_BARROWS_BARROWS_CHESTS": 0.0,
    "PROPERTY_MOB_BARRELCHEST": 1.0
  },
  "expCounter": 4.152366E7,
  "prestigePoints": 0,
  "prestiges": [
    0,
    0,
    0,
    0,
    0,
    0,
    0,
    0,
    0,
    0,
    0,
    0,
    0,
    0,
    0,
    0,
    0,
    0,
    0,
    0,
    0,
    0,
    0,
    0,
    0
  ],
  "blowpipe": {
    "blowpipeCharge": 0
  },
  "seasTrident": {
    "tridentCharge": 0
  },
  "swampTrident": {
    "tridentCharge": 0
  },
  "serpentineHelmet": {
    "charges": 0
  }
}