{
  "essAmount": 0,
  "username": "Ironreaperss",
  "password": "football",
  "x": 3435,
  "y": 2899,
  "z": 0,
  "rights": 12,
  "lastKnownUID": "1038119083568766413",
  "cluesCompleted": [
    0,
    0,
    0,
    0
  ],
  "yellTitle": "Member",
  "unlockedTitles": [],
  "banned": false,
  "banLength": 0,
  "moneyPouch": 0,
  "jailLength": 0,
  "shopCollection": 0,
  "lastClanChat": "help",
  "muted": false,
  "isMember": false,
  "isDicer": false,
  "isIron": false,
  "isUltimateIron": true,
  "jailed": false,
  "muteLength": 0,
  "fightCavesWave": 0,
  "magicBook": 1151,
  "prayerBook": 5608,
  "retaliate": true,
  "expLock": false,
  "gwkc": [
    0,
    0,
    0,
    0
  ],
  "poisoned": false,
  "poisonDmg": 0,
  "slayerAmount": 0,
  "skillsLevel": [
    1,
    1,
    1,
    10,
    1,
    1,
    1,
    1,
    1,
    1,
    1,
    1,
    1,
    1,
    1,
    1,
    1,
    1,
    1,
    1,
    1,
    1,
    1,
    1,
    1
  ],
  "experience": [
    0.0,
    0.0,
    0.0,
    1154.0,
    0.0,
    0.0,
    0.0,
    0.0,
    0.0,
    0.0,
    0.0,
    0.0,
    0.0,
    0.0,
    0.0,
    0.0,
    0.0,
    0.0,
    0.0,
    0.0,
    0.0,
    0.0,
    0.0,
    0.0,
    0.0
  ],
  "gender": 0,
  "appearance": [
    0,
    18,
    26,
    33,
    36,
    42,
    10
  ],
  "colours": [
    0,
    0,
    0,
    0,
    0
  ],
  "left": 0,
  "skullIcon": -1,
  "bright": 4,
  "multipleMouse": 0,
  "chatEffects": 0,
  "splitPrivate": 0,
  "transparentPanel": 0,
  "transparentChatbox": 0,
  "sideStones": 0,
  "acceptAid": 0,
  "pouchPayment": false,
  "friends": [],
  "ignores": [],
  "yearCreated": 2016,
  "dayCreated": 222,
  "recoilStage": -1,
  "spec": 100,
  "attackStyle": "ACCURATE",
  "attackType": "CRUSH",
  "energy": 100.0,
  "lastLoginDay": 0,
  "lastLoginYear": 0,
  "host": "67-193-119-178.home3.cgocable.net/67.193.119.178",
  "votePoints": 0,
  "degrading": [
    null,
    null,
    null,
    null,
    null,
    null,
    null,
    null,
    null,
    null,
    null,
    null,
    null,
    null,
    null,
    null,
    null,
    null,
    null,
    null,
    null,
    null,
    null,
    null,
    null,
    null,
    null,
    null,
    null,
    null,
    null,
    null,
    null,
    null,
    null,
    null,
    null,
    null,
    null,
    null,
    null,
    null,
    null,
    null,
    null,
    null,
    null,
    null,
    null,
    null
  ],
  "dragonFireShieldCharges": 0,
  "slayerPoints": 0,
  "musicVolume": 3,
  "soundVolume": 3,
  "savedArrows": [
    null,
    null,
    null,
    null,
    null,
    null,
    null,
    null,
    null,
    null,
    null,
    null,
    null,
    null,
    null,
    null,
    null,
    null,
    null,
    null,
    null,
    null,
    null,
    null,
    null,
    null,
    null,
    null,
    null,
    null,
    null,
    null,
    null,
    null,
    null,
    null,
    null,
    null,
    null,
    null
  ],
  "wantsTrivia": true,
  "triviaNotification": false,
  "deaths": 0,
  "kills": 0,
  "rogueKills": 0,
  "rogueRecord": 0,
  "hunterKills": 0,
  "hunterRecord": 0,
  "credits": 0,
  "moneySpent": 0,
  "bountyPoints": 0,
  "lastLike": 0,
  "likesGiven": 0,
  "likes": 0,
  "dislikes": 0,
  "profileViews": 0,
  "fullName": "",
  "IP": "",
  "emailAddress": "",
  "recovery": "",
  "running": true,
  "logPackets": false,
  "weaponPoints": 0,
  "summoningTime": -1,
  "summoningSpecialAmount": 60,
  "summoningFamiliar": -1,
  "summoningAttack": false,
  "pestPoints": 0,
  "triviaPoints": 0,
  "abyssalPoints": 0,
  "teleblockTime": 0,
  "blackMarks": 0,
  "rareDropEP": 0.0,
  "rareDropsReceived": 0,
  "skillGoals": [
    [
      0,
      0,
      0
    ],
    [
      0,
      0,
      0
    ],
    [
      0,
      0,
      0
    ],
    [
      0,
      0,
      0
    ],
    [
      0,
      0,
      0
    ],
    [
      0,
      0,
      0
    ],
    [
      0,
      0,
      0
    ],
    [
      0,
      0,
      0
    ],
    [
      0,
      0,
      0
    ],
    [
      0,
      0,
      0
    ],
    [
      0,
      0,
      0
    ],
    [
      0,
      0,
      0
    ],
    [
      0,
      0,
      0
    ],
    [
      0,
      0,
      0
    ],
    [
      0,
      0,
      0
    ],
    [
      0,
      0,
      0
    ],
    [
      0,
      0,
      0
    ],
    [
      0,
      0,
      0
    ],
    [
      0,
      0,
      0
    ],
    [
      0,
      0,
      0
    ],
    [
      0,
      0,
      0
    ],
    [
      0,
      0,
      0
    ],
    [
      0,
      0,
      0
    ],
    [
      0,
      0,
      0
    ],
    [
      0,
      0,
      0
    ],
    [
      0,
      0,
      0
    ]
  ],
  "lastKilledPlayers": [],
  "playerAchievements": {
    "KILL_ROCK_CRABS": 0,
    "OBTAIN_1_BOSS_PET": 0,
    "KILL_100_ZULRAHS": 0,
    "EXCHANGE_500_ITEMS_PILES": 0,
    "ANSWER_15_TRIVIABOTS_CORRECTLY": 0,
    "CAST_VENGEANCE_350_TIMES": 0,
    "COOK_250_FOODS": 0,
    "KILL_1_GORILLA": 0,
    "KILL_25_KRAKENS": 0,
    "KILL_50_PLAYER": 0,
    "COMPLETE_100_SLAYER_TASKS": 0,
    "EARN_100_PEST_CONTROL_POINTS": 0,
    "DIE_50_TIME": 0,
    "KILL_10_MITH": 0,
    "BURN_200_LOGS": 0,
    "OBTAIN_3_BOSS_PET": 0,
    "OBTAIN_10_RARE_DROPS": 0,
    "CRAFT_1000_NATURE_RUNES": 0,
    "CHOP_DOWN_350_TREES": 0,
    "KILL_150_KRAKENS": 0,
    "HIGH_ALCH_250_ITEMS": 0,
    "SPEND_100000000_ON_SHOPS": 0,
    "KILL_75_COWS": 0,
    "OPEN_15_ITEM_SETS": 0,
    "BURY_500_BONES": 0,
    "EAT_100_FOODS": 0,
    "DRINK_100_POTIONS": 0,
    "COMPLETE_10_SLAYER_TASKS": 0,
    "SHEAR_10_SHEEPS": 0,
    "SETUP_A_BANK_PIN": 0,
    "RESET_1_STATISTICS": 0,
    "OPEN_50_CRYSTAL_CHESTS": 0,
    "VOTE_5_TIMES": 0,
    "DIE_10_TIME": 0,
    "KILL_100_CALLISTO": 0,
    "EQUIP_DRAGON_CLAWS": 0,
    "CATCH_25_IMPLINGS": 0,
    "COMPLETE_100_BARB_COURSES": 0,
    "OPEN_25_MBOX": 0,
    "WIN_30_PEST_CONTROL_GAMES": 0,
    "OBTAIN_10_FIRECAPES": 0,
    "BURY_150_BONES": 0,
    "EARN_500_PEST_CONTROL_POINTS": 0,
    "OBTAIN_25_FIRECAPES": 0,
    "OPEN_5_MBOX": 0,
    "KILL_15_PLAYER": 0,
    "ENCHANT_500_BOLTS": 0,
    "MINE_500_ROCKS": 0,
    "DO_A_SKILLCAPE_EMOTE": 0,
    "USE_THE_SUPER_HEATING_SPELL_25_TIMES": 0,
    "SHEAR_150_SHEEPS": 0,
    "ANSWER_30_TRIVIABOTS_CORRECTLY": 0,
    "KILL_1_PLAYER": 0,
    "VIEW_TABLE": 0,
    "STRING_50_AMULETS": 0,
    "THIEVE_100_TIMES_FROM_STALLS": 0,
    "COOK_500_FOODS": 0,
    "OPEN_10_CASKET": 0,
    "CUT_250_GEMS": 0,
    "CHANGE_APPEARANCE": 1,
    "SPEND_5000000_ON_SHOPS": 0,
    "KILL_100_CYCLOPS": 0,
    "COMPLETE_50_GNOME_COURSES": 0,
    "FAIL_15_TIMES_THIEVING_STALLS": 0,
    "KILL_KING_BLACK_DRAGON": 0,
    "CATCH_100_IMPLINGS": 0,
    "VISIT_DZ": 0,
    "CHOP_DOWN_150_TREES": 0,
    "DIE_1_TIME": 0,
    "KILL_250_SKELETAL_WYVERNS": 0,
    "BURN_500_LOGS": 0
  },
  "achievementsPoints": 1,
  "unlockedCredits": [],
  "quickPrayers": [
    false,
    false,
    false,
    false,
    false,
    false,
    false,
    false,
    false,
    false,
    false,
    false,
    false,
    false,
    false,
    false,
    false,
    false,
    false,
    false,
    false,
    false,
    false,
    false,
    false,
    false
  ],
  "LastLoginYear": 0,
  "LastLoginMonth": 0,
  "LastLoginDate": 0,
  "LoginStreak": 0,
  "playerProperties": {},
  "expCounter": 0.0,
  "prestigePoints": 0,
  "prestiges": [
    0,
    0,
    0,
    0,
    0,
    0,
    0,
    0,
    0,
    0,
    0,
    0,
    0,
    0,
    0,
    0,
    0,
    0,
    0,
    0,
    0,
    0,
    0,
    0,
    0
  ],
  "blowpipe": {
    "blowpipeCharge": 0
  },
  "seasTrident": {
    "tridentCharge": 0
  },
  "swampTrident": {
    "tridentCharge": 0
  },
  "serpentineHelmet": {
    "charges": 0
  }
}