{
  "essAmount": 0,
  "username": "Kid cannabis",
  "password": "123lol123",
  "x": 3432,
  "y": 2893,
  "z": 0,
  "rights": 5,
  "lastKnownUID": "-6112359572317564494",
  "cluesCompleted": [
    0,
    0,
    0,
    0
  ],
  "yellTitle": "Member",
  "unlockedTitles": [],
  "banned": false,
  "banLength": 0,
  "moneyPouch": 0,
  "jailLength": 0,
  "shopCollection": 0,
  "lastClanChat": "help",
  "muted": false,
  "isMember": true,
  "isDicer": false,
  "isIron": false,
  "isUltimateIron": false,
  "jailed": false,
  "muteLength": 0,
  "fightCavesWave": 0,
  "magicBook": 1151,
  "prayerBook": 5608,
  "retaliate": false,
  "expLock": false,
  "gwkc": [
    0,
    0,
    0,
    0
  ],
  "poisoned": true,
  "poisonDmg": 0,
  "slayerTask": "Thermonuclear Smoke Devil",
  "slayerAmount": 5,
  "slayerDifficulty": "BOSS",
  "skillsLevel": [
    99,
    99,
    99,
    99,
    99,
    96,
    79,
    1,
    1,
    1,
    1,
    1,
    1,
    1,
    1,
    1,
    33,
    58,
    87,
    1,
    1,
    1,
    1,
    1,
    1
  ],
  "experience": [
    1.8555733333333373E7,
    1.6766133333333354E7,
    2.080373333333337E7,
    3.0279668E7,
    3.660888E7,
    1.05572975E7,
    1829237.5,
    0.0,
    0.0,
    0.0,
    0.0,
    0.0,
    0.0,
    0.0,
    0.0,
    0.0,
    18800.0,
    241375.0,
    4015825.0,
    0.0,
    0.0,
    0.0,
    0.0,
    0.0,
    0.0
  ],
  "gender": 0,
  "appearance": [
    1,
    18,
    26,
    33,
    36,
    42,
    11
  ],
  "colours": [
    3,
    9,
    2,
    0,
    0
  ],
  "left": 0,
  "skullIcon": -1,
  "bright": 4,
  "multipleMouse": 0,
  "chatEffects": 0,
  "splitPrivate": 1,
  "transparentPanel": 0,
  "transparentChatbox": 0,
  "sideStones": 0,
  "acceptAid": 0,
  "pouchPayment": false,
  "friends": [
    "arianagrande",
    "corbsterhd",
    "fissure",
    "262654386914",
    "defence pro1",
    "rolex",
    "numa",
    "nate",
    "turbomali712",
    "zulrah",
    "stufy",
    "study"
  ],
  "ignores": [
    "lilliliiilil"
  ],
  "yearCreated": 2016,
  "dayCreated": 235,
  "recoilStage": -1,
  "spec": 100,
  "attackStyle": "AGGRESSIVE",
  "attackType": "CRUSH",
  "energy": 100.0,
  "lastLoginDay": 240,
  "lastLoginYear": 0,
  "host": "pe-72-230-165-82.rochester.res.rr.com/72.230.165.82",
  "votePoints": 0,
  "degrading": [
    null,
    null,
    null,
    null,
    null,
    null,
    null,
    null,
    null,
    null,
    null,
    null,
    null,
    null,
    null,
    null,
    null,
    null,
    null,
    null,
    null,
    null,
    null,
    null,
    null,
    null,
    null,
    null,
    null,
    null,
    null,
    null,
    null,
    null,
    null,
    null,
    null,
    null,
    null,
    null,
    null,
    null,
    null,
    null,
    null,
    null,
    null,
    null,
    null,
    null
  ],
  "dragonFireShieldCharges": 0,
  "slayerPoints": 118,
  "musicVolume": 3,
  "soundVolume": 3,
  "savedArrows": [
    null,
    null,
    null,
    null,
    null,
    null,
    null,
    null,
    null,
    null,
    null,
    null,
    null,
    null,
    null,
    null,
    null,
    null,
    null,
    null,
    null,
    null,
    null,
    null,
    null,
    null,
    null,
    null,
    null,
    null,
    null,
    null,
    null,
    null,
    null,
    null,
    null,
    null,
    null,
    null
  ],
  "wantsTrivia": true,
  "triviaNotification": false,
  "deaths": 0,
  "kills": 0,
  "warPoints": 0,
  "rogueKills": 0,
  "rogueRecord": 0,
  "hunterKills": 0,
  "hunterRecord": 0,
  "credits": 80,
  "moneySpent": 5,
  "bountyPoints": 100000,
  "lastLike": 0,
  "likesGiven": 0,
  "likes": 0,
  "dislikes": 0,
  "profileViews": 0,
  "fullName": "",
  "IP": "",
  "emailAddress": "",
  "recovery": "",
  "pins": "1996",
  "running": true,
  "logPackets": false,
  "weaponPoints": 0,
  "summoningTime": -1,
  "summoningSpecialAmount": 60,
  "summoningFamiliar": -1,
  "summoningAttack": false,
  "pestPoints": 0,
  "triviaPoints": 1,
  "abyssalPoints": 630,
  "teleblockTime": 0,
  "blackMarks": 0,
  "rareDropEP": 2.5120000000000005,
  "rareDropsReceived": 67,
  "skillGoals": [
    [
      0,
      0,
      0
    ],
    [
      0,
      0,
      0
    ],
    [
      0,
      0,
      0
    ],
    [
      0,
      0,
      0
    ],
    [
      0,
      0,
      0
    ],
    [
      0,
      0,
      0
    ],
    [
      0,
      0,
      0
    ],
    [
      0,
      0,
      0
    ],
    [
      0,
      0,
      0
    ],
    [
      0,
      0,
      0
    ],
    [
      0,
      0,
      0
    ],
    [
      0,
      0,
      0
    ],
    [
      0,
      0,
      0
    ],
    [
      0,
      0,
      0
    ],
    [
      0,
      0,
      0
    ],
    [
      0,
      0,
      0
    ],
    [
      0,
      0,
      0
    ],
    [
      0,
      0,
      0
    ],
    [
      0,
      0,
      0
    ],
    [
      0,
      0,
      0
    ],
    [
      0,
      0,
      0
    ],
    [
      0,
      0,
      0
    ],
    [
      0,
      0,
      0
    ],
    [
      0,
      0,
      0
    ],
    [
      0,
      0,
      0
    ],
    [
      0,
      0,
      0
    ]
  ],
  "lastKilledPlayers": [],
  "playerAchievements": {
    "RESET_1_STATISTICS": 0,
    "DRINK_100_POTIONS": 100,
    "WIN_30_PEST_CONTROL_GAMES": 0,
    "EARN_100_PEST_CONTROL_POINTS": 0,
    "VOTE_5_TIMES": 1,
    "SHEAR_150_SHEEPS": 0,
    "KILL_1_PLAYER": 0,
    "CAST_VENGEANCE_350_TIMES": 0,
    "SHEAR_10_SHEEPS": 0,
    "DIE_50_TIME": 15,
    "KILL_15_PLAYER": 8,
    "OBTAIN_1_BOSS_PET": 0,
    "KILL_KING_BLACK_DRAGON": 0,
    "KILL_25_KRAKENS": 0,
    "ENCHANT_500_BOLTS": 1,
    "BURN_500_LOGS": 0,
    "SETUP_A_BANK_PIN": 1,
    "KILL_75_COWS": 0,
    "KILL_ROCK_CRABS": 94,
    "EAT_100_FOODS": 100,
    "BURN_200_LOGS": 0,
    "FAIL_15_TIMES_THIEVING_STALLS": 50,
    "CATCH_25_IMPLINGS": 0,
    "OBTAIN_3_BOSS_PET": 0,
    "KILL_100_CYCLOPS": 0,
    "SPEND_5000000_ON_SHOPS": 13233056,
    "KILL_10_MITH": 0,
    "STRING_50_AMULETS": 0,
    "OPEN_25_MBOX": 3,
    "BURY_150_BONES": 20,
    "KILL_50_PLAYER": 25,
    "BURY_500_BONES": 20,
    "HIGH_ALCH_250_ITEMS": 0,
    "OBTAIN_25_FIRECAPES": 1,
    "DO_A_SKILLCAPE_EMOTE": 0,
    "VISIT_DZ": 1,
    "CUT_250_GEMS": 0,
    "CHANGE_APPEARANCE": 1,
    "SPEND_100000000_ON_SHOPS": 13233056,
    "LOOT_25_BARROWS_CHESTS": 0,
    "ANSWER_15_TRIVIABOTS_CORRECTLY": 7,
    "ANSWER_30_TRIVIABOTS_CORRECTLY": 7,
    "COOK_500_FOODS": 0,
    "COMPLETE_100_BARB_COURSES": 0,
    "COMPLETE_100_SLAYER_TASKS": 9,
    "OPEN_10_CASKET": 6,
    "THIEVE_100_TIMES_FROM_STALLS": 100,
    "OPEN_15_ITEM_SETS": 15,
    "MINE_500_ROCKS": 0,
    "KILL_100_ZULRAHS": 10,
    "COMPLETE_50_GNOME_COURSES": 2,
    "KILL_150_KRAKENS": 0,
    "EXCHANGE_500_ITEMS_PILES": 0,
    "COMPLETE_10_SLAYER_TASKS": 9,
    "OPEN_5_MBOX": 3,
    "VIEW_TABLE": 0,
    "DIE_1_TIME": 1,
    "COOK_250_FOODS": 0,
    "OPEN_50_CRYSTAL_CHESTS": 34,
    "CRAFT_1000_NATURE_RUNES": 0,
    "KILL_250_SKELETAL_WYVERNS": 4,
    "DIE_10_TIME": 10,
    "LOOT_1_BARROWS_CHESTS": 0,
    "CHOP_DOWN_150_TREES": 0,
    "EQUIP_DRAGON_CLAWS": 0,
    "CHOP_DOWN_350_TREES": 0,
    "KILL_100_CALLISTO": 11,
    "CATCH_100_IMPLINGS": 0,
    "USE_THE_SUPER_HEATING_SPELL_25_TIMES": 0,
    "OBTAIN_10_FIRECAPES": 1,
    "OBTAIN_10_RARE_DROPS": 0,
    "EARN_500_PEST_CONTROL_POINTS": 0,
    "KILL_1_GORILLA": 1
  },
  "achievementsPoints": 3,
  "unlockedCredits": [],
  "quickPrayers": [
    false,
    false,
    false,
    false,
    false,
    false,
    false,
    false,
    false,
    false,
    false,
    false,
    false,
    false,
    false,
    false,
    false,
    false,
    false,
    false,
    false,
    false,
    false,
    false,
    false,
    false
  ],
  "LastLoginYear": 0,
  "LastLoginMonth": 0,
  "LastLoginDate": 0,
  "LoginStreak": 0,
  "playerProperties": {
    "PROPERTY_MOB_GIANT_MOLE": 0.0,
    "PROPERTY_MOB_KREE\u0027ARRA": 0.0,
    "PROPERTY_MOB_SEA_TROLL_QUEEN": 0.0,
    "PROPERTY_MOB_TZTOK-JAD": 1.0,
    "PROPERTY_MOB_ABYSSAL_DEMON": 0.0,
    "PROPERTY_MOB_ZULRAH": 10.0,
    "PROPERTY_MOB_COMMANDER_ZILYANA": 0.0,
    "PROPERTY_MOB_DAGANNOTH_SUPREME": 0.0,
    "PROPERTY_MOB_CRAZY_ARCHAEOLOGIST": 0.0,
    "PROPERTY_MOB_KING_BLACK_DRAGON": 0.0,
    "PROPERTY_MOB_CHAOS_ELEMENTAL": 0.0,
    "PROPERTY_MOB_DARK_BEAST": 0.0,
    "PROPERTY_MOB_DAGANNOTH_REX": 0.0,
    "PROPERTY_MOB_CORPOREAL_BEAST": 0.0,
    "PROPERTY_MOB_K\u0027RIL_TSUTSAROTH": 0.0,
    "PROPERTY_MOB_VENENATIS": 0.0,
    "PROPERTY_MOB_CALLISTO": 11.0,
    "PROPERTY_MOB_VET\u0027ION_REBORN": 0.0,
    "PROPERTY_MOB_GENERAL_GRAARDOR": 1.0,
    "PROPERTY_MOB_DAGANNOTH_PRIME": 0.0,
    "PROPERTY_MOB_ANCIENT_GORILLA": 4.0,
    "PROPERTY_MOB_NECHRYAEL": 0.0,
    "PROPERTY_MOB_KRAKEN": 0.0,
    "PROPERTY_MOB_SCORPIA": 0.0,
    "PROPERTY_MOB_CHAOS_FANATIC": 0.0,
    "PROPERTY_BARROWS_BARROWS_CHESTS": 0.0,
    "PROPERTY_MOB_BARRELCHEST": 3.0
  },
  "expCounter": 1.39672858E8,
  "prestigePoints": 0,
  "prestiges": [
    0,
    0,
    0,
    0,
    0,
    0,
    0,
    0,
    0,
    0,
    0,
    0,
    0,
    0,
    0,
    0,
    0,
    0,
    0,
    0,
    0,
    0,
    0,
    0,
    0
  ],
  "blowpipe": {
    "blowpipeAmmo": {
      "id": 11230,
      "amount": 100
    },
    "blowpipeCharge": 25205
  },
  "seasTrident": {
    "tridentCharge": 0
  },
  "swampTrident": {
    "tridentCharge": 2213
  },
  "serpentineHelmet": {
    "charges": 0
  }
}