{
  "essAmount": 0,
  "username": "King casper",
  "password": "dragon123",
  "x": 2667,
  "y": 2653,
  "z": 0,
  "rights": 0,
  "lastKnownUID": "7822539462527967366",
  "cluesCompleted": [
    0,
    0,
    0,
    0
  ],
  "yellTitle": "Member",
  "unlockedTitles": [],
  "banned": false,
  "banLength": 0,
  "moneyPouch": 0,
  "jailLength": 0,
  "shopCollection": 0,
  "lastClanChat": "help",
  "muted": false,
  "isMember": false,
  "isDicer": false,
  "isIron": false,
  "isUltimateIron": false,
  "jailed": false,
  "muteLength": 0,
  "fightCavesWave": 0,
  "magicBook": 1151,
  "prayerBook": 5608,
  "retaliate": false,
  "expLock": false,
  "gwkc": [
    0,
    0,
    0,
    0
  ],
  "poisoned": false,
  "poisonDmg": 0,
  "slayerAmount": 0,
  "slayerDifficulty": "MEDIUM",
  "skillsLevel": [
    60,
    61,
    78,
    77,
    81,
    87,
    55,
    62,
    85,
    1,
    63,
    69,
    99,
    1,
    1,
    1,
    36,
    1,
    53,
    1,
    1,
    1,
    1,
    1,
    1
  ],
  "experience": [
    274400.0,
    305600.0,
    1743200.0,
    1526664.0,
    2323200.0,
    7767895.0,
    168743.0,
    363800.0,
    3487250.0,
    0.0,
    392250.0,
    680125.0,
    1.4766465E7,
    0.0,
    0.0,
    0.0,
    25950.0,
    0.0,
    140400.0,
    0.0,
    0.0,
    0.0,
    0.0,
    0.0,
    0.0
  ],
  "gender": 0,
  "appearance": [
    2,
    21,
    27,
    34,
    38,
    42,
    14
  ],
  "colours": [
    1,
    1,
    2,
    3,
    2
  ],
  "left": 0,
  "skullIcon": -1,
  "bright": 4,
  "multipleMouse": 0,
  "chatEffects": 0,
  "splitPrivate": 1,
  "transparentPanel": 0,
  "transparentChatbox": 0,
  "sideStones": 0,
  "acceptAid": 0,
  "pouchPayment": false,
  "friends": [
    "sleep",
    "ehhhzylo",
    "the bros 2",
    "hanybal",
    "bio",
    "boeletje",
    "shy glizzy",
    "nate",
    "corbsterhd",
    "tehdark12",
    "nick",
    "p",
    "arianagrande",
    "soft"
  ],
  "ignores": [],
  "yearCreated": 2016,
  "dayCreated": 236,
  "recoilStage": -1,
  "spec": 100,
  "attackStyle": "AGGRESSIVE",
  "attackType": "CRUSH",
  "energy": 100.0,
  "lastLoginDay": 239,
  "lastLoginYear": 0,
  "host": "04.237.161.209/204.237.161.209",
  "votePoints": 0,
  "degrading": [
    null,
    null,
    null,
    null,
    null,
    null,
    null,
    null,
    null,
    null,
    null,
    null,
    null,
    null,
    null,
    null,
    null,
    null,
    null,
    null,
    null,
    null,
    null,
    null,
    null,
    null,
    null,
    null,
    null,
    null,
    null,
    null,
    null,
    null,
    null,
    null,
    null,
    null,
    null,
    null,
    null,
    null,
    null,
    null,
    null,
    null,
    null,
    null,
    null,
    null
  ],
  "dragonFireShieldCharges": 0,
  "slayerPoints": 8,
  "musicVolume": 3,
  "soundVolume": 3,
  "savedArrows": [
    null,
    null,
    null,
    null,
    null,
    null,
    null,
    null,
    null,
    null,
    null,
    null,
    null,
    null,
    null,
    null,
    null,
    null,
    null,
    null,
    null,
    null,
    null,
    null,
    null,
    null,
    null,
    null,
    null,
    null,
    null,
    null,
    null,
    null,
    null,
    null,
    null,
    null,
    null,
    null
  ],
  "wantsTrivia": true,
  "triviaNotification": false,
  "deaths": 0,
  "kills": 0,
  "warPoints": 0,
  "rogueKills": 0,
  "rogueRecord": 0,
  "hunterKills": 0,
  "hunterRecord": 0,
  "credits": 20,
  "moneySpent": 0,
  "bountyPoints": 0,
  "lastLike": 0,
  "likesGiven": 0,
  "likes": 0,
  "dislikes": 0,
  "profileViews": 0,
  "fullName": "",
  "IP": "",
  "emailAddress": "",
  "recovery": "",
  "pins": "1997",
  "running": true,
  "logPackets": false,
  "weaponPoints": 0,
  "summoningTime": -1,
  "summoningSpecialAmount": 60,
  "summoningFamiliar": -1,
  "summoningAttack": false,
  "pestPoints": 0,
  "triviaPoints": 8,
  "abyssalPoints": 0,
  "teleblockTime": 0,
  "blackMarks": 0,
  "rareDropEP": 0.7929999999999998,
  "rareDropsReceived": 6,
  "skillGoals": [
    [
      0,
      0,
      0
    ],
    [
      0,
      0,
      0
    ],
    [
      0,
      0,
      0
    ],
    [
      0,
      0,
      0
    ],
    [
      0,
      0,
      0
    ],
    [
      0,
      0,
      0
    ],
    [
      0,
      0,
      0
    ],
    [
      0,
      0,
      0
    ],
    [
      0,
      0,
      0
    ],
    [
      0,
      0,
      0
    ],
    [
      0,
      0,
      0
    ],
    [
      0,
      0,
      0
    ],
    [
      0,
      0,
      0
    ],
    [
      0,
      0,
      0
    ],
    [
      0,
      0,
      0
    ],
    [
      0,
      0,
      0
    ],
    [
      0,
      0,
      0
    ],
    [
      0,
      0,
      0
    ],
    [
      0,
      0,
      0
    ],
    [
      0,
      0,
      0
    ],
    [
      0,
      0,
      0
    ],
    [
      0,
      0,
      0
    ],
    [
      0,
      0,
      0
    ],
    [
      0,
      0,
      0
    ],
    [
      0,
      0,
      0
    ],
    [
      0,
      0,
      0
    ]
  ],
  "lastKilledPlayers": [],
  "playerAchievements": {
    "RESET_1_STATISTICS": 0,
    "DRINK_100_POTIONS": 25,
    "WIN_30_PEST_CONTROL_GAMES": 0,
    "EARN_100_PEST_CONTROL_POINTS": 0,
    "VOTE_5_TIMES": 2,
    "SHEAR_150_SHEEPS": 0,
    "KILL_1_PLAYER": 0,
    "CAST_VENGEANCE_350_TIMES": 0,
    "SHEAR_10_SHEEPS": 0,
    "DIE_50_TIME": 2,
    "KILL_15_PLAYER": 0,
    "OBTAIN_1_BOSS_PET": 0,
    "KILL_KING_BLACK_DRAGON": 0,
    "KILL_25_KRAKENS": 0,
    "ENCHANT_500_BOLTS": 0,
    "BURN_500_LOGS": 181,
    "SETUP_A_BANK_PIN": 1,
    "KILL_75_COWS": 0,
    "KILL_ROCK_CRABS": 51,
    "EAT_100_FOODS": 65,
    "BURN_200_LOGS": 181,
    "FAIL_15_TIMES_THIEVING_STALLS": 0,
    "CATCH_25_IMPLINGS": 0,
    "OBTAIN_3_BOSS_PET": 0,
    "KILL_100_CYCLOPS": 0,
    "SPEND_5000000_ON_SHOPS": 49534888,
    "KILL_10_MITH": 0,
    "STRING_50_AMULETS": 1,
    "OPEN_25_MBOX": 4,
    "BURY_150_BONES": 6,
    "KILL_50_PLAYER": 0,
    "BURY_500_BONES": 6,
    "HIGH_ALCH_250_ITEMS": 0,
    "OBTAIN_25_FIRECAPES": 0,
    "DO_A_SKILLCAPE_EMOTE": 0,
    "VISIT_DZ": 0,
    "CUT_250_GEMS": 250,
    "CHANGE_APPEARANCE": 1,
    "SPEND_100000000_ON_SHOPS": 49534888,
    "LOOT_25_BARROWS_CHESTS": 0,
    "ANSWER_15_TRIVIABOTS_CORRECTLY": 8,
    "ANSWER_30_TRIVIABOTS_CORRECTLY": 8,
    "COOK_500_FOODS": 220,
    "COMPLETE_100_BARB_COURSES": 0,
    "COMPLETE_100_SLAYER_TASKS": 1,
    "OPEN_10_CASKET": 0,
    "THIEVE_100_TIMES_FROM_STALLS": 0,
    "OPEN_15_ITEM_SETS": 2,
    "MINE_500_ROCKS": 0,
    "KILL_100_ZULRAHS": 0,
    "COMPLETE_50_GNOME_COURSES": 3,
    "KILL_150_KRAKENS": 0,
    "EXCHANGE_500_ITEMS_PILES": 0,
    "COMPLETE_10_SLAYER_TASKS": 1,
    "OPEN_5_MBOX": 4,
    "VIEW_TABLE": 1,
    "DIE_1_TIME": 1,
    "COOK_250_FOODS": 220,
    "OPEN_50_CRYSTAL_CHESTS": 2,
    "CRAFT_1000_NATURE_RUNES": 0,
    "KILL_250_SKELETAL_WYVERNS": 0,
    "DIE_10_TIME": 2,
    "LOOT_1_BARROWS_CHESTS": 0,
    "CHOP_DOWN_150_TREES": 85,
    "EQUIP_DRAGON_CLAWS": 0,
    "CHOP_DOWN_350_TREES": 85,
    "KILL_100_CALLISTO": 0,
    "CATCH_100_IMPLINGS": 0,
    "USE_THE_SUPER_HEATING_SPELL_25_TIMES": 0,
    "OBTAIN_10_FIRECAPES": 0,
    "OBTAIN_10_RARE_DROPS": 0,
    "EARN_500_PEST_CONTROL_POINTS": 0,
    "KILL_1_GORILLA": 1
  },
  "achievementsPoints": 7,
  "unlockedCredits": [],
  "quickPrayers": [
    false,
    false,
    false,
    false,
    false,
    false,
    false,
    false,
    false,
    false,
    false,
    false,
    false,
    false,
    false,
    false,
    false,
    false,
    false,
    false,
    false,
    false,
    false,
    false,
    false,
    false
  ],
  "LastLoginYear": 0,
  "LastLoginMonth": 0,
  "LastLoginDate": 0,
  "LoginStreak": 0,
  "playerProperties": {
    "PROPERTY_MOB_GIANT_MOLE": 0.0,
    "PROPERTY_MOB_KREE\u0027ARRA": 0.0,
    "PROPERTY_MOB_SEA_TROLL_QUEEN": 1.0,
    "PROPERTY_MOB_TZTOK-JAD": 0.0,
    "PROPERTY_MOB_ABYSSAL_DEMON": 0.0,
    "PROPERTY_MOB_ZULRAH": 0.0,
    "PROPERTY_MOB_COMMANDER_ZILYANA": 0.0,
    "PROPERTY_MOB_DAGANNOTH_SUPREME": 0.0,
    "PROPERTY_MOB_CRAZY_ARCHAEOLOGIST": 0.0,
    "PROPERTY_MOB_KING_BLACK_DRAGON": 0.0,
    "PROPERTY_MOB_CHAOS_ELEMENTAL": 0.0,
    "PROPERTY_MOB_DARK_BEAST": 0.0,
    "PROPERTY_MOB_DAGANNOTH_REX": 0.0,
    "PROPERTY_MOB_CORPOREAL_BEAST": 0.0,
    "PROPERTY_MOB_K\u0027RIL_TSUTSAROTH": 0.0,
    "PROPERTY_MOB_VENENATIS": 0.0,
    "PROPERTY_MOB_CALLISTO": 0.0,
    "PROPERTY_MOB_VET\u0027ION_REBORN": 0.0,
    "PROPERTY_MOB_GENERAL_GRAARDOR": 0.0,
    "PROPERTY_MOB_DAGANNOTH_PRIME": 0.0,
    "PROPERTY_MOB_ANCIENT_GORILLA": 2.0,
    "PROPERTY_MOB_NECHRYAEL": 0.0,
    "PROPERTY_MOB_KRAKEN": 0.0,
    "PROPERTY_MOB_SCORPIA": 0.0,
    "PROPERTY_MOB_CHAOS_FANATIC": 0.0,
    "PROPERTY_BARROWS_BARROWS_CHESTS": 0.0,
    "PROPERTY_MOB_BARRELCHEST": 0.0
  },
  "expCounter": 3.3959167E7,
  "prestigePoints": 0,
  "prestiges": [
    0,
    0,
    0,
    0,
    0,
    0,
    0,
    0,
    0,
    0,
    0,
    0,
    0,
    0,
    0,
    0,
    0,
    0,
    0,
    0,
    0,
    0,
    0,
    0,
    0
  ],
  "blowpipe": {
    "blowpipeAmmo": {
      "id": 11230,
      "amount": 500
    },
    "blowpipeCharge": 22083
  },
  "seasTrident": {
    "tridentCharge": 0
  },
  "swampTrident": {
    "tridentCharge": 0
  },
  "serpentineHelmet": {
    "charges": 0
  }
}