{
  "essAmount": 0,
  "username": "Koala",
  "password": "sosadforme",
  "x": 3435,
  "y": 2899,
  "z": 0,
  "rights": 5,
  "lastKnownUID": "119083568766413",
  "cluesCompleted": [
    0,
    0,
    0,
    0
  ],
  "yellTitle": "Member",
  "unlockedTitles": [],
  "banned": false,
  "banLength": 0,
  "moneyPouch": 0,
  "jailLength": 0,
  "shopCollection": 0,
  "lastClanChat": "help",
  "muted": false,
  "isMember": true,
  "isDicer": false,
  "isIron": false,
  "isUltimateIron": false,
  "jailed": false,
  "muteLength": 0,
  "fightCavesWave": 0,
  "magicBook": 12855,
  "prayerBook": 5608,
  "retaliate": true,
  "expLock": false,
  "gwkc": [
    0,
    0,
    0,
    0
  ],
  "poisoned": false,
  "poisonDmg": 0,
  "slayerTask": "Barrelchest",
  "slayerAmount": 26,
  "slayerDifficulty": "BOSS",
  "skillsLevel": [
    99,
    99,
    99,
    17,
    109,
    61,
    82,
    1,
    1,
    1,
    1,
    1,
    80,
    48,
    65,
    1,
    71,
    82,
    94,
    1,
    53,
    1,
    1,
    1,
    1
  ],
  "experience": [
    1.7442666666666668E7,
    1.3051406666666668E7,
    1.4149066666666668E7,
    7.764948E7,
    2.0E8,
    5753097.5,
    2568378.6999999923,
    0.0,
    0.0,
    0.0,
    0.0,
    0.0,
    2104347.0,
    85375.0,
    485250.0,
    0.0,
    823999.9933242798,
    2542750.0,
    8519256.0,
    0.0,
    137025.0,
    0.0,
    0.0,
    0.0,
    0.0
  ],
  "gender": 0,
  "appearance": [
    0,
    18,
    26,
    34,
    37,
    42,
    14
  ],
  "colours": [
    0,
    15,
    0,
    0,
    4
  ],
  "left": 0,
  "skullIcon": -1,
  "bright": 4,
  "multipleMouse": 0,
  "chatEffects": 0,
  "splitPrivate": 1,
  "transparentPanel": 0,
  "transparentChatbox": 0,
  "sideStones": 0,
  "acceptAid": 0,
  "pouchPayment": false,
  "friends": [
    "jamian",
    "soft",
    "gold",
    "mr barrows",
    "inflexion",
    "zulrah",
    "trivia bot",
    "john",
    "serci",
    "jamo",
    "povilas",
    "josh",
    "tor",
    "ziggy"
  ],
  "ignores": [],
  "yearCreated": 2016,
  "dayCreated": 196,
  "recoilStage": 22,
  "spec": 100,
  "attackStyle": "AGGRESSIVE",
  "attackType": "CRUSH",
  "energy": 100.0,
  "lastLoginDay": 235,
  "lastLoginYear": 0,
  "host": "62.20.183.97",
  "votePoints": 0,
  "degrading": [
    null,
    null,
    null,
    null,
    null,
    null,
    null,
    null,
    null,
    null,
    null,
    null,
    null,
    null,
    null,
    null,
    null,
    null,
    null,
    null,
    null,
    null,
    null,
    null,
    null,
    null,
    null,
    null,
    null,
    null,
    null,
    null,
    null,
    null,
    null,
    null,
    null,
    null,
    null,
    null,
    null,
    null,
    null,
    null,
    null,
    null,
    null,
    null,
    null,
    null
  ],
  "dragonFireShieldCharges": 0,
  "slayerPoints": 82,
  "musicVolume": 3,
  "soundVolume": 3,
  "savedArrows": [
    null,
    null,
    null,
    null,
    null,
    null,
    null,
    null,
    null,
    null,
    null,
    null,
    null,
    null,
    null,
    null,
    null,
    null,
    null,
    null,
    null,
    null,
    null,
    null,
    null,
    null,
    null,
    null,
    null,
    null,
    null,
    null,
    null,
    null,
    null,
    null,
    null,
    null,
    null,
    null
  ],
  "wantsTrivia": true,
  "triviaNotification": false,
  "deaths": 0,
  "kills": 0,
  "warPoints": 0,
  "rogueKills": 0,
  "rogueRecord": 0,
  "hunterKills": 0,
  "hunterRecord": 0,
  "credits": 0,
  "moneySpent": 5,
  "bountyPoints": 0,
  "lastLike": 0,
  "likesGiven": 0,
  "likes": 0,
  "dislikes": 0,
  "profileViews": 0,
  "fullName": "",
  "IP": "",
  "emailAddress": "",
  "recovery": "",
  "running": true,
  "logPackets": false,
  "weaponPoints": 0,
  "summoningTime": -1,
  "summoningSpecialAmount": 60,
  "summoningFamiliar": -1,
  "summoningAttack": false,
  "pestPoints": 0,
  "triviaPoints": 1,
  "abyssalPoints": 140,
  "teleblockTime": 0,
  "blackMarks": 0,
  "rareDropEP": 39.84440000000004,
  "rareDropsReceived": 127,
  "skillGoals": [
    [
      0,
      0,
      0
    ],
    [
      0,
      0,
      0
    ],
    [
      0,
      0,
      0
    ],
    [
      0,
      0,
      0
    ],
    [
      0,
      0,
      0
    ],
    [
      0,
      0,
      0
    ],
    [
      0,
      0,
      0
    ],
    [
      0,
      0,
      0
    ],
    [
      0,
      0,
      0
    ],
    [
      0,
      0,
      0
    ],
    [
      0,
      0,
      0
    ],
    [
      0,
      0,
      0
    ],
    [
      0,
      0,
      0
    ],
    [
      0,
      0,
      0
    ],
    [
      0,
      0,
      0
    ],
    [
      0,
      0,
      0
    ],
    [
      0,
      0,
      0
    ],
    [
      0,
      0,
      0
    ],
    [
      0,
      0,
      0
    ],
    [
      0,
      0,
      0
    ],
    [
      0,
      0,
      0
    ],
    [
      0,
      0,
      0
    ],
    [
      0,
      0,
      0
    ],
    [
      0,
      0,
      0
    ],
    [
      0,
      0,
      0
    ],
    [
      0,
      0,
      0
    ]
  ],
  "lastKilledPlayers": [],
  "playerAchievements": {
    "KILL_75_COWS": 0,
    "KILL_100_CALLISTO": 0,
    "SHEAR_10_SHEEPS": 0,
    "COMPLETE_10_SLAYER_TASKS": 10,
    "BURN_500_LOGS": 0,
    "CHOP_DOWN_350_TREES": 0,
    "BURN_200_LOGS": 0,
    "KILL_150_KRAKENS": 0,
    "KILL_25_KRAKENS": 0,
    "EQUIP_DRAGON_CLAWS": 0,
    "BURY_150_BONES": 2,
    "RESET_1_STATISTICS": 0,
    "FAIL_15_TIMES_THIEVING_STALLS": 0,
    "DIE_10_TIME": 10,
    "KILL_KING_BLACK_DRAGON": 42,
    "MINE_500_ROCKS": 250,
    "VIEW_TABLE": 1,
    "DIE_1_TIME": 1,
    "ANSWER_30_TRIVIABOTS_CORRECTLY": 30,
    "COMPLETE_50_GNOME_COURSES": 15,
    "USE_THE_SUPER_HEATING_SPELL_25_TIMES": 0,
    "COOK_500_FOODS": 0,
    "KILL_100_ZULRAHS": 100,
    "LOOT_1_BARROWS_CHESTS": 0,
    "LOOT_25_BARROWS_CHESTS": 0,
    "DRINK_100_POTIONS": 100,
    "VISIT_DZ": 1,
    "VOTE_5_TIMES": 3,
    "COOK_250_FOODS": 0,
    "CATCH_100_IMPLINGS": 0,
    "BURY_500_BONES": 2,
    "DIE_50_TIME": 25,
    "COMPLETE_100_SLAYER_TASKS": 27,
    "EXCHANGE_500_ITEMS_PILES": 0,
    "KILL_1_GORILLA": 0,
    "OPEN_5_MBOX": 5,
    "COMPLETE_100_BARB_COURSES": 6,
    "CATCH_25_IMPLINGS": 0,
    "OBTAIN_10_FIRECAPES": 1,
    "KILL_15_PLAYER": 0,
    "SPEND_5000000_ON_SHOPS": 75736734,
    "KILL_250_SKELETAL_WYVERNS": 0,
    "KILL_1_PLAYER": 0,
    "CHANGE_APPEARANCE": 1,
    "CRAFT_1000_NATURE_RUNES": 158,
    "ANSWER_15_TRIVIABOTS_CORRECTLY": 15,
    "EAT_100_FOODS": 100,
    "ENCHANT_500_BOLTS": 0,
    "STRING_50_AMULETS": 0,
    "OBTAIN_1_BOSS_PET": 1,
    "SETUP_A_BANK_PIN": 0,
    "OPEN_10_CASKET": 4,
    "SHEAR_150_SHEEPS": 0,
    "OPEN_50_CRYSTAL_CHESTS": 50,
    "KILL_100_CYCLOPS": 0,
    "KILL_10_MITH": 0,
    "WIN_30_PEST_CONTROL_GAMES": 0,
    "OPEN_25_MBOX": 15,
    "THIEVE_100_TIMES_FROM_STALLS": 0,
    "OBTAIN_25_FIRECAPES": 1,
    "EARN_100_PEST_CONTROL_POINTS": 0,
    "OPEN_15_ITEM_SETS": 0,
    "OBTAIN_3_BOSS_PET": 2,
    "KILL_50_PLAYER": 0,
    "DO_A_SKILLCAPE_EMOTE": 0,
    "KILL_ROCK_CRABS": 24,
    "CUT_250_GEMS": 250,
    "EARN_500_PEST_CONTROL_POINTS": 0,
    "HIGH_ALCH_250_ITEMS": 250,
    "SPEND_100000000_ON_SHOPS": 75736734,
    "OBTAIN_10_RARE_DROPS": 1,
    "CHOP_DOWN_150_TREES": 0,
    "CAST_VENGEANCE_350_TIMES": 0
  },
  "achievementsPoints": 0,
  "unlockedCredits": [],
  "quickPrayers": [
    false,
    false,
    false,
    false,
    false,
    false,
    false,
    false,
    false,
    false,
    false,
    false,
    false,
    false,
    false,
    false,
    false,
    false,
    true,
    false,
    false,
    false,
    false,
    false,
    false,
    false
  ],
  "LastLoginYear": 0,
  "LastLoginMonth": 0,
  "LastLoginDate": 0,
  "LoginStreak": 0,
  "playerProperties": {
    "PROPERTY_MOB_GIANT_MOLE": 0.0,
    "PROPERTY_MOB_KREE\u0027ARRA": 0.0,
    "PROPERTY_MOB_SEA_TROLL_QUEEN": 0.0,
    "PROPERTY_MOB_TZTOK-JAD": 1.0,
    "PROPERTY_MOB_ABYSSAL_DEMON": 131.0,
    "PROPERTY_MOB_ZULRAH": 249.0,
    "PROPERTY_MOB_COMMANDER_ZILYANA": 0.0,
    "PROPERTY_MOB_DAGANNOTH_SUPREME": 0.0,
    "PROPERTY_MOB_CRAZY_ARCHAEOLOGIST": 0.0,
    "PROPERTY_MOB_KING_BLACK_DRAGON": 42.0,
    "PROPERTY_MOB_CHAOS_ELEMENTAL": 0.0,
    "PROPERTY_MOB_DARK_BEAST": 126.0,
    "PROPERTY_MOB_DAGANNOTH_REX": 0.0,
    "PROPERTY_MOB_CORPOREAL_BEAST": 0.0,
    "PROPERTY_MOB_K\u0027RIL_TSUTSAROTH": 0.0,
    "PROPERTY_MOB_VENENATIS": 0.0,
    "PROPERTY_MOB_CALLISTO": 0.0,
    "PROPERTY_MOB_VET\u0027ION_REBORN": 0.0,
    "PROPERTY_MOB_GENERAL_GRAARDOR": 0.0,
    "PROPERTY_MOB_DAGANNOTH_PRIME": 0.0,
    "PROPERTY_MOB_ANCIENT_GORILLA": 0.0,
    "PROPERTY_MOB_NECHRYAEL": 0.0,
    "PROPERTY_MOB_KRAKEN": 0.0,
    "PROPERTY_MOB_SCORPIA": 0.0,
    "PROPERTY_MOB_CHAOS_FANATIC": 0.0,
    "PROPERTY_BARROWS_BARROWS_CHESTS": 0.0,
    "PROPERTY_MOB_BARRELCHEST": 15.0
  },
  "expCounter": 7.3270415E7,
  "prestigePoints": 0,
  "prestiges": [
    0,
    0,
    0,
    0,
    0,
    0,
    0,
    0,
    0,
    0,
    0,
    0,
    0,
    0,
    0,
    0,
    0,
    0,
    0,
    0,
    0,
    0,
    0,
    0,
    0
  ],
  "blowpipe": {
    "blowpipeAmmo": {
      "id": 11230,
      "amount": 2057
    },
    "blowpipeCharge": 8178
  },
  "seasTrident": {
    "tridentCharge": 0
  },
  "swampTrident": {
    "tridentCharge": 0
  },
  "serpentineHelmet": {
    "charges": 0
  }
}