{
  "essAmount": 0,
  "username": "Lucifer",
  "password": "divinity16",
  "x": 3434,
  "y": 2891,
  "z": 0,
  "rights": 5,
  "lastKnownUID": "1038119083568766413",
  "cluesCompleted": [
    0,
    1,
    0,
    0
  ],
  "yellTitle": "Member",
  "unlockedTitles": [],
  "banned": false,
  "banLength": 0,
  "moneyPouch": 0,
  "jailLength": 0,
  "shopCollection": 0,
  "lastClanChat": "help",
  "muted": false,
  "isMember": true,
  "isDicer": false,
  "isIron": false,
  "isUltimateIron": false,
  "jailed": false,
  "muteLength": 0,
  "fightCavesWave": 0,
  "magicBook": 12855,
  "prayerBook": 5608,
  "retaliate": true,
  "expLock": false,
  "gwkc": [
    0,
    0,
    0,
    0
  ],
  "poisoned": false,
  "poisonDmg": 0,
  "slayerTask": "Zulrah",
  "slayerAmount": 23,
  "slayerDifficulty": "BOSS",
  "skillsLevel": [
    99,
    99,
    99,
    99,
    99,
    38,
    45,
    1,
    1,
    1,
    94,
    1,
    82,
    41,
    48,
    1,
    41,
    88,
    98,
    1,
    1,
    1,
    1,
    1,
    1
  ],
  "experience": [
    3.281946666666666E7,
    1.4450266666666672E7,
    1.3163466666666672E7,
    6.222946E7,
    1.4026848E8,
    4611547.5,
    61628.0,
    0.0,
    0.0,
    0.0,
    8091820.0,
    0.0,
    2622313.75,
    44240.0,
    91000.0,
    0.0,
    41299.99990463257,
    4529500.0,
    1.2724896E7,
    0.0,
    0.0,
    0.0,
    0.0,
    0.0,
    0.0
  ],
  "gender": 1,
  "appearance": [
    50,
    56,
    61,
    67,
    72,
    79,
    -1
  ],
  "colours": [
    3,
    1,
    2,
    0,
    0
  ],
  "left": 0,
  "skullIcon": -1,
  "bright": 4,
  "multipleMouse": 0,
  "chatEffects": 0,
  "splitPrivate": 1,
  "transparentPanel": 0,
  "transparentChatbox": 0,
  "sideStones": 0,
  "acceptAid": 0,
  "pouchPayment": false,
  "friends": [
    "tuckha",
    "tuckah",
    "lol omg",
    "fjtheboss",
    "matt",
    "purerangsaw",
    "jamian",
    "jamo",
    "soft",
    "goten",
    "voidnight",
    "hunter",
    "dabs",
    "i need claws",
    "bob marley",
    "fubu",
    "duracell33",
    "facebook",
    "john",
    "ari",
    "inflexion",
    "exp",
    "ushio",
    "bradley",
    "ads",
    "dalby",
    "artin",
    "martin",
    "shreadmaster",
    "numa",
    "eirik",
    "deadkid",
    "satanic",
    "derek",
    "p0rn0",
    "hanybal",
    "nightraptor"
  ],
  "ignores": [],
  "yearCreated": 2016,
  "dayCreated": 208,
  "recoilStage": 38,
  "spec": 100,
  "attackStyle": "ACCURATE",
  "attackType": "CRUSH",
  "energy": 100.0,
  "lastLoginDay": 221,
  "lastLoginYear": 0,
  "host": "74-18-45-163.tcso.qwest.net/174.18.45.163",
  "votePoints": 0,
  "degrading": [
    null,
    null,
    null,
    null,
    null,
    null,
    null,
    null,
    null,
    null,
    null,
    null,
    null,
    null,
    null,
    null,
    null,
    null,
    null,
    null,
    null,
    null,
    null,
    null,
    null,
    null,
    null,
    null,
    null,
    null,
    null,
    null,
    null,
    null,
    null,
    null,
    null,
    null,
    null,
    null,
    null,
    null,
    null,
    null,
    null,
    null,
    null,
    null,
    null,
    null
  ],
  "dragonFireShieldCharges": 50,
  "slayerPoints": 85,
  "musicVolume": 3,
  "soundVolume": 3,
  "savedArrows": [
    null,
    null,
    null,
    null,
    null,
    null,
    null,
    null,
    null,
    null,
    null,
    null,
    null,
    null,
    null,
    null,
    null,
    null,
    null,
    null,
    null,
    null,
    null,
    null,
    null,
    null,
    null,
    null,
    null,
    null,
    null,
    null,
    null,
    null,
    null,
    null,
    null,
    null,
    null,
    null
  ],
  "wantsTrivia": true,
  "triviaNotification": false,
  "deaths": 0,
  "kills": 0,
  "rogueKills": 0,
  "rogueRecord": 0,
  "hunterKills": 0,
  "hunterRecord": 0,
  "credits": 0,
  "moneySpent": 5,
  "bountyPoints": 100000,
  "lastLike": 0,
  "likesGiven": 0,
  "likes": 0,
  "dislikes": 0,
  "profileViews": 0,
  "fullName": "",
  "IP": "",
  "emailAddress": "",
  "recovery": "",
  "running": true,
  "logPackets": false,
  "weaponPoints": 0,
  "summoningTime": -1,
  "summoningSpecialAmount": 60,
  "summoningFamiliar": -1,
  "summoningAttack": false,
  "pestPoints": 0,
  "triviaPoints": 0,
  "abyssalPoints": 20,
  "teleblockTime": 0,
  "blackMarks": 0,
  "rareDropEP": 16.449599999999997,
  "rareDropsReceived": 75,
  "skillGoals": [
    [
      0,
      0,
      0
    ],
    [
      0,
      0,
      0
    ],
    [
      0,
      0,
      0
    ],
    [
      0,
      0,
      0
    ],
    [
      0,
      0,
      0
    ],
    [
      0,
      0,
      0
    ],
    [
      0,
      0,
      0
    ],
    [
      0,
      0,
      0
    ],
    [
      0,
      0,
      0
    ],
    [
      0,
      0,
      0
    ],
    [
      0,
      0,
      0
    ],
    [
      0,
      0,
      0
    ],
    [
      0,
      0,
      0
    ],
    [
      0,
      0,
      0
    ],
    [
      0,
      0,
      0
    ],
    [
      0,
      0,
      0
    ],
    [
      0,
      0,
      0
    ],
    [
      0,
      0,
      0
    ],
    [
      0,
      0,
      0
    ],
    [
      0,
      0,
      0
    ],
    [
      0,
      0,
      0
    ],
    [
      0,
      0,
      0
    ],
    [
      0,
      0,
      0
    ],
    [
      0,
      0,
      0
    ],
    [
      0,
      0,
      0
    ],
    [
      0,
      0,
      0
    ]
  ],
  "lastKilledPlayers": [],
  "playerAchievements": {
    "KILL_15_PLAYER": 0,
    "BURN_200_LOGS": 0,
    "OPEN_15_ITEM_SETS": 2,
    "COMPLETE_100_BARB_COURSES": 1,
    "RESET_1_STATISTICS": 0,
    "DIE_1_TIME": 1,
    "SPEND_100000000_ON_SHOPS": 33831057,
    "OBTAIN_25_FIRECAPES": 0,
    "OPEN_10_CASKET": 2,
    "DRINK_100_POTIONS": 100,
    "VIEW_TABLE": 1,
    "CHANGE_APPEARANCE": 1,
    "CATCH_25_IMPLINGS": 0,
    "DIE_50_TIME": 12,
    "WIN_30_PEST_CONTROL_GAMES": 30,
    "COMPLETE_50_GNOME_COURSES": 3,
    "COOK_500_FOODS": 0,
    "DO_A_SKILLCAPE_EMOTE": 0,
    "KILL_25_KRAKENS": 25,
    "KILL_1_PLAYER": 0,
    "SHEAR_10_SHEEPS": 0,
    "COOK_250_FOODS": 0,
    "KILL_50_PLAYER": 0,
    "KILL_100_ZULRAHS": 95,
    "KILL_100_CYCLOPS": 0,
    "SHEAR_150_SHEEPS": 0,
    "EARN_500_PEST_CONTROL_POINTS": 0,
    "OPEN_5_MBOX": 5,
    "EARN_100_PEST_CONTROL_POINTS": 0,
    "OBTAIN_10_RARE_DROPS": 0,
    "COMPLETE_10_SLAYER_TASKS": 10,
    "EXCHANGE_500_ITEMS_PILES": 1026,
    "CAST_VENGEANCE_350_TIMES": 0,
    "CRAFT_1000_NATURE_RUNES": 0,
    "SPEND_5000000_ON_SHOPS": 33831057,
    "FAIL_15_TIMES_THIEVING_STALLS": 0,
    "HIGH_ALCH_250_ITEMS": 0,
    "KILL_100_CALLISTO": 3,
    "USE_THE_SUPER_HEATING_SPELL_25_TIMES": 0,
    "STRING_50_AMULETS": 0,
    "OPEN_50_CRYSTAL_CHESTS": 37,
    "COMPLETE_100_SLAYER_TASKS": 15,
    "CATCH_100_IMPLINGS": 0,
    "OPEN_25_MBOX": 6,
    "OBTAIN_10_FIRECAPES": 1,
    "BURY_150_BONES": 6,
    "OBTAIN_1_BOSS_PET": 0,
    "CUT_250_GEMS": 250,
    "CHOP_DOWN_350_TREES": 0,
    "ENCHANT_500_BOLTS": 0,
    "CHOP_DOWN_150_TREES": 0,
    "KILL_1_GORILLA": 0,
    "MINE_500_ROCKS": 35,
    "KILL_ROCK_CRABS": 20,
    "OBTAIN_3_BOSS_PET": 0,
    "THIEVE_100_TIMES_FROM_STALLS": 0,
    "KILL_KING_BLACK_DRAGON": 50,
    "KILL_250_SKELETAL_WYVERNS": 0,
    "BURY_500_BONES": 6,
    "KILL_10_MITH": 0,
    "VOTE_5_TIMES": 0,
    "EAT_100_FOODS": 100,
    "DIE_10_TIME": 10,
    "SETUP_A_BANK_PIN": 0,
    "ANSWER_30_TRIVIABOTS_CORRECTLY": 0,
    "ANSWER_15_TRIVIABOTS_CORRECTLY": 0,
    "KILL_150_KRAKENS": 29,
    "EQUIP_DRAGON_CLAWS": 0,
    "KILL_75_COWS": 24,
    "VISIT_DZ": 1,
    "BURN_500_LOGS": 0
  },
  "achievementsPoints": 12,
  "unlockedCredits": [],
  "quickPrayers": [
    false,
    false,
    false,
    false,
    false,
    false,
    false,
    false,
    false,
    false,
    false,
    false,
    false,
    false,
    false,
    false,
    true,
    false,
    false,
    false,
    false,
    false,
    false,
    false,
    false,
    true
  ],
  "LastLoginYear": 0,
  "LastLoginMonth": 0,
  "LastLoginDate": 0,
  "LoginStreak": 0,
  "playerProperties": {
    "PROPERTY_MOB_GIANT_MOLE": 6.0,
    "PROPERTY_MOB_KREE\u0027ARRA": 0.0,
    "PROPERTY_MOB_SEA_TROLL_QUEEN": 0.0,
    "PROPERTY_MOB_TZTOK-JAD": 1.0,
    "PROPERTY_MOB_ABYSSAL_DEMON": 0.0,
    "PROPERTY_MOB_ZULRAH": 95.0,
    "PROPERTY_MOB_COMMANDER_ZILYANA": 0.0,
    "PROPERTY_MOB_DAGANNOTH_SUPREME": 0.0,
    "PROPERTY_MOB_CRAZY_ARCHAEOLOGIST": 0.0,
    "PROPERTY_MOB_KING_BLACK_DRAGON": 77.0,
    "PROPERTY_MOB_CHAOS_ELEMENTAL": 0.0,
    "PROPERTY_MOB_DARK_BEAST": 0.0,
    "PROPERTY_MOB_DAGANNOTH_REX": 0.0,
    "PROPERTY_MOB_CORPOREAL_BEAST": 0.0,
    "PROPERTY_MOB_K\u0027RIL_TSUTSAROTH": 0.0,
    "PROPERTY_MOB_VENENATIS": 0.0,
    "PROPERTY_MOB_CALLISTO": 3.0,
    "PROPERTY_MOB_VET\u0027ION_REBORN": 0.0,
    "PROPERTY_MOB_GENERAL_GRAARDOR": 0.0,
    "PROPERTY_MOB_DAGANNOTH_PRIME": 7.0,
    "PROPERTY_MOB_ANCIENT_GORILLA": 0.0,
    "PROPERTY_MOB_NECHRYAEL": 0.0,
    "PROPERTY_MOB_KRAKEN": 29.0,
    "PROPERTY_MOB_SCORPIA": 0.0,
    "PROPERTY_MOB_CHAOS_FANATIC": 34.0,
    "PROPERTY_BARROWS_BARROWS_CHESTS": 1.0,
    "PROPERTY_MOB_BARRELCHEST": 0.0
  },
  "expCounter": 9577692.0,
  "prestigePoints": 0,
  "prestiges": [
    0,
    0,
    0,
    0,
    0,
    0,
    0,
    0,
    0,
    0,
    0,
    0,
    0,
    0,
    0,
    0,
    0,
    0,
    0,
    0,
    0,
    0,
    0,
    0,
    0
  ],
  "blowpipe": {
    "blowpipeCharge": 0
  },
  "seasTrident": {
    "tridentCharge": 0
  },
  "swampTrident": {
    "tridentCharge": 0
  },
  "serpentineHelmet": {
    "charges": 300
  }
}