{
  "essAmount": 0,
  "username": "Mark donalds",
  "password": "kevin",
  "x": 3096,
  "y": 3494,
  "z": 0,
  "rights": 8,
  "lastKnownUID": "1038119083568766413",
  "cluesCompleted": [
    0,
    2,
    1,
    0
  ],
  "yellTitle": "Member",
  "unlockedTitles": [],
  "banned": false,
  "banLength": 0,
  "moneyPouch": 0,
  "jailLength": 0,
  "shopCollection": 0,
  "lastClanChat": "help",
  "muted": false,
  "isMember": true,
  "isDicer": false,
  "isIron": false,
  "isHard": false,
  "isUltimateIron": false,
  "jailed": false,
  "muteLength": 0,
  "fightCavesWave": 0,
  "magicBook": 29999,
  "prayerBook": 5608,
  "retaliate": true,
  "expLock": false,
  "gwkc": [
    0,
    0,
    0,
    0
  ],
  "poisoned": false,
  "poisonDmg": 0,
  "slayerTask": "Cerberus",
  "slayerAmount": 34,
  "slayerDifficulty": "BOSS",
  "skillsLevel": [
    118,
    118,
    118,
    99,
    99,
    99,
    99,
    99,
    99,
    99,
    99,
    99,
    99,
    99,
    99,
    99,
    99,
    99,
    99,
    99,
    99,
    1,
    99,
    1,
    1
  ],
  "experience": [
    4.183546666666641E7,
    4.173686666666641E7,
    1.1905146666666634E8,
    2.0E8,
    2.0E8,
    1.460266E7,
    8.061258930000001E7,
    1.5829873E7,
    1.526175E7,
    1.3063576E7,
    1.446448E7,
    1.4502638E7,
    1.310512E7,
    1.3155695E7,
    1.7049375E7,
    1.31313E7,
    1.4642179878902435E7,
    1.5234125E7,
    1.5573093E7,
    1.31446525E7,
    1.3065345E7,
    0.0,
    1.3685438E7,
    0.0,
    0.0
  ],
  "gender": 0,
  "appearance": [
    1,
    18,
    26,
    33,
    36,
    42,
    10
  ],
  "colours": [
    1,
    0,
    0,
    0,
    0
  ],
  "left": 0,
  "skullIcon": -1,
  "bright": 4,
  "multipleMouse": 0,
  "chatEffects": 0,
  "splitPrivate": 1,
  "transparentPanel": 0,
  "transparentChatbox": 0,
  "sideStones": 0,
  "acceptAid": 0,
  "pouchPayment": false,
  "friends": [
    "tehdark12",
    "floid",
    "dabs",
    "ushio",
    "exp",
    "iron vihtic",
    "old spice",
    "organic",
    "nightraptor",
    "iron night",
    "bruce lee",
    "kangaroo",
    "ehhhzylo",
    "hanybal",
    "matt",
    "goten",
    "jermaine",
    "bay",
    "lipsy",
    "love",
    "king"
  ],
  "ignores": [],
  "yearCreated": 2016,
  "dayCreated": 195,
  "recoilStage": 35,
  "spec": 100,
  "attackStyle": "CONTROLLED",
  "attackType": "SLASH",
  "energy": 100.0,
  "lastLoginDay": 248,
  "lastLoginYear": 0,
  "host": "88.152.248.183",
  "votePoints": 33,
  "degrading": [
    null,
    null,
    null,
    null,
    null,
    null,
    null,
    null,
    null,
    null,
    null,
    null,
    null,
    null,
    null,
    null,
    null,
    null,
    null,
    null,
    null,
    null,
    null,
    null,
    null,
    null,
    null,
    null,
    null,
    null,
    null,
    null,
    null,
    null,
    null,
    null,
    null,
    null,
    null,
    null,
    null,
    null,
    null,
    null,
    null,
    null,
    null,
    null,
    null,
    null
  ],
  "dragonFireShieldCharges": 48,
  "slayerPoints": 106,
  "musicVolume": 3,
  "soundVolume": 3,
  "savedArrows": [
    null,
    null,
    null,
    null,
    null,
    null,
    null,
    null,
    null,
    null,
    null,
    null,
    null,
    null,
    null,
    null,
    null,
    null,
    null,
    null,
    null,
    null,
    null,
    null,
    null,
    null,
    null,
    null,
    null,
    null,
    null,
    null,
    null,
    null,
    null,
    null,
    null,
    null,
    null,
    null
  ],
  "wantsTrivia": true,
  "triviaNotification": false,
  "deaths": 0,
  "kills": 0,
  "warPoints": 0,
  "rogueKills": 0,
  "rogueRecord": 0,
  "hunterKills": 0,
  "hunterRecord": 0,
  "credits": 235188,
  "moneySpent": 22550,
  "bountyPoints": 1084912,
  "lastLike": 0,
  "likesGiven": 0,
  "likes": 0,
  "dislikes": 0,
  "profileViews": 0,
  "fullName": "",
  "IP": "",
  "emailAddress": "",
  "recovery": "",
  "pins": "2805",
  "running": true,
  "logPackets": false,
  "weaponPoints": 0,
  "summoningTime": -1,
  "summoningSpecialAmount": 60,
  "summoningFamiliar": -1,
  "summoningAttack": false,
  "pestPoints": 1577,
  "triviaPoints": 2,
  "abyssalPoints": 36452,
  "teleblockTime": 0,
  "blackMarks": 0,
  "rareDropEP": 4.024000000000001,
  "rareDropsReceived": 53,
  "skillGoals": [
    [
      0,
      0,
      0
    ],
    [
      0,
      0,
      0
    ],
    [
      0,
      0,
      0
    ],
    [
      0,
      0,
      0
    ],
    [
      0,
      0,
      0
    ],
    [
      9897400,
      99,
      0
    ],
    [
      0,
      0,
      0
    ],
    [
      8358832,
      99,
      0
    ],
    [
      5571250,
      99,
      0
    ],
    [
      3298696,
      99,
      0
    ],
    [
      3602500,
      99,
      0
    ],
    [
      2076096,
      99,
      0
    ],
    [
      8179482,
      99,
      0
    ],
    [
      4714445,
      99,
      0
    ],
    [
      4882875,
      99,
      0
    ],
    [
      7973700,
      99,
      0
    ],
    [
      4882699,
      99,
      0
    ],
    [
      2359000,
      90,
      0
    ],
    [
      10917888,
      99,
      0
    ],
    [
      0,
      0,
      0
    ],
    [
      5443245,
      99,
      0
    ],
    [
      0,
      0,
      0
    ],
    [
      748098,
      99,
      0
    ],
    [
      0,
      0,
      0
    ],
    [
      0,
      0,
      0
    ],
    [
      0,
      0,
      0
    ]
  ],
  "lastKilledPlayers": [],
  "playerAchievements": {
    "DIE_10_TIME": 10,
    "STRING_50_AMULETS": 50,
    "KILL_250_SKELETAL_WYVERNS": 0,
    "SHEAR_150_SHEEPS": 10,
    "CATCH_100_IMPLINGS": 100,
    "HIGH_ALCH_250_ITEMS": 97,
    "BURN_200_LOGS": 200,
    "BURY_150_BONES": 120,
    "CATCH_25_IMPLINGS": 25,
    "COMPLETE_100_SLAYER_TASKS": 20,
    "OPEN_5_MBOX": 5,
    "KILL_15_PLAYER": 0,
    "DRINK_100_POTIONS": 100,
    "OBTAIN_10_FIRECAPES": 10,
    "CHOP_DOWN_350_TREES": 172,
    "ANSWER_30_TRIVIABOTS_CORRECTLY": 4,
    "KILL_100_ZULRAHS": 100,
    "VIEW_TABLE": 1,
    "KILL_150_KRAKENS": 0,
    "FAIL_15_TIMES_THIEVING_STALLS": 50,
    "CHOP_DOWN_150_TREES": 150,
    "SPEND_5000000_ON_SHOPS": 193901202,
    "COMPLETE_10_SLAYER_TASKS": 10,
    "KILL_KING_BLACK_DRAGON": 50,
    "OBTAIN_25_FIRECAPES": 16,
    "OPEN_25_MBOX": 25,
    "LOOT_1_BARROWS_CHESTS": 1,
    "DIE_50_TIME": 26,
    "EARN_100_PEST_CONTROL_POINTS": 100,
    "COMPLETE_100_BARB_COURSES": 40,
    "SPEND_100000000_ON_SHOPS": 193901202,
    "KILL_75_COWS": 75,
    "KILL_100_CALLISTO": 2,
    "DO_A_SKILLCAPE_EMOTE": 1,
    "ENCHANT_500_BOLTS": 0,
    "COMPLETE_50_GNOME_COURSES": 50,
    "KILL_10_MITH": 10,
    "DIE_1_TIME": 1,
    "ANSWER_15_TRIVIABOTS_CORRECTLY": 4,
    "KILL_100_CYCLOPS": 54,
    "OBTAIN_10_RARE_DROPS": 1,
    "VISIT_DZ": 1,
    "CRAFT_1000_NATURE_RUNES": 110,
    "EQUIP_DRAGON_CLAWS": 1,
    "VOTE_5_TIMES": 3,
    "KILL_50_PLAYER": 0,
    "EARN_500_PEST_CONTROL_POINTS": 500,
    "OBTAIN_3_BOSS_PET": 2,
    "OBTAIN_1_BOSS_PET": 1,
    "THIEVE_100_TIMES_FROM_STALLS": 100,
    "KILL_1_GORILLA": 1,
    "COOK_250_FOODS": 250,
    "USE_THE_SUPER_HEATING_SPELL_25_TIMES": 25,
    "KILL_ROCK_CRABS": 100,
    "OPEN_10_CASKET": 6,
    "RESET_1_STATISTICS": 0,
    "LOOT_25_BARROWS_CHESTS": 3,
    "EAT_100_FOODS": 100,
    "BURY_500_BONES": 120,
    "OPEN_50_CRYSTAL_CHESTS": 50,
    "WIN_30_PEST_CONTROL_GAMES": 30,
    "MINE_500_ROCKS": 500,
    "SETUP_A_BANK_PIN": 1,
    "EXCHANGE_500_ITEMS_PILES": 807,
    "KILL_1_PLAYER": 1,
    "OPEN_15_ITEM_SETS": 15,
    "CHANGE_APPEARANCE": 1,
    "KILL_25_KRAKENS": 0,
    "BURN_500_LOGS": 500,
    "CAST_VENGEANCE_350_TIMES": 9,
    "CUT_250_GEMS": 250,
    "COOK_500_FOODS": 500,
    "SHEAR_10_SHEEPS": 10
  },
  "achievementsPoints": 33,
  "unlockedCredits": [],
  "quickPrayers": [
    false,
    false,
    false,
    false,
    false,
    false,
    false,
    false,
    false,
    false,
    false,
    false,
    false,
    false,
    false,
    false,
    false,
    false,
    false,
    false,
    false,
    false,
    false,
    true,
    false,
    true
  ],
  "LastLoginYear": 0,
  "LastLoginMonth": 0,
  "LastLoginDate": 0,
  "LoginStreak": 0,
  "playerProperties": {
    "PROPERTY_MOB_GIANT_MOLE": 44.0,
    "PROPERTY_MOB_KREE\u0027ARRA": 9.0,
    "PROPERTY_MOB_SEA_TROLL_QUEEN": 1.0,
    "PROPERTY_MOB_TZTOK-JAD": 16.0,
    "PROPERTY_MOB_ABYSSAL_DEMON": 0.0,
    "PROPERTY_MOB_ZULRAH": 272.0,
    "PROPERTY_MOB_COMMANDER_ZILYANA": 2.0,
    "PROPERTY_MOB_DAGANNOTH_SUPREME": 53.0,
    "PROPERTY_MOB_CRAZY_ARCHAEOLOGIST": 0.0,
    "PROPERTY_MOB_KING_BLACK_DRAGON": 107.0,
    "PROPERTY_MOB_CHAOS_ELEMENTAL": 0.0,
    "PROPERTY_MOB_DARK_BEAST": 0.0,
    "PROPERTY_MOB_DAGANNOTH_REX": 112.0,
    "PROPERTY_MOB_CORPOREAL_BEAST": 1.0,
    "PROPERTY_MOB_K\u0027RIL_TSUTSAROTH": 22.0,
    "PROPERTY_MOB_VENENATIS": 0.0,
    "PROPERTY_MOB_CALLISTO": 2.0,
    "PROPERTY_MOB_VET\u0027ION_REBORN": 0.0,
    "PROPERTY_MOB_GENERAL_GRAARDOR": 16.0,
    "PROPERTY_MOB_DAGANNOTH_PRIME": 112.0,
    "PROPERTY_MOB_ANCIENT_GORILLA": 40.0,
    "PROPERTY_MOB_NECHRYAEL": 0.0,
    "PROPERTY_MOB_KRAKEN": 0.0,
    "PROPERTY_MOB_SCORPIA": 0.0,
    "PROPERTY_MOB_CHAOS_FANATIC": 30.0,
    "PROPERTY_BARROWS_BARROWS_CHESTS": 20.0,
    "PROPERTY_MOB_BARRELCHEST": 0.0
  },
  "expCounter": 1.03473802E8,
  "prestigePoints": 0,
  "prestiges": [
    0,
    0,
    0,
    0,
    0,
    0,
    0,
    0,
    0,
    0,
    0,
    0,
    0,
    0,
    0,
    0,
    0,
    0,
    0,
    0,
    0,
    0,
    0,
    0,
    0
  ],
  "blowpipe": {
    "blowpipeAmmo": {
      "id": 11230,
      "amount": 16000
    },
    "blowpipeCharge": 48001
  },
  "seasTrident": {
    "tridentCharge": 0
  },
  "swampTrident": {
    "tridentCharge": 0
  },
  "serpentineHelmet": {
    "charges": 24652
  }
}