{
  "essAmount": 0,
  "username": "Matt",
  "password": "9969",
  "x": 3412,
  "y": 2880,
  "z": 0,
  "rights": 5,
  "lastKnownUID": "119083568766413",
  "cluesCompleted": [
    0,
    0,
    0,
    0
  ],
  "yellTitle": "Member",
  "unlockedTitles": [],
  "banned": false,
  "banLength": 0,
  "moneyPouch": 0,
  "jailLength": 0,
  "shopCollection": 0,
  "lastClanChat": "help",
  "muted": false,
  "isMember": true,
  "isDicer": false,
  "isIron": false,
  "isUltimateIron": false,
  "jailed": false,
  "muteLength": 0,
  "fightCavesWave": 0,
  "magicBook": 1151,
  "prayerBook": 5608,
  "retaliate": true,
  "expLock": false,
  "gwkc": [
    0,
    0,
    0,
    0
  ],
  "poisoned": false,
  "poisonDmg": 0,
  "slayerTask": "Smoke devil",
  "slayerAmount": 18,
  "slayerDifficulty": "HIGH",
  "skillsLevel": [
    99,
    99,
    99,
    99,
    99,
    99,
    99,
    99,
    99,
    30,
    99,
    73,
    99,
    99,
    99,
    99,
    99,
    99,
    98,
    99,
    99,
    1,
    99,
    1,
    1
  ],
  "experience": [
    5.770186666666645E7,
    3.782286666666675E7,
    6.614186666666647E7,
    1.85793908E8,
    2.0E8,
    1.30591025E7,
    1.5725529299999963E7,
    1.3081262E7,
    1.30356E7,
    14560.0,
    1.30504E7,
    1076400.0,
    1.30709145E7,
    1.310063E7,
    1.459875E7,
    1.304107E7,
    1.306699266647911E7,
    1.3050975E7,
    1.2420288E7,
    1.6237795E7,
    1.3040415E7,
    0.0,
    1.303445E7,
    0.0,
    0.0
  ],
  "gender": 0,
  "appearance": [
    3,
    18,
    26,
    33,
    36,
    42,
    10
  ],
  "colours": [
    0,
    5,
    6,
    0,
    0
  ],
  "left": 0,
  "skullIcon": -1,
  "bright": 4,
  "multipleMouse": 0,
  "chatEffects": 0,
  "splitPrivate": 1,
  "transparentPanel": 0,
  "transparentChatbox": 0,
  "sideStones": 0,
  "acceptAid": 0,
  "pouchPayment": false,
  "friends": [
    "soft",
    "jamian",
    "goten",
    "michael",
    "nate",
    "jamo",
    "four",
    "derek",
    "inflexion",
    "rat",
    "pressure",
    "c bo",
    "bounce up",
    "legend",
    "the bros 2",
    "euforia",
    "roger",
    "nocturne",
    "pug",
    "1337",
    "hard",
    "kerrang",
    "nj casey",
    "floid",
    "mr barrows",
    "v3leh0",
    "nick",
    "z75",
    "stefanos",
    "pfraru",
    "tor",
    "white",
    "brendan",
    "gimmieurstof",
    "insanityk",
    "dustin",
    "kangaroo"
  ],
  "ignores": [],
  "yearCreated": 2016,
  "dayCreated": 181,
  "recoilStage": 32,
  "spec": 100,
  "attackStyle": "AGGRESSIVE",
  "attackType": "CRUSH",
  "energy": 100.0,
  "lastLoginDay": 196,
  "lastLoginYear": 0,
  "host": "76.28.164.98",
  "votePoints": 0,
  "degrading": [
    null,
    null,
    null,
    null,
    null,
    null,
    null,
    null,
    null,
    null,
    null,
    null,
    null,
    null,
    null,
    null,
    null,
    null,
    null,
    null,
    null,
    null,
    null,
    null,
    null,
    null,
    null,
    null,
    null,
    null,
    null,
    null,
    null,
    null,
    null,
    null,
    null,
    null,
    null,
    null,
    null,
    null,
    null,
    null,
    null,
    null,
    null,
    null,
    null,
    null
  ],
  "dragonFireShieldCharges": 0,
  "slayerPoints": 2,
  "musicVolume": 3,
  "soundVolume": 3,
  "savedArrows": [
    null,
    null,
    null,
    null,
    null,
    null,
    null,
    null,
    null,
    null,
    null,
    null,
    null,
    null,
    null,
    null,
    null,
    null,
    null,
    null,
    null,
    null,
    null,
    null,
    null,
    null,
    null,
    null,
    null,
    null,
    null,
    null,
    null,
    null,
    null,
    null,
    null,
    null,
    null,
    null
  ],
  "wantsTrivia": true,
  "triviaNotification": false,
  "deaths": 0,
  "kills": 0,
  "rogueKills": 0,
  "rogueRecord": 0,
  "hunterKills": 0,
  "hunterRecord": 0,
  "credits": 50,
  "moneySpent": 10,
  "bountyPoints": 800000,
  "lastLike": 0,
  "likesGiven": 0,
  "likes": 0,
  "dislikes": 0,
  "profileViews": 0,
  "fullName": "",
  "IP": "",
  "emailAddress": "",
  "recovery": "",
  "running": true,
  "logPackets": false,
  "weaponPoints": 0,
  "summoningTime": -1,
  "summoningSpecialAmount": 60,
  "summoningFamiliar": -1,
  "summoningAttack": false,
  "pestPoints": 10,
  "triviaPoints": 0,
  "abyssalPoints": 2725,
  "teleblockTime": 0,
  "blackMarks": 0,
  "rareDropEP": 4.857900000000002,
  "rareDropsReceived": 16,
  "skillGoals": [
    [
      0,
      0,
      0
    ],
    [
      0,
      0,
      0
    ],
    [
      0,
      0,
      0
    ],
    [
      0,
      0,
      0
    ],
    [
      0,
      0,
      0
    ],
    [
      0,
      0,
      0
    ],
    [
      0,
      0,
      0
    ],
    [
      0,
      0,
      0
    ],
    [
      0,
      0,
      0
    ],
    [
      0,
      0,
      0
    ],
    [
      0,
      0,
      0
    ],
    [
      0,
      0,
      0
    ],
    [
      0,
      0,
      0
    ],
    [
      0,
      0,
      0
    ],
    [
      0,
      0,
      0
    ],
    [
      0,
      0,
      0
    ],
    [
      0,
      0,
      0
    ],
    [
      0,
      0,
      0
    ],
    [
      0,
      0,
      0
    ],
    [
      0,
      0,
      0
    ],
    [
      0,
      0,
      0
    ],
    [
      0,
      0,
      0
    ],
    [
      0,
      0,
      0
    ],
    [
      0,
      0,
      0
    ],
    [
      0,
      0,
      0
    ],
    [
      0,
      0,
      0
    ]
  ],
  "lastKilledPlayers": [],
  "playerAchievements": {
    "KILL_75_COWS": 6,
    "CHOP_DOWN_150_TREES": 150,
    "CHOP_DOWN_350_TREES": 311,
    "BURN_500_LOGS": 312,
    "BURY_500_BONES": 53,
    "FAIL_15_TIMES_THIEVING_STALLS": 0,
    "KILL_100_ZULRAHS": 100,
    "ANSWER_30_TRIVIABOTS_CORRECTLY": 30,
    "EXCHANGE_500_ITEMS_PILES": 4034,
    "VIEW_TABLE": 1,
    "CATCH_25_IMPLINGS": 25,
    "EARN_100_PEST_CONTROL_POINTS": 100,
    "USE_THE_SUPER_HEATING_SPELL_25_TIMES": 3,
    "STRING_50_AMULETS": 50,
    "SPEND_5000000_ON_SHOPS": 197867092,
    "KILL_10_MITH": 0,
    "THIEVE_100_TIMES_FROM_STALLS": 0,
    "KILL_50_PLAYER": 0,
    "EAT_100_FOODS": 100,
    "OBTAIN_1_BOSS_PET": 1,
    "DO_A_SKILLCAPE_EMOTE": 1,
    "COOK_250_FOODS": 250,
    "OPEN_10_CASKET": 5,
    "DIE_10_TIME": 10,
    "DIE_50_TIME": 36,
    "BURY_150_BONES": 53,
    "WIN_30_PEST_CONTROL_GAMES": 30,
    "OPEN_15_ITEM_SETS": 6,
    "EARN_500_PEST_CONTROL_POINTS": 360,
    "HIGH_ALCH_250_ITEMS": 250,
    "CATCH_100_IMPLINGS": 100,
    "MINE_500_ROCKS": 500,
    "COMPLETE_100_BARB_COURSES": 10,
    "KILL_100_CYCLOPS": 0,
    "COMPLETE_100_SLAYER_TASKS": 42,
    "KILL_25_KRAKENS": 2,
    "CHANGE_APPEARANCE": 1,
    "BURN_200_LOGS": 200,
    "KILL_100_CALLISTO": 0,
    "DRINK_100_POTIONS": 100,
    "COMPLETE_10_SLAYER_TASKS": 10,
    "COMPLETE_50_GNOME_COURSES": 4,
    "KILL_15_PLAYER": 0,
    "KILL_250_SKELETAL_WYVERNS": 0,
    "OBTAIN_10_FIRECAPES": 0,
    "OBTAIN_3_BOSS_PET": 2,
    "OPEN_5_MBOX": 5,
    "RESET_1_STATISTICS": 0,
    "SHEAR_10_SHEEPS": 0,
    "SETUP_A_BANK_PIN": 0,
    "SHEAR_150_SHEEPS": 0,
    "KILL_ROCK_CRABS": 100,
    "OBTAIN_25_FIRECAPES": 0,
    "ANSWER_15_TRIVIABOTS_CORRECTLY": 15,
    "OBTAIN_10_RARE_DROPS": 2,
    "KILL_150_KRAKENS": 2,
    "KILL_1_PLAYER": 0,
    "CRAFT_1000_NATURE_RUNES": 932,
    "EQUIP_DRAGON_CLAWS": 0,
    "CUT_250_GEMS": 250,
    "COOK_500_FOODS": 500,
    "VOTE_5_TIMES": 4,
    "OPEN_25_MBOX": 25,
    "OPEN_50_CRYSTAL_CHESTS": 50,
    "VISIT_DZ": 1,
    "KILL_1_GORILLA": 0,
    "KILL_KING_BLACK_DRAGON": 0,
    "SPEND_100000000_ON_SHOPS": 197867092,
    "ENCHANT_500_BOLTS": 0,
    "CAST_VENGEANCE_350_TIMES": 0,
    "DIE_1_TIME": 1
  },
  "achievementsPoints": 2,
  "unlockedCredits": [],
  "quickPrayers": [
    false,
    false,
    false,
    false,
    false,
    false,
    false,
    false,
    false,
    false,
    false,
    false,
    false,
    false,
    false,
    false,
    false,
    true,
    false,
    true,
    false,
    false,
    false,
    false,
    false,
    false
  ],
  "LastLoginYear": 0,
  "LastLoginMonth": 0,
  "LastLoginDate": 0,
  "LoginStreak": 0,
  "playerProperties": {
    "PROPERTY_MOB_GIANT_MOLE": 21.0,
    "PROPERTY_MOB_KREE\u0027ARRA": 0.0,
    "PROPERTY_MOB_SEA_TROLL_QUEEN": 0.0,
    "PROPERTY_MOB_TZTOK-JAD": 0.0,
    "PROPERTY_MOB_ABYSSAL_DEMON": 468.0,
    "PROPERTY_MOB_ZULRAH": 290.0,
    "PROPERTY_MOB_COMMANDER_ZILYANA": 5.0,
    "PROPERTY_MOB_DAGANNOTH_SUPREME": 2.0,
    "PROPERTY_MOB_CRAZY_ARCHAEOLOGIST": 0.0,
    "PROPERTY_MOB_KING_BLACK_DRAGON": 0.0,
    "PROPERTY_MOB_CHAOS_ELEMENTAL": 14.0,
    "PROPERTY_MOB_DARK_BEAST": 32.0,
    "PROPERTY_MOB_DAGANNOTH_REX": 121.0,
    "PROPERTY_MOB_CORPOREAL_BEAST": 5.0,
    "PROPERTY_MOB_K\u0027RIL_TSUTSAROTH": 0.0,
    "PROPERTY_MOB_VENENATIS": 0.0,
    "PROPERTY_MOB_CALLISTO": 0.0,
    "PROPERTY_MOB_VET\u0027ION_REBORN": 0.0,
    "PROPERTY_MOB_GENERAL_GRAARDOR": 1.0,
    "PROPERTY_MOB_DAGANNOTH_PRIME": 0.0,
    "PROPERTY_MOB_ANCIENT_GORILLA": 0.0,
    "PROPERTY_MOB_NECHRYAEL": 59.0,
    "PROPERTY_MOB_KRAKEN": 2.0,
    "PROPERTY_MOB_SCORPIA": 0.0,
    "PROPERTY_MOB_CHAOS_FANATIC": 0.0,
    "PROPERTY_BARROWS_BARROWS_CHESTS": 0.0,
    "PROPERTY_MOB_BARRELCHEST": 0.0
  },
  "expCounter": 2.5020106E7,
  "prestigePoints": 0,
  "prestiges": [
    0,
    0,
    0,
    0,
    0,
    0,
    0,
    0,
    0,
    0,
    0,
    0,
    0,
    0,
    0,
    0,
    0,
    0,
    0,
    0,
    0,
    0,
    0,
    0,
    0
  ],
  "blowpipe": {
    "blowpipeCharge": 0
  },
  "seasTrident": {
    "tridentCharge": 1000
  },
  "swampTrident": {
    "tridentCharge": 0
  },
  "serpentineHelmet": {
    "charges": 0
  }
}