{
  "essAmount": 0,
  "username": "Nozh",
  "password": "Tannerlane123",
  "x": 2980,
  "y": 3845,
  "z": 0,
  "rights": 11,
  "lastKnownUID": "7822539462527967366",
  "cluesCompleted": [
    0,
    0,
    0,
    0
  ],
  "yellTitle": "Member",
  "unlockedTitles": [],
  "banned": false,
  "banLength": 0,
  "moneyPouch": 0,
  "jailLength": 0,
  "shopCollection": 0,
  "lastClanChat": "help",
  "muted": false,
  "isMember": true,
  "isDicer": false,
  "isIron": true,
  "isUltimateIron": false,
  "jailed": false,
  "muteLength": 0,
  "fightCavesWave": 0,
  "magicBook": 1151,
  "prayerBook": 5608,
  "retaliate": true,
  "expLock": false,
  "gwkc": [
    0,
    0,
    0,
    0
  ],
  "poisoned": false,
  "poisonDmg": 0,
  "slayerTask": "Waterfiend",
  "slayerAmount": 29,
  "slayerDifficulty": "HIGH",
  "skillsLevel": [
    99,
    99,
    99,
    57,
    94,
    96,
    1,
    66,
    1,
    1,
    66,
    1,
    1,
    66,
    60,
    1,
    36,
    1,
    76,
    1,
    1,
    1,
    88,
    1,
    1
  ],
  "experience": [
    1.3961866666666651E7,
    1.3759826666666651E7,
    1.3101066666666653E7,
    1.6181136E7,
    8658760.0,
    1.30824945E7,
    0.0,
    542980.0,
    0.0,
    0.0,
    501160.0,
    0.0,
    0.0,
    513000.0,
    294500.0,
    0.0,
    25950.0,
    0.0,
    1410480.0,
    0.0,
    0.0,
    0.0,
    4441008.0,
    0.0,
    0.0
  ],
  "gender": 0,
  "appearance": [
    1,
    18,
    26,
    33,
    37,
    42,
    11
  ],
  "colours": [
    1,
    1,
    2,
    0,
    0
  ],
  "left": 0,
  "skullIcon": -1,
  "bright": 4,
  "multipleMouse": 0,
  "chatEffects": 0,
  "splitPrivate": 1,
  "transparentPanel": 0,
  "transparentChatbox": 0,
  "sideStones": 0,
  "acceptAid": 0,
  "pouchPayment": false,
  "friends": [
    "unreal chris",
    "jamo",
    "add ipoppi t",
    "real chris",
    "dad",
    "jamian",
    "bigboy"
  ],
  "ignores": [],
  "yearCreated": 2016,
  "dayCreated": 228,
  "recoilStage": -1,
  "spec": 100,
  "attackStyle": "AGGRESSIVE",
  "attackType": "CRUSH",
  "energy": 99.0,
  "lastLoginDay": 237,
  "lastLoginYear": 0,
  "host": "CNGON6232W-LP130-02-1176218691.dsl.bell.ca/70.27.172.67",
  "votePoints": 2,
  "degrading": [
    null,
    null,
    null,
    null,
    null,
    null,
    null,
    null,
    null,
    null,
    null,
    null,
    null,
    null,
    null,
    null,
    null,
    null,
    null,
    null,
    null,
    null,
    null,
    null,
    null,
    null,
    null,
    null,
    null,
    null,
    null,
    null,
    null,
    null,
    null,
    null,
    null,
    null,
    null,
    null,
    null,
    null,
    null,
    null,
    null,
    null,
    null,
    null,
    null,
    null
  ],
  "dragonFireShieldCharges": 0,
  "slayerPoints": 40,
  "musicVolume": 3,
  "soundVolume": 3,
  "savedArrows": [
    null,
    null,
    null,
    null,
    null,
    null,
    null,
    null,
    null,
    null,
    null,
    null,
    null,
    null,
    null,
    null,
    null,
    null,
    null,
    null,
    null,
    null,
    null,
    null,
    null,
    null,
    null,
    null,
    null,
    null,
    null,
    null,
    null,
    null,
    null,
    null,
    null,
    null,
    null,
    null
  ],
  "wantsTrivia": true,
  "triviaNotification": false,
  "deaths": 0,
  "kills": 0,
  "warPoints": 0,
  "rogueKills": 0,
  "rogueRecord": 0,
  "hunterKills": 0,
  "hunterRecord": 0,
  "credits": 80,
  "moneySpent": 150,
  "bountyPoints": 0,
  "lastLike": 0,
  "likesGiven": 0,
  "likes": 0,
  "dislikes": 0,
  "profileViews": 0,
  "fullName": "",
  "IP": "",
  "emailAddress": "",
  "recovery": "",
  "running": true,
  "logPackets": false,
  "weaponPoints": 0,
  "summoningTime": -1,
  "summoningSpecialAmount": 60,
  "summoningFamiliar": -1,
  "summoningAttack": false,
  "pestPoints": 0,
  "triviaPoints": 0,
  "abyssalPoints": 1075,
  "teleblockTime": 0,
  "blackMarks": 0,
  "rareDropEP": 33.816649999999996,
  "rareDropsReceived": 36,
  "skillGoals": [
    [
      0,
      0,
      0
    ],
    [
      0,
      0,
      0
    ],
    [
      0,
      0,
      0
    ],
    [
      0,
      0,
      0
    ],
    [
      0,
      0,
      0
    ],
    [
      0,
      0,
      0
    ],
    [
      0,
      0,
      0
    ],
    [
      155380,
      80,
      0
    ],
    [
      0,
      0,
      0
    ],
    [
      0,
      0,
      0
    ],
    [
      192280,
      99,
      0
    ],
    [
      0,
      0,
      0
    ],
    [
      0,
      0,
      0
    ],
    [
      0,
      0,
      0
    ],
    [
      0,
      0,
      0
    ],
    [
      0,
      0,
      0
    ],
    [
      0,
      0,
      0
    ],
    [
      0,
      0,
      0
    ],
    [
      0,
      0,
      0
    ],
    [
      0,
      0,
      0
    ],
    [
      0,
      0,
      0
    ],
    [
      0,
      0,
      0
    ],
    [
      0,
      0,
      0
    ],
    [
      0,
      0,
      0
    ],
    [
      0,
      0,
      0
    ],
    [
      0,
      0,
      0
    ]
  ],
  "lastKilledPlayers": [],
  "playerAchievements": {
    "RESET_1_STATISTICS": 0,
    "DRINK_100_POTIONS": 53,
    "WIN_30_PEST_CONTROL_GAMES": 0,
    "EARN_100_PEST_CONTROL_POINTS": 0,
    "VOTE_5_TIMES": 1,
    "SHEAR_150_SHEEPS": 0,
    "KILL_1_PLAYER": 0,
    "CAST_VENGEANCE_350_TIMES": 0,
    "SHEAR_10_SHEEPS": 0,
    "DIE_50_TIME": 9,
    "KILL_15_PLAYER": 15,
    "OBTAIN_1_BOSS_PET": 0,
    "KILL_KING_BLACK_DRAGON": 0,
    "KILL_25_KRAKENS": 0,
    "ENCHANT_500_BOLTS": 0,
    "BURN_500_LOGS": 0,
    "SETUP_A_BANK_PIN": 0,
    "KILL_75_COWS": 0,
    "KILL_ROCK_CRABS": 43,
    "EAT_100_FOODS": 100,
    "BURN_200_LOGS": 0,
    "FAIL_15_TIMES_THIEVING_STALLS": 50,
    "CATCH_25_IMPLINGS": 25,
    "OBTAIN_3_BOSS_PET": 0,
    "KILL_100_CYCLOPS": 0,
    "SPEND_5000000_ON_SHOPS": 1751244,
    "KILL_10_MITH": 0,
    "STRING_50_AMULETS": 0,
    "OPEN_25_MBOX": 25,
    "BURY_150_BONES": 14,
    "KILL_50_PLAYER": 3,
    "BURY_500_BONES": 14,
    "HIGH_ALCH_250_ITEMS": 0,
    "OBTAIN_25_FIRECAPES": 0,
    "DO_A_SKILLCAPE_EMOTE": 0,
    "VISIT_DZ": 1,
    "CUT_250_GEMS": 0,
    "CHANGE_APPEARANCE": 1,
    "SPEND_100000000_ON_SHOPS": 1751244,
    "LOOT_25_BARROWS_CHESTS": 0,
    "ANSWER_15_TRIVIABOTS_CORRECTLY": 0,
    "ANSWER_30_TRIVIABOTS_CORRECTLY": 0,
    "COOK_500_FOODS": 178,
    "COMPLETE_100_BARB_COURSES": 0,
    "COMPLETE_100_SLAYER_TASKS": 3,
    "OPEN_10_CASKET": 1,
    "THIEVE_100_TIMES_FROM_STALLS": 0,
    "OPEN_15_ITEM_SETS": 11,
    "MINE_500_ROCKS": 163,
    "KILL_100_ZULRAHS": 6,
    "COMPLETE_50_GNOME_COURSES": 3,
    "KILL_150_KRAKENS": 0,
    "EXCHANGE_500_ITEMS_PILES": 0,
    "COMPLETE_10_SLAYER_TASKS": 3,
    "OPEN_5_MBOX": 5,
    "VIEW_TABLE": 1,
    "DIE_1_TIME": 1,
    "COOK_250_FOODS": 178,
    "OPEN_50_CRYSTAL_CHESTS": 22,
    "CRAFT_1000_NATURE_RUNES": 0,
    "KILL_250_SKELETAL_WYVERNS": 0,
    "DIE_10_TIME": 9,
    "LOOT_1_BARROWS_CHESTS": 0,
    "CHOP_DOWN_150_TREES": 0,
    "EQUIP_DRAGON_CLAWS": 0,
    "CHOP_DOWN_350_TREES": 0,
    "KILL_100_CALLISTO": 0,
    "CATCH_100_IMPLINGS": 100,
    "USE_THE_SUPER_HEATING_SPELL_25_TIMES": 0,
    "OBTAIN_10_FIRECAPES": 0,
    "OBTAIN_10_RARE_DROPS": 1,
    "EARN_500_PEST_CONTROL_POINTS": 0,
    "KILL_1_GORILLA": 0
  },
  "achievementsPoints": 18,
  "unlockedCredits": [],
  "quickPrayers": [
    false,
    false,
    false,
    false,
    false,
    false,
    false,
    false,
    false,
    false,
    false,
    false,
    false,
    false,
    false,
    false,
    true,
    false,
    false,
    false,
    false,
    false,
    false,
    false,
    false,
    false
  ],
  "LastLoginYear": 0,
  "LastLoginMonth": 0,
  "LastLoginDate": 0,
  "LoginStreak": 0,
  "playerProperties": {
    "PROPERTY_MOB_GIANT_MOLE": 21.0,
    "PROPERTY_MOB_KREE\u0027ARRA": 0.0,
    "PROPERTY_MOB_SEA_TROLL_QUEEN": 0.0,
    "PROPERTY_MOB_TZTOK-JAD": 0.0,
    "PROPERTY_MOB_ABYSSAL_DEMON": 0.0,
    "PROPERTY_MOB_ZULRAH": 6.0,
    "PROPERTY_MOB_COMMANDER_ZILYANA": 0.0,
    "PROPERTY_MOB_DAGANNOTH_SUPREME": 0.0,
    "PROPERTY_MOB_CRAZY_ARCHAEOLOGIST": 0.0,
    "PROPERTY_MOB_KING_BLACK_DRAGON": 0.0,
    "PROPERTY_MOB_CHAOS_ELEMENTAL": 0.0,
    "PROPERTY_MOB_DARK_BEAST": 0.0,
    "PROPERTY_MOB_DAGANNOTH_REX": 0.0,
    "PROPERTY_MOB_CORPOREAL_BEAST": 0.0,
    "PROPERTY_MOB_K\u0027RIL_TSUTSAROTH": 0.0,
    "PROPERTY_MOB_VENENATIS": 0.0,
    "PROPERTY_MOB_CALLISTO": 0.0,
    "PROPERTY_MOB_VET\u0027ION_REBORN": 0.0,
    "PROPERTY_MOB_GENERAL_GRAARDOR": 0.0,
    "PROPERTY_MOB_DAGANNOTH_PRIME": 0.0,
    "PROPERTY_MOB_ANCIENT_GORILLA": 0.0,
    "PROPERTY_MOB_NECHRYAEL": 0.0,
    "PROPERTY_MOB_KRAKEN": 0.0,
    "PROPERTY_MOB_SCORPIA": 0.0,
    "PROPERTY_MOB_CHAOS_FANATIC": 1.0,
    "PROPERTY_BARROWS_BARROWS_CHESTS": 0.0,
    "PROPERTY_MOB_BARRELCHEST": 0.0
  },
  "expCounter": 3.2408323E7,
  "prestigePoints": 0,
  "prestiges": [
    0,
    0,
    0,
    0,
    0,
    0,
    0,
    0,
    0,
    0,
    0,
    0,
    0,
    0,
    0,
    0,
    0,
    0,
    0,
    0,
    0,
    0,
    0,
    0,
    0
  ],
  "blowpipe": {
    "blowpipeCharge": 0
  },
  "seasTrident": {
    "tridentCharge": 0
  },
  "swampTrident": {
    "tridentCharge": 0
  },
  "serpentineHelmet": {
    "charges": 0
  }
}