{
  "essAmount": 0,
  "username": "Omna",
  "password": "9484024",
  "x": 1895,
  "y": 3859,
  "z": 1384,
  "rights": 5,
  "lastKnownUID": "1038119083568766413",
  "cluesCompleted": [
    2,
    1,
    0,
    0
  ],
  "yellTitle": "Member",
  "unlockedTitles": [],
  "banned": false,
  "banLength": 0,
  "moneyPouch": 0,
  "jailLength": 0,
  "shopCollection": 0,
  "lastClanChat": "help",
  "muted": false,
  "isMember": true,
  "isDicer": false,
  "isIron": false,
  "isUltimateIron": false,
  "jailed": false,
  "muteLength": 0,
  "fightCavesWave": 0,
  "magicBook": 1151,
  "prayerBook": 5608,
  "retaliate": true,
  "expLock": false,
  "gwkc": [
    0,
    0,
    0,
    0
  ],
  "poisoned": false,
  "poisonDmg": 0,
  "slayerAmount": 0,
  "slayerDifficulty": "HIGH",
  "skillsLevel": [
    99,
    91,
    99,
    99,
    111,
    28,
    75,
    63,
    90,
    81,
    63,
    71,
    63,
    42,
    66,
    1,
    44,
    53,
    85,
    1,
    1,
    1,
    38,
    1,
    1
  ],
  "experience": [
    1.40144E7,
    5949100.0,
    1.30392E7,
    3.024163E7,
    6.29101E7,
    1263355.0,
    1290252.200000001,
    401030.0,
    5524312.5,
    2328104.0,
    403920.0,
    843100.0,
    386295.0,
    46875.0,
    535750.0,
    0.0,
    56649.99980926514,
    140250.0,
    3280745.0,
    0.0,
    0.0,
    0.0,
    32032.0,
    0.0,
    0.0
  ],
  "gender": 0,
  "appearance": [
    3,
    18,
    27,
    34,
    36,
    42,
    10
  ],
  "colours": [
    3,
    1,
    2,
    3,
    0
  ],
  "left": 0,
  "skullIcon": -1,
  "bright": 4,
  "multipleMouse": 0,
  "chatEffects": 0,
  "splitPrivate": 1,
  "transparentPanel": 0,
  "transparentChatbox": 0,
  "sideStones": 0,
  "acceptAid": 0,
  "pouchPayment": false,
  "friends": [
    "john",
    "the bros 2",
    "derek",
    "purerangsaw",
    "skill vision",
    "jamo",
    "sparky",
    "range owns6",
    "sillu"
  ],
  "ignores": [],
  "yearCreated": 2016,
  "dayCreated": 228,
  "recoilStage": -1,
  "spec": 100,
  "attackStyle": "DEFENSIVE",
  "attackType": "CRUSH",
  "energy": 96.0,
  "lastLoginDay": 240,
  "lastLoginYear": 0,
  "host": "-98-202-153-179.hsd1.ut.comcast.net/98.202.153.179",
  "votePoints": 0,
  "degrading": [
    null,
    null,
    null,
    null,
    null,
    null,
    null,
    null,
    null,
    null,
    null,
    null,
    null,
    null,
    null,
    null,
    null,
    null,
    null,
    null,
    null,
    null,
    null,
    null,
    null,
    null,
    null,
    null,
    null,
    null,
    null,
    null,
    null,
    null,
    null,
    null,
    null,
    null,
    null,
    null,
    null,
    null,
    null,
    null,
    null,
    null,
    null,
    null,
    null,
    null
  ],
  "dragonFireShieldCharges": 0,
  "slayerPoints": 55,
  "musicVolume": 3,
  "soundVolume": 3,
  "savedArrows": [
    null,
    null,
    null,
    null,
    null,
    null,
    null,
    null,
    null,
    null,
    null,
    null,
    null,
    null,
    null,
    null,
    null,
    null,
    null,
    null,
    null,
    null,
    null,
    null,
    null,
    null,
    null,
    null,
    null,
    null,
    null,
    null,
    null,
    null,
    null,
    null,
    null,
    null,
    null,
    null
  ],
  "wantsTrivia": false,
  "triviaNotification": false,
  "deaths": 0,
  "kills": 0,
  "warPoints": 0,
  "rogueKills": 0,
  "rogueRecord": 0,
  "hunterKills": 0,
  "hunterRecord": 0,
  "credits": 560,
  "moneySpent": 5,
  "bountyPoints": 0,
  "lastLike": 0,
  "likesGiven": 0,
  "likes": 0,
  "dislikes": 0,
  "profileViews": 0,
  "fullName": "",
  "IP": "",
  "emailAddress": "",
  "recovery": "",
  "running": true,
  "logPackets": false,
  "weaponPoints": 0,
  "summoningTime": -1,
  "summoningSpecialAmount": 60,
  "summoningFamiliar": -1,
  "summoningAttack": false,
  "pestPoints": 0,
  "triviaPoints": 0,
  "abyssalPoints": 5210,
  "teleblockTime": 0,
  "blackMarks": 0,
  "rareDropEP": 1.53235,
  "rareDropsReceived": 71,
  "skillGoals": [
    [
      0,
      0,
      0
    ],
    [
      0,
      0,
      0
    ],
    [
      0,
      0,
      0
    ],
    [
      0,
      0,
      0
    ],
    [
      0,
      0,
      0
    ],
    [
      0,
      0,
      0
    ],
    [
      0,
      0,
      0
    ],
    [
      0,
      0,
      0
    ],
    [
      0,
      0,
      0
    ],
    [
      0,
      0,
      0
    ],
    [
      0,
      0,
      0
    ],
    [
      0,
      0,
      0
    ],
    [
      0,
      0,
      0
    ],
    [
      0,
      0,
      0
    ],
    [
      0,
      0,
      0
    ],
    [
      0,
      0,
      0
    ],
    [
      0,
      0,
      0
    ],
    [
      0,
      0,
      0
    ],
    [
      0,
      0,
      0
    ],
    [
      0,
      0,
      0
    ],
    [
      0,
      0,
      0
    ],
    [
      0,
      0,
      0
    ],
    [
      0,
      0,
      0
    ],
    [
      0,
      0,
      0
    ],
    [
      0,
      0,
      0
    ],
    [
      0,
      0,
      0
    ]
  ],
  "lastKilledPlayers": [],
  "playerAchievements": {
    "RESET_1_STATISTICS": 0,
    "DRINK_100_POTIONS": 100,
    "WIN_30_PEST_CONTROL_GAMES": 0,
    "EARN_100_PEST_CONTROL_POINTS": 0,
    "VOTE_5_TIMES": 0,
    "SHEAR_150_SHEEPS": 0,
    "KILL_1_PLAYER": 0,
    "CAST_VENGEANCE_350_TIMES": 0,
    "SHEAR_10_SHEEPS": 0,
    "DIE_50_TIME": 9,
    "KILL_15_PLAYER": 2,
    "OBTAIN_1_BOSS_PET": 0,
    "KILL_KING_BLACK_DRAGON": 14,
    "KILL_25_KRAKENS": 0,
    "ENCHANT_500_BOLTS": 1,
    "BURN_500_LOGS": 234,
    "SETUP_A_BANK_PIN": 0,
    "KILL_75_COWS": 10,
    "KILL_ROCK_CRABS": 51,
    "EAT_100_FOODS": 100,
    "BURN_200_LOGS": 200,
    "FAIL_15_TIMES_THIEVING_STALLS": 50,
    "CATCH_25_IMPLINGS": 24,
    "OBTAIN_3_BOSS_PET": 0,
    "KILL_100_CYCLOPS": 6,
    "SPEND_5000000_ON_SHOPS": 21511432,
    "KILL_10_MITH": 0,
    "STRING_50_AMULETS": 0,
    "OPEN_25_MBOX": 14,
    "BURY_150_BONES": 43,
    "KILL_50_PLAYER": 12,
    "BURY_500_BONES": 43,
    "HIGH_ALCH_250_ITEMS": 19,
    "OBTAIN_25_FIRECAPES": 1,
    "DO_A_SKILLCAPE_EMOTE": 0,
    "VISIT_DZ": 1,
    "CUT_250_GEMS": 117,
    "CHANGE_APPEARANCE": 1,
    "SPEND_100000000_ON_SHOPS": 21511432,
    "LOOT_25_BARROWS_CHESTS": 0,
    "ANSWER_15_TRIVIABOTS_CORRECTLY": 0,
    "ANSWER_30_TRIVIABOTS_CORRECTLY": 0,
    "COOK_500_FOODS": 213,
    "COMPLETE_100_BARB_COURSES": 2,
    "COMPLETE_100_SLAYER_TASKS": 10,
    "OPEN_10_CASKET": 3,
    "THIEVE_100_TIMES_FROM_STALLS": 100,
    "OPEN_15_ITEM_SETS": 3,
    "MINE_500_ROCKS": 179,
    "KILL_100_ZULRAHS": 54,
    "COMPLETE_50_GNOME_COURSES": 3,
    "KILL_150_KRAKENS": 0,
    "EXCHANGE_500_ITEMS_PILES": 22,
    "COMPLETE_10_SLAYER_TASKS": 10,
    "OPEN_5_MBOX": 5,
    "VIEW_TABLE": 1,
    "DIE_1_TIME": 1,
    "COOK_250_FOODS": 213,
    "OPEN_50_CRYSTAL_CHESTS": 24,
    "CRAFT_1000_NATURE_RUNES": 0,
    "KILL_250_SKELETAL_WYVERNS": 1,
    "DIE_10_TIME": 9,
    "LOOT_1_BARROWS_CHESTS": 0,
    "CHOP_DOWN_150_TREES": 150,
    "EQUIP_DRAGON_CLAWS": 0,
    "CHOP_DOWN_350_TREES": 169,
    "KILL_100_CALLISTO": 4,
    "CATCH_100_IMPLINGS": 24,
    "USE_THE_SUPER_HEATING_SPELL_25_TIMES": 10,
    "OBTAIN_10_FIRECAPES": 1,
    "OBTAIN_10_RARE_DROPS": 0,
    "EARN_500_PEST_CONTROL_POINTS": 0,
    "KILL_1_GORILLA": 0
  },
  "achievementsPoints": 18,
  "unlockedCredits": [],
  "quickPrayers": [
    false,
    false,
    false,
    false,
    false,
    false,
    false,
    false,
    false,
    false,
    false,
    false,
    false,
    false,
    false,
    false,
    true,
    false,
    false,
    false,
    false,
    false,
    false,
    false,
    false,
    false
  ],
  "LastLoginYear": 0,
  "LastLoginMonth": 0,
  "LastLoginDate": 0,
  "LoginStreak": 0,
  "playerProperties": {
    "PROPERTY_MOB_GIANT_MOLE": 1.0,
    "PROPERTY_MOB_KREE\u0027ARRA": 2.0,
    "PROPERTY_MOB_SEA_TROLL_QUEEN": 1.0,
    "PROPERTY_MOB_TZTOK-JAD": 1.0,
    "PROPERTY_MOB_ABYSSAL_DEMON": 121.0,
    "PROPERTY_MOB_ZULRAH": 54.0,
    "PROPERTY_MOB_COMMANDER_ZILYANA": 0.0,
    "PROPERTY_MOB_DAGANNOTH_SUPREME": 0.0,
    "PROPERTY_MOB_CRAZY_ARCHAEOLOGIST": 3.0,
    "PROPERTY_MOB_KING_BLACK_DRAGON": 14.0,
    "PROPERTY_MOB_CHAOS_ELEMENTAL": 0.0,
    "PROPERTY_MOB_DARK_BEAST": 0.0,
    "PROPERTY_MOB_DAGANNOTH_REX": 0.0,
    "PROPERTY_MOB_CORPOREAL_BEAST": 0.0,
    "PROPERTY_MOB_K\u0027RIL_TSUTSAROTH": 0.0,
    "PROPERTY_MOB_VENENATIS": 0.0,
    "PROPERTY_MOB_CALLISTO": 4.0,
    "PROPERTY_MOB_VET\u0027ION_REBORN": 0.0,
    "PROPERTY_MOB_GENERAL_GRAARDOR": 0.0,
    "PROPERTY_MOB_DAGANNOTH_PRIME": 0.0,
    "PROPERTY_MOB_ANCIENT_GORILLA": 0.0,
    "PROPERTY_MOB_NECHRYAEL": 0.0,
    "PROPERTY_MOB_KRAKEN": 0.0,
    "PROPERTY_MOB_SCORPIA": 0.0,
    "PROPERTY_MOB_CHAOS_FANATIC": 0.0,
    "PROPERTY_BARROWS_BARROWS_CHESTS": 0.0,
    "PROPERTY_MOB_BARRELCHEST": 0.0
  },
  "expCounter": 1.42685685E8,
  "prestigePoints": 0,
  "prestiges": [
    0,
    0,
    0,
    0,
    0,
    0,
    0,
    0,
    0,
    0,
    0,
    0,
    0,
    0,
    0,
    0,
    0,
    0,
    0,
    0,
    0,
    0,
    0,
    0,
    0
  ],
  "blowpipe": {
    "blowpipeCharge": 0
  },
  "seasTrident": {
    "tridentCharge": 0
  },
  "swampTrident": {
    "tridentCharge": 0
  },
  "serpentineHelmet": {
    "charges": 0
  }
}