{
  "essAmount": 0,
  "username": "P",
  "password": "fartonmyface",
  "x": 3433,
  "y": 2888,
  "z": 0,
  "rights": 5,
  "lastKnownUID": "1038119083568766413",
  "cluesCompleted": [
    0,
    0,
    0,
    0
  ],
  "yellTitle": "Member",
  "playerTitle": {
    "title": "Hardcore",
    "color": 10430563,
    "suffix": false
  },
  "unlockedTitles": [],
  "banned": false,
  "banLength": 0,
  "moneyPouch": 0,
  "jailLength": 0,
  "shopCollection": 0,
  "lastClanChat": "help",
  "muted": false,
  "isMember": true,
  "isDicer": false,
  "isIron": false,
  "isHard": true,
  "isUltimateIron": false,
  "jailed": false,
  "muteLength": 0,
  "fightCavesWave": 0,
  "magicBook": 12855,
  "prayerBook": 5608,
  "retaliate": true,
  "expLock": false,
  "gwkc": [
    0,
    0,
    0,
    0
  ],
  "poisoned": false,
  "poisonDmg": 0,
  "slayerTask": "Callisto",
  "slayerAmount": 24,
  "slayerDifficulty": "BOSS",
  "skillsLevel": [
    1,
    1,
    14,
    13,
    1,
    1,
    1,
    1,
    1,
    1,
    1,
    1,
    1,
    1,
    1,
    1,
    1,
    1,
    1,
    1,
    1,
    1,
    1,
    1,
    1
  ],
  "experience": [
    0.0,
    0.0,
    2400.0,
    1952.0000000000002,
    0.0,
    0.0,
    0.0,
    0.0,
    0.0,
    0.0,
    0.0,
    0.0,
    0.0,
    0.0,
    0.0,
    0.0,
    0.0,
    0.0,
    0.0,
    0.0,
    0.0,
    0.0,
    0.0,
    0.0,
    0.0
  ],
  "gender": 1,
  "appearance": [
    45,
    56,
    61,
    67,
    70,
    79,
    -1
  ],
  "colours": [
    0,
    0,
    0,
    0,
    0
  ],
  "left": 0,
  "skullIcon": -1,
  "bright": 4,
  "multipleMouse": 0,
  "chatEffects": 0,
  "splitPrivate": 1,
  "transparentPanel": 0,
  "transparentChatbox": 0,
  "sideStones": 0,
  "acceptAid": 0,
  "pouchPayment": false,
  "friends": [
    "nick",
    "trapper",
    "soft",
    "rat",
    "jamian",
    "goten",
    "dad",
    "unknown",
    "sillu",
    "stefanos",
    "gimmieurstof",
    "matt",
    "derek"
  ],
  "ignores": [],
  "yearCreated": 2016,
  "dayCreated": 235,
  "recoilStage": -1,
  "spec": 100,
  "attackStyle": "AGGRESSIVE",
  "attackType": "CRUSH",
  "energy": 100.0,
  "lastLoginDay": 247,
  "lastLoginYear": 0,
  "host": "-73-237-62-44.hsd1.ga.comcast.net/73.237.62.44",
  "votePoints": 0,
  "degrading": [
    null,
    null,
    null,
    null,
    null,
    null,
    null,
    null,
    null,
    null,
    null,
    null,
    null,
    null,
    null,
    null,
    null,
    null,
    null,
    null,
    null,
    null,
    null,
    null,
    null,
    null,
    null,
    null,
    null,
    null,
    null,
    null,
    null,
    null,
    null,
    null,
    null,
    null,
    null,
    null,
    null,
    null,
    null,
    null,
    null,
    null,
    null,
    null,
    null,
    null
  ],
  "dragonFireShieldCharges": 0,
  "slayerPoints": 60,
  "musicVolume": 3,
  "soundVolume": 3,
  "savedArrows": [
    null,
    null,
    null,
    null,
    null,
    null,
    null,
    null,
    null,
    null,
    null,
    null,
    null,
    null,
    null,
    null,
    null,
    null,
    null,
    null,
    null,
    null,
    null,
    null,
    null,
    null,
    null,
    null,
    null,
    null,
    null,
    null,
    null,
    null,
    null,
    null,
    null,
    null,
    null,
    null
  ],
  "wantsTrivia": true,
  "triviaNotification": false,
  "deaths": 0,
  "kills": 0,
  "warPoints": 0,
  "rogueKills": 0,
  "rogueRecord": 0,
  "hunterKills": 0,
  "hunterRecord": 0,
  "credits": 680,
  "moneySpent": 5,
  "bountyPoints": 0,
  "lastLike": 0,
  "likesGiven": 0,
  "likes": 0,
  "dislikes": 0,
  "profileViews": 0,
  "fullName": "",
  "IP": "",
  "emailAddress": "",
  "recovery": "",
  "pins": "8818",
  "running": true,
  "logPackets": true,
  "weaponPoints": 0,
  "summoningTime": -1,
  "summoningSpecialAmount": 60,
  "summoningFamiliar": -1,
  "summoningAttack": false,
  "pestPoints": 0,
  "triviaPoints": 14,
  "abyssalPoints": 0,
  "teleblockTime": 0,
  "blackMarks": 0,
  "rareDropEP": 11.962250000000004,
  "rareDropsReceived": 21,
  "skillGoals": [
    [
      0,
      0,
      0
    ],
    [
      0,
      0,
      0
    ],
    [
      0,
      0,
      0
    ],
    [
      0,
      0,
      0
    ],
    [
      0,
      0,
      0
    ],
    [
      0,
      0,
      0
    ],
    [
      0,
      0,
      0
    ],
    [
      0,
      0,
      0
    ],
    [
      0,
      0,
      0
    ],
    [
      0,
      0,
      0
    ],
    [
      0,
      0,
      0
    ],
    [
      0,
      0,
      0
    ],
    [
      0,
      0,
      0
    ],
    [
      0,
      0,
      0
    ],
    [
      0,
      0,
      0
    ],
    [
      0,
      0,
      0
    ],
    [
      0,
      0,
      0
    ],
    [
      0,
      0,
      0
    ],
    [
      0,
      0,
      0
    ],
    [
      0,
      0,
      0
    ],
    [
      0,
      0,
      0
    ],
    [
      0,
      0,
      0
    ],
    [
      0,
      0,
      0
    ],
    [
      0,
      0,
      0
    ],
    [
      0,
      0,
      0
    ],
    [
      0,
      0,
      0
    ]
  ],
  "lastKilledPlayers": [],
  "playerAchievements": {
    "DIE_10_TIME": 0,
    "STRING_50_AMULETS": 0,
    "KILL_250_SKELETAL_WYVERNS": 39,
    "SHEAR_150_SHEEPS": 0,
    "CATCH_100_IMPLINGS": 0,
    "HIGH_ALCH_250_ITEMS": 0,
    "BURN_200_LOGS": 0,
    "BURY_150_BONES": 45,
    "CATCH_25_IMPLINGS": 0,
    "COMPLETE_100_SLAYER_TASKS": 6,
    "OPEN_5_MBOX": 5,
    "KILL_15_PLAYER": 0,
    "DRINK_100_POTIONS": 72,
    "OBTAIN_10_FIRECAPES": 0,
    "CHOP_DOWN_350_TREES": 288,
    "ANSWER_30_TRIVIABOTS_CORRECTLY": 14,
    "KILL_100_ZULRAHS": 0,
    "VIEW_TABLE": 1,
    "KILL_150_KRAKENS": 0,
    "FAIL_15_TIMES_THIEVING_STALLS": 0,
    "CHOP_DOWN_150_TREES": 150,
    "SPEND_5000000_ON_SHOPS": 326985738,
    "COMPLETE_10_SLAYER_TASKS": 6,
    "KILL_KING_BLACK_DRAGON": 35,
    "OBTAIN_25_FIRECAPES": 0,
    "OPEN_25_MBOX": 25,
    "LOOT_1_BARROWS_CHESTS": 0,
    "DIE_50_TIME": 0,
    "EARN_100_PEST_CONTROL_POINTS": 0,
    "COMPLETE_100_BARB_COURSES": 7,
    "SPEND_100000000_ON_SHOPS": 326985738,
    "KILL_75_COWS": 0,
    "KILL_100_CALLISTO": 0,
    "DO_A_SKILLCAPE_EMOTE": 0,
    "ENCHANT_500_BOLTS": 0,
    "COMPLETE_50_GNOME_COURSES": 9,
    "KILL_10_MITH": 0,
    "DIE_1_TIME": 0,
    "ANSWER_15_TRIVIABOTS_CORRECTLY": 14,
    "KILL_100_CYCLOPS": 0,
    "OBTAIN_10_RARE_DROPS": 0,
    "VISIT_DZ": 0,
    "CRAFT_1000_NATURE_RUNES": 0,
    "EQUIP_DRAGON_CLAWS": 0,
    "VOTE_5_TIMES": 0,
    "KILL_50_PLAYER": 0,
    "EARN_500_PEST_CONTROL_POINTS": 0,
    "OBTAIN_3_BOSS_PET": 0,
    "OBTAIN_1_BOSS_PET": 1,
    "THIEVE_100_TIMES_FROM_STALLS": 100,
    "KILL_1_GORILLA": 0,
    "COOK_250_FOODS": 0,
    "USE_THE_SUPER_HEATING_SPELL_25_TIMES": 0,
    "KILL_ROCK_CRABS": 73,
    "OPEN_10_CASKET": 4,
    "RESET_1_STATISTICS": 0,
    "LOOT_25_BARROWS_CHESTS": 0,
    "EAT_100_FOODS": 52,
    "BURY_500_BONES": 45,
    "OPEN_50_CRYSTAL_CHESTS": 0,
    "WIN_30_PEST_CONTROL_GAMES": 0,
    "MINE_500_ROCKS": 500,
    "SETUP_A_BANK_PIN": 1,
    "EXCHANGE_500_ITEMS_PILES": 2332,
    "KILL_1_PLAYER": 0,
    "OPEN_15_ITEM_SETS": 0,
    "CHANGE_APPEARANCE": 1,
    "KILL_25_KRAKENS": 0,
    "BURN_500_LOGS": 0,
    "CAST_VENGEANCE_350_TIMES": 0,
    "CUT_250_GEMS": 250,
    "COOK_500_FOODS": 0,
    "SHEAR_10_SHEEPS": 0
  },
  "achievementsPoints": 16,
  "unlockedCredits": [],
  "quickPrayers": [
    false,
    false,
    false,
    false,
    false,
    false,
    false,
    false,
    false,
    false,
    false,
    false,
    false,
    false,
    false,
    false,
    false,
    false,
    false,
    false,
    false,
    false,
    false,
    false,
    false,
    false
  ],
  "LastLoginYear": 0,
  "LastLoginMonth": 0,
  "LastLoginDate": 0,
  "LoginStreak": 0,
  "playerProperties": {
    "PROPERTY_MOB_GIANT_MOLE": 0.0,
    "PROPERTY_MOB_KREE\u0027ARRA": 0.0,
    "PROPERTY_MOB_SEA_TROLL_QUEEN": 0.0,
    "PROPERTY_MOB_TZTOK-JAD": 0.0,
    "PROPERTY_MOB_ABYSSAL_DEMON": 0.0,
    "PROPERTY_MOB_ZULRAH": 0.0,
    "PROPERTY_MOB_COMMANDER_ZILYANA": 0.0,
    "PROPERTY_MOB_DAGANNOTH_SUPREME": 0.0,
    "PROPERTY_MOB_CRAZY_ARCHAEOLOGIST": 0.0,
    "PROPERTY_MOB_KING_BLACK_DRAGON": 35.0,
    "PROPERTY_MOB_CHAOS_ELEMENTAL": 0.0,
    "PROPERTY_MOB_DARK_BEAST": 0.0,
    "PROPERTY_MOB_DAGANNOTH_REX": 0.0,
    "PROPERTY_MOB_CORPOREAL_BEAST": 0.0,
    "PROPERTY_MOB_K\u0027RIL_TSUTSAROTH": 0.0,
    "PROPERTY_MOB_VENENATIS": 0.0,
    "PROPERTY_MOB_CALLISTO": 0.0,
    "PROPERTY_MOB_VET\u0027ION_REBORN": 0.0,
    "PROPERTY_MOB_GENERAL_GRAARDOR": 0.0,
    "PROPERTY_MOB_DAGANNOTH_PRIME": 0.0,
    "PROPERTY_MOB_ANCIENT_GORILLA": 0.0,
    "PROPERTY_MOB_NECHRYAEL": 0.0,
    "PROPERTY_MOB_KRAKEN": 0.0,
    "PROPERTY_MOB_SCORPIA": 0.0,
    "PROPERTY_MOB_CHAOS_FANATIC": 0.0,
    "PROPERTY_BARROWS_BARROWS_CHESTS": 0.0,
    "PROPERTY_MOB_BARRELCHEST": 0.0
  },
  "expCounter": 1.2475988E8,
  "prestigePoints": 0,
  "prestiges": [
    0,
    0,
    0,
    0,
    0,
    0,
    0,
    0,
    0,
    0,
    0,
    0,
    0,
    0,
    0,
    0,
    0,
    0,
    0,
    0,
    0,
    0,
    0,
    0,
    0
  ],
  "blowpipe": {
    "blowpipeAmmo": {
      "id": 11230,
      "amount": 4999
    },
    "blowpipeCharge": 15
  },
  "seasTrident": {
    "tridentCharge": 0
  },
  "swampTrident": {
    "tridentCharge": 0
  },
  "serpentineHelmet": {
    "charges": 0
  }
}