{
  "essAmount": 0,
  "username": "Pressure",
  "password": "pressure123",
  "x": 3433,
  "y": 2890,
  "z": 0,
  "rights": 0,
  "lastKnownUID": "1038119083568766413",
  "cluesCompleted": [
    0,
    0,
    0,
    0
  ],
  "yellTitle": "Member",
  "unlockedTitles": [],
  "banned": true,
  "banLength": -1,
  "moneyPouch": 0,
  "jailLength": 0,
  "shopCollection": 0,
  "lastClanChat": "help",
  "muted": false,
  "isMember": true,
  "isDicer": false,
  "isIron": false,
  "isUltimateIron": false,
  "jailed": false,
  "muteLength": 0,
  "fightCavesWave": 0,
  "magicBook": 1151,
  "prayerBook": 5608,
  "retaliate": false,
  "expLock": false,
  "gwkc": [
    0,
    0,
    0,
    0
  ],
  "poisoned": false,
  "poisonDmg": 0,
  "slayerTask": "Steel dragon",
  "slayerAmount": 22,
  "slayerDifficulty": "HIGH",
  "skillsLevel": [
    99,
    99,
    99,
    99,
    99,
    19,
    99,
    1,
    23,
    1,
    1,
    1,
    1,
    1,
    1,
    1,
    51,
    37,
    88,
    1,
    1,
    1,
    1,
    1,
    1
  ],
  "experience": [
    1.0206026666666667E8,
    1.3323486666666666E7,
    5.283626666666666E7,
    6.985568E7,
    6.414494E7,
    1.32133775E7,
    1.3687270000000583E7,
    0.0,
    6375.0,
    0.0,
    0.0,
    0.0,
    0.0,
    0.0,
    0.0,
    0.0,
    120892.99942779541,
    27975.0,
    4567464.0,
    0.0,
    0.0,
    0.0,
    0.0,
    0.0,
    0.0
  ],
  "gender": 0,
  "appearance": [
    1,
    21,
    28,
    34,
    38,
    43,
    15
  ],
  "colours": [
    1,
    5,
    6,
    3,
    0
  ],
  "left": 0,
  "skullIcon": -1,
  "bright": 4,
  "multipleMouse": 0,
  "chatEffects": 0,
  "splitPrivate": 1,
  "transparentPanel": 0,
  "transparentChatbox": 0,
  "sideStones": 0,
  "acceptAid": 0,
  "pouchPayment": false,
  "friends": [
    "goten",
    "jamian",
    "kotori",
    "michael",
    "c bo",
    "economy",
    "741852963456",
    "panda",
    "stefanos",
    "tez",
    "led zeppelin",
    "brandon",
    "dylan",
    "mr barrows",
    "natsu5623",
    "boeletje",
    "z75",
    "zulrah",
    "b",
    "a zerker",
    "derek",
    "gratata",
    "raikousen",
    "wicked",
    "inflexion",
    "jayy",
    "jamo",
    "white",
    "bounce up",
    "extfallen",
    "saint",
    "slime",
    "dr buttsecks",
    "rat",
    "nate2",
    "soft",
    "roger",
    "v3leh0",
    "matt",
    "hard",
    "tor",
    "bones",
    "doppelganger",
    "i",
    "graco",
    "n i g g e r",
    "kangaroo",
    "garrett",
    "nj casey",
    "dabs",
    "pfraru",
    "hunter",
    "floid",
    "i g0dz i",
    "mark donalds",
    "kefun",
    "martijn",
    "kha",
    "nick",
    "martin",
    "trihard",
    "ironhide",
    "unreal chris",
    "qaz",
    "555",
    "john",
    "billy mays",
    "spinz50",
    "jamianmidpl",
    "jamianmidplz",
    "dalby"
  ],
  "ignores": [],
  "yearCreated": 2016,
  "dayCreated": 181,
  "recoilStage": -1,
  "spec": 100,
  "attackStyle": "AGGRESSIVE",
  "attackType": "CRUSH",
  "energy": 100.0,
  "lastLoginDay": 216,
  "lastLoginYear": 0,
  "host": "86.9.97.56",
  "votePoints": 0,
  "degrading": [
    null,
    null,
    null,
    null,
    null,
    null,
    null,
    null,
    null,
    null,
    null,
    null,
    null,
    null,
    null,
    null,
    null,
    null,
    null,
    null,
    null,
    null,
    null,
    null,
    null,
    null,
    null,
    null,
    null,
    null,
    null,
    null,
    null,
    null,
    null,
    null,
    null,
    null,
    null,
    null,
    null,
    null,
    null,
    null,
    null,
    null,
    null,
    null,
    null,
    null
  ],
  "dragonFireShieldCharges": 0,
  "slayerPoints": 21,
  "musicVolume": 3,
  "soundVolume": 3,
  "savedArrows": [
    null,
    null,
    null,
    null,
    null,
    null,
    null,
    null,
    null,
    null,
    null,
    null,
    null,
    null,
    null,
    null,
    null,
    null,
    null,
    null,
    null,
    null,
    null,
    null,
    null,
    null,
    null,
    null,
    null,
    null,
    null,
    null,
    null,
    null,
    null,
    null,
    null,
    null,
    null,
    null
  ],
  "wantsTrivia": true,
  "triviaNotification": false,
  "deaths": 0,
  "kills": 0,
  "rogueKills": 0,
  "rogueRecord": 0,
  "hunterKills": 0,
  "hunterRecord": 0,
  "credits": 0,
  "moneySpent": 50,
  "bountyPoints": 0,
  "lastLike": 0,
  "likesGiven": 0,
  "likes": 0,
  "dislikes": 0,
  "profileViews": 0,
  "fullName": "",
  "IP": "",
  "emailAddress": "",
  "recovery": "",
  "running": true,
  "logPackets": false,
  "weaponPoints": 0,
  "summoningTime": -1,
  "summoningSpecialAmount": 60,
  "summoningFamiliar": -1,
  "summoningAttack": false,
  "pestPoints": 5,
  "triviaPoints": 4,
  "abyssalPoints": 4320,
  "teleblockTime": 0,
  "blackMarks": 0,
  "rareDropEP": 8.965499999999997,
  "rareDropsReceived": 112,
  "skillGoals": [
    [
      0,
      0,
      0
    ],
    [
      0,
      0,
      0
    ],
    [
      0,
      0,
      0
    ],
    [
      0,
      0,
      0
    ],
    [
      0,
      0,
      0
    ],
    [
      0,
      0,
      0
    ],
    [
      0,
      0,
      0
    ],
    [
      0,
      0,
      0
    ],
    [
      0,
      0,
      0
    ],
    [
      0,
      0,
      0
    ],
    [
      0,
      0,
      0
    ],
    [
      0,
      0,
      0
    ],
    [
      0,
      0,
      0
    ],
    [
      0,
      0,
      0
    ],
    [
      0,
      0,
      0
    ],
    [
      0,
      0,
      0
    ],
    [
      0,
      0,
      0
    ],
    [
      0,
      0,
      0
    ],
    [
      0,
      0,
      0
    ],
    [
      0,
      0,
      0
    ],
    [
      0,
      0,
      0
    ],
    [
      0,
      0,
      0
    ],
    [
      0,
      0,
      0
    ],
    [
      0,
      0,
      0
    ],
    [
      0,
      0,
      0
    ],
    [
      0,
      0,
      0
    ]
  ],
  "lastKilledPlayers": [],
  "playerAchievements": {
    "CHOP_DOWN_150_TREES": 6,
    "OPEN_50_CRYSTAL_CHESTS": 50,
    "KILL_ROCK_CRABS": 100,
    "COMPLETE_100_SLAYER_TASKS": 13,
    "OPEN_5_MBOX": 5,
    "OBTAIN_10_RARE_DROPS": 0,
    "USE_THE_SUPER_HEATING_SPELL_25_TIMES": 0,
    "THIEVE_100_TIMES_FROM_STALLS": 0,
    "OPEN_10_CASKET": 1,
    "SPEND_100000000_ON_SHOPS": 16877851,
    "DIE_1_TIME": 1,
    "COMPLETE_100_BARB_COURSES": 4,
    "SPEND_5000000_ON_SHOPS": 16877851,
    "CHOP_DOWN_350_TREES": 6,
    "DIE_10_TIME": 10,
    "WIN_30_PEST_CONTROL_GAMES": 30,
    "KILL_100_CALLISTO": 0,
    "KILL_1_GORILLA": 1,
    "COMPLETE_10_SLAYER_TASKS": 10,
    "ANSWER_15_TRIVIABOTS_CORRECTLY": 15,
    "DO_A_SKILLCAPE_EMOTE": 1,
    "OBTAIN_25_FIRECAPES": 0,
    "ANSWER_30_TRIVIABOTS_CORRECTLY": 30,
    "COMPLETE_50_GNOME_COURSES": 3,
    "KILL_KING_BLACK_DRAGON": 12,
    "CATCH_25_IMPLINGS": 0,
    "CHANGE_APPEARANCE": 1,
    "EQUIP_DRAGON_CLAWS": 1,
    "OBTAIN_10_FIRECAPES": 0,
    "ENCHANT_500_BOLTS": 0,
    "CAST_VENGEANCE_350_TIMES": 23,
    "OPEN_25_MBOX": 25,
    "VIEW_TABLE": 1,
    "COOK_250_FOODS": 0,
    "SETUP_A_BANK_PIN": 0,
    "SHEAR_10_SHEEPS": 0,
    "KILL_250_SKELETAL_WYVERNS": 0,
    "OBTAIN_3_BOSS_PET": 0,
    "STRING_50_AMULETS": 0,
    "EXCHANGE_500_ITEMS_PILES": 0,
    "OPEN_15_ITEM_SETS": 9,
    "KILL_25_KRAKENS": 11,
    "MINE_500_ROCKS": 0,
    "BURN_500_LOGS": 0,
    "KILL_50_PLAYER": 0,
    "KILL_15_PLAYER": 0,
    "EARN_500_PEST_CONTROL_POINTS": 500,
    "FAIL_15_TIMES_THIEVING_STALLS": 0,
    "CRAFT_1000_NATURE_RUNES": 0,
    "COOK_500_FOODS": 0,
    "BURY_150_BONES": 7,
    "KILL_1_PLAYER": 0,
    "OBTAIN_1_BOSS_PET": 0,
    "BURN_200_LOGS": 0,
    "SHEAR_150_SHEEPS": 0,
    "BURY_500_BONES": 7,
    "KILL_75_COWS": 75,
    "EARN_100_PEST_CONTROL_POINTS": 100,
    "VISIT_DZ": 1,
    "DRINK_100_POTIONS": 100,
    "KILL_100_CYCLOPS": 100,
    "HIGH_ALCH_250_ITEMS": 250,
    "CATCH_100_IMPLINGS": 0,
    "KILL_10_MITH": 0,
    "CUT_250_GEMS": 0,
    "VOTE_5_TIMES": 0,
    "DIE_50_TIME": 29,
    "RESET_1_STATISTICS": 0,
    "EAT_100_FOODS": 100,
    "KILL_150_KRAKENS": 11,
    "KILL_100_ZULRAHS": 3
  },
  "achievementsPoints": 2,
  "unlockedCredits": [],
  "quickPrayers": [
    false,
    false,
    false,
    false,
    false,
    false,
    false,
    false,
    false,
    false,
    false,
    false,
    false,
    false,
    false,
    false,
    false,
    false,
    true,
    false,
    false,
    false,
    false,
    false,
    false,
    false
  ],
  "LastLoginYear": 0,
  "LastLoginMonth": 0,
  "LastLoginDate": 0,
  "LoginStreak": 0,
  "playerProperties": {
    "PROPERTY_MOB_GIANT_MOLE": 0.0,
    "PROPERTY_MOB_KREE\u0027ARRA": 1.0,
    "PROPERTY_MOB_SEA_TROLL_QUEEN": 0.0,
    "PROPERTY_MOB_TZTOK-JAD": 0.0,
    "PROPERTY_MOB_ABYSSAL_DEMON": 117.0,
    "PROPERTY_MOB_ZULRAH": 3.0,
    "PROPERTY_MOB_COMMANDER_ZILYANA": 1.0,
    "PROPERTY_MOB_DAGANNOTH_SUPREME": 0.0,
    "PROPERTY_MOB_CRAZY_ARCHAEOLOGIST": 0.0,
    "PROPERTY_MOB_KING_BLACK_DRAGON": 12.0,
    "PROPERTY_MOB_CHAOS_ELEMENTAL": 0.0,
    "PROPERTY_MOB_DARK_BEAST": 0.0,
    "PROPERTY_MOB_DAGANNOTH_REX": 0.0,
    "PROPERTY_MOB_CORPOREAL_BEAST": 0.0,
    "PROPERTY_MOB_K\u0027RIL_TSUTSAROTH": 0.0,
    "PROPERTY_MOB_VENENATIS": 0.0,
    "PROPERTY_MOB_CALLISTO": 0.0,
    "PROPERTY_MOB_VET\u0027ION_REBORN": 0.0,
    "PROPERTY_MOB_GENERAL_GRAARDOR": 0.0,
    "PROPERTY_MOB_DAGANNOTH_PRIME": 0.0,
    "PROPERTY_MOB_ANCIENT_GORILLA": 58.0,
    "PROPERTY_MOB_NECHRYAEL": 0.0,
    "PROPERTY_MOB_KRAKEN": 11.0,
    "PROPERTY_MOB_SCORPIA": 0.0,
    "PROPERTY_MOB_CHAOS_FANATIC": 1.0,
    "PROPERTY_BARROWS_BARROWS_CHESTS": 4.0,
    "PROPERTY_MOB_BARRELCHEST": 0.0
  },
  "expCounter": 8735030.0,
  "prestigePoints": 0,
  "prestiges": [
    0,
    0,
    0,
    0,
    0,
    0,
    0,
    0,
    0,
    0,
    0,
    0,
    0,
    0,
    0,
    0,
    0,
    0,
    0,
    0,
    0,
    0,
    0,
    0,
    0
  ],
  "blowpipe": {
    "blowpipeCharge": 0
  },
  "seasTrident": {
    "tridentCharge": 0
  },
  "swampTrident": {
    "tridentCharge": 0
  },
  "serpentineHelmet": {
    "charges": 0
  }
}