{
  "essAmount": 0,
  "username": "Scott",
  "password": "102896sob",
  "x": 1892,
  "y": 3858,
  "z": 3892,
  "rights": 11,
  "lastKnownUID": "1038119083568766413",
  "cluesCompleted": [
    1,
    4,
    2,
    0
  ],
  "yellTitle": "Member",
  "unlockedTitles": [],
  "banned": false,
  "banLength": 0,
  "moneyPouch": 0,
  "jailLength": 0,
  "shopCollection": 0,
  "lastClanChat": "help",
  "muted": false,
  "isMember": true,
  "isDicer": false,
  "isIron": true,
  "isHard": false,
  "isUltimateIron": false,
  "jailed": false,
  "muteLength": 0,
  "fightCavesWave": 0,
  "magicBook": 1151,
  "prayerBook": 5608,
  "retaliate": true,
  "expLock": false,
  "gwkc": [
    0,
    0,
    0,
    0
  ],
  "poisoned": false,
  "poisonDmg": 0,
  "slayerTask": "Barrelchest",
  "slayerAmount": 18,
  "slayerDifficulty": "BOSS",
  "skillsLevel": [
    99,
    99,
    99,
    99,
    99,
    0,
    99,
    99,
    99,
    99,
    99,
    99,
    99,
    99,
    99,
    99,
    99,
    99,
    99,
    99,
    99,
    99,
    99,
    99,
    99
  ],
  "experience": [
    1.3034431E7,
    1.3034431E7,
    1.3072031E7,
    1.3830037E7,
    1.5625151E7,
    1.3034431E7,
    1.3034431E7,
    1.3034431E7,
    1.3134431E7,
    1.3034431E7,
    1.3034431E7,
    1.3134431E7,
    1.3034431E7,
    1.3034431E7,
    1.3034431E7,
    1.3034431E7,
    1.3034431E7,
    1.3134431E7,
    1.3034431E7,
    1.3034431E7,
    1.3034431E7,
    1.3034431E7,
    1.3034431E7,
    1.3034431E7,
    1.3034431E7
  ],
  "gender": 0,
  "appearance": [
    3,
    18,
    27,
    34,
    38,
    42,
    11
  ],
  "colours": [
    3,
    8,
    8,
    3,
    1
  ],
  "left": 0,
  "skullIcon": -1,
  "bright": 4,
  "multipleMouse": 0,
  "chatEffects": 0,
  "splitPrivate": 1,
  "transparentPanel": 0,
  "transparentChatbox": 0,
  "sideStones": 0,
  "acceptAid": 0,
  "pouchPayment": false,
  "friends": [
    "matt",
    "bigboy",
    "derek"
  ],
  "ignores": [],
  "yearCreated": 2016,
  "dayCreated": 218,
  "recoilStage": -1,
  "spec": 100,
  "attackStyle": "AGGRESSIVE",
  "attackType": "CRUSH",
  "energy": 100.0,
  "lastLoginDay": 246,
  "lastLoginYear": 0,
  "host": "5.129.179.137/75.129.179.137",
  "votePoints": 0,
  "degrading": [
    null,
    null,
    null,
    null,
    null,
    null,
    null,
    null,
    null,
    null,
    null,
    null,
    null,
    null,
    null,
    null,
    null,
    null,
    null,
    null,
    null,
    null,
    null,
    null,
    null,
    null,
    null,
    null,
    null,
    null,
    null,
    null,
    null,
    null,
    null,
    null,
    null,
    null,
    null,
    null,
    null,
    null,
    null,
    null,
    null,
    null,
    null,
    null,
    null,
    null
  ],
  "dragonFireShieldCharges": 0,
  "slayerPoints": 0,
  "musicVolume": 3,
  "soundVolume": 3,
  "savedArrows": [
    null,
    null,
    null,
    null,
    null,
    null,
    null,
    null,
    null,
    null,
    null,
    null,
    null,
    null,
    null,
    null,
    null,
    null,
    null,
    null,
    null,
    null,
    null,
    null,
    null,
    null,
    null,
    null,
    null,
    null,
    null,
    null,
    null,
    null,
    null,
    null,
    null,
    null,
    null,
    null
  ],
  "wantsTrivia": true,
  "triviaNotification": false,
  "deaths": 0,
  "kills": 0,
  "warPoints": 0,
  "rogueKills": 1,
  "rogueRecord": 0,
  "hunterKills": 0,
  "hunterRecord": 0,
  "credits": 10296,
  "moneySpent": 1605,
  "bountyPoints": 0,
  "lastLike": 0,
  "likesGiven": 0,
  "likes": 0,
  "dislikes": 0,
  "profileViews": 0,
  "fullName": "",
  "IP": "",
  "emailAddress": "",
  "recovery": "",
  "running": true,
  "logPackets": true,
  "weaponPoints": 0,
  "summoningTime": -1,
  "summoningSpecialAmount": 60,
  "summoningFamiliar": -1,
  "summoningAttack": false,
  "pestPoints": 14,
  "triviaPoints": 0,
  "abyssalPoints": 270,
  "teleblockTime": 0,
  "blackMarks": 0,
  "rareDropEP": 1.0567499999999999,
  "rareDropsReceived": -111,
  "skillGoals": [
    [
      0,
      0,
      0
    ],
    [
      0,
      0,
      0
    ],
    [
      0,
      0,
      0
    ],
    [
      0,
      0,
      0
    ],
    [
      0,
      0,
      0
    ],
    [
      0,
      0,
      0
    ],
    [
      0,
      0,
      0
    ],
    [
      0,
      0,
      0
    ],
    [
      0,
      0,
      0
    ],
    [
      0,
      0,
      0
    ],
    [
      0,
      0,
      0
    ],
    [
      0,
      0,
      0
    ],
    [
      0,
      0,
      0
    ],
    [
      0,
      0,
      0
    ],
    [
      0,
      0,
      0
    ],
    [
      0,
      0,
      0
    ],
    [
      0,
      0,
      0
    ],
    [
      0,
      0,
      0
    ],
    [
      0,
      0,
      0
    ],
    [
      0,
      0,
      0
    ],
    [
      0,
      0,
      0
    ],
    [
      0,
      0,
      0
    ],
    [
      0,
      0,
      0
    ],
    [
      0,
      0,
      0
    ],
    [
      0,
      0,
      0
    ],
    [
      0,
      0,
      0
    ]
  ],
  "lastKilledPlayers": [],
  "playerAchievements": {
    "SHEAR_150_SHEEPS": 0,
    "DRINK_100_POTIONS": 100,
    "OPEN_50_CRYSTAL_CHESTS": 50,
    "ENCHANT_500_BOLTS": 0,
    "OBTAIN_1_BOSS_PET": 0,
    "KILL_50_PLAYER": 0,
    "KILL_1_GORILLA": 1,
    "EARN_100_PEST_CONTROL_POINTS": 0,
    "DIE_10_TIME": 10,
    "CATCH_25_IMPLINGS": 25,
    "EAT_100_FOODS": 100,
    "USE_THE_SUPER_HEATING_SPELL_25_TIMES": 0,
    "ANSWER_15_TRIVIABOTS_CORRECTLY": 0,
    "KILL_1_PLAYER": 1,
    "BURY_500_BONES": 22,
    "SPEND_5000000_ON_SHOPS": 43843823,
    "ANSWER_30_TRIVIABOTS_CORRECTLY": 0,
    "KILL_100_CYCLOPS": 0,
    "VIEW_TABLE": 1,
    "RESET_1_STATISTICS": 0,
    "BURN_500_LOGS": 0,
    "OBTAIN_10_RARE_DROPS": 1,
    "COMPLETE_100_SLAYER_TASKS": 18,
    "OPEN_15_ITEM_SETS": 1,
    "OBTAIN_3_BOSS_PET": 0,
    "KILL_10_MITH": 0,
    "CATCH_100_IMPLINGS": 100,
    "BURY_150_BONES": 22,
    "KILL_100_ZULRAHS": 60,
    "COMPLETE_10_SLAYER_TASKS": 10,
    "KILL_ROCK_CRABS": 64,
    "COOK_500_FOODS": 500,
    "KILL_250_SKELETAL_WYVERNS": 0,
    "KILL_15_PLAYER": 4,
    "SETUP_A_BANK_PIN": 0,
    "CAST_VENGEANCE_350_TIMES": 0,
    "DIE_1_TIME": 1,
    "DIE_50_TIME": 13,
    "WIN_30_PEST_CONTROL_GAMES": 30,
    "EQUIP_DRAGON_CLAWS": 0,
    "OBTAIN_10_FIRECAPES": 1,
    "THIEVE_100_TIMES_FROM_STALLS": 100,
    "COMPLETE_50_GNOME_COURSES": 15,
    "CUT_250_GEMS": 250,
    "STRING_50_AMULETS": 0,
    "VISIT_DZ": 1,
    "EXCHANGE_500_ITEMS_PILES": 0,
    "MINE_500_ROCKS": 500,
    "DO_A_SKILLCAPE_EMOTE": 0,
    "SHEAR_10_SHEEPS": 0,
    "BURN_200_LOGS": 0,
    "CHANGE_APPEARANCE": 1,
    "KILL_100_CALLISTO": 0,
    "FAIL_15_TIMES_THIEVING_STALLS": 50,
    "CHOP_DOWN_350_TREES": 0,
    "OPEN_25_MBOX": 25,
    "KILL_150_KRAKENS": 57,
    "OPEN_5_MBOX": 5,
    "CHOP_DOWN_150_TREES": 0,
    "EARN_500_PEST_CONTROL_POINTS": 0,
    "KILL_25_KRAKENS": 25,
    "SPEND_100000000_ON_SHOPS": 43843823,
    "KILL_75_COWS": 10,
    "COOK_250_FOODS": 250,
    "OPEN_10_CASKET": 4,
    "KILL_KING_BLACK_DRAGON": 0,
    "OBTAIN_25_FIRECAPES": 1,
    "VOTE_5_TIMES": 0,
    "LOOT_1_BARROWS_CHESTS": 0,
    "LOOT_25_BARROWS_CHESTS": 0,
    "HIGH_ALCH_250_ITEMS": 19,
    "COMPLETE_100_BARB_COURSES": 0,
    "CRAFT_1000_NATURE_RUNES": 2276
  },
  "achievementsPoints": 12,
  "unlockedCredits": [],
  "quickPrayers": [
    false,
    false,
    false,
    false,
    false,
    false,
    false,
    false,
    false,
    false,
    false,
    false,
    false,
    false,
    false,
    false,
    true,
    false,
    false,
    false,
    false,
    false,
    false,
    false,
    false,
    true
  ],
  "LastLoginYear": 0,
  "LastLoginMonth": 0,
  "LastLoginDate": 0,
  "LoginStreak": 0,
  "playerProperties": {
    "PROPERTY_MOB_GIANT_MOLE": 52.0,
    "PROPERTY_MOB_KREE\u0027ARRA": 0.0,
    "PROPERTY_MOB_SEA_TROLL_QUEEN": 0.0,
    "PROPERTY_MOB_TZTOK-JAD": 1.0,
    "PROPERTY_MOB_ABYSSAL_DEMON": 160.0,
    "PROPERTY_MOB_ZULRAH": 60.0,
    "PROPERTY_MOB_COMMANDER_ZILYANA": 0.0,
    "PROPERTY_MOB_DAGANNOTH_SUPREME": 0.0,
    "PROPERTY_MOB_CRAZY_ARCHAEOLOGIST": 0.0,
    "PROPERTY_MOB_KING_BLACK_DRAGON": 0.0,
    "PROPERTY_MOB_CHAOS_ELEMENTAL": 0.0,
    "PROPERTY_MOB_DARK_BEAST": 0.0,
    "PROPERTY_MOB_DAGANNOTH_REX": 0.0,
    "PROPERTY_MOB_CORPOREAL_BEAST": 0.0,
    "PROPERTY_MOB_K\u0027RIL_TSUTSAROTH": 0.0,
    "PROPERTY_MOB_VENENATIS": 0.0,
    "PROPERTY_MOB_CALLISTO": 0.0,
    "PROPERTY_MOB_VET\u0027ION_REBORN": 0.0,
    "PROPERTY_MOB_GENERAL_GRAARDOR": 2.0,
    "PROPERTY_MOB_DAGANNOTH_PRIME": 0.0,
    "PROPERTY_MOB_ANCIENT_GORILLA": 2.0,
    "PROPERTY_MOB_NECHRYAEL": 0.0,
    "PROPERTY_MOB_KRAKEN": 57.0,
    "PROPERTY_MOB_SCORPIA": 0.0,
    "PROPERTY_MOB_CHAOS_FANATIC": 10.0,
    "PROPERTY_BARROWS_BARROWS_CHESTS": 16.0,
    "PROPERTY_MOB_BARRELCHEST": 3.0
  },
  "expCounter": 3.8812683E7,
  "prestigePoints": 0,
  "prestiges": [
    0,
    0,
    0,
    0,
    0,
    0,
    0,
    0,
    0,
    0,
    0,
    0,
    0,
    0,
    0,
    0,
    0,
    0,
    0,
    0,
    0,
    0,
    0,
    0,
    0
  ],
  "blowpipe": {
    "blowpipeCharge": 0
  },
  "seasTrident": {
    "tridentCharge": 0
  },
  "swampTrident": {
    "tridentCharge": 0
  },
  "serpentineHelmet": {
    "charges": 11000
  }
}