{
  "essAmount": 0,
  "username": "Sidwell",
  "password": "password123",
  "x": 2750,
  "y": 3448,
  "z": 0,
  "rights": 11,
  "lastKnownUID": "1038119083568766413",
  "cluesCompleted": [
    2,
    3,
    3,
    0
  ],
  "yellTitle": "Member",
  "unlockedTitles": [],
  "banned": false,
  "banLength": 0,
  "moneyPouch": 0,
  "jailLength": 0,
  "shopCollection": 0,
  "lastClanChat": "help",
  "muted": false,
  "isMember": true,
  "isDicer": false,
  "isIron": true,
  "isUltimateIron": false,
  "jailed": false,
  "muteLength": 0,
  "fightCavesWave": 0,
  "magicBook": 1151,
  "prayerBook": 5608,
  "retaliate": true,
  "expLock": false,
  "gwkc": [
    0,
    0,
    0,
    0
  ],
  "poisoned": false,
  "poisonDmg": 0,
  "slayerTask": "Zulrah",
  "slayerAmount": 25,
  "slayerDifficulty": "BOSS",
  "skillsLevel": [
    101,
    99,
    101,
    99,
    99,
    83,
    94,
    89,
    86,
    99,
    87,
    80,
    99,
    91,
    87,
    78,
    73,
    99,
    99,
    70,
    80,
    1,
    89,
    1,
    1
  ],
  "experience": [
    1.5566160000000003E8,
    1.4784260000000002E7,
    3.844640000000004E7,
    1.13935072E8,
    1.4203838E8,
    1.305532E7,
    7946903.399999893,
    4975832.0,
    3803062.5,
    1.3034504E7,
    4016760.0,
    1989000.0,
    1.350703725E7,
    6183935.0,
    4119125.0,
    1772995.0,
    1094550.0,
    1.688865E7,
    1.7648256E7,
    776370.0,
    2029050.0,
    0.0,
    5319444.0,
    0.0,
    0.0
  ],
  "gender": 0,
  "appearance": [
    2,
    20,
    27,
    34,
    39,
    42,
    11
  ],
  "colours": [
    1,
    0,
    0,
    0,
    0
  ],
  "left": 0,
  "skullIcon": -1,
  "bright": 4,
  "multipleMouse": 0,
  "chatEffects": 0,
  "splitPrivate": 0,
  "transparentPanel": 0,
  "transparentChatbox": 0,
  "sideStones": 0,
  "acceptAid": 0,
  "pouchPayment": false,
  "friends": [],
  "ignores": [],
  "yearCreated": 2016,
  "dayCreated": 210,
  "recoilStage": -1,
  "spec": 100,
  "attackStyle": "CONTROLLED",
  "attackType": "SLASH",
  "energy": 100.0,
  "lastLoginDay": 223,
  "lastLoginYear": 0,
  "host": "avidleach.plus.com/81.174.242.45",
  "votePoints": 0,
  "degrading": [
    null,
    null,
    null,
    null,
    null,
    null,
    null,
    null,
    null,
    null,
    null,
    null,
    null,
    null,
    null,
    null,
    null,
    null,
    null,
    null,
    null,
    null,
    null,
    null,
    null,
    null,
    null,
    null,
    null,
    null,
    null,
    null,
    null,
    null,
    null,
    null,
    null,
    null,
    null,
    null,
    null,
    null,
    null,
    null,
    null,
    null,
    null,
    null,
    null,
    null
  ],
  "dragonFireShieldCharges": 50,
  "slayerPoints": 104,
  "musicVolume": 3,
  "soundVolume": 3,
  "savedArrows": [
    null,
    null,
    null,
    null,
    null,
    null,
    null,
    null,
    null,
    null,
    null,
    null,
    null,
    null,
    null,
    null,
    null,
    null,
    null,
    null,
    null,
    null,
    null,
    null,
    null,
    null,
    null,
    null,
    null,
    null,
    null,
    null,
    null,
    null,
    null,
    null,
    null,
    null,
    null,
    null
  ],
  "wantsTrivia": true,
  "triviaNotification": false,
  "deaths": 0,
  "kills": 0,
  "rogueKills": 0,
  "rogueRecord": 0,
  "hunterKills": 0,
  "hunterRecord": 0,
  "credits": 80,
  "moneySpent": 10,
  "bountyPoints": 5000,
  "lastLike": 0,
  "likesGiven": 0,
  "likes": 0,
  "dislikes": 0,
  "profileViews": 0,
  "fullName": "",
  "IP": "",
  "emailAddress": "",
  "recovery": "",
  "running": true,
  "logPackets": false,
  "weaponPoints": 0,
  "summoningTime": -1,
  "summoningSpecialAmount": 60,
  "summoningFamiliar": -1,
  "summoningAttack": false,
  "pestPoints": 20,
  "triviaPoints": 0,
  "abyssalPoints": 485,
  "teleblockTime": 0,
  "blackMarks": 0,
  "rareDropEP": 8.784649999999989,
  "rareDropsReceived": 10,
  "skillGoals": [
    [
      0,
      0,
      0
    ],
    [
      0,
      0,
      0
    ],
    [
      0,
      0,
      0
    ],
    [
      0,
      0,
      0
    ],
    [
      0,
      0,
      0
    ],
    [
      0,
      0,
      0
    ],
    [
      0,
      0,
      0
    ],
    [
      0,
      0,
      0
    ],
    [
      0,
      0,
      0
    ],
    [
      0,
      0,
      0
    ],
    [
      0,
      0,
      0
    ],
    [
      0,
      0,
      0
    ],
    [
      0,
      0,
      0
    ],
    [
      0,
      0,
      0
    ],
    [
      0,
      0,
      0
    ],
    [
      0,
      0,
      0
    ],
    [
      0,
      0,
      0
    ],
    [
      0,
      0,
      0
    ],
    [
      0,
      0,
      0
    ],
    [
      0,
      0,
      0
    ],
    [
      0,
      0,
      0
    ],
    [
      0,
      0,
      0
    ],
    [
      0,
      0,
      0
    ],
    [
      0,
      0,
      0
    ],
    [
      0,
      0,
      0
    ],
    [
      0,
      0,
      0
    ]
  ],
  "lastKilledPlayers": [],
  "playerAchievements": {
    "THIEVE_100_TIMES_FROM_STALLS": 100,
    "COOK_500_FOODS": 500,
    "FAIL_15_TIMES_THIEVING_STALLS": 50,
    "STRING_50_AMULETS": 1,
    "CATCH_25_IMPLINGS": 25,
    "BURN_200_LOGS": 200,
    "KILL_KING_BLACK_DRAGON": 50,
    "EQUIP_DRAGON_CLAWS": 0,
    "COOK_250_FOODS": 250,
    "SPEND_100000000_ON_SHOPS": 115448185,
    "VISIT_DZ": 1,
    "OPEN_50_CRYSTAL_CHESTS": 50,
    "OBTAIN_10_RARE_DROPS": 1,
    "DO_A_SKILLCAPE_EMOTE": 0,
    "KILL_1_PLAYER": 1,
    "OBTAIN_10_FIRECAPES": 2,
    "DIE_10_TIME": 10,
    "COMPLETE_100_SLAYER_TASKS": 57,
    "CATCH_100_IMPLINGS": 100,
    "MINE_500_ROCKS": 500,
    "ANSWER_15_TRIVIABOTS_CORRECTLY": 0,
    "EARN_100_PEST_CONTROL_POINTS": 0,
    "OPEN_10_CASKET": 6,
    "KILL_100_ZULRAHS": 20,
    "KILL_15_PLAYER": 100,
    "OPEN_15_ITEM_SETS": 0,
    "COMPLETE_50_GNOME_COURSES": 48,
    "KILL_25_KRAKENS": 20,
    "RESET_1_STATISTICS": 0,
    "OBTAIN_1_BOSS_PET": 0,
    "SHEAR_150_SHEEPS": 10,
    "DRINK_100_POTIONS": 100,
    "CHANGE_APPEARANCE": 1,
    "VIEW_TABLE": 1,
    "BURN_500_LOGS": 283,
    "OPEN_25_MBOX": 25,
    "KILL_1_GORILLA": 1,
    "OBTAIN_3_BOSS_PET": 0,
    "BURY_150_BONES": 120,
    "DIE_1_TIME": 1,
    "USE_THE_SUPER_HEATING_SPELL_25_TIMES": 0,
    "ANSWER_30_TRIVIABOTS_CORRECTLY": 0,
    "OBTAIN_25_FIRECAPES": 1,
    "KILL_150_KRAKENS": 20,
    "KILL_50_PLAYER": 11,
    "CUT_250_GEMS": 250,
    "VOTE_5_TIMES": 5,
    "CHOP_DOWN_350_TREES": 97,
    "EXCHANGE_500_ITEMS_PILES": 232,
    "KILL_100_CALLISTO": 0,
    "KILL_ROCK_CRABS": 0,
    "COMPLETE_10_SLAYER_TASKS": 10,
    "CRAFT_1000_NATURE_RUNES": 2448,
    "KILL_75_COWS": 75,
    "KILL_100_CYCLOPS": 7,
    "SPEND_5000000_ON_SHOPS": 115448185,
    "DIE_50_TIME": 14,
    "EAT_100_FOODS": 100,
    "CAST_VENGEANCE_350_TIMES": 0,
    "HIGH_ALCH_250_ITEMS": 250,
    "SHEAR_10_SHEEPS": 10,
    "CHOP_DOWN_150_TREES": 97,
    "COMPLETE_100_BARB_COURSES": 0,
    "SETUP_A_BANK_PIN": 0,
    "WIN_30_PEST_CONTROL_GAMES": 8,
    "OPEN_5_MBOX": 5,
    "EARN_500_PEST_CONTROL_POINTS": 0,
    "ENCHANT_500_BOLTS": 0,
    "KILL_10_MITH": 0,
    "BURY_500_BONES": 120,
    "KILL_250_SKELETAL_WYVERNS": 250
  },
  "achievementsPoints": 5,
  "unlockedCredits": [],
  "quickPrayers": [
    false,
    false,
    false,
    false,
    false,
    false,
    false,
    false,
    false,
    false,
    false,
    false,
    false,
    false,
    false,
    false,
    false,
    false,
    false,
    false,
    false,
    false,
    false,
    false,
    false,
    false
  ],
  "LastLoginYear": 0,
  "LastLoginMonth": 0,
  "LastLoginDate": 0,
  "LoginStreak": 0,
  "playerProperties": {
    "PROPERTY_MOB_GIANT_MOLE": 0.0,
    "PROPERTY_MOB_KREE\u0027ARRA": 0.0,
    "PROPERTY_MOB_SEA_TROLL_QUEEN": 0.0,
    "PROPERTY_MOB_TZTOK-JAD": 2.0,
    "PROPERTY_MOB_ABYSSAL_DEMON": 26.0,
    "PROPERTY_MOB_ZULRAH": 20.0,
    "PROPERTY_MOB_COMMANDER_ZILYANA": 0.0,
    "PROPERTY_MOB_DAGANNOTH_SUPREME": 0.0,
    "PROPERTY_MOB_CRAZY_ARCHAEOLOGIST": 2.0,
    "PROPERTY_MOB_KING_BLACK_DRAGON": 65.0,
    "PROPERTY_MOB_CHAOS_ELEMENTAL": 0.0,
    "PROPERTY_MOB_DARK_BEAST": 73.0,
    "PROPERTY_MOB_DAGANNOTH_REX": 0.0,
    "PROPERTY_MOB_CORPOREAL_BEAST": 0.0,
    "PROPERTY_MOB_K\u0027RIL_TSUTSAROTH": 0.0,
    "PROPERTY_MOB_VENENATIS": 0.0,
    "PROPERTY_MOB_CALLISTO": 0.0,
    "PROPERTY_MOB_VET\u0027ION_REBORN": 0.0,
    "PROPERTY_MOB_GENERAL_GRAARDOR": 0.0,
    "PROPERTY_MOB_DAGANNOTH_PRIME": 0.0,
    "PROPERTY_MOB_ANCIENT_GORILLA": 4.0,
    "PROPERTY_MOB_NECHRYAEL": 0.0,
    "PROPERTY_MOB_KRAKEN": 20.0,
    "PROPERTY_MOB_SCORPIA": 0.0,
    "PROPERTY_MOB_CHAOS_FANATIC": 24.0,
    "PROPERTY_BARROWS_BARROWS_CHESTS": 6.0,
    "PROPERTY_MOB_BARRELCHEST": 0.0
  },
  "expCounter": 9.4799884E7,
  "prestigePoints": 0,
  "prestiges": [
    0,
    0,
    0,
    0,
    0,
    0,
    0,
    0,
    0,
    0,
    0,
    0,
    0,
    0,
    0,
    0,
    0,
    0,
    0,
    0,
    0,
    0,
    0,
    0,
    0
  ],
  "blowpipe": {
    "blowpipeCharge": 0
  },
  "seasTrident": {
    "tridentCharge": 0
  },
  "swampTrident": {
    "tridentCharge": 0
  },
  "serpentineHelmet": {
    "charges": 0
  }
}