{
  "essAmount": 0,
  "username": "Tehdark12",
  "password": "ihaveashoe1",
  "x": 3431,
  "y": 2892,
  "z": 0,
  "rights": 1,
  "lastKnownUID": "1038119083568766413",
  "cluesCompleted": [
    0,
    0,
    0,
    0
  ],
  "yellTitle": "Member",
  "unlockedTitles": [],
  "banned": false,
  "banLength": 0,
  "moneyPouch": 0,
  "jailLength": 0,
  "shopCollection": 0,
  "lastClanChat": "help",
  "muted": false,
  "isMember": true,
  "isDicer": false,
  "isIron": false,
  "isHard": false,
  "isUltimateIron": false,
  "jailed": false,
  "muteLength": 0,
  "fightCavesWave": 0,
  "magicBook": 29999,
  "prayerBook": 5608,
  "retaliate": true,
  "expLock": false,
  "gwkc": [
    0,
    0,
    0,
    0
  ],
  "poisoned": false,
  "poisonDmg": 0,
  "slayerAmount": 0,
  "slayerDifficulty": "BOSS",
  "skillsLevel": [
    99,
    99,
    99,
    99,
    99,
    99,
    99,
    99,
    99,
    99,
    99,
    99,
    99,
    99,
    99,
    99,
    99,
    99,
    99,
    99,
    99,
    1,
    99,
    1,
    1
  ],
  "experience": [
    9.359599999999954E7,
    5.8195200000000186E7,
    1.3082160000000021E8,
    2.0E8,
    2.0E8,
    9.9838705E7,
    1.5445678399999954E7,
    2.1677516E7,
    1.61453125E7,
    1.7740168E7,
    2.0E8,
    1.8001916E7,
    8.80977475E7,
    1.3231475E7,
    1.585725E7,
    1.3075895E7,
    2.0E8,
    2.0E8,
    2.0E8,
    1.32649895E7,
    1.6917255E7,
    0.0,
    2.0533136E7,
    0.0,
    0.0
  ],
  "gender": 0,
  "appearance": [
    0,
    18,
    26,
    33,
    36,
    42,
    10
  ],
  "colours": [
    11,
    15,
    15,
    5,
    7
  ],
  "left": 0,
  "skullIcon": -1,
  "bright": 4,
  "multipleMouse": 0,
  "chatEffects": 0,
  "splitPrivate": 1,
  "transparentPanel": 0,
  "transparentChatbox": 0,
  "sideStones": 0,
  "acceptAid": 0,
  "pouchPayment": false,
  "friends": [
    "john",
    "organic",
    "bigboy",
    "jamian",
    "andyplays",
    "soft",
    "zulrah",
    "duracell33",
    "hunter",
    "derek123",
    "kefun",
    "goten",
    "floid",
    "derek",
    "tuckah",
    "purerangsaw",
    "white",
    "lol omg",
    "dabs",
    "nick",
    "the bros 2",
    "mark donalds",
    "dalby",
    "nightraptor",
    "inflexion",
    "bruce lee",
    "sluge",
    "meradj10",
    "martin",
    "stefanos",
    "ext zerker",
    "maxim",
    "wolly bean",
    "xenofied",
    "joshua",
    "bedd",
    "dbz",
    "george",
    "boats",
    "defence pro2",
    "facebook",
    "ushio",
    "i need claws",
    "defence pro1",
    "james bond",
    "iron sound",
    "deadkid",
    "trapper",
    "jamo",
    "i g0dz i",
    "hard",
    "fe autumn",
    "omerata",
    "bar",
    "staines",
    "kangaroo",
    "fubu",
    "matt",
    "juggs",
    "lit",
    "ur bad kid",
    "rush3du",
    "beyblades",
    "ads",
    "not hyped",
    "stef",
    "slip",
    "jake",
    "tor",
    "1",
    "logan",
    "lemon",
    "trustrup",
    "ehhhzylo",
    "jake xd",
    "diehappy",
    "faze rug",
    "luuckie",
    "1earn2fear",
    "prenti",
    "jermaine",
    "stormzy",
    "edin",
    "trihard",
    "libervm",
    "pantera1",
    "child sex",
    "xhax",
    "kittyhello",
    "dark asylum",
    "views",
    "d4rk k0",
    "inthatbox",
    "unknown",
    "uim"
  ],
  "ignores": [],
  "yearCreated": 2016,
  "dayCreated": 205,
  "recoilStage": -1,
  "spec": 100,
  "attackStyle": "AGGRESSIVE",
  "attackType": "CRUSH",
  "energy": 100.0,
  "lastLoginDay": 248,
  "lastLoginYear": 0,
  "host": "211-28-153-4.brodm3.vic.optusnet.com.au/211.28.153.4",
  "votePoints": 5,
  "degrading": [
    null,
    null,
    null,
    null,
    null,
    null,
    null,
    null,
    null,
    null,
    null,
    null,
    null,
    null,
    null,
    null,
    null,
    null,
    null,
    null,
    null,
    null,
    null,
    null,
    null,
    null,
    null,
    null,
    null,
    null,
    null,
    null,
    null,
    null,
    null,
    null,
    null,
    null,
    null,
    null,
    null,
    null,
    null,
    null,
    null,
    null,
    null,
    null,
    null,
    null
  ],
  "dragonFireShieldCharges": 50,
  "slayerPoints": 70,
  "musicVolume": 3,
  "soundVolume": 3,
  "savedArrows": [
    null,
    null,
    null,
    null,
    null,
    null,
    null,
    null,
    null,
    null,
    null,
    null,
    null,
    null,
    null,
    null,
    null,
    null,
    null,
    null,
    null,
    null,
    null,
    null,
    null,
    null,
    null,
    null,
    null,
    null,
    null,
    null,
    null,
    null,
    null,
    null,
    null,
    null,
    null,
    null
  ],
  "wantsTrivia": true,
  "triviaNotification": false,
  "deaths": 0,
  "kills": 0,
  "warPoints": 0,
  "rogueKills": 0,
  "rogueRecord": 0,
  "hunterKills": 0,
  "hunterRecord": 0,
  "credits": 326630,
  "moneySpent": 8185,
  "bountyPoints": 1150000,
  "lastLike": 0,
  "likesGiven": 0,
  "likes": 0,
  "dislikes": 0,
  "profileViews": 0,
  "fullName": "",
  "IP": "",
  "emailAddress": "",
  "recovery": "",
  "pins": "4404",
  "running": false,
  "logPackets": false,
  "weaponPoints": 0,
  "summoningTime": -1,
  "summoningSpecialAmount": 60,
  "summoningFamiliar": -1,
  "summoningAttack": false,
  "pestPoints": 20,
  "triviaPoints": 0,
  "abyssalPoints": 2325,
  "teleblockTime": 0,
  "blackMarks": 0,
  "rareDropEP": 6.481149999999999,
  "rareDropsReceived": -37,
  "skillGoals": [
    [
      0,
      0,
      0
    ],
    [
      0,
      0,
      0
    ],
    [
      0,
      0,
      0
    ],
    [
      0,
      0,
      0
    ],
    [
      0,
      0,
      0
    ],
    [
      0,
      0,
      0
    ],
    [
      0,
      0,
      0
    ],
    [
      0,
      0,
      0
    ],
    [
      0,
      0,
      0
    ],
    [
      0,
      0,
      0
    ],
    [
      0,
      0,
      0
    ],
    [
      0,
      0,
      0
    ],
    [
      0,
      0,
      0
    ],
    [
      0,
      0,
      0
    ],
    [
      0,
      0,
      0
    ],
    [
      0,
      0,
      0
    ],
    [
      0,
      0,
      0
    ],
    [
      0,
      0,
      0
    ],
    [
      0,
      0,
      0
    ],
    [
      0,
      0,
      0
    ],
    [
      0,
      0,
      0
    ],
    [
      0,
      0,
      0
    ],
    [
      0,
      0,
      0
    ],
    [
      0,
      0,
      0
    ],
    [
      0,
      0,
      0
    ],
    [
      0,
      0,
      0
    ]
  ],
  "lastKilledPlayers": [],
  "playerAchievements": {
    "DIE_10_TIME": 10,
    "STRING_50_AMULETS": 0,
    "KILL_250_SKELETAL_WYVERNS": 122,
    "SHEAR_150_SHEEPS": 15,
    "CATCH_100_IMPLINGS": 100,
    "HIGH_ALCH_250_ITEMS": 239,
    "BURN_200_LOGS": 200,
    "BURY_150_BONES": 134,
    "CATCH_25_IMPLINGS": 25,
    "COMPLETE_100_SLAYER_TASKS": 22,
    "OPEN_5_MBOX": 5,
    "KILL_15_PLAYER": 0,
    "DRINK_100_POTIONS": 100,
    "OBTAIN_10_FIRECAPES": 1,
    "CHOP_DOWN_350_TREES": 350,
    "ANSWER_30_TRIVIABOTS_CORRECTLY": 30,
    "KILL_100_ZULRAHS": 100,
    "VIEW_TABLE": 1,
    "KILL_150_KRAKENS": 7,
    "FAIL_15_TIMES_THIEVING_STALLS": 0,
    "CHOP_DOWN_150_TREES": 150,
    "SPEND_5000000_ON_SHOPS": 1148090584,
    "COMPLETE_10_SLAYER_TASKS": 10,
    "KILL_KING_BLACK_DRAGON": 50,
    "OBTAIN_25_FIRECAPES": 0,
    "OPEN_25_MBOX": 25,
    "LOOT_1_BARROWS_CHESTS": 0,
    "DIE_50_TIME": 50,
    "EARN_100_PEST_CONTROL_POINTS": 0,
    "COMPLETE_100_BARB_COURSES": 0,
    "SPEND_100000000_ON_SHOPS": 1148090584,
    "KILL_75_COWS": 19,
    "KILL_100_CALLISTO": 19,
    "DO_A_SKILLCAPE_EMOTE": 0,
    "ENCHANT_500_BOLTS": 1,
    "COMPLETE_50_GNOME_COURSES": 10,
    "KILL_10_MITH": 0,
    "DIE_1_TIME": 1,
    "ANSWER_15_TRIVIABOTS_CORRECTLY": 15,
    "KILL_100_CYCLOPS": 0,
    "OBTAIN_10_RARE_DROPS": 1,
    "VISIT_DZ": 1,
    "CRAFT_1000_NATURE_RUNES": 850,
    "EQUIP_DRAGON_CLAWS": 1,
    "VOTE_5_TIMES": 5,
    "KILL_50_PLAYER": 0,
    "EARN_500_PEST_CONTROL_POINTS": 0,
    "OBTAIN_3_BOSS_PET": 1,
    "OBTAIN_1_BOSS_PET": 1,
    "THIEVE_100_TIMES_FROM_STALLS": 100,
    "KILL_1_GORILLA": 1,
    "COOK_250_FOODS": 250,
    "USE_THE_SUPER_HEATING_SPELL_25_TIMES": 0,
    "KILL_ROCK_CRABS": 100,
    "OPEN_10_CASKET": 10,
    "RESET_1_STATISTICS": 0,
    "LOOT_25_BARROWS_CHESTS": 0,
    "EAT_100_FOODS": 100,
    "BURY_500_BONES": 134,
    "OPEN_50_CRYSTAL_CHESTS": 50,
    "WIN_30_PEST_CONTROL_GAMES": 0,
    "MINE_500_ROCKS": 500,
    "SETUP_A_BANK_PIN": 1,
    "EXCHANGE_500_ITEMS_PILES": 0,
    "KILL_1_PLAYER": 1,
    "OPEN_15_ITEM_SETS": 15,
    "CHANGE_APPEARANCE": 1,
    "KILL_25_KRAKENS": 7,
    "BURN_500_LOGS": 500,
    "CAST_VENGEANCE_350_TIMES": 61,
    "CUT_250_GEMS": 250,
    "COOK_500_FOODS": 500,
    "SHEAR_10_SHEEPS": 10
  },
  "achievementsPoints": 34,
  "unlockedCredits": [],
  "quickPrayers": [
    false,
    false,
    false,
    false,
    false,
    false,
    false,
    false,
    false,
    false,
    false,
    false,
    false,
    false,
    false,
    false,
    false,
    false,
    true,
    false,
    false,
    false,
    false,
    false,
    false,
    true
  ],
  "LastLoginYear": 0,
  "LastLoginMonth": 0,
  "LastLoginDate": 0,
  "LoginStreak": 0,
  "playerProperties": {
    "PROPERTY_MOB_GIANT_MOLE": 142.0,
    "PROPERTY_MOB_KREE\u0027ARRA": 12.0,
    "PROPERTY_MOB_SEA_TROLL_QUEEN": 1.0,
    "PROPERTY_MOB_TZTOK-JAD": 1.0,
    "PROPERTY_MOB_ABYSSAL_DEMON": 89.0,
    "PROPERTY_MOB_ZULRAH": 301.0,
    "PROPERTY_MOB_COMMANDER_ZILYANA": 8.0,
    "PROPERTY_MOB_DAGANNOTH_SUPREME": 0.0,
    "PROPERTY_MOB_CRAZY_ARCHAEOLOGIST": 0.0,
    "PROPERTY_MOB_KING_BLACK_DRAGON": 58.0,
    "PROPERTY_MOB_CHAOS_ELEMENTAL": 19.0,
    "PROPERTY_MOB_DARK_BEAST": 0.0,
    "PROPERTY_MOB_DAGANNOTH_REX": 0.0,
    "PROPERTY_MOB_CORPOREAL_BEAST": 14.0,
    "PROPERTY_MOB_K\u0027RIL_TSUTSAROTH": 0.0,
    "PROPERTY_MOB_VENENATIS": 0.0,
    "PROPERTY_MOB_CALLISTO": 19.0,
    "PROPERTY_MOB_VET\u0027ION_REBORN": 0.0,
    "PROPERTY_MOB_GENERAL_GRAARDOR": 35.0,
    "PROPERTY_MOB_DAGANNOTH_PRIME": 0.0,
    "PROPERTY_MOB_ANCIENT_GORILLA": 29.0,
    "PROPERTY_MOB_NECHRYAEL": 0.0,
    "PROPERTY_MOB_KRAKEN": 7.0,
    "PROPERTY_MOB_SCORPIA": 0.0,
    "PROPERTY_MOB_CHAOS_FANATIC": 0.0,
    "PROPERTY_BARROWS_BARROWS_CHESTS": 2.0,
    "PROPERTY_MOB_BARRELCHEST": 0.0
  },
  "expCounter": 4.299E8,
  "prestigePoints": 0,
  "prestiges": [
    0,
    0,
    0,
    0,
    0,
    0,
    0,
    0,
    0,
    0,
    0,
    0,
    0,
    0,
    0,
    0,
    0,
    0,
    0,
    0,
    0,
    0,
    0,
    0,
    0
  ],
  "blowpipe": {
    "blowpipeAmmo": {
      "id": 11230,
      "amount": 48144
    },
    "blowpipeCharge": 47817
  },
  "seasTrident": {
    "tridentCharge": 0
  },
  "swampTrident": {
    "tridentCharge": 2436
  },
  "serpentineHelmet": {
    "charges": 1
  }
}