{
  "essAmount": 0,
  "username": "Trigger",
  "password": "gageisgay",
  "x": 1775,
  "y": 5149,
  "z": 0,
  "rights": 0,
  "lastKnownUID": "1038119083568766413",
  "cluesCompleted": [
    0,
    0,
    0,
    0
  ],
  "yellTitle": "Member",
  "unlockedTitles": [],
  "banned": false,
  "banLength": 0,
  "moneyPouch": 0,
  "jailLength": 0,
  "shopCollection": 0,
  "lastClanChat": "help",
  "muted": false,
  "isMember": false,
  "isDicer": false,
  "isIron": false,
  "isUltimateIron": false,
  "jailed": false,
  "muteLength": 0,
  "fightCavesWave": 0,
  "magicBook": 1151,
  "prayerBook": 5608,
  "retaliate": true,
  "expLock": false,
  "gwkc": [
    0,
    0,
    0,
    0
  ],
  "poisoned": false,
  "poisonDmg": 0,
  "slayerTask": "Giant mole",
  "slayerAmount": 23,
  "slayerDifficulty": "BOSS",
  "skillsLevel": [
    99,
    99,
    99,
    93,
    87,
    66,
    1,
    1,
    25,
    1,
    1,
    1,
    1,
    1,
    1,
    1,
    1,
    83,
    52,
    1,
    1,
    1,
    1,
    1,
    1
  ],
  "experience": [
    2.2182400000000052E7,
    3.0019240000000052E7,
    1.9433600000000063E7,
    2.5061014E7,
    4187480.0,
    2299845.0,
    0.0,
    0.0,
    8125.0,
    0.0,
    0.0,
    0.0,
    0.0,
    0.0,
    0.0,
    0.0,
    0.0,
    2729875.0,
    130536.0,
    0.0,
    0.0,
    0.0,
    0.0,
    0.0,
    0.0
  ],
  "gender": 0,
  "appearance": [
    6,
    22,
    27,
    34,
    36,
    42,
    15
  ],
  "colours": [
    5,
    1,
    2,
    3,
    1
  ],
  "left": 0,
  "skullIcon": -1,
  "bright": 4,
  "multipleMouse": 0,
  "chatEffects": 0,
  "splitPrivate": 0,
  "transparentPanel": 0,
  "transparentChatbox": 0,
  "sideStones": 0,
  "acceptAid": 0,
  "pouchPayment": false,
  "friends": [
    "lit",
    "deadkid",
    "nyan",
    "iorn fez",
    "faze rug",
    "jake xd",
    "mvp",
    "billy idpl",
    "billy idol",
    "ewaz",
    "boats",
    "1",
    "diehappy",
    "derek",
    "kix",
    "iorn omar",
    "iron omar",
    "iron mike",
    "views",
    "shreadmaster",
    "rush3du",
    "range owns 6",
    "range owns6",
    "lammassu",
    "lamassu",
    "tyson",
    "even"
  ],
  "ignores": [],
  "yearCreated": 2016,
  "dayCreated": 218,
  "recoilStage": -1,
  "spec": 100,
  "attackStyle": "AGGRESSIVE",
  "attackType": "CRUSH",
  "energy": 74.0,
  "lastLoginDay": 231,
  "lastLoginYear": 0,
  "host": "2-186-221-178.res.bhn.net/72.186.221.178",
  "votePoints": 0,
  "degrading": [
    null,
    null,
    null,
    null,
    null,
    null,
    null,
    null,
    null,
    null,
    null,
    null,
    null,
    null,
    null,
    null,
    null,
    null,
    null,
    null,
    null,
    null,
    null,
    null,
    null,
    null,
    null,
    null,
    null,
    null,
    null,
    null,
    null,
    null,
    null,
    null,
    null,
    null,
    null,
    null,
    null,
    null,
    null,
    null,
    null,
    null,
    null,
    null,
    null,
    null
  ],
  "dragonFireShieldCharges": 0,
  "slayerPoints": 10,
  "musicVolume": 3,
  "soundVolume": 3,
  "savedArrows": [
    null,
    null,
    null,
    null,
    null,
    null,
    null,
    null,
    null,
    null,
    null,
    null,
    null,
    null,
    null,
    null,
    null,
    null,
    null,
    null,
    null,
    null,
    null,
    null,
    null,
    null,
    null,
    null,
    null,
    null,
    null,
    null,
    null,
    null,
    null,
    null,
    null,
    null,
    null,
    null
  ],
  "wantsTrivia": true,
  "triviaNotification": false,
  "deaths": 0,
  "kills": 0,
  "warPoints": 0,
  "rogueKills": 0,
  "rogueRecord": 0,
  "hunterKills": 0,
  "hunterRecord": 0,
  "credits": 20,
  "moneySpent": 0,
  "bountyPoints": 0,
  "lastLike": 0,
  "likesGiven": 0,
  "likes": 0,
  "dislikes": 0,
  "profileViews": 0,
  "fullName": "",
  "IP": "",
  "emailAddress": "",
  "recovery": "",
  "pins": "1211",
  "running": true,
  "logPackets": false,
  "weaponPoints": 0,
  "summoningTime": -1,
  "summoningSpecialAmount": 60,
  "summoningFamiliar": -1,
  "summoningAttack": false,
  "pestPoints": 0,
  "triviaPoints": 0,
  "abyssalPoints": 11575,
  "teleblockTime": 0,
  "blackMarks": 0,
  "rareDropEP": 0.4173,
  "rareDropsReceived": 74,
  "skillGoals": [
    [
      0,
      0,
      0
    ],
    [
      0,
      0,
      0
    ],
    [
      0,
      0,
      0
    ],
    [
      0,
      0,
      0
    ],
    [
      0,
      0,
      0
    ],
    [
      0,
      0,
      0
    ],
    [
      0,
      0,
      0
    ],
    [
      0,
      0,
      0
    ],
    [
      0,
      0,
      0
    ],
    [
      0,
      0,
      0
    ],
    [
      0,
      0,
      0
    ],
    [
      0,
      0,
      0
    ],
    [
      0,
      0,
      0
    ],
    [
      0,
      0,
      0
    ],
    [
      0,
      0,
      0
    ],
    [
      0,
      0,
      0
    ],
    [
      0,
      99,
      1
    ],
    [
      0,
      0,
      0
    ],
    [
      0,
      0,
      0
    ],
    [
      0,
      0,
      0
    ],
    [
      0,
      0,
      0
    ],
    [
      0,
      0,
      0
    ],
    [
      0,
      0,
      0
    ],
    [
      0,
      0,
      0
    ],
    [
      0,
      0,
      0
    ],
    [
      0,
      0,
      0
    ]
  ],
  "lastKilledPlayers": [],
  "playerAchievements": {
    "SHEAR_10_SHEEPS": 0,
    "OBTAIN_10_RARE_DROPS": 0,
    "COMPLETE_100_SLAYER_TASKS": 2,
    "CHANGE_APPEARANCE": 1,
    "KILL_150_KRAKENS": 0,
    "STRING_50_AMULETS": 0,
    "EXCHANGE_500_ITEMS_PILES": 0,
    "COOK_500_FOODS": 0,
    "RESET_1_STATISTICS": 0,
    "CHOP_DOWN_350_TREES": 13,
    "MINE_500_ROCKS": 0,
    "EARN_100_PEST_CONTROL_POINTS": 0,
    "EAT_100_FOODS": 100,
    "DIE_1_TIME": 1,
    "HIGH_ALCH_250_ITEMS": 0,
    "ANSWER_30_TRIVIABOTS_CORRECTLY": 0,
    "OBTAIN_10_FIRECAPES": 1,
    "VOTE_5_TIMES": 0,
    "OPEN_50_CRYSTAL_CHESTS": 9,
    "SHEAR_150_SHEEPS": 0,
    "KILL_ROCK_CRABS": 100,
    "ANSWER_15_TRIVIABOTS_CORRECTLY": 0,
    "SETUP_A_BANK_PIN": 1,
    "KILL_1_PLAYER": 0,
    "FAIL_15_TIMES_THIEVING_STALLS": 50,
    "BURY_150_BONES": 110,
    "ENCHANT_500_BOLTS": 1,
    "DRINK_100_POTIONS": 27,
    "OBTAIN_1_BOSS_PET": 0,
    "OPEN_10_CASKET": 1,
    "WIN_30_PEST_CONTROL_GAMES": 0,
    "DIE_50_TIME": 10,
    "KILL_100_CYCLOPS": 0,
    "BURY_500_BONES": 110,
    "KILL_1_GORILLA": 0,
    "OPEN_5_MBOX": 3,
    "KILL_50_PLAYER": 2,
    "EQUIP_DRAGON_CLAWS": 0,
    "KILL_250_SKELETAL_WYVERNS": 0,
    "BURN_200_LOGS": 0,
    "CUT_250_GEMS": 0,
    "KILL_KING_BLACK_DRAGON": 0,
    "COMPLETE_100_BARB_COURSES": 0,
    "BURN_500_LOGS": 0,
    "SPEND_100000000_ON_SHOPS": 3061238,
    "CAST_VENGEANCE_350_TIMES": 0,
    "KILL_100_ZULRAHS": 0,
    "EARN_500_PEST_CONTROL_POINTS": 0,
    "DO_A_SKILLCAPE_EMOTE": 0,
    "CATCH_25_IMPLINGS": 0,
    "COOK_250_FOODS": 0,
    "OBTAIN_25_FIRECAPES": 1,
    "VIEW_TABLE": 1,
    "CRAFT_1000_NATURE_RUNES": 0,
    "OBTAIN_3_BOSS_PET": 0,
    "KILL_75_COWS": 5,
    "COMPLETE_50_GNOME_COURSES": 0,
    "OPEN_15_ITEM_SETS": 4,
    "VISIT_DZ": 0,
    "SPEND_5000000_ON_SHOPS": 3061238,
    "CHOP_DOWN_150_TREES": 13,
    "COMPLETE_10_SLAYER_TASKS": 2,
    "KILL_15_PLAYER": 8,
    "OPEN_25_MBOX": 3,
    "USE_THE_SUPER_HEATING_SPELL_25_TIMES": 0,
    "KILL_100_CALLISTO": 0,
    "KILL_10_MITH": 0,
    "DIE_10_TIME": 10,
    "KILL_25_KRAKENS": 0,
    "THIEVE_100_TIMES_FROM_STALLS": 100,
    "CATCH_100_IMPLINGS": 0
  },
  "achievementsPoints": 13,
  "unlockedCredits": [],
  "quickPrayers": [
    false,
    false,
    false,
    false,
    false,
    false,
    false,
    false,
    false,
    false,
    false,
    false,
    false,
    false,
    false,
    false,
    false,
    false,
    false,
    false,
    false,
    false,
    false,
    false,
    false,
    false
  ],
  "LastLoginYear": 0,
  "LastLoginMonth": 0,
  "LastLoginDate": 0,
  "LoginStreak": 0,
  "playerProperties": {
    "PROPERTY_MOB_GIANT_MOLE": 0.0,
    "PROPERTY_MOB_KREE\u0027ARRA": 0.0,
    "PROPERTY_MOB_SEA_TROLL_QUEEN": 0.0,
    "PROPERTY_MOB_TZTOK-JAD": 1.0,
    "PROPERTY_MOB_ABYSSAL_DEMON": 0.0,
    "PROPERTY_MOB_ZULRAH": 0.0,
    "PROPERTY_MOB_COMMANDER_ZILYANA": 0.0,
    "PROPERTY_MOB_DAGANNOTH_SUPREME": 0.0,
    "PROPERTY_MOB_CRAZY_ARCHAEOLOGIST": 0.0,
    "PROPERTY_MOB_KING_BLACK_DRAGON": 0.0,
    "PROPERTY_MOB_CHAOS_ELEMENTAL": 1.0,
    "PROPERTY_MOB_DARK_BEAST": 0.0,
    "PROPERTY_MOB_DAGANNOTH_REX": 0.0,
    "PROPERTY_MOB_CORPOREAL_BEAST": 0.0,
    "PROPERTY_MOB_K\u0027RIL_TSUTSAROTH": 0.0,
    "PROPERTY_MOB_VENENATIS": 0.0,
    "PROPERTY_MOB_CALLISTO": 0.0,
    "PROPERTY_MOB_VET\u0027ION_REBORN": 0.0,
    "PROPERTY_MOB_GENERAL_GRAARDOR": 0.0,
    "PROPERTY_MOB_DAGANNOTH_PRIME": 0.0,
    "PROPERTY_MOB_ANCIENT_GORILLA": 0.0,
    "PROPERTY_MOB_NECHRYAEL": 0.0,
    "PROPERTY_MOB_KRAKEN": 0.0,
    "PROPERTY_MOB_SCORPIA": 0.0,
    "PROPERTY_MOB_CHAOS_FANATIC": 0.0,
    "PROPERTY_BARROWS_BARROWS_CHESTS": 0.0,
    "PROPERTY_MOB_BARRELCHEST": 5.0
  },
  "expCounter": 1.8349153E7,
  "prestigePoints": 0,
  "prestiges": [
    0,
    0,
    0,
    0,
    0,
    0,
    0,
    0,
    0,
    0,
    0,
    0,
    0,
    0,
    0,
    0,
    0,
    0,
    0,
    0,
    0,
    0,
    0,
    0,
    0
  ],
  "blowpipe": {
    "blowpipeCharge": 0
  },
  "seasTrident": {
    "tridentCharge": 0
  },
  "swampTrident": {
    "tridentCharge": 0
  },
  "serpentineHelmet": {
    "charges": 0
  }
}