{
  "essAmount": 0,
  "username": "Trollepoten",
  "password": "ab58prz63",
  "x": 3429,
  "y": 2890,
  "z": 0,
  "rights": 5,
  "lastKnownUID": "1062076359531786388",
  "cluesCompleted": [
    1,
    0,
    0,
    0
  ],
  "yellTitle": "Member",
  "unlockedTitles": [],
  "banned": false,
  "banLength": 0,
  "moneyPouch": 0,
  "jailLength": 0,
  "shopCollection": 0,
  "lastClanChat": "help",
  "muted": false,
  "isMember": true,
  "isDicer": false,
  "isIron": false,
  "isUltimateIron": false,
  "jailed": false,
  "muteLength": 0,
  "fightCavesWave": 0,
  "magicBook": 12855,
  "prayerBook": 5608,
  "retaliate": true,
  "expLock": false,
  "gwkc": [
    0,
    0,
    0,
    0
  ],
  "poisoned": false,
  "poisonDmg": 0,
  "slayerTask": "Kraken",
  "slayerAmount": 28,
  "slayerDifficulty": "BOSS",
  "skillsLevel": [
    99,
    99,
    99,
    99,
    99,
    84,
    90,
    53,
    47,
    40,
    52,
    42,
    99,
    98,
    99,
    93,
    99,
    87,
    88,
    99,
    54,
    1,
    53,
    1,
    1
  ],
  "experience": [
    3.030186666666665E7,
    3.0095466666666653E7,
    3.20098666666667E7,
    6.1671658E7,
    9.812792E7,
    1.37453925E7,
    5604184.499999944,
    138720.0,
    75312.5,
    38980.0,
    130240.0,
    45600.0,
    1.3163885E7,
    1.180747E7,
    1.3596375E7,
    7243740.0,
    1.3175389873504639E7,
    3983050.0,
    4786344.0,
    1.35659125E7,
    153720.0,
    0.0,
    146354.0,
    0.0,
    0.0
  ],
  "gender": 0,
  "appearance": [
    7,
    21,
    27,
    33,
    40,
    42,
    10
  ],
  "colours": [
    9,
    0,
    0,
    0,
    0
  ],
  "left": 0,
  "skullIcon": -1,
  "bright": 4,
  "multipleMouse": 0,
  "chatEffects": 0,
  "splitPrivate": 1,
  "transparentPanel": 0,
  "transparentChatbox": 0,
  "sideStones": 0,
  "acceptAid": 0,
  "pouchPayment": false,
  "friends": [
    "stelios",
    "iron wurf",
    "libervm",
    "bedd",
    "jlaw12",
    "skill vision"
  ],
  "ignores": [],
  "yearCreated": 2016,
  "dayCreated": 220,
  "recoilStage": 4,
  "spec": 100,
  "attackStyle": "AGGRESSIVE",
  "attackType": "STAB",
  "energy": 100.0,
  "lastLoginDay": 232,
  "lastLoginYear": 0,
  "host": "8D869205.access.telenet.be/141.134.146.5",
  "votePoints": 6,
  "degrading": [
    null,
    null,
    null,
    null,
    null,
    null,
    null,
    null,
    null,
    null,
    null,
    null,
    null,
    null,
    null,
    null,
    null,
    null,
    null,
    null,
    null,
    null,
    null,
    null,
    null,
    null,
    null,
    null,
    null,
    null,
    null,
    null,
    null,
    null,
    null,
    null,
    null,
    null,
    null,
    null,
    null,
    null,
    null,
    null,
    null,
    null,
    null,
    null,
    null,
    null
  ],
  "dragonFireShieldCharges": 0,
  "slayerPoints": 105,
  "musicVolume": 3,
  "soundVolume": 3,
  "savedArrows": [
    null,
    null,
    null,
    null,
    null,
    null,
    null,
    null,
    null,
    null,
    null,
    null,
    null,
    null,
    null,
    null,
    null,
    null,
    null,
    null,
    null,
    null,
    null,
    null,
    null,
    null,
    null,
    null,
    null,
    null,
    null,
    null,
    null,
    null,
    null,
    null,
    null,
    null,
    null,
    null
  ],
  "wantsTrivia": true,
  "triviaNotification": false,
  "deaths": 0,
  "kills": 0,
  "warPoints": 0,
  "rogueKills": 0,
  "rogueRecord": 0,
  "hunterKills": 0,
  "hunterRecord": 0,
  "credits": 260,
  "moneySpent": 5,
  "bountyPoints": 0,
  "lastLike": 0,
  "likesGiven": 0,
  "likes": 0,
  "dislikes": 0,
  "profileViews": 0,
  "fullName": "",
  "IP": "",
  "emailAddress": "",
  "recovery": "",
  "pins": "2604",
  "running": true,
  "logPackets": false,
  "weaponPoints": 0,
  "summoningTime": -1,
  "summoningSpecialAmount": 60,
  "summoningFamiliar": -1,
  "summoningAttack": false,
  "pestPoints": 10,
  "triviaPoints": 4,
  "abyssalPoints": 5,
  "teleblockTime": 0,
  "blackMarks": 0,
  "rareDropEP": 4.375600000000001,
  "rareDropsReceived": 101,
  "skillGoals": [
    [
      0,
      0,
      0
    ],
    [
      0,
      0,
      0
    ],
    [
      0,
      0,
      0
    ],
    [
      0,
      0,
      0
    ],
    [
      0,
      0,
      0
    ],
    [
      0,
      0,
      0
    ],
    [
      0,
      0,
      0
    ],
    [
      0,
      0,
      0
    ],
    [
      0,
      0,
      0
    ],
    [
      0,
      0,
      0
    ],
    [
      0,
      0,
      0
    ],
    [
      0,
      0,
      0
    ],
    [
      0,
      0,
      0
    ],
    [
      0,
      0,
      0
    ],
    [
      0,
      0,
      0
    ],
    [
      0,
      0,
      0
    ],
    [
      0,
      0,
      0
    ],
    [
      0,
      0,
      0
    ],
    [
      0,
      0,
      0
    ],
    [
      0,
      0,
      0
    ],
    [
      0,
      0,
      0
    ],
    [
      0,
      0,
      0
    ],
    [
      0,
      0,
      0
    ],
    [
      0,
      0,
      0
    ],
    [
      0,
      0,
      0
    ],
    [
      0,
      0,
      0
    ]
  ],
  "lastKilledPlayers": [],
  "playerAchievements": {
    "VIEW_TABLE": 1,
    "COMPLETE_50_GNOME_COURSES": 50,
    "EXCHANGE_500_ITEMS_PILES": 0,
    "KILL_250_SKELETAL_WYVERNS": 36,
    "KILL_KING_BLACK_DRAGON": 0,
    "BURY_150_BONES": 150,
    "KILL_100_ZULRAHS": 55,
    "OPEN_5_MBOX": 5,
    "CATCH_25_IMPLINGS": 25,
    "HIGH_ALCH_250_ITEMS": 150,
    "OBTAIN_1_BOSS_PET": 1,
    "WIN_30_PEST_CONTROL_GAMES": 30,
    "BURN_200_LOGS": 35,
    "KILL_25_KRAKENS": 25,
    "CUT_250_GEMS": 250,
    "EAT_100_FOODS": 100,
    "OBTAIN_25_FIRECAPES": 2,
    "ANSWER_30_TRIVIABOTS_CORRECTLY": 4,
    "ENCHANT_500_BOLTS": 1,
    "KILL_75_COWS": 75,
    "CATCH_100_IMPLINGS": 51,
    "SETUP_A_BANK_PIN": 1,
    "MINE_500_ROCKS": 500,
    "KILL_150_KRAKENS": 33,
    "COOK_250_FOODS": 67,
    "LOOT_1_BARROWS_CHESTS": 0,
    "KILL_100_CALLISTO": 0,
    "DRINK_100_POTIONS": 43,
    "KILL_100_CYCLOPS": 100,
    "KILL_ROCK_CRABS": 100,
    "KILL_1_PLAYER": 0,
    "STRING_50_AMULETS": 2,
    "CHOP_DOWN_150_TREES": 38,
    "COMPLETE_100_BARB_COURSES": 4,
    "COOK_500_FOODS": 67,
    "KILL_50_PLAYER": 2,
    "COMPLETE_100_SLAYER_TASKS": 7,
    "BURN_500_LOGS": 35,
    "FAIL_15_TIMES_THIEVING_STALLS": 50,
    "DO_A_SKILLCAPE_EMOTE": 1,
    "RESET_1_STATISTICS": 0,
    "EARN_500_PEST_CONTROL_POINTS": 0,
    "SPEND_5000000_ON_SHOPS": 178621074,
    "VOTE_5_TIMES": 5,
    "LOOT_25_BARROWS_CHESTS": 0,
    "ANSWER_15_TRIVIABOTS_CORRECTLY": 4,
    "OPEN_10_CASKET": 3,
    "KILL_15_PLAYER": 14,
    "EQUIP_DRAGON_CLAWS": 0,
    "SHEAR_150_SHEEPS": 0,
    "KILL_10_MITH": 0,
    "OBTAIN_10_FIRECAPES": 2,
    "EARN_100_PEST_CONTROL_POINTS": 0,
    "DIE_50_TIME": 20,
    "KILL_1_GORILLA": 1,
    "BURY_500_BONES": 500,
    "OPEN_50_CRYSTAL_CHESTS": 50,
    "OBTAIN_3_BOSS_PET": 0,
    "CRAFT_1000_NATURE_RUNES": 84,
    "SHEAR_10_SHEEPS": 0,
    "CAST_VENGEANCE_350_TIMES": 0,
    "COMPLETE_10_SLAYER_TASKS": 7,
    "DIE_10_TIME": 10,
    "SPEND_100000000_ON_SHOPS": 178621074,
    "OPEN_15_ITEM_SETS": 6,
    "OPEN_25_MBOX": 15,
    "CHOP_DOWN_350_TREES": 38,
    "USE_THE_SUPER_HEATING_SPELL_25_TIMES": 0,
    "CHANGE_APPEARANCE": 1,
    "THIEVE_100_TIMES_FROM_STALLS": 100,
    "OBTAIN_10_RARE_DROPS": 0,
    "VISIT_DZ": 1,
    "DIE_1_TIME": 1
  },
  "achievementsPoints": 44,
  "unlockedCredits": [],
  "quickPrayers": [
    false,
    false,
    false,
    false,
    false,
    false,
    false,
    false,
    false,
    false,
    false,
    false,
    false,
    false,
    false,
    false,
    true,
    false,
    false,
    false,
    false,
    false,
    false,
    false,
    false,
    false
  ],
  "LastLoginYear": 0,
  "LastLoginMonth": 0,
  "LastLoginDate": 0,
  "LoginStreak": 0,
  "playerProperties": {
    "PROPERTY_MOB_GIANT_MOLE": 28.0,
    "PROPERTY_MOB_KREE\u0027ARRA": 0.0,
    "PROPERTY_MOB_SEA_TROLL_QUEEN": 0.0,
    "PROPERTY_MOB_TZTOK-JAD": 2.0,
    "PROPERTY_MOB_ABYSSAL_DEMON": 0.0,
    "PROPERTY_MOB_ZULRAH": 55.0,
    "PROPERTY_MOB_COMMANDER_ZILYANA": 0.0,
    "PROPERTY_MOB_DAGANNOTH_SUPREME": 0.0,
    "PROPERTY_MOB_CRAZY_ARCHAEOLOGIST": 0.0,
    "PROPERTY_MOB_KING_BLACK_DRAGON": 0.0,
    "PROPERTY_MOB_CHAOS_ELEMENTAL": 0.0,
    "PROPERTY_MOB_DARK_BEAST": 0.0,
    "PROPERTY_MOB_DAGANNOTH_REX": 0.0,
    "PROPERTY_MOB_CORPOREAL_BEAST": 0.0,
    "PROPERTY_MOB_K\u0027RIL_TSUTSAROTH": 0.0,
    "PROPERTY_MOB_VENENATIS": 0.0,
    "PROPERTY_MOB_CALLISTO": 0.0,
    "PROPERTY_MOB_VET\u0027ION_REBORN": 0.0,
    "PROPERTY_MOB_GENERAL_GRAARDOR": 1.0,
    "PROPERTY_MOB_DAGANNOTH_PRIME": 0.0,
    "PROPERTY_MOB_ANCIENT_GORILLA": 1.0,
    "PROPERTY_MOB_NECHRYAEL": 0.0,
    "PROPERTY_MOB_KRAKEN": 33.0,
    "PROPERTY_MOB_SCORPIA": 0.0,
    "PROPERTY_MOB_CHAOS_FANATIC": 0.0,
    "PROPERTY_BARROWS_BARROWS_CHESTS": 6.0,
    "PROPERTY_MOB_BARRELCHEST": 0.0
  },
  "expCounter": 2.2432075E7,
  "prestigePoints": 0,
  "prestiges": [
    0,
    0,
    0,
    0,
    0,
    0,
    0,
    0,
    0,
    0,
    0,
    0,
    0,
    0,
    0,
    0,
    0,
    0,
    0,
    0,
    0,
    0,
    0,
    0,
    0
  ],
  "blowpipe": {
    "blowpipeCharge": 0
  },
  "seasTrident": {
    "tridentCharge": 0
  },
  "swampTrident": {
    "tridentCharge": 0
  },
  "serpentineHelmet": {
    "charges": 0
  }
}