{
  "essAmount": 0,
  "username": "V3leh0",
  "password": "5956731842aA",
  "x": 3435,
  "y": 2899,
  "z": 0,
  "rights": 5,
  "lastKnownUID": "1038119083568766413",
  "cluesCompleted": [
    1,
    0,
    0,
    0
  ],
  "yellTitle": "Member",
  "unlockedTitles": [],
  "banned": false,
  "banLength": 0,
  "moneyPouch": 0,
  "jailLength": 0,
  "shopCollection": 0,
  "lastClanChat": "help",
  "muted": false,
  "isMember": true,
  "isDicer": false,
  "isIron": false,
  "isUltimateIron": false,
  "jailed": false,
  "muteLength": 0,
  "fightCavesWave": 0,
  "magicBook": 1151,
  "prayerBook": 5608,
  "retaliate": false,
  "expLock": false,
  "gwkc": [
    0,
    0,
    0,
    0
  ],
  "poisoned": false,
  "poisonDmg": 0,
  "slayerTask": "Lava dragon",
  "slayerAmount": 44,
  "slayerDifficulty": "HIGH",
  "skillsLevel": [
    99,
    99,
    99,
    64,
    99,
    94,
    99,
    55,
    39,
    38,
    55,
    24,
    92,
    1,
    1,
    1,
    69,
    87,
    96,
    1,
    80,
    1,
    51,
    1,
    1
  ],
  "experience": [
    1.3104533333333334E7,
    1.310471333333333E7,
    1.711013333333334E7,
    4.9978032E7,
    1.0204678E8,
    1.3042655E7,
    1.4533914900000006E7,
    175270.0,
    34000.0,
    30980.0,
    168960.0,
    7680.0,
    7061915.0,
    0.0,
    0.0,
    0.0,
    673099.9978065491,
    4201625.0,
    9953304.0,
    0.0,
    2039940.0,
    0.0,
    119834.0,
    0.0,
    0.0
  ],
  "gender": 0,
  "appearance": [
    2,
    21,
    27,
    33,
    39,
    42,
    11
  ],
  "colours": [
    1,
    1,
    2,
    3,
    4
  ],
  "left": 0,
  "skullIcon": -1,
  "bright": 4,
  "multipleMouse": 0,
  "chatEffects": 0,
  "splitPrivate": 1,
  "transparentPanel": 0,
  "transparentChatbox": 0,
  "sideStones": 0,
  "acceptAid": 0,
  "pouchPayment": false,
  "friends": [
    "mr barrows",
    "matt",
    "goten",
    "tor",
    "ziggy",
    "jackson",
    "bones",
    "michael",
    "derek",
    "dustin",
    "bruce lee",
    "nick",
    "nj casey"
  ],
  "ignores": [],
  "yearCreated": 2016,
  "dayCreated": 190,
  "recoilStage": -1,
  "spec": 100,
  "attackStyle": "AGGRESSIVE",
  "attackType": "CRUSH",
  "energy": 100.0,
  "lastLoginDay": 210,
  "lastLoginYear": 0,
  "host": "91.157.225.214",
  "votePoints": 0,
  "degrading": [
    null,
    null,
    null,
    null,
    null,
    null,
    null,
    null,
    null,
    null,
    null,
    null,
    null,
    null,
    null,
    null,
    null,
    null,
    null,
    null,
    null,
    null,
    null,
    null,
    null,
    null,
    null,
    null,
    null,
    null,
    null,
    null,
    null,
    null,
    null,
    null,
    null,
    null,
    null,
    null,
    null,
    null,
    null,
    null,
    null,
    null,
    null,
    null,
    null,
    null
  ],
  "dragonFireShieldCharges": 0,
  "slayerPoints": 8,
  "musicVolume": 3,
  "soundVolume": 3,
  "savedArrows": [
    null,
    null,
    null,
    null,
    null,
    null,
    null,
    null,
    null,
    null,
    null,
    null,
    null,
    null,
    null,
    null,
    null,
    null,
    null,
    null,
    null,
    null,
    null,
    null,
    null,
    null,
    null,
    null,
    null,
    null,
    null,
    null,
    null,
    null,
    null,
    null,
    null,
    null,
    null,
    null
  ],
  "wantsTrivia": true,
  "triviaNotification": false,
  "deaths": 0,
  "kills": 0,
  "rogueKills": 0,
  "rogueRecord": 0,
  "hunterKills": 0,
  "hunterRecord": 0,
  "credits": 0,
  "moneySpent": 10,
  "bountyPoints": 250000,
  "lastLike": 0,
  "likesGiven": 0,
  "likes": 0,
  "dislikes": 0,
  "profileViews": 0,
  "fullName": "",
  "IP": "",
  "emailAddress": "",
  "recovery": "",
  "pins": "5956",
  "running": true,
  "logPackets": false,
  "weaponPoints": 0,
  "summoningTime": -1,
  "summoningSpecialAmount": 60,
  "summoningFamiliar": -1,
  "summoningAttack": false,
  "pestPoints": 0,
  "triviaPoints": 0,
  "abyssalPoints": 55,
  "teleblockTime": 0,
  "blackMarks": 0,
  "rareDropEP": 0.12000000000000004,
  "rareDropsReceived": 54,
  "skillGoals": [
    [
      0,
      0,
      0
    ],
    [
      0,
      0,
      0
    ],
    [
      0,
      0,
      0
    ],
    [
      0,
      0,
      0
    ],
    [
      0,
      0,
      0
    ],
    [
      0,
      0,
      0
    ],
    [
      0,
      0,
      0
    ],
    [
      0,
      0,
      0
    ],
    [
      0,
      0,
      0
    ],
    [
      0,
      0,
      0
    ],
    [
      0,
      0,
      0
    ],
    [
      0,
      0,
      0
    ],
    [
      0,
      0,
      0
    ],
    [
      0,
      0,
      0
    ],
    [
      0,
      0,
      0
    ],
    [
      0,
      0,
      0
    ],
    [
      0,
      0,
      0
    ],
    [
      0,
      0,
      0
    ],
    [
      0,
      0,
      0
    ],
    [
      0,
      0,
      0
    ],
    [
      0,
      0,
      0
    ],
    [
      0,
      0,
      0
    ],
    [
      0,
      0,
      0
    ],
    [
      0,
      0,
      0
    ],
    [
      0,
      0,
      0
    ],
    [
      0,
      0,
      0
    ]
  ],
  "lastKilledPlayers": [],
  "playerAchievements": {
    "VOTE_5_TIMES": 2,
    "KILL_100_CYCLOPS": 0,
    "KILL_15_PLAYER": 0,
    "HIGH_ALCH_250_ITEMS": 8,
    "KILL_250_SKELETAL_WYVERNS": 0,
    "VIEW_TABLE": 1,
    "KILL_50_PLAYER": 0,
    "KILL_1_PLAYER": 0,
    "CATCH_100_IMPLINGS": 47,
    "DIE_1_TIME": 1,
    "BURN_500_LOGS": 8,
    "CATCH_25_IMPLINGS": 25,
    "KILL_25_KRAKENS": 0,
    "CAST_VENGEANCE_350_TIMES": 0,
    "EXCHANGE_500_ITEMS_PILES": 0,
    "DO_A_SKILLCAPE_EMOTE": 0,
    "DIE_50_TIME": 13,
    "KILL_KING_BLACK_DRAGON": 0,
    "EQUIP_DRAGON_CLAWS": 0,
    "SHEAR_10_SHEEPS": 0,
    "SPEND_5000000_ON_SHOPS": 78595183,
    "OBTAIN_10_FIRECAPES": 1,
    "CHANGE_APPEARANCE": 1,
    "OPEN_25_MBOX": 1,
    "COMPLETE_100_SLAYER_TASKS": 11,
    "KILL_10_MITH": 0,
    "BURY_150_BONES": 37,
    "OBTAIN_10_RARE_DROPS": 1,
    "SETUP_A_BANK_PIN": 1,
    "KILL_100_ZULRAHS": 100,
    "EARN_500_PEST_CONTROL_POINTS": 30,
    "KILL_150_KRAKENS": 0,
    "OBTAIN_25_FIRECAPES": 1,
    "VISIT_DZ": 1,
    "BURY_500_BONES": 37,
    "CUT_250_GEMS": 250,
    "CHOP_DOWN_350_TREES": 33,
    "CRAFT_1000_NATURE_RUNES": 402,
    "THIEVE_100_TIMES_FROM_STALLS": 0,
    "WIN_30_PEST_CONTROL_GAMES": 3,
    "OPEN_10_CASKET": 7,
    "COOK_250_FOODS": 143,
    "SPEND_100000000_ON_SHOPS": 78595183,
    "DRINK_100_POTIONS": 100,
    "MINE_500_ROCKS": 0,
    "SHEAR_150_SHEEPS": 0,
    "OBTAIN_3_BOSS_PET": 0,
    "COMPLETE_100_BARB_COURSES": 15,
    "USE_THE_SUPER_HEATING_SPELL_25_TIMES": 0,
    "ANSWER_15_TRIVIABOTS_CORRECTLY": 0,
    "ANSWER_30_TRIVIABOTS_CORRECTLY": 0,
    "COMPLETE_50_GNOME_COURSES": 35,
    "EARN_100_PEST_CONTROL_POINTS": 30,
    "KILL_ROCK_CRABS": 100,
    "KILL_75_COWS": 75,
    "EAT_100_FOODS": 100,
    "COMPLETE_10_SLAYER_TASKS": 10,
    "KILL_1_GORILLA": 0,
    "OBTAIN_1_BOSS_PET": 0,
    "BURN_200_LOGS": 8,
    "DIE_10_TIME": 10,
    "OPEN_50_CRYSTAL_CHESTS": 50,
    "RESET_1_STATISTICS": 0,
    "FAIL_15_TIMES_THIEVING_STALLS": 0,
    "STRING_50_AMULETS": 0,
    "OPEN_5_MBOX": 1,
    "ENCHANT_500_BOLTS": 0,
    "COOK_500_FOODS": 143,
    "CHOP_DOWN_150_TREES": 33,
    "OPEN_15_ITEM_SETS": 0,
    "KILL_100_CALLISTO": 0
  },
  "achievementsPoints": 5,
  "unlockedCredits": [],
  "quickPrayers": [
    false,
    false,
    false,
    false,
    false,
    false,
    false,
    false,
    false,
    false,
    false,
    false,
    false,
    false,
    false,
    false,
    false,
    false,
    true,
    true,
    false,
    false,
    false,
    false,
    false,
    false
  ],
  "LastLoginYear": 0,
  "LastLoginMonth": 0,
  "LastLoginDate": 0,
  "LoginStreak": 0,
  "playerProperties": {
    "PROPERTY_MOB_GIANT_MOLE": 0.0,
    "PROPERTY_MOB_KREE\u0027ARRA": 0.0,
    "PROPERTY_MOB_SEA_TROLL_QUEEN": 1.0,
    "PROPERTY_MOB_TZTOK-JAD": 1.0,
    "PROPERTY_MOB_ABYSSAL_DEMON": 103.0,
    "PROPERTY_MOB_ZULRAH": 111.0,
    "PROPERTY_MOB_COMMANDER_ZILYANA": 0.0,
    "PROPERTY_MOB_DAGANNOTH_SUPREME": 0.0,
    "PROPERTY_MOB_CRAZY_ARCHAEOLOGIST": 0.0,
    "PROPERTY_MOB_KING_BLACK_DRAGON": 0.0,
    "PROPERTY_MOB_CHAOS_ELEMENTAL": 0.0,
    "PROPERTY_MOB_DARK_BEAST": 0.0,
    "PROPERTY_MOB_DAGANNOTH_REX": 0.0,
    "PROPERTY_MOB_CORPOREAL_BEAST": 0.0,
    "PROPERTY_MOB_K\u0027RIL_TSUTSAROTH": 0.0,
    "PROPERTY_MOB_VENENATIS": 0.0,
    "PROPERTY_MOB_CALLISTO": 0.0,
    "PROPERTY_MOB_VET\u0027ION_REBORN": 0.0,
    "PROPERTY_MOB_GENERAL_GRAARDOR": 0.0,
    "PROPERTY_MOB_DAGANNOTH_PRIME": 0.0,
    "PROPERTY_MOB_ANCIENT_GORILLA": 0.0,
    "PROPERTY_MOB_NECHRYAEL": 0.0,
    "PROPERTY_MOB_KRAKEN": 0.0,
    "PROPERTY_MOB_SCORPIA": 0.0,
    "PROPERTY_MOB_CHAOS_FANATIC": 0.0,
    "PROPERTY_BARROWS_BARROWS_CHESTS": 4.0,
    "PROPERTY_MOB_BARRELCHEST": 0.0
  },
  "expCounter": 3.2604063E7,
  "prestigePoints": 0,
  "prestiges": [
    0,
    0,
    0,
    0,
    0,
    0,
    0,
    0,
    0,
    0,
    0,
    0,
    0,
    0,
    0,
    0,
    0,
    0,
    0,
    0,
    0,
    0,
    0,
    0,
    0
  ],
  "blowpipe": {
    "blowpipeAmmo": {
      "id": 11230,
      "amount": 916
    },
    "blowpipeCharge": 1386
  },
  "seasTrident": {
    "tridentCharge": 0
  },
  "swampTrident": {
    "tridentCharge": 0
  },
  "serpentineHelmet": {
    "charges": 0
  }
}