{
  "essAmount": 0,
  "username": "Wafes",
  "password": "imarcane23",
  "x": 3427,
  "y": 2891,
  "z": 0,
  "rights": 0,
  "lastKnownUID": "119083568766413",
  "cluesCompleted": [
    0,
    1,
    1,
    0
  ],
  "yellTitle": "Member",
  "unlockedTitles": [],
  "banned": false,
  "banLength": 0,
  "moneyPouch": 0,
  "jailLength": 0,
  "shopCollection": 0,
  "lastClanChat": "help",
  "muted": false,
  "isMember": false,
  "isDicer": false,
  "isIron": false,
  "isUltimateIron": false,
  "jailed": false,
  "muteLength": 0,
  "fightCavesWave": 0,
  "magicBook": 12855,
  "prayerBook": 5608,
  "retaliate": true,
  "expLock": false,
  "gwkc": [
    0,
    0,
    0,
    0
  ],
  "poisoned": false,
  "poisonDmg": 0,
  "slayerTask": "Black demon",
  "slayerAmount": 32,
  "slayerDifficulty": "HIGH",
  "skillsLevel": [
    99,
    99,
    99,
    99,
    99,
    78,
    95,
    1,
    1,
    1,
    1,
    1,
    1,
    1,
    1,
    1,
    40,
    75,
    80,
    1,
    1,
    1,
    1,
    1,
    1
  ],
  "experience": [
    1.7859733333333343E7,
    1.8302933333333354E7,
    3.81773333333333E7,
    4.501926E7,
    5.526928E7,
    1752870.0,
    9116274.5,
    0.0,
    0.0,
    0.0,
    0.0,
    0.0,
    0.0,
    0.0,
    0.0,
    0.0,
    37600.0,
    1315500.0,
    2090112.0,
    0.0,
    0.0,
    0.0,
    0.0,
    0.0,
    0.0
  ],
  "gender": 0,
  "appearance": [
    3,
    18,
    27,
    33,
    36,
    43,
    14
  ],
  "colours": [
    3,
    1,
    2,
    3,
    1
  ],
  "left": 0,
  "skullIcon": -1,
  "bright": 4,
  "multipleMouse": 0,
  "chatEffects": 0,
  "splitPrivate": 1,
  "transparentPanel": 0,
  "transparentChatbox": 0,
  "sideStones": 0,
  "acceptAid": 0,
  "pouchPayment": false,
  "friends": [
    "jamian",
    "dustin",
    "slime",
    "iron pfraru",
    "dbz"
  ],
  "ignores": [],
  "yearCreated": 2016,
  "dayCreated": 193,
  "recoilStage": -1,
  "spec": 100,
  "attackStyle": "CONTROLLED",
  "attackType": "SLASH",
  "energy": 100.0,
  "lastLoginDay": 205,
  "lastLoginYear": 0,
  "host": "98.222.237.92",
  "votePoints": 0,
  "degrading": [
    null,
    null,
    null,
    null,
    null,
    null,
    null,
    null,
    null,
    null,
    null,
    null,
    null,
    null,
    null,
    null,
    null,
    null,
    null,
    null,
    null,
    null,
    null,
    null,
    null,
    null,
    null,
    null,
    null,
    null,
    null,
    null,
    null,
    null,
    null,
    null,
    null,
    null,
    null,
    null,
    null,
    null,
    null,
    null,
    null,
    null,
    null,
    null,
    null,
    null
  ],
  "dragonFireShieldCharges": 0,
  "slayerPoints": 45,
  "musicVolume": 3,
  "soundVolume": 3,
  "savedArrows": [
    null,
    null,
    null,
    null,
    null,
    null,
    null,
    null,
    null,
    null,
    null,
    null,
    null,
    null,
    null,
    null,
    null,
    null,
    null,
    null,
    null,
    null,
    null,
    null,
    null,
    null,
    null,
    null,
    null,
    null,
    null,
    null,
    null,
    null,
    null,
    null,
    null,
    null,
    null,
    null
  ],
  "wantsTrivia": true,
  "triviaNotification": false,
  "deaths": 0,
  "kills": 0,
  "rogueKills": 0,
  "rogueRecord": 0,
  "hunterKills": 0,
  "hunterRecord": 0,
  "credits": 0,
  "moneySpent": 0,
  "bountyPoints": 0,
  "lastLike": 0,
  "likesGiven": 0,
  "likes": 0,
  "dislikes": 0,
  "profileViews": 0,
  "fullName": "",
  "IP": "",
  "emailAddress": "",
  "recovery": "",
  "running": true,
  "logPackets": true,
  "weaponPoints": 0,
  "summoningTime": -1,
  "summoningSpecialAmount": 60,
  "summoningFamiliar": -1,
  "summoningAttack": false,
  "pestPoints": 0,
  "triviaPoints": 4,
  "abyssalPoints": 185,
  "teleblockTime": 0,
  "blackMarks": 0,
  "rareDropEP": 2.1174999999999997,
  "rareDropsReceived": 60,
  "skillGoals": [
    [
      0,
      0,
      0
    ],
    [
      0,
      0,
      0
    ],
    [
      0,
      0,
      0
    ],
    [
      0,
      0,
      0
    ],
    [
      0,
      0,
      0
    ],
    [
      0,
      0,
      0
    ],
    [
      0,
      0,
      0
    ],
    [
      0,
      0,
      0
    ],
    [
      0,
      0,
      0
    ],
    [
      0,
      0,
      0
    ],
    [
      0,
      0,
      0
    ],
    [
      0,
      0,
      0
    ],
    [
      0,
      0,
      0
    ],
    [
      0,
      0,
      0
    ],
    [
      0,
      0,
      0
    ],
    [
      0,
      0,
      0
    ],
    [
      0,
      0,
      0
    ],
    [
      0,
      0,
      0
    ],
    [
      0,
      0,
      0
    ],
    [
      0,
      0,
      0
    ],
    [
      0,
      0,
      0
    ],
    [
      0,
      0,
      0
    ],
    [
      0,
      0,
      0
    ],
    [
      0,
      0,
      0
    ],
    [
      0,
      0,
      0
    ],
    [
      0,
      0,
      0
    ]
  ],
  "lastKilledPlayers": [],
  "playerAchievements": {
    "KILL_10_MITH": 0,
    "ENCHANT_500_BOLTS": 0,
    "KILL_ROCK_CRABS": 100,
    "VIEW_TABLE": 1,
    "BURN_200_LOGS": 0,
    "EARN_100_PEST_CONTROL_POINTS": 0,
    "ANSWER_15_TRIVIABOTS_CORRECTLY": 15,
    "COOK_500_FOODS": 0,
    "OBTAIN_1_BOSS_PET": 0,
    "OPEN_25_MBOX": 2,
    "BURY_150_BONES": 150,
    "SPEND_100000000_ON_SHOPS": 37555396,
    "EARN_500_PEST_CONTROL_POINTS": 0,
    "KILL_1_PLAYER": 0,
    "COMPLETE_100_SLAYER_TASKS": 5,
    "CUT_250_GEMS": 0,
    "OPEN_10_CASKET": 2,
    "KILL_250_SKELETAL_WYVERNS": 0,
    "DO_A_SKILLCAPE_EMOTE": 0,
    "EXCHANGE_500_ITEMS_PILES": 0,
    "OPEN_15_ITEM_SETS": 0,
    "OBTAIN_3_BOSS_PET": 0,
    "COMPLETE_10_SLAYER_TASKS": 5,
    "KILL_25_KRAKENS": 0,
    "ANSWER_30_TRIVIABOTS_CORRECTLY": 30,
    "USE_THE_SUPER_HEATING_SPELL_25_TIMES": 0,
    "EAT_100_FOODS": 100,
    "CAST_VENGEANCE_350_TIMES": 0,
    "FAIL_15_TIMES_THIEVING_STALLS": 0,
    "OPEN_50_CRYSTAL_CHESTS": 15,
    "DIE_50_TIME": 2,
    "OBTAIN_10_RARE_DROPS": 1,
    "COMPLETE_50_GNOME_COURSES": 2,
    "SPEND_5000000_ON_SHOPS": 37555396,
    "KILL_75_COWS": 0,
    "THIEVE_100_TIMES_FROM_STALLS": 0,
    "COOK_250_FOODS": 0,
    "HIGH_ALCH_250_ITEMS": 0,
    "DRINK_100_POTIONS": 100,
    "CHOP_DOWN_150_TREES": 0,
    "COMPLETE_100_BARB_COURSES": 0,
    "KILL_100_ZULRAHS": 34,
    "KILL_1_GORILLA": 0,
    "OPEN_5_MBOX": 2,
    "OBTAIN_25_FIRECAPES": 0,
    "OBTAIN_10_FIRECAPES": 0,
    "CHANGE_APPEARANCE": 1,
    "WIN_30_PEST_CONTROL_GAMES": 0,
    "RESET_1_STATISTICS": 0,
    "KILL_KING_BLACK_DRAGON": 0,
    "MINE_500_ROCKS": 0,
    "KILL_100_CALLISTO": 73,
    "BURN_500_LOGS": 0,
    "KILL_50_PLAYER": 0,
    "DIE_1_TIME": 1,
    "KILL_15_PLAYER": 0,
    "BURY_500_BONES": 202,
    "KILL_100_CYCLOPS": 0,
    "KILL_150_KRAKENS": 0,
    "VISIT_DZ": 0,
    "VOTE_5_TIMES": 0,
    "DIE_10_TIME": 2,
    "CATCH_100_IMPLINGS": 0,
    "CRAFT_1000_NATURE_RUNES": 0,
    "STRING_50_AMULETS": 0,
    "SETUP_A_BANK_PIN": 0,
    "SHEAR_150_SHEEPS": 0,
    "CHOP_DOWN_350_TREES": 0,
    "EQUIP_DRAGON_CLAWS": 0,
    "SHEAR_10_SHEEPS": 0,
    "CATCH_25_IMPLINGS": 0
  },
  "achievementsPoints": 13,
  "unlockedCredits": [],
  "quickPrayers": [
    false,
    false,
    false,
    false,
    false,
    false,
    false,
    false,
    false,
    false,
    false,
    false,
    false,
    false,
    false,
    false,
    false,
    false,
    false,
    false,
    false,
    false,
    false,
    false,
    false,
    false
  ],
  "LastLoginYear": 0,
  "LastLoginMonth": 0,
  "LastLoginDate": 0,
  "LoginStreak": 0,
  "playerProperties": {
    "PROPERTY_MOB_GIANT_MOLE": 0.0,
    "PROPERTY_MOB_KREE\u0027ARRA": 1.0,
    "PROPERTY_MOB_SEA_TROLL_QUEEN": 0.0,
    "PROPERTY_MOB_TZTOK-JAD": 0.0,
    "PROPERTY_MOB_ABYSSAL_DEMON": 0.0,
    "PROPERTY_MOB_ZULRAH": 34.0,
    "PROPERTY_MOB_COMMANDER_ZILYANA": 2.0,
    "PROPERTY_MOB_DAGANNOTH_SUPREME": 0.0,
    "PROPERTY_MOB_CRAZY_ARCHAEOLOGIST": 0.0,
    "PROPERTY_MOB_KING_BLACK_DRAGON": 0.0,
    "PROPERTY_MOB_CHAOS_ELEMENTAL": 0.0,
    "PROPERTY_MOB_DARK_BEAST": 0.0,
    "PROPERTY_MOB_DAGANNOTH_REX": 0.0,
    "PROPERTY_MOB_CORPOREAL_BEAST": 0.0,
    "PROPERTY_MOB_K\u0027RIL_TSUTSAROTH": 11.0,
    "PROPERTY_MOB_VENENATIS": 0.0,
    "PROPERTY_MOB_CALLISTO": 73.0,
    "PROPERTY_MOB_VET\u0027ION_REBORN": 0.0,
    "PROPERTY_MOB_GENERAL_GRAARDOR": 0.0,
    "PROPERTY_MOB_DAGANNOTH_PRIME": 0.0,
    "PROPERTY_MOB_ANCIENT_GORILLA": 0.0,
    "PROPERTY_MOB_NECHRYAEL": 0.0,
    "PROPERTY_MOB_KRAKEN": 0.0,
    "PROPERTY_MOB_SCORPIA": 0.0,
    "PROPERTY_MOB_CHAOS_FANATIC": 0.0,
    "PROPERTY_BARROWS_BARROWS_CHESTS": 6.0,
    "PROPERTY_MOB_BARRELCHEST": 0.0
  },
  "expCounter": 9032149.0,
  "prestigePoints": 0,
  "prestiges": [
    0,
    0,
    0,
    0,
    0,
    0,
    0,
    0,
    0,
    0,
    0,
    0,
    0,
    0,
    0,
    0,
    0,
    0,
    0,
    0,
    0,
    0,
    0,
    0,
    0
  ],
  "blowpipe": {
    "blowpipeCharge": 0
  },
  "seasTrident": {
    "tridentCharge": 0
  },
  "swampTrident": {
    "tridentCharge": 0
  },
  "serpentineHelmet": {
    "charges": 0
  }
}