{
  "essAmount": 0,
  "username": "Xp over gf",
  "password": "Daniel123456",
  "x": 3435,
  "y": 2899,
  "z": 0,
  "rights": 6,
  "lastKnownUID": "1038119083568766413",
  "cluesCompleted": [
    0,
    0,
    2,
    0
  ],
  "yellTitle": "xp",
  "unlockedTitles": [],
  "banned": false,
  "banLength": 0,
  "moneyPouch": 0,
  "jailLength": 0,
  "shopCollection": 0,
  "lastClanChat": "help",
  "muted": false,
  "isMember": true,
  "isDicer": false,
  "isIron": false,
  "isUltimateIron": false,
  "jailed": false,
  "muteLength": 0,
  "fightCavesWave": 0,
  "magicBook": 1151,
  "prayerBook": 5608,
  "retaliate": true,
  "expLock": false,
  "gwkc": [
    0,
    0,
    0,
    0
  ],
  "poisoned": false,
  "poisonDmg": 0,
  "slayerTask": "Cerberus",
  "slayerAmount": 35,
  "slayerDifficulty": "BOSS",
  "skillsLevel": [
    99,
    99,
    99,
    42,
    99,
    43,
    99,
    99,
    99,
    99,
    99,
    99,
    99,
    99,
    99,
    99,
    99,
    99,
    99,
    99,
    99,
    1,
    99,
    1,
    1
  ],
  "experience": [
    6.560746666666688E7,
    4.557242666666699E7,
    4.343226666666672E7,
    2.0E8,
    2.0E8,
    1.31133325E7,
    1.5741285700000672E7,
    1.3040411E7,
    1.45051875E7,
    1.3046124E7,
    1.307232E7,
    1.3187688E7,
    1.363068E7,
    1.3090155E7,
    2.5369875E7,
    1.3139455E7,
    1.3068819866275787E7,
    1.3351875E7,
    3.310896E7,
    1.4827645E7,
    1.3058415E7,
    0.0,
    1.3597636E7,
    0.0,
    0.0
  ],
  "gender": 0,
  "appearance": [
    1,
    18,
    26,
    33,
    37,
    42,
    10
  ],
  "colours": [
    0,
    1,
    3,
    0,
    0
  ],
  "left": 0,
  "skullIcon": -1,
  "bright": 4,
  "multipleMouse": 0,
  "chatEffects": 0,
  "splitPrivate": 1,
  "transparentPanel": 0,
  "transparentChatbox": 0,
  "sideStones": 0,
  "acceptAid": 0,
  "pouchPayment": false,
  "friends": [
    "derek",
    "kangaroo",
    "soft",
    "floid",
    "bigboy",
    "zulrah",
    "goten",
    "fjtheboss 22",
    "defence pro1",
    "ushio",
    "iron vihtic",
    "ur bad kid",
    "i need claws",
    "herb"
  ],
  "ignores": [
    "rune prodz"
  ],
  "yearCreated": 2016,
  "dayCreated": 182,
  "recoilStage": -1,
  "spec": 100,
  "attackStyle": "ACCURATE",
  "attackType": "CRUSH",
  "energy": 100.0,
  "lastLoginDay": 236,
  "lastLoginYear": 0,
  "host": "101.184.170.56",
  "votePoints": 0,
  "degrading": [
    null,
    null,
    null,
    null,
    null,
    null,
    null,
    null,
    null,
    null,
    null,
    null,
    null,
    null,
    null,
    null,
    null,
    null,
    null,
    null,
    null,
    null,
    null,
    null,
    null,
    null,
    null,
    null,
    null,
    null,
    null,
    null,
    null,
    null,
    null,
    null,
    null,
    null,
    null,
    null,
    null,
    null,
    null,
    null,
    null,
    null,
    null,
    null,
    null,
    null
  ],
  "dragonFireShieldCharges": 19,
  "slayerPoints": 8,
  "musicVolume": 3,
  "soundVolume": 3,
  "savedArrows": [
    null,
    null,
    null,
    null,
    null,
    null,
    null,
    null,
    null,
    null,
    null,
    null,
    null,
    null,
    null,
    null,
    null,
    null,
    null,
    null,
    null,
    null,
    null,
    null,
    null,
    null,
    null,
    null,
    null,
    null,
    null,
    null,
    null,
    null,
    null,
    null,
    null,
    null,
    null,
    null
  ],
  "wantsTrivia": true,
  "triviaNotification": true,
  "deaths": 0,
  "kills": 0,
  "warPoints": 0,
  "rogueKills": 0,
  "rogueRecord": 0,
  "hunterKills": 0,
  "hunterRecord": 0,
  "credits": 90,
  "moneySpent": 40,
  "bountyPoints": 750000,
  "lastLike": 0,
  "likesGiven": 0,
  "likes": 0,
  "dislikes": 0,
  "profileViews": 0,
  "fullName": "",
  "IP": "",
  "emailAddress": "",
  "recovery": "",
  "running": true,
  "logPackets": true,
  "weaponPoints": 0,
  "summoningTime": -1,
  "summoningSpecialAmount": 60,
  "summoningFamiliar": -1,
  "summoningAttack": false,
  "pestPoints": 15,
  "triviaPoints": 0,
  "abyssalPoints": 2990,
  "teleblockTime": 0,
  "blackMarks": 0,
  "rareDropEP": 2.7373,
  "rareDropsReceived": -7,
  "skillGoals": [
    [
      51786133,
      200000000,
      1
    ],
    [
      0,
      0,
      0
    ],
    [
      0,
      0,
      0
    ],
    [
      0,
      0,
      0
    ],
    [
      0,
      0,
      0
    ],
    [
      4436787,
      99,
      0
    ],
    [
      0,
      0,
      0
    ],
    [
      1850110,
      99,
      0
    ],
    [
      1597812,
      99,
      0
    ],
    [
      9023784,
      99,
      0
    ],
    [
      308360,
      99,
      0
    ],
    [
      5583912,
      99,
      0
    ],
    [
      5368405,
      99,
      0
    ],
    [
      2419405,
      99,
      0
    ],
    [
      5367375,
      99,
      0
    ],
    [
      7108255,
      99,
      0
    ],
    [
      1327099,
      99,
      0
    ],
    [
      41175,
      85,
      0
    ],
    [
      0,
      0,
      0
    ],
    [
      0,
      0,
      0
    ],
    [
      5870025,
      99,
      0
    ],
    [
      0,
      0,
      0
    ],
    [
      0,
      0,
      0
    ],
    [
      0,
      0,
      0
    ],
    [
      0,
      0,
      0
    ],
    [
      0,
      0,
      0
    ]
  ],
  "lastKilledPlayers": [],
  "playerAchievements": {
    "RESET_1_STATISTICS": 0,
    "DRINK_100_POTIONS": 100,
    "WIN_30_PEST_CONTROL_GAMES": 30,
    "EARN_100_PEST_CONTROL_POINTS": 100,
    "VOTE_5_TIMES": 5,
    "SHEAR_150_SHEEPS": 0,
    "KILL_1_PLAYER": 0,
    "CAST_VENGEANCE_350_TIMES": 0,
    "SHEAR_10_SHEEPS": 0,
    "DIE_50_TIME": 44,
    "KILL_15_PLAYER": 0,
    "OBTAIN_1_BOSS_PET": 1,
    "KILL_KING_BLACK_DRAGON": 50,
    "KILL_25_KRAKENS": 19,
    "ENCHANT_500_BOLTS": 1,
    "BURN_500_LOGS": 500,
    "SETUP_A_BANK_PIN": 0,
    "KILL_75_COWS": 19,
    "KILL_ROCK_CRABS": 62,
    "EAT_100_FOODS": 100,
    "BURN_200_LOGS": 200,
    "FAIL_15_TIMES_THIEVING_STALLS": 0,
    "CATCH_25_IMPLINGS": 25,
    "OBTAIN_3_BOSS_PET": 2,
    "KILL_100_CYCLOPS": 35,
    "SPEND_5000000_ON_SHOPS": 128959016,
    "KILL_10_MITH": 0,
    "STRING_50_AMULETS": 0,
    "OPEN_25_MBOX": 25,
    "BURY_150_BONES": 100,
    "KILL_50_PLAYER": 0,
    "BURY_500_BONES": 100,
    "HIGH_ALCH_250_ITEMS": 250,
    "OBTAIN_25_FIRECAPES": 2,
    "DO_A_SKILLCAPE_EMOTE": 0,
    "VISIT_DZ": 1,
    "CUT_250_GEMS": 250,
    "CHANGE_APPEARANCE": 1,
    "SPEND_100000000_ON_SHOPS": 128959016,
    "LOOT_25_BARROWS_CHESTS": 0,
    "ANSWER_15_TRIVIABOTS_CORRECTLY": 2,
    "ANSWER_30_TRIVIABOTS_CORRECTLY": 2,
    "COOK_500_FOODS": 500,
    "COMPLETE_100_BARB_COURSES": 6,
    "COMPLETE_100_SLAYER_TASKS": 46,
    "OPEN_10_CASKET": 4,
    "THIEVE_100_TIMES_FROM_STALLS": 13,
    "OPEN_15_ITEM_SETS": 5,
    "MINE_500_ROCKS": 500,
    "KILL_100_ZULRAHS": 100,
    "COMPLETE_50_GNOME_COURSES": 2,
    "KILL_150_KRAKENS": 19,
    "EXCHANGE_500_ITEMS_PILES": 1808,
    "COMPLETE_10_SLAYER_TASKS": 10,
    "OPEN_5_MBOX": 5,
    "VIEW_TABLE": 1,
    "DIE_1_TIME": 1,
    "COOK_250_FOODS": 250,
    "OPEN_50_CRYSTAL_CHESTS": 50,
    "CRAFT_1000_NATURE_RUNES": 8099,
    "KILL_250_SKELETAL_WYVERNS": 0,
    "DIE_10_TIME": 10,
    "LOOT_1_BARROWS_CHESTS": 0,
    "CHOP_DOWN_150_TREES": 150,
    "EQUIP_DRAGON_CLAWS": 0,
    "CHOP_DOWN_350_TREES": 166,
    "KILL_100_CALLISTO": 100,
    "CATCH_100_IMPLINGS": 100,
    "USE_THE_SUPER_HEATING_SPELL_25_TIMES": 0,
    "OBTAIN_10_FIRECAPES": 4,
    "OBTAIN_10_RARE_DROPS": 0,
    "EARN_500_PEST_CONTROL_POINTS": 430,
    "KILL_1_GORILLA": 0
  },
  "achievementsPoints": 11,
  "unlockedCredits": [],
  "quickPrayers": [
    false,
    false,
    false,
    false,
    false,
    false,
    false,
    false,
    false,
    false,
    false,
    false,
    false,
    false,
    false,
    false,
    true,
    false,
    false,
    true,
    false,
    false,
    false,
    false,
    false,
    false
  ],
  "LastLoginYear": 0,
  "LastLoginMonth": 0,
  "LastLoginDate": 0,
  "LoginStreak": 0,
  "playerProperties": {
    "PROPERTY_MOB_GIANT_MOLE": 222.0,
    "PROPERTY_MOB_KREE\u0027ARRA": 1.0,
    "PROPERTY_MOB_SEA_TROLL_QUEEN": 1.0,
    "PROPERTY_MOB_TZTOK-JAD": 4.0,
    "PROPERTY_MOB_ABYSSAL_DEMON": 36.0,
    "PROPERTY_MOB_ZULRAH": 274.0,
    "PROPERTY_MOB_COMMANDER_ZILYANA": 0.0,
    "PROPERTY_MOB_DAGANNOTH_SUPREME": 0.0,
    "PROPERTY_MOB_CRAZY_ARCHAEOLOGIST": 0.0,
    "PROPERTY_MOB_KING_BLACK_DRAGON": 86.0,
    "PROPERTY_MOB_CHAOS_ELEMENTAL": 0.0,
    "PROPERTY_MOB_DARK_BEAST": 0.0,
    "PROPERTY_MOB_DAGANNOTH_REX": 0.0,
    "PROPERTY_MOB_CORPOREAL_BEAST": 0.0,
    "PROPERTY_MOB_K\u0027RIL_TSUTSAROTH": 223.0,
    "PROPERTY_MOB_VENENATIS": 0.0,
    "PROPERTY_MOB_CALLISTO": 112.0,
    "PROPERTY_MOB_VET\u0027ION_REBORN": 0.0,
    "PROPERTY_MOB_GENERAL_GRAARDOR": 0.0,
    "PROPERTY_MOB_DAGANNOTH_PRIME": 2.0,
    "PROPERTY_MOB_ANCIENT_GORILLA": 0.0,
    "PROPERTY_MOB_NECHRYAEL": 0.0,
    "PROPERTY_MOB_KRAKEN": 19.0,
    "PROPERTY_MOB_SCORPIA": 0.0,
    "PROPERTY_MOB_CHAOS_FANATIC": 145.0,
    "PROPERTY_BARROWS_BARROWS_CHESTS": 8.0,
    "PROPERTY_MOB_BARRELCHEST": 51.0
  },
  "expCounter": 1.02651516E8,
  "prestigePoints": 0,
  "prestiges": [
    0,
    0,
    0,
    0,
    0,
    0,
    0,
    0,
    0,
    0,
    0,
    0,
    0,
    0,
    0,
    0,
    0,
    0,
    0,
    0,
    0,
    0,
    0,
    0,
    0
  ],
  "blowpipe": {
    "blowpipeAmmo": {
      "id": 11230,
      "amount": 3089
    },
    "blowpipeCharge": 9777
  },
  "seasTrident": {
    "tridentCharge": 0
  },
  "swampTrident": {
    "tridentCharge": 0
  },
  "serpentineHelmet": {
    "charges": 0
  }
}