{
  "bank": [
    {
      "id": 10396,
      "amount": 1
    },
    {
      "id": 12261,
      "amount": 1
    },
    {
      "id": 12299,
      "amount": 1
    },
    {
      "id": 12201,
      "amount": 2
    },
    {
      "id": 3828,
      "amount": 3
    },
    {
      "id": 3831,
      "amount": 1
    },
    {
      "id": 12375,
      "amount": 12
    },
    {
      "id": 2645,
      "amount": 5
    },
    {
      "id": 12303,
      "amount": 3
    },
    {
      "id": 10398,
      "amount": 1
    },
    {
      "id": 3837,
      "amount": 1
    },
    {
      "id": 3835,
      "amount": 3
    },
    {
      "id": 3836,
      "amount": 3
    },
    {
      "id": 12253,
      "amount": 1
    },
    {
      "id": 2585,
      "amount": 2
    },
    {
      "id": 10414,
      "amount": 1
    },
    {
      "id": 10430,
      "amount": 2
    },
    {
      "id": 3830,
      "amount": 1
    },
    {
      "id": 12215,
      "amount": 1
    },
    {
      "id": 10456,
      "amount": 1
    },
    {
      "id": 3473,
      "amount": 1
    },
    {
      "id": 12255,
      "amount": 3
    },
    {
      "id": 10306,
      "amount": 3
    },
    {
      "id": 2635,
      "amount": 1
    },
    {
      "id": 12301,
      "amount": 2
    },
    {
      "id": 7321,
      "amount": 1
    },
    {
      "id": 10310,
      "amount": 1
    },
    {
      "id": 2647,
      "amount": 3
    },
    {
      "id": 12339,
      "amount": 1
    },
    {
      "id": 10448,
      "amount": 1
    },
    {
      "id": 2649,
      "amount": 1
    },
    {
      "id": 10460,
      "amount": 1
    },
    {
      "id": 12237,
      "amount": 1
    },
    {
      "id": 3829,
      "amount": 2
    },
    {
      "id": 2629,
      "amount": 2
    },
    {
      "id": 7338,
      "amount": 1
    },
    {
      "id": 7340,
      "amount": 2
    },
    {
      "id": 2675,
      "amount": 1
    },
    {
      "id": 2587,
      "amount": 1
    },
    {
      "id": 10312,
      "amount": 6
    },
    {
      "id": 7346,
      "amount": 1
    },
    {
      "id": 7332,
      "amount": 2
    },
    {
      "id": 7327,
      "amount": 2
    },
    {
      "id": 10308,
      "amount": 3
    },
    {
      "id": 7388,
      "amount": 1
    },
    {
      "id": 10320,
      "amount": 1
    },
    {
      "id": 10410,
      "amount": 1
    },
    {
      "id": 10284,
      "amount": 1
    },
    {
      "id": 10412,
      "amount": 1
    },
    {
      "id": 10322,
      "amount": 1
    },
    {
      "id": 2601,
      "amount": 1
    },
    {
      "id": 2593,
      "amount": 1
    },
    {
      "id": 10366,
      "amount": 1
    },
    {
      "id": 10302,
      "amount": 2
    },
    {
      "id": 2597,
      "amount": 1
    },
    {
      "id": 2589,
      "amount": 1
    },
    {
      "id": 10300,
      "amount": 1
    },
    {
      "id": 7344,
      "amount": 2
    },
    {
      "id": 7364,
      "amount": 1
    },
    {
      "id": 7946,
      "amount": 74
    },
    {
      "id": 2809,
      "amount": 1
    },
    {
      "id": 451,
      "amount": 30
    },
    {
      "id": 11665,
      "amount": 1
    },
    {
      "id": 8839,
      "amount": 1
    },
    {
      "id": 8840,
      "amount": 1
    },
    {
      "id": 4151,
      "amount": 16
    },
    {
      "id": 10828,
      "amount": 1
    },
    {
      "id": 6570,
      "amount": 1
    },
    {
      "id": 1706,
      "amount": 1
    },
    {
      "id": 9674,
      "amount": 1
    },
    {
      "id": 9676,
      "amount": 1
    },
    {
      "id": 4131,
      "amount": 1
    },
    {
      "id": 7936,
      "amount": 677
    },
    {
      "id": 2680,
      "amount": 1
    },
    {
      "id": 6529,
      "amount": 16064
    },
    {
      "id": 868,
      "amount": 179
    },
    {
      "id": 952,
      "amount": 1
    },
    {
      "id": 12954,
      "amount": 1
    },
    {
      "id": 2722,
      "amount": 4
    },
    {
      "id": 4585,
      "amount": 2
    },
    {
      "id": 995,
      "amount": 5000000
    },
    {
      "id": 3486,
      "amount": 1
    },
    {
      "id": 317,
      "amount": 100
    },
    {
      "id": 331,
      "amount": 100
    },
    {
      "id": 377,
      "amount": 100
    },
    {
      "id": 371,
      "amount": 100
    },
    {
      "id": 383,
      "amount": 100
    },
    {
      "id": 395,
      "amount": 100
    },
    {
      "id": 11934,
      "amount": 100
    },
    {
      "id": 13124,
      "amount": 1
    },
    {
      "id": 13274,
      "amount": 4
    },
    {
      "id": 13265,
      "amount": 3
    },
    {
      "id": 11995,
      "amount": 1
    },
    {
      "id": 13277,
      "amount": 17
    },
    {
      "id": 7979,
      "amount": 18
    },
    {
      "id": 2442,
      "amount": 10
    },
    {
      "id": 3140,
      "amount": 1
    },
    {
      "id": 13276,
      "amount": 4
    },
    {
      "id": 13247,
      "amount": 1
    },
    {
      "id": 4712,
      "amount": 1
    },
    {
      "id": 1095,
      "amount": 1
    },
    {
      "id": 557,
      "amount": 2
    },
    {
      "id": 1183,
      "amount": 1
    },
    {
      "id": 1357,
      "amount": 1
    },
    {
      "id": 13275,
      "amount": 1
    },
    {
      "id": 4724,
      "amount": 1
    },
    {
      "id": 9183,
      "amount": 1
    },
    {
      "id": 4087,
      "amount": 1
    },
    null,
    null,
    null,
    null,
    null,
    null,
    null,
    null,
    null,
    null,
    null,
    null,
    null,
    null,
    null,
    null,
    null,
    null,
    null,
    null,
    null,
    null,
    null,
    null,
    null,
    null,
    null,
    null,
    null,
    null,
    null,
    null,
    null,
    null,
    null,
    null,
    null,
    null,
    null,
    null,
    null,
    null,
    null,
    null,
    null,
    null,
    null,
    null,
    null,
    null,
    null,
    null,
    null,
    null,
    null,
    null,
    null,
    null,
    null,
    null,
    null,
    null,
    null,
    null,
    null,
    null,
    null,
    null,
    null,
    null,
    null,
    null,
    null,
    null,
    null,
    null,
    null,
    null,
    null,
    null,
    null,
    null,
    null,
    null,
    null,
    null,
    null,
    null,
    null,
    null,
    null,
    null,
    null,
    null,
    null,
    null,
    null,
    null,
    null,
    null,
    null,
    null,
    null,
    null,
    null,
    null,
    null,
    null,
    null,
    null,
    null,
    null,
    null,
    null,
    null,
    null,
    null,
    null,
    null,
    null,
    null,
    null,
    null,
    null,
    null,
    null,
    null,
    null,
    null,
    null,
    null,
    null,
    null,
    null,
    null,
    null,
    null,
    null,
    null,
    null,
    null,
    null,
    null,
    null,
    null,
    null,
    null,
    null,
    null,
    null,
    null,
    null,
    null,
    null,
    null,
    null,
    null,
    null,
    null,
    null,
    null,
    null,
    null,
    null,
    null,
    null,
    null,
    null,
    null,
    null,
    null,
    null,
    null,
    null,
    null,
    null,
    null,
    null,
    null,
    null,
    null,
    null,
    null,
    null,
    null,
    null,
    null,
    null,
    null,
    null,
    null,
    null,
    null,
    null,
    null,
    null,
    null,
    null,
    null,
    null,
    null,
    null,
    null,
    null,
    null,
    null,
    null,
    null,
    null,
    null,
    null,
    null,
    null,
    null,
    null,
    null,
    null,
    null,
    null,
    null,
    null,
    null,
    null,
    null,
    null,
    null,
    null,
    null,
    null,
    null,
    null,
    null,
    null,
    null,
    null,
    null,
    null,
    null,
    null,
    null,
    null,
    null
  ],
  "tabAmounts": [
    59,
    3,
    10,
    5,
    31,
    0,
    0,
    0,
    0,
    0
  ],
  "inventory": [
    null,
    null,
    null,
    null,
    null,
    null,
    null,
    null,
    null,
    null,
    null,
    null,
    null,
    null,
    null,
    null,
    null,
    null,
    null,
    null,
    null,
    null,
    null,
    null,
    null,
    null,
    null,
    null
  ],
  "equipment": [
    {
      "id": 12399,
      "amount": 1
    },
    null,
    null,
    {
      "id": 7142,
      "amount": 1
    },
    {
      "id": 10348,
      "amount": 1
    },
    {
      "id": 12817,
      "amount": 1
    },
    null,
    {
      "id": 10346,
      "amount": 1
    },
    null,
    null,
    {
      "id": 13239,
      "amount": 1
    },
    null,
    null,
    null
  ],
  "shopItems": [
    null,
    null,
    null,
    null,
    null,
    null,
    null,
    null,
    null,
    null,
    null,
    null,
    null,
    null,
    null,
    null,
    null,
    null,
    null,
    null,
    null,
    null,
    null,
    null,
    null,
    null,
    null,
    null,
    null,
    null,
    null,
    null,
    null,
    null,
    null,
    null
  ],
  "shopPrices": [
    0,
    0,
    0,
    0,
    0,
    0,
    0,
    0,
    0,
    0,
    0,
    0,
    0,
    0,
    0,
    0,
    0,
    0,
    0,
    0,
    0,
    0,
    0,
    0,
    0,
    0,
    0,
    0,
    0,
    0,
    0,
    0,
    0,
    0,
    0,
    0
  ],
  "pouches": [
    0,
    0,
    0,
    0
  ]
}