{
  "bank": [
    {
      "id": 2491,
      "amount": 21
    },
    {
      "id": 1333,
      "amount": 19
    },
    {
      "id": 12345,
      "amount": 1
    },
    {
      "id": 1319,
      "amount": 12
    },
    {
      "id": 1357,
      "amount": 5
    },
    {
      "id": 7348,
      "amount": 7
    },
    {
      "id": 2657,
      "amount": 9
    },
    {
      "id": 2653,
      "amount": 9
    },
    {
      "id": 1359,
      "amount": 19
    },
    {
      "id": 1201,
      "amount": 17
    },
    {
      "id": 1373,
      "amount": 23
    },
    {
      "id": 1127,
      "amount": 18
    },
    {
      "id": 1347,
      "amount": 19
    },
    {
      "id": 555,
      "amount": 122
    },
    {
      "id": 2667,
      "amount": 6
    },
    {
      "id": 2673,
      "amount": 8
    },
    {
      "id": 1185,
      "amount": 20
    },
    {
      "id": 849,
      "amount": 1
    },
    {
      "id": 12307,
      "amount": 4
    },
    {
      "id": 1432,
      "amount": 21
    },
    {
      "id": 2659,
      "amount": 7
    },
    {
      "id": 10474,
      "amount": 3
    },
    {
      "id": 1079,
      "amount": 17
    },
    {
      "id": 10370,
      "amount": 4
    },
    {
      "id": 859,
      "amount": 13
    },
    {
      "id": 2649,
      "amount": 3
    },
    {
      "id": 1393,
      "amount": 9
    },
    {
      "id": 10382,
      "amount": 2
    },
    {
      "id": 1289,
      "amount": 20
    },
    {
      "id": 7342,
      "amount": 14
    },
    {
      "id": 1211,
      "amount": 6
    },
    {
      "id": 1271,
      "amount": 2
    },
    {
      "id": 10290,
      "amount": 11
    },
    {
      "id": 12299,
      "amount": 2
    },
    {
      "id": 7360,
      "amount": 14
    },
    {
      "id": 379,
      "amount": 29
    },
    {
      "id": 861,
      "amount": 27
    },
    {
      "id": 1183,
      "amount": 2
    },
    {
      "id": 10440,
      "amount": 4
    },
    {
      "id": 1331,
      "amount": 6
    },
    {
      "id": 7354,
      "amount": 4
    },
    {
      "id": 7319,
      "amount": 1
    },
    {
      "id": 1093,
      "amount": 19
    },
    {
      "id": 1113,
      "amount": 17
    },
    {
      "id": 10294,
      "amount": 10
    },
    {
      "id": 7399,
      "amount": 4
    },
    {
      "id": 10374,
      "amount": 2
    },
    {
      "id": 2503,
      "amount": 18
    },
    {
      "id": 12325,
      "amount": 2
    },
    {
      "id": 12321,
      "amount": 2
    },
    {
      "id": 2629,
      "amount": 5
    },
    {
      "id": 12526,
      "amount": 2
    },
    {
      "id": 10286,
      "amount": 6
    },
    {
      "id": 12524,
      "amount": 8
    },
    {
      "id": 333,
      "amount": 3
    },
    {
      "id": 1217,
      "amount": 3
    },
    {
      "id": 3479,
      "amount": 9
    },
    {
      "id": 3483,
      "amount": 4
    },
    {
      "id": 7376,
      "amount": 10
    },
    {
      "id": 12502,
      "amount": 3
    },
    {
      "id": 12199,
      "amount": 1
    },
    {
      "id": 1430,
      "amount": 1
    },
    {
      "id": 12510,
      "amount": 7
    },
    {
      "id": 3486,
      "amount": 1
    },
    {
      "id": 1099,
      "amount": 9
    },
    {
      "id": 1213,
      "amount": 18
    },
    {
      "id": 12528,
      "amount": 4
    },
    {
      "id": 1163,
      "amount": 24
    },
    {
      "id": 10420,
      "amount": 3
    },
    {
      "id": 1161,
      "amount": 4
    },
    {
      "id": 1145,
      "amount": 9
    },
    {
      "id": 1123,
      "amount": 9
    },
    {
      "id": 12532,
      "amount": 6
    },
    {
      "id": 2497,
      "amount": 19
    },
    {
      "id": 1301,
      "amount": 5
    },
    {
      "id": 12504,
      "amount": 4
    },
    {
      "id": 2675,
      "amount": 5
    },
    {
      "id": 7332,
      "amount": 2
    },
    {
      "id": 12391,
      "amount": 2
    },
    {
      "id": 2669,
      "amount": 8
    },
    {
      "id": 7384,
      "amount": 6
    },
    {
      "id": 1073,
      "amount": 3
    },
    {
      "id": 3478,
      "amount": 3
    },
    {
      "id": 2671,
      "amount": 9
    },
    {
      "id": 7336,
      "amount": 5
    },
    {
      "id": 12538,
      "amount": 4
    },
    {
      "id": 12343,
      "amount": 1
    },
    {
      "id": 1303,
      "amount": 16
    },
    {
      "id": 1147,
      "amount": 21
    },
    {
      "id": 10310,
      "amount": 2
    },
    {
      "id": 12518,
      "amount": 9
    },
    {
      "id": 7400,
      "amount": 10
    },
    {
      "id": 1129,
      "amount": 2
    },
    {
      "id": 1426,
      "amount": 2
    },
    {
      "id": 7334,
      "amount": 2
    },
    {
      "id": 2619,
      "amount": 2
    },
    {
      "id": 12520,
      "amount": 7
    },
    {
      "id": 10288,
      "amount": 12
    },
    {
      "id": 1199,
      "amount": 5
    },
    {
      "id": 7398,
      "amount": 7
    },
    {
      "id": 3485,
      "amount": 3
    },
    {
      "id": 562,
      "amount": 2
    },
    {
      "id": 2609,
      "amount": 2
    },
    {
      "id": 12303,
      "amount": 4
    },
    {
      "id": 7382,
      "amount": 10
    },
    {
      "id": 1167,
      "amount": 2
    },
    {
      "id": 12323,
      "amount": 3
    },
    {
      "id": 7374,
      "amount": 6
    },
    {
      "id": 373,
      "amount": 5
    },
    {
      "id": 2663,
      "amount": 11
    },
    {
      "id": 12522,
      "amount": 5
    },
    {
      "id": 2639,
      "amount": 2
    },
    {
      "id": 10292,
      "amount": 8
    },
    {
      "id": 12385,
      "amount": 1
    },
    {
      "id": 857,
      "amount": 4
    },
    {
      "id": 12201,
      "amount": 1
    },
    {
      "id": 10384,
      "amount": 3
    },
    {
      "id": 1135,
      "amount": 3
    },
    {
      "id": 12496,
      "amount": 3
    },
    {
      "id": 565,
      "amount": 251
    },
    {
      "id": 1456,
      "amount": 1
    },
    {
      "id": 385,
      "amount": 15
    },
    {
      "id": 10368,
      "amount": 2
    },
    {
      "id": 3481,
      "amount": 2
    },
    {
      "id": 7340,
      "amount": 2
    },
    {
      "id": 2579,
      "amount": 1
    },
    {
      "id": 12257,
      "amount": 2
    },
    {
      "id": 556,
      "amount": 26
    },
    {
      "id": 10298,
      "amount": 3
    },
    {
      "id": 12341,
      "amount": 1
    },
    {
      "id": 2617,
      "amount": 4
    },
    {
      "id": 2665,
      "amount": 8
    },
    {
      "id": 2661,
      "amount": 3
    },
    {
      "id": 10300,
      "amount": 4
    },
    {
      "id": 10456,
      "amount": 2
    },
    {
      "id": 2607,
      "amount": 1
    },
    {
      "id": 1317,
      "amount": 5
    },
    {
      "id": 12512,
      "amount": 2
    },
    {
      "id": 10378,
      "amount": 2
    },
    {
      "id": 1269,
      "amount": 3
    },
    {
      "id": 1111,
      "amount": 3
    },
    {
      "id": 7327,
      "amount": 2
    },
    {
      "id": 10470,
      "amount": 1
    },
    {
      "id": 12506,
      "amount": 3
    },
    {
      "id": 12534,
      "amount": 2
    },
    {
      "id": 10418,
      "amount": 2
    },
    {
      "id": 12269,
      "amount": 3
    },
    {
      "id": 1125,
      "amount": 1
    },
    {
      "id": 12536,
      "amount": 1
    },
    {
      "id": 10380,
      "amount": 2
    },
    {
      "id": 1091,
      "amount": 3
    },
    {
      "id": 2651,
      "amount": 2
    },
    {
      "id": 12295,
      "amount": 1
    },
    {
      "id": 1345,
      "amount": 6
    },
    {
      "id": 12500,
      "amount": 1
    },
    {
      "id": 12492,
      "amount": 3
    },
    {
      "id": 8780,
      "amount": 2
    },
    {
      "id": 1440,
      "amount": 1
    },
    {
      "id": 3480,
      "amount": 5
    },
    {
      "id": 2641,
      "amount": 3
    },
    {
      "id": 9183,
      "amount": 3
    },
    {
      "id": 557,
      "amount": 50
    },
    {
      "id": 12516,
      "amount": 5
    },
    {
      "id": 12203,
      "amount": 1
    },
    {
      "id": 10388,
      "amount": 4
    },
    {
      "id": 12389,
      "amount": 1
    },
    {
      "id": 2655,
      "amount": 5
    },
    {
      "id": 12508,
      "amount": 2
    },
    {
      "id": 12498,
      "amount": 1
    },
    {
      "id": 12263,
      "amount": 1
    },
    {
      "id": 10450,
      "amount": 1
    },
    {
      "id": 2593,
      "amount": 1
    },
    {
      "id": 2645,
      "amount": 2
    },
    {
      "id": 3476,
      "amount": 1
    },
    {
      "id": 559,
      "amount": 2
    },
    {
      "id": 2647,
      "amount": 1
    },
    {
      "id": 12305,
      "amount": 2
    },
    {
      "id": 10390,
      "amount": 2
    },
    {
      "id": 1061,
      "amount": 1
    },
    {
      "id": 10306,
      "amount": 1
    },
    {
      "id": 10442,
      "amount": 3
    },
    {
      "id": 10372,
      "amount": 2
    },
    {
      "id": 7323,
      "amount": 1
    },
    {
      "id": 1692,
      "amount": 2
    },
    {
      "id": 12309,
      "amount": 1
    },
    {
      "id": 2621,
      "amount": 1
    },
    {
      "id": 12494,
      "amount": 3
    },
    {
      "id": 1179,
      "amount": 1
    },
    {
      "id": 10376,
      "amount": 1
    },
    {
      "id": 4823,
      "amount": 10
    },
    {
      "id": 10386,
      "amount": 2
    },
    {
      "id": 7338,
      "amount": 2
    },
    {
      "id": 12313,
      "amount": 2
    },
    {
      "id": 10438,
      "amount": 1
    },
    {
      "id": 12265,
      "amount": 1
    },
    {
      "id": 554,
      "amount": 527
    },
    {
      "id": 12383,
      "amount": 2
    },
    {
      "id": 12193,
      "amount": 1
    },
    {
      "id": 2625,
      "amount": 1
    },
    {
      "id": 1367,
      "amount": 1
    },
    {
      "id": 10308,
      "amount": 1
    },
    {
      "id": 2627,
      "amount": 2
    },
    {
      "id": 12281,
      "amount": 1
    },
    {
      "id": 10364,
      "amount": 1
    },
    {
      "id": 1063,
      "amount": 2
    },
    {
      "id": 2615,
      "amount": 1
    },
    {
      "id": 7358,
      "amount": 1
    },
    {
      "id": 10444,
      "amount": 1
    },
    {
      "id": 1297,
      "amount": 1
    },
    {
      "id": 3829,
      "amount": 1
    },
    {
      "id": 2643,
      "amount": 1
    },
    {
      "id": 10318,
      "amount": 1
    },
    {
      "id": 1287,
      "amount": 1
    },
    {
      "id": 12387,
      "amount": 1
    },
    {
      "id": 10296,
      "amount": 1
    },
    {
      "id": 1446,
      "amount": 1
    },
    {
      "id": 1454,
      "amount": 1
    },
    {
      "id": 10302,
      "amount": 1
    },
    {
      "id": 329,
      "amount": 1
    },
    {
      "id": 12225,
      "amount": 1
    },
    {
      "id": 12291,
      "amount": 1
    },
    {
      "id": 3488,
      "amount": 1
    },
    {
      "id": 3477,
      "amount": 1
    },
    {
      "id": 10436,
      "amount": 1
    },
    {
      "id": 1095,
      "amount": 1
    },
    {
      "id": 10472,
      "amount": 1
    },
    {
      "id": 1283,
      "amount": 1
    },
    {
      "id": 12277,
      "amount": 1
    },
    {
      "id": 10352,
      "amount": 1
    },
    {
      "id": 10336,
      "amount": 1
    },
    {
      "id": 19697,
      "amount": 1
    },
    {
      "id": 10332,
      "amount": 1
    },
    {
      "id": 10346,
      "amount": 1
    },
    null,
    null,
    null,
    null,
    null,
    null,
    null,
    null,
    null,
    null,
    null,
    null,
    null,
    null,
    null,
    null,
    null,
    null,
    null,
    null,
    null,
    null,
    null,
    null,
    null,
    null,
    null,
    null,
    null,
    null,
    null,
    null,
    null,
    null,
    null,
    null,
    null,
    null,
    null,
    null,
    null,
    null,
    null,
    null,
    null,
    null,
    null,
    null,
    null,
    null,
    null,
    null,
    null,
    null,
    null,
    null,
    null,
    null,
    null,
    null,
    null,
    null,
    null,
    null,
    null,
    null,
    null,
    null,
    null,
    null,
    null,
    null,
    null,
    null,
    null,
    null,
    null,
    null,
    null,
    null,
    null,
    null,
    null,
    null,
    null,
    null,
    null,
    null,
    null,
    null,
    null,
    null,
    null,
    null,
    null,
    null,
    null,
    null,
    null,
    null,
    null,
    null,
    null,
    null,
    null,
    null,
    null,
    null,
    null,
    null,
    null,
    null,
    null,
    null,
    null,
    null,
    null
  ],
  "tabAmounts": [
    228,
    5,
    0,
    0,
    0,
    0,
    0,
    0,
    0,
    0
  ],
  "inventory": [
    null,
    null,
    null,
    null,
    null,
    null,
    null,
    null,
    null,
    null,
    null,
    null,
    null,
    null,
    null,
    null,
    null,
    null,
    null,
    null,
    null,
    null,
    null,
    null,
    null,
    null,
    null,
    null
  ],
  "equipment": [
    {
      "id": 12359,
      "amount": 1
    },
    null,
    null,
    null,
    null,
    null,
    null,
    null,
    null,
    null,
    null,
    null,
    null,
    null
  ],
  "shopItems": [
    null,
    null,
    null,
    null,
    null,
    null,
    null,
    null,
    null,
    null,
    null,
    null,
    null,
    null,
    null,
    null,
    null,
    null,
    null,
    null,
    null,
    null,
    null,
    null,
    null,
    null,
    null,
    null,
    null,
    null,
    null,
    null,
    null,
    null,
    null,
    null
  ],
  "shopPrices": [
    0,
    0,
    0,
    0,
    0,
    0,
    0,
    0,
    0,
    0,
    0,
    0,
    0,
    0,
    0,
    0,
    0,
    0,
    0,
    0,
    0,
    0,
    0,
    0,
    0,
    0,
    0,
    0,
    0,
    0,
    0,
    0,
    0,
    0,
    0,
    0
  ],
  "pouches": [
    0,
    0,
    0,
    0
  ]
}