{
  "bank": [
    {
      "id": 1381,
      "amount": 1
    },
    {
      "id": 554,
      "amount": 4300
    },
    {
      "id": 2434,
      "amount": 69
    },
    {
      "id": 562,
      "amount": 4100
    },
    {
      "id": 1844,
      "amount": 1
    },
    {
      "id": 1846,
      "amount": 1
    },
    {
      "id": 7946,
      "amount": 51
    },
    {
      "id": 1,
      "amount": 1
    },
    {
      "id": 9185,
      "amount": 2
    },
    {
      "id": 3105,
      "amount": 5
    },
    {
      "id": 10952,
      "amount": 3
    },
    {
      "id": 2442,
      "amount": 79
    },
    {
      "id": 1731,
      "amount": 2
    },
    {
      "id": 2368,
      "amount": 1
    },
    {
      "id": 2682,
      "amount": 1
    },
    {
      "id": 884,
      "amount": 248
    },
    {
      "id": 841,
      "amount": 1
    },
    {
      "id": 229,
      "amount": 35
    },
    {
      "id": 6529,
      "amount": 16064
    },
    {
      "id": 12701,
      "amount": 4
    },
    {
      "id": 6912,
      "amount": 2
    },
    {
      "id": 5299,
      "amount": 1
    },
    {
      "id": 10010,
      "amount": 1
    },
    {
      "id": 12455,
      "amount": 1
    },
    {
      "id": 526,
      "amount": 17
    },
    {
      "id": 143,
      "amount": 17
    },
    {
      "id": 12695,
      "amount": 203
    },
    {
      "id": 5547,
      "amount": 1
    },
    {
      "id": 11232,
      "amount": 9
    },
    {
      "id": 1213,
      "amount": 9
    },
    {
      "id": 9244,
      "amount": 257
    },
    {
      "id": 1643,
      "amount": 1
    },
    {
      "id": 1631,
      "amount": 1
    },
    {
      "id": 1519,
      "amount": 27
    },
    {
      "id": 161,
      "amount": 1
    },
    {
      "id": 141,
      "amount": 11
    },
    {
      "id": 464,
      "amount": 10
    },
    {
      "id": 159,
      "amount": 1
    },
    {
      "id": 2297,
      "amount": 2
    },
    {
      "id": 3749,
      "amount": 2
    },
    {
      "id": 592,
      "amount": 1337
    },
    {
      "id": 1145,
      "amount": 2
    },
    {
      "id": 171,
      "amount": 8
    },
    {
      "id": 1405,
      "amount": 1
    },
    {
      "id": 3140,
      "amount": 9
    },
    {
      "id": 12697,
      "amount": 2
    },
    {
      "id": 1755,
      "amount": 1
    },
    {
      "id": 2550,
      "amount": 8
    },
    {
      "id": 165,
      "amount": 1
    },
    {
      "id": 1331,
      "amount": 3
    },
    {
      "id": 7400,
      "amount": 3
    },
    {
      "id": 1301,
      "amount": 3
    },
    {
      "id": 1704,
      "amount": 1
    },
    {
      "id": 892,
      "amount": 274
    },
    {
      "id": 952,
      "amount": 1
    },
    {
      "id": 558,
      "amount": 4105
    },
    {
      "id": 2444,
      "amount": 6
    },
    {
      "id": 169,
      "amount": 2
    },
    {
      "id": 6685,
      "amount": 78
    },
    {
      "id": 3028,
      "amount": 2
    },
    {
      "id": 3030,
      "amount": 7
    },
    {
      "id": 6691,
      "amount": 1
    },
    {
      "id": 11230,
      "amount": 354
    },
    {
      "id": 173,
      "amount": 4
    },
    {
      "id": 9194,
      "amount": 10
    },
    {
      "id": 6689,
      "amount": 1
    },
    {
      "id": 12938,
      "amount": 7
    },
    {
      "id": 12699,
      "amount": 3
    },
    {
      "id": 8780,
      "amount": 101
    },
    {
      "id": 560,
      "amount": 4285
    },
    {
      "id": 6687,
      "amount": 2
    },
    {
      "id": 3024,
      "amount": 70
    },
    {
      "id": 7060,
      "amount": 7
    },
    {
      "id": 3387,
      "amount": 1
    },
    {
      "id": 1845,
      "amount": 1
    },
    {
      "id": 3393,
      "amount": 1
    },
    {
      "id": 7319,
      "amount": 1
    },
    {
      "id": 13072,
      "amount": 1
    },
    {
      "id": 139,
      "amount": 4
    },
    {
      "id": 6328,
      "amount": 2
    },
    {
      "id": 373,
      "amount": 52
    },
    {
      "id": 1201,
      "amount": 7
    },
    {
      "id": 1163,
      "amount": 6
    },
    {
      "id": 1319,
      "amount": 5
    },
    {
      "id": 1333,
      "amount": 5
    },
    {
      "id": 2722,
      "amount": 103
    },
    {
      "id": 2497,
      "amount": 4
    },
    {
      "id": 7340,
      "amount": 1
    },
    {
      "id": 329,
      "amount": 2
    },
    {
      "id": 1303,
      "amount": 7
    },
    {
      "id": 1079,
      "amount": 3
    },
    {
      "id": 1127,
      "amount": 4
    },
    {
      "id": 1161,
      "amount": 1
    },
    {
      "id": 4710,
      "amount": 3
    },
    {
      "id": 1513,
      "amount": 150
    },
    {
      "id": 1099,
      "amount": 5
    },
    {
      "id": 451,
      "amount": 135
    },
    {
      "id": 4728,
      "amount": 3
    },
    {
      "id": 4087,
      "amount": 5
    },
    {
      "id": 6914,
      "amount": 5
    },
    {
      "id": 1123,
      "amount": 1
    },
    {
      "id": 9183,
      "amount": 1
    },
    {
      "id": 12299,
      "amount": 1
    },
    {
      "id": 6524,
      "amount": 5
    },
    {
      "id": 7981,
      "amount": 5
    },
    {
      "id": 1147,
      "amount": 3
    },
    {
      "id": 383,
      "amount": 300
    },
    {
      "id": 1149,
      "amount": 6
    },
    {
      "id": 10376,
      "amount": 3
    },
    {
      "id": 7354,
      "amount": 2
    },
    {
      "id": 5302,
      "amount": 40
    },
    {
      "id": 10551,
      "amount": 7
    },
    {
      "id": 1151,
      "amount": 1
    },
    {
      "id": 11943,
      "amount": 40
    },
    {
      "id": 7979,
      "amount": 8
    },
    {
      "id": 11936,
      "amount": 75
    },
    {
      "id": 3480,
      "amount": 2
    },
    {
      "id": 7348,
      "amount": 5
    },
    {
      "id": 4823,
      "amount": 11
    },
    {
      "id": 849,
      "amount": 3
    },
    {
      "id": 1059,
      "amount": 1
    },
    {
      "id": 10312,
      "amount": 1
    },
    {
      "id": 1452,
      "amount": 2
    },
    {
      "id": 7344,
      "amount": 2
    },
    {
      "id": 7321,
      "amount": 2
    },
    {
      "id": 10499,
      "amount": 1
    },
    {
      "id": 12257,
      "amount": 1
    },
    {
      "id": 12339,
      "amount": 2
    },
    {
      "id": 4585,
      "amount": 4
    },
    {
      "id": 7462,
      "amount": 6
    },
    {
      "id": 10294,
      "amount": 3
    },
    {
      "id": 1359,
      "amount": 9
    },
    {
      "id": 10416,
      "amount": 2
    },
    {
      "id": 10454,
      "amount": 1
    },
    {
      "id": 1211,
      "amount": 3
    },
    {
      "id": 7376,
      "amount": 4
    },
    {
      "id": 3204,
      "amount": 1
    },
    {
      "id": 1327,
      "amount": 2
    },
    {
      "id": 10384,
      "amount": 1
    },
    {
      "id": 1185,
      "amount": 6
    },
    {
      "id": 4745,
      "amount": 2
    },
    {
      "id": 207,
      "amount": 75
    },
    {
      "id": 397,
      "amount": 4028
    },
    {
      "id": 2671,
      "amount": 3
    },
    {
      "id": 3841,
      "amount": 1
    },
    {
      "id": 7460,
      "amount": 1
    },
    {
      "id": 12375,
      "amount": 2
    },
    {
      "id": 7458,
      "amount": 1
    },
    {
      "id": 4736,
      "amount": 3
    },
    {
      "id": 2440,
      "amount": 50
    },
    {
      "id": 12219,
      "amount": 1
    },
    {
      "id": 3475,
      "amount": 1
    },
    {
      "id": 1341,
      "amount": 1
    },
    {
      "id": 19484,
      "amount": 3000
    },
    {
      "id": 4751,
      "amount": 2
    },
    {
      "id": 11929,
      "amount": 1
    },
    {
      "id": 3832,
      "amount": 1
    },
    {
      "id": 1430,
      "amount": 4
    },
    {
      "id": 1089,
      "amount": 1
    },
    {
      "id": 2436,
      "amount": 30
    },
    {
      "id": 4757,
      "amount": 1
    },
    {
      "id": 4726,
      "amount": 2
    },
    {
      "id": 12301,
      "amount": 2
    },
    {
      "id": 1073,
      "amount": 2
    },
    {
      "id": 1442,
      "amount": 1
    },
    {
      "id": 7325,
      "amount": 1
    },
    {
      "id": 333,
      "amount": 1
    },
    {
      "id": 7346,
      "amount": 1
    },
    {
      "id": 12528,
      "amount": 3
    },
    {
      "id": 4718,
      "amount": 4
    },
    {
      "id": 11926,
      "amount": 1
    },
    {
      "id": 19610,
      "amount": 1
    },
    {
      "id": 4759,
      "amount": 2
    },
    {
      "id": 10422,
      "amount": 1
    },
    {
      "id": 2647,
      "amount": 3
    },
    {
      "id": 379,
      "amount": 9
    },
    {
      "id": 12524,
      "amount": 1
    },
    {
      "id": 10372,
      "amount": 1
    },
    {
      "id": 1113,
      "amount": 8
    },
    {
      "id": 1289,
      "amount": 2
    },
    {
      "id": 1317,
      "amount": 1
    },
    {
      "id": 7980,
      "amount": 2
    },
    {
      "id": 1131,
      "amount": 2
    },
    {
      "id": 1345,
      "amount": 1
    },
    {
      "id": 2649,
      "amount": 1
    },
    {
      "id": 6570,
      "amount": 2
    },
    {
      "id": 11931,
      "amount": 2
    },
    {
      "id": 4734,
      "amount": 2
    },
    {
      "id": 4749,
      "amount": 1
    },
    {
      "id": 555,
      "amount": 4000
    },
    {
      "id": 556,
      "amount": 4000
    },
    {
      "id": 557,
      "amount": 4000
    },
    {
      "id": 559,
      "amount": 4000
    },
    {
      "id": 563,
      "amount": 4000
    },
    {
      "id": 561,
      "amount": 4002
    },
    {
      "id": 565,
      "amount": 4000
    },
    {
      "id": 564,
      "amount": 4000
    },
    {
      "id": 566,
      "amount": 4000
    },
    {
      "id": 9075,
      "amount": 4000
    },
    {
      "id": 6731,
      "amount": 2
    },
    {
      "id": 12608,
      "amount": 2
    },
    {
      "id": 4714,
      "amount": 1
    },
    {
      "id": 12235,
      "amount": 1
    },
    {
      "id": 12217,
      "amount": 1
    },
    {
      "id": 12263,
      "amount": 1
    },
    {
      "id": 1297,
      "amount": 1
    },
    {
      "id": 1438,
      "amount": 1
    },
    {
      "id": 3473,
      "amount": 1
    },
    {
      "id": 1167,
      "amount": 1
    },
    {
      "id": 1371,
      "amount": 3
    },
    {
      "id": 10296,
      "amount": 1
    },
    {
      "id": 2613,
      "amount": 2
    },
    {
      "id": 1269,
      "amount": 1
    },
    {
      "id": 12498,
      "amount": 2
    },
    {
      "id": 2663,
      "amount": 3
    },
    {
      "id": 12500,
      "amount": 1
    },
    {
      "id": 3026,
      "amount": 1
    },
    {
      "id": 10368,
      "amount": 2
    },
    {
      "id": 861,
      "amount": 5
    },
    {
      "id": 12612,
      "amount": 2
    },
    {
      "id": 12449,
      "amount": 3
    },
    {
      "id": 10828,
      "amount": 3
    },
    {
      "id": 12451,
      "amount": 1
    },
    {
      "id": 2503,
      "amount": 15
    },
    {
      "id": 1321,
      "amount": 1
    },
    {
      "id": 12610,
      "amount": 1
    },
    {
      "id": 430,
      "amount": 1
    },
    {
      "id": 2665,
      "amount": 2
    },
    {
      "id": 12321,
      "amount": 2
    },
    {
      "id": 10286,
      "amount": 1
    },
    {
      "id": 995,
      "amount": 2866502
    },
    {
      "id": 3478,
      "amount": 2
    },
    {
      "id": 1702,
      "amount": 1
    },
    {
      "id": 385,
      "amount": 7
    },
    {
      "id": 1458,
      "amount": 1
    },
    {
      "id": 2631,
      "amount": 1
    },
    {
      "id": 12347,
      "amount": 1
    },
    {
      "id": 10396,
      "amount": 1
    },
    {
      "id": 1135,
      "amount": 1
    },
    {
      "id": 7374,
      "amount": 2
    },
    {
      "id": 1393,
      "amount": 2
    },
    {
      "id": 12323,
      "amount": 2
    },
    {
      "id": 7342,
      "amount": 2
    },
    {
      "id": 1093,
      "amount": 4
    },
    {
      "id": 1347,
      "amount": 5
    },
    {
      "id": 2491,
      "amount": 3
    },
    {
      "id": 2655,
      "amount": 1
    },
    {
      "id": 12275,
      "amount": 1
    },
    {
      "id": 12532,
      "amount": 2
    },
    {
      "id": 12510,
      "amount": 1
    },
    {
      "id": 857,
      "amount": 1
    },
    {
      "id": 10290,
      "amount": 3
    },
    {
      "id": 2619,
      "amount": 1
    },
    {
      "id": 2667,
      "amount": 3
    },
    {
      "id": 1091,
      "amount": 2
    },
    {
      "id": 10288,
      "amount": 2
    },
    {
      "id": 12506,
      "amount": 2
    },
    {
      "id": 1432,
      "amount": 1
    },
    {
      "id": 12520,
      "amount": 1
    },
    {
      "id": 12538,
      "amount": 2
    },
    {
      "id": 12522,
      "amount": 1
    },
    {
      "id": 12504,
      "amount": 1
    },
    {
      "id": 2653,
      "amount": 2
    },
    {
      "id": 7384,
      "amount": 1
    },
    {
      "id": 1373,
      "amount": 1
    },
    {
      "id": 859,
      "amount": 2
    },
    {
      "id": 2629,
      "amount": 1
    },
    {
      "id": 1456,
      "amount": 1
    },
    {
      "id": 1462,
      "amount": 1
    },
    {
      "id": 2675,
      "amount": 1
    },
    {
      "id": 10548,
      "amount": 1
    },
    {
      "id": 10364,
      "amount": 2
    },
    {
      "id": 13092,
      "amount": 1
    },
    {
      "id": 4722,
      "amount": 1
    },
    {
      "id": 4716,
      "amount": 1
    },
    {
      "id": 4720,
      "amount": 1
    },
    {
      "id": 11840,
      "amount": 1
    },
    {
      "id": 11896,
      "amount": 1
    },
    {
      "id": 2659,
      "amount": 1
    },
    {
      "id": 12490,
      "amount": 1
    },
    {
      "id": 12325,
      "amount": 1
    },
    {
      "id": 3479,
      "amount": 1
    },
    {
      "id": 12518,
      "amount": 2
    },
    {
      "id": 2657,
      "amount": 2
    },
    {
      "id": 7360,
      "amount": 1
    },
    {
      "id": 12383,
      "amount": 1
    },
    {
      "id": 1111,
      "amount": 1
    },
    {
      "id": 4012,
      "amount": 1
    },
    {
      "id": 1199,
      "amount": 2
    },
    {
      "id": 12496,
      "amount": 1
    },
    {
      "id": 12534,
      "amount": 2
    },
    {
      "id": 2890,
      "amount": 1
    },
    {
      "id": 12305,
      "amount": 1
    },
    {
      "id": 2669,
      "amount": 2
    },
    {
      "id": 2641,
      "amount": 1
    },
    {
      "id": 7399,
      "amount": 1
    },
    {
      "id": 12508,
      "amount": 1
    },
    null,
    null,
    null,
    null,
    null,
    null,
    null,
    null,
    null,
    null,
    null,
    null,
    null,
    null,
    null,
    null,
    null,
    null,
    null,
    null,
    null,
    null,
    null,
    null,
    null,
    null,
    null,
    null,
    null,
    null,
    null,
    null,
    null,
    null,
    null,
    null,
    null,
    null,
    null,
    null,
    null,
    null,
    null,
    null,
    null,
    null,
    null,
    null,
    null,
    null,
    null,
    null,
    null
  ],
  "tabAmounts": [
    297,
    0,
    0,
    0,
    0,
    0,
    0,
    0,
    0,
    0
  ],
  "inventory": [
    null,
    null,
    null,
    null,
    null,
    null,
    null,
    null,
    null,
    null,
    null,
    null,
    null,
    null,
    null,
    null,
    null,
    null,
    null,
    null,
    null,
    null,
    null,
    null,
    null,
    null,
    null,
    null
  ],
  "equipment": [
    null,
    {
      "id": 10499,
      "amount": 1
    },
    null,
    null,
    null,
    null,
    null,
    {
      "id": 2493,
      "amount": 1
    },
    null,
    null,
    null,
    null,
    {
      "id": 1645,
      "amount": 1
    },
    null
  ],
  "shopItems": [
    null,
    null,
    null,
    null,
    null,
    null,
    null,
    null,
    null,
    null,
    null,
    null,
    null,
    null,
    null,
    null,
    null,
    null,
    null,
    null,
    null,
    null,
    null,
    null,
    null,
    null,
    null,
    null,
    null,
    null,
    null,
    null,
    null,
    null,
    null,
    null
  ],
  "shopPrices": [
    0,
    0,
    0,
    0,
    0,
    0,
    0,
    0,
    0,
    0,
    0,
    0,
    0,
    0,
    0,
    0,
    0,
    0,
    0,
    0,
    0,
    0,
    0,
    0,
    0,
    0,
    0,
    0,
    0,
    0,
    0,
    0,
    0,
    0,
    0,
    0
  ],
  "pouches": [
    0,
    0,
    0,
    0
  ]
}