{
  "bank": [
    {
      "id": 1351,
      "amount": 1
    },
    {
      "id": 590,
      "amount": 1
    },
    {
      "id": 1265,
      "amount": 1
    },
    {
      "id": 1623,
      "amount": 2
    },
    {
      "id": 556,
      "amount": 25
    },
    {
      "id": 558,
      "amount": 15
    },
    {
      "id": 555,
      "amount": 20
    },
    {
      "id": 557,
      "amount": 4
    },
    {
      "id": 559,
      "amount": 2
    },
    {
      "id": 1171,
      "amount": 1
    },
    {
      "id": 5100,
      "amount": 1
    },
    {
      "id": 403,
      "amount": 2
    },
    {
      "id": 1277,
      "amount": 1
    },
    {
      "id": 12810,
      "amount": 1
    },
    {
      "id": 841,
      "amount": 1
    },
    {
      "id": 882,
      "amount": 222
    },
    {
      "id": 315,
      "amount": 38
    },
    {
      "id": 303,
      "amount": 1
    },
    {
      "id": 6794,
      "amount": 12
    },
    {
      "id": 12811,
      "amount": 1
    },
    {
      "id": 2682,
      "amount": 1
    },
    {
      "id": 319,
      "amount": 9
    },
    {
      "id": 950,
      "amount": 5
    },
    {
      "id": 6814,
      "amount": 7
    },
    {
      "id": 1247,
      "amount": 1
    },
    {
      "id": 1893,
      "amount": 1
    },
    {
      "id": 1891,
      "amount": 15
    },
    {
      "id": 233,
      "amount": 1
    },
    {
      "id": 6055,
      "amount": 11
    },
    {
      "id": 1942,
      "amount": 41
    },
    {
      "id": 1925,
      "amount": 2
    },
    {
      "id": 5324,
      "amount": 2
    },
    {
      "id": 5341,
      "amount": 1
    },
    {
      "id": 5318,
      "amount": 1
    },
    {
      "id": 1965,
      "amount": 10
    },
    {
      "id": 952,
      "amount": 2
    },
    {
      "id": 5343,
      "amount": 1
    },
    {
      "id": 12612,
      "amount": 1
    },
    {
      "id": 231,
      "amount": 12
    },
    {
      "id": 139,
      "amount": 39
    },
    {
      "id": 1895,
      "amount": 1
    },
    {
      "id": 311,
      "amount": 1
    },
    {
      "id": 442,
      "amount": 100
    },
    {
      "id": 1452,
      "amount": 1
    },
    {
      "id": 884,
      "amount": 3
    },
    {
      "id": 259,
      "amount": 1
    },
    {
      "id": 314,
      "amount": 520
    },
    {
      "id": 309,
      "amount": 1
    },
    {
      "id": 12449,
      "amount": 1
    },
    {
      "id": 1163,
      "amount": 1
    },
    {
      "id": 307,
      "amount": 1
    },
    {
      "id": 313,
      "amount": 475
    },
    {
      "id": 301,
      "amount": 1
    },
    {
      "id": 379,
      "amount": 65
    },
    {
      "id": 1540,
      "amount": 1
    },
    {
      "id": 12812,
      "amount": 1
    },
    {
      "id": 3385,
      "amount": 1
    },
    {
      "id": 888,
      "amount": 3
    },
    {
      "id": 995,
      "amount": 2803262
    },
    {
      "id": 886,
      "amount": 150
    },
    {
      "id": 985,
      "amount": 4
    },
    {
      "id": 2803,
      "amount": 1
    },
    {
      "id": 10499,
      "amount": 1
    },
    {
      "id": 1059,
      "amount": 1
    },
    {
      "id": 12375,
      "amount": 1
    },
    {
      "id": 3389,
      "amount": 1
    },
    {
      "id": 3843,
      "amount": 1
    },
    {
      "id": 12447,
      "amount": 1
    },
    {
      "id": 2366,
      "amount": 1
    },
    {
      "id": 141,
      "amount": 1
    },
    {
      "id": 4155,
      "amount": 1
    },
    {
      "id": 229,
      "amount": 2
    },
    {
      "id": 554,
      "amount": 75
    },
    {
      "id": 4740,
      "amount": 80
    },
    {
      "id": 5292,
      "amount": 6
    },
    {
      "id": 5293,
      "amount": 5
    },
    {
      "id": 5294,
      "amount": 5
    },
    {
      "id": 249,
      "amount": 38
    },
    {
      "id": 5295,
      "amount": 4
    },
    {
      "id": 121,
      "amount": 24
    },
    {
      "id": 227,
      "amount": 430
    },
    {
      "id": 91,
      "amount": 3
    },
    {
      "id": 257,
      "amount": 19
    },
    null,
    null,
    null,
    null,
    null,
    null,
    null,
    null,
    null,
    null,
    null,
    null,
    null,
    null,
    null,
    null,
    null,
    null,
    null,
    null,
    null,
    null,
    null,
    null,
    null,
    null,
    null,
    null,
    null,
    null,
    null,
    null,
    null,
    null,
    null,
    null,
    null,
    null,
    null,
    null,
    null,
    null,
    null,
    null,
    null,
    null,
    null,
    null,
    null,
    null,
    null,
    null,
    null,
    null,
    null,
    null,
    null,
    null,
    null,
    null,
    null,
    null,
    null,
    null,
    null,
    null,
    null,
    null,
    null,
    null,
    null,
    null,
    null,
    null,
    null,
    null,
    null,
    null,
    null,
    null,
    null,
    null,
    null,
    null,
    null,
    null,
    null,
    null,
    null,
    null,
    null,
    null,
    null,
    null,
    null,
    null,
    null,
    null,
    null,
    null,
    null,
    null,
    null,
    null,
    null,
    null,
    null,
    null,
    null,
    null,
    null,
    null,
    null,
    null,
    null,
    null,
    null,
    null,
    null,
    null,
    null,
    null,
    null,
    null,
    null,
    null,
    null,
    null,
    null,
    null,
    null,
    null,
    null,
    null,
    null,
    null,
    null,
    null,
    null,
    null,
    null,
    null,
    null,
    null,
    null,
    null,
    null,
    null,
    null,
    null,
    null,
    null,
    null,
    null,
    null,
    null,
    null,
    null,
    null,
    null,
    null,
    null,
    null,
    null,
    null,
    null,
    null,
    null,
    null,
    null,
    null,
    null,
    null,
    null,
    null,
    null,
    null,
    null,
    null,
    null,
    null,
    null,
    null,
    null,
    null,
    null,
    null,
    null,
    null,
    null,
    null,
    null,
    null,
    null,
    null,
    null,
    null,
    null,
    null,
    null,
    null,
    null,
    null,
    null,
    null,
    null,
    null,
    null,
    null,
    null,
    null,
    null,
    null,
    null,
    null,
    null,
    null,
    null,
    null,
    null,
    null,
    null,
    null,
    null,
    null,
    null,
    null,
    null,
    null,
    null,
    null,
    null,
    null,
    null,
    null,
    null,
    null,
    null,
    null,
    null,
    null,
    null,
    null,
    null,
    null,
    null,
    null,
    null,
    null,
    null,
    null,
    null,
    null,
    null,
    null,
    null,
    null,
    null,
    null,
    null,
    null,
    null,
    null,
    null,
    null,
    null,
    null
  ],
  "tabAmounts": [
    74,
    9,
    0,
    0,
    0,
    0,
    0,
    0,
    0,
    0
  ],
  "inventory": [
    null,
    null,
    null,
    null,
    null,
    null,
    null,
    null,
    null,
    null,
    null,
    null,
    null,
    null,
    null,
    null,
    null,
    null,
    null,
    null,
    null,
    null,
    null,
    null,
    null,
    null,
    null,
    null
  ],
  "equipment": [
    {
      "id": 3753,
      "amount": 1
    },
    {
      "id": 10499,
      "amount": 1
    },
    {
      "id": 1478,
      "amount": 1
    },
    {
      "id": 1373,
      "amount": 1
    },
    {
      "id": 1135,
      "amount": 1
    },
    {
      "id": 1185,
      "amount": 1
    },
    null,
    {
      "id": 6324,
      "amount": 1
    },
    null,
    {
      "id": 6330,
      "amount": 1
    },
    {
      "id": 4127,
      "amount": 1
    },
    null,
    null,
    null
  ],
  "shopItems": [
    null,
    null,
    null,
    null,
    null,
    null,
    null,
    null,
    null,
    null,
    null,
    null,
    null,
    null,
    null,
    null,
    null,
    null,
    null,
    null,
    null,
    null,
    null,
    null,
    null,
    null,
    null,
    null,
    null,
    null,
    null,
    null,
    null,
    null,
    null,
    null
  ],
  "shopPrices": [
    0,
    0,
    0,
    0,
    0,
    0,
    0,
    0,
    0,
    0,
    0,
    0,
    0,
    0,
    0,
    0,
    0,
    0,
    0,
    0,
    0,
    0,
    0,
    0,
    0,
    0,
    0,
    0,
    0,
    0,
    0,
    0,
    0,
    0,
    0,
    0
  ],
  "pouches": [
    0,
    0,
    0,
    0
  ]
}