{
  "bank": [
    {
      "id": 7946,
      "amount": 69
    },
    {
      "id": 558,
      "amount": 4168
    },
    {
      "id": 1381,
      "amount": 1
    },
    {
      "id": 1761,
      "amount": 1
    },
    {
      "id": 946,
      "amount": 3
    },
    {
      "id": 3144,
      "amount": 2
    },
    {
      "id": 2293,
      "amount": 1
    },
    {
      "id": 6032,
      "amount": 6
    },
    {
      "id": 1755,
      "amount": 3
    },
    {
      "id": 560,
      "amount": 766
    },
    {
      "id": 1845,
      "amount": 1
    },
    {
      "id": 1844,
      "amount": 1
    },
    {
      "id": 6814,
      "amount": 1
    },
    {
      "id": 2347,
      "amount": 1
    },
    {
      "id": 556,
      "amount": 5451
    },
    {
      "id": 559,
      "amount": 4215
    },
    {
      "id": 1448,
      "amount": 6
    },
    {
      "id": 805,
      "amount": 100
    },
    {
      "id": 2570,
      "amount": 8
    },
    {
      "id": 5316,
      "amount": 14
    },
    {
      "id": 1700,
      "amount": 13
    },
    {
      "id": 3841,
      "amount": 2
    },
    {
      "id": 9342,
      "amount": 6
    },
    {
      "id": 555,
      "amount": 5838
    },
    {
      "id": 557,
      "amount": 4100
    },
    {
      "id": 564,
      "amount": 4034
    },
    {
      "id": 1704,
      "amount": 11
    },
    {
      "id": 526,
      "amount": 136
    },
    {
      "id": 534,
      "amount": 81
    },
    {
      "id": 884,
      "amount": 387
    },
    {
      "id": 3122,
      "amount": 3
    },
    {
      "id": 1731,
      "amount": 2
    },
    {
      "id": 1621,
      "amount": 2
    },
    {
      "id": 12375,
      "amount": 6
    },
    {
      "id": 3839,
      "amount": 1
    },
    {
      "id": 952,
      "amount": 2
    },
    {
      "id": 3843,
      "amount": 1
    },
    {
      "id": 7398,
      "amount": 1
    },
    {
      "id": 561,
      "amount": 1
    },
    {
      "id": 554,
      "amount": 5075
    },
    {
      "id": 1702,
      "amount": 7
    },
    {
      "id": 4155,
      "amount": 1
    },
    {
      "id": 5302,
      "amount": 20
    },
    {
      "id": 11897,
      "amount": 1
    },
    {
      "id": 3105,
      "amount": 2
    },
    {
      "id": 1215,
      "amount": 1
    },
    {
      "id": 1712,
      "amount": 2
    },
    {
      "id": 1725,
      "amount": 1
    },
    {
      "id": 3753,
      "amount": 4
    },
    {
      "id": 401,
      "amount": 185
    },
    {
      "id": 1741,
      "amount": 484
    },
    {
      "id": 442,
      "amount": 300
    },
    {
      "id": 7460,
      "amount": 3
    },
    {
      "id": 9757,
      "amount": 1
    },
    {
      "id": 7981,
      "amount": 1
    },
    {
      "id": 7979,
      "amount": 6
    },
    {
      "id": 10499,
      "amount": 3
    },
    {
      "id": 6326,
      "amount": 1
    },
    {
      "id": 6693,
      "amount": 2
    },
    {
      "id": 1099,
      "amount": 1
    },
    {
      "id": 1462,
      "amount": 2
    },
    {
      "id": 2357,
      "amount": 21
    },
    {
      "id": 5292,
      "amount": 10
    },
    {
      "id": 5301,
      "amount": 10
    },
    {
      "id": 5293,
      "amount": 10
    },
    {
      "id": 5299,
      "amount": 10
    },
    {
      "id": 5291,
      "amount": 8
    },
    {
      "id": 1059,
      "amount": 1
    },
    {
      "id": 1107,
      "amount": 1
    },
    {
      "id": 1131,
      "amount": 1
    },
    {
      "id": 2647,
      "amount": 2
    },
    {
      "id": 566,
      "amount": 1
    },
    {
      "id": 1724,
      "amount": 4
    },
    {
      "id": 1391,
      "amount": 58
    },
    {
      "id": 5289,
      "amount": 1
    },
    {
      "id": 10382,
      "amount": 1
    },
    {
      "id": 4012,
      "amount": 2
    },
    {
      "id": 6328,
      "amount": 1
    },
    {
      "id": 1779,
      "amount": 3534
    },
    {
      "id": 314,
      "amount": 927
    },
    {
      "id": 10828,
      "amount": 7
    },
    {
      "id": 9674,
      "amount": 1
    },
    {
      "id": 9676,
      "amount": 1
    },
    {
      "id": 5297,
      "amount": 1
    },
    {
      "id": 12610,
      "amount": 2
    },
    {
      "id": 1452,
      "amount": 2
    },
    {
      "id": 2503,
      "amount": 1
    },
    {
      "id": 2497,
      "amount": 1
    },
    {
      "id": 430,
      "amount": 2
    },
    {
      "id": 12445,
      "amount": 3
    },
    {
      "id": 12449,
      "amount": 3
    },
    {
      "id": 592,
      "amount": 4770
    },
    {
      "id": 2509,
      "amount": 23
    },
    {
      "id": 7323,
      "amount": 1
    },
    {
      "id": 12309,
      "amount": 1
    },
    {
      "id": 2651,
      "amount": 1
    },
    {
      "id": 12275,
      "amount": 2
    },
    {
      "id": 1359,
      "amount": 1
    },
    {
      "id": 379,
      "amount": 51
    },
    {
      "id": 12451,
      "amount": 4
    },
    {
      "id": 7114,
      "amount": 1
    },
    {
      "id": 3393,
      "amount": 1
    },
    {
      "id": 7458,
      "amount": 1
    },
    {
      "id": 4699,
      "amount": 7
    },
    {
      "id": 10952,
      "amount": 2
    },
    {
      "id": 1619,
      "amount": 24
    },
    {
      "id": 1035,
      "amount": 1
    },
    {
      "id": 6529,
      "amount": 56452
    },
    {
      "id": 6525,
      "amount": 3
    },
    {
      "id": 6526,
      "amount": 2
    },
    {
      "id": 6527,
      "amount": 3
    },
    {
      "id": 6524,
      "amount": 1
    },
    {
      "id": 12455,
      "amount": 3
    },
    {
      "id": 7574,
      "amount": 2
    },
    {
      "id": 7573,
      "amount": 3
    },
    {
      "id": 11023,
      "amount": 1
    },
    {
      "id": 6055,
      "amount": 4
    },
    {
      "id": 5294,
      "amount": 10
    },
    {
      "id": 5295,
      "amount": 10
    },
    {
      "id": 5298,
      "amount": 15
    },
    {
      "id": 5296,
      "amount": 490
    },
    {
      "id": 5300,
      "amount": 9
    },
    {
      "id": 5303,
      "amount": 13
    },
    {
      "id": 12520,
      "amount": 2
    },
    {
      "id": 1371,
      "amount": 2
    },
    {
      "id": 373,
      "amount": 43
    },
    {
      "id": 12516,
      "amount": 2
    },
    {
      "id": 12231,
      "amount": 1
    },
    {
      "id": 2491,
      "amount": 1
    },
    {
      "id": 857,
      "amount": 1
    },
    {
      "id": 7382,
      "amount": 1
    },
    {
      "id": 1540,
      "amount": 1
    },
    {
      "id": 4131,
      "amount": 2
    },
    {
      "id": 1517,
      "amount": 19
    },
    {
      "id": 995,
      "amount": 1
    },
    {
      "id": 10977,
      "amount": 1
    },
    {
      "id": 1777,
      "amount": 9385
    },
    {
      "id": 1734,
      "amount": 1830
    },
    {
      "id": 6528,
      "amount": 2
    },
    {
      "id": 7980,
      "amount": 1
    },
    {
      "id": 562,
      "amount": 529
    },
    {
      "id": 11232,
      "amount": 5
    },
    {
      "id": 11237,
      "amount": 8
    },
    {
      "id": 53,
      "amount": 15
    },
    {
      "id": 12612,
      "amount": 1
    },
    {
      "id": 12447,
      "amount": 1
    },
    {
      "id": 2723,
      "amount": 1
    },
    {
      "id": 1287,
      "amount": 1
    },
    {
      "id": 565,
      "amount": 1
    },
    {
      "id": 1733,
      "amount": 1
    },
    {
      "id": 12307,
      "amount": 1
    },
    {
      "id": 1267,
      "amount": 1
    },
    {
      "id": 658,
      "amount": 1
    },
    {
      "id": 19691,
      "amount": 1
    },
    {
      "id": 10551,
      "amount": 2
    },
    {
      "id": 52,
      "amount": 90
    },
    {
      "id": 292,
      "amount": 1
    },
    {
      "id": 1519,
      "amount": 17
    },
    {
      "id": 12453,
      "amount": 2
    },
    {
      "id": 5341,
      "amount": 1
    },
    {
      "id": 5343,
      "amount": 1
    },
    {
      "id": 7936,
      "amount": 2378
    },
    {
      "id": 1436,
      "amount": 2807
    },
    {
      "id": 12303,
      "amount": 1
    },
    {
      "id": 2550,
      "amount": 33
    },
    {
      "id": 2722,
      "amount": 2
    },
    {
      "id": 2890,
      "amount": 1
    },
    {
      "id": 2493,
      "amount": 1
    },
    {
      "id": 1347,
      "amount": 1
    },
    {
      "id": 8013,
      "amount": 10
    },
    {
      "id": 8007,
      "amount": 10
    },
    {
      "id": 8008,
      "amount": 10
    },
    {
      "id": 8009,
      "amount": 10
    },
    {
      "id": 8011,
      "amount": 10
    },
    {
      "id": 11741,
      "amount": 10
    },
    {
      "id": 11742,
      "amount": 10
    },
    {
      "id": 11743,
      "amount": 10
    },
    {
      "id": 11746,
      "amount": 10
    },
    {
      "id": 11745,
      "amount": 10
    },
    {
      "id": 1515,
      "amount": 150
    },
    {
      "id": 563,
      "amount": 30
    },
    {
      "id": 2458,
      "amount": 1
    },
    {
      "id": 1623,
      "amount": 1
    },
    {
      "id": 10010,
      "amount": 1
    },
    {
      "id": 985,
      "amount": 2
    },
    {
      "id": 12748,
      "amount": 1
    },
    {
      "id": 5509,
      "amount": 1
    },
    {
      "id": 5510,
      "amount": 1
    },
    {
      "id": 5512,
      "amount": 1
    },
    {
      "id": 5514,
      "amount": 1
    },
    {
      "id": 1597,
      "amount": 1
    },
    {
      "id": 1759,
      "amount": 3
    },
    {
      "id": 1149,
      "amount": 1
    },
    {
      "id": 12802,
      "amount": 1
    },
    {
      "id": 10322,
      "amount": 1
    },
    {
      "id": 1456,
      "amount": 1
    },
    {
      "id": 1297,
      "amount": 1
    },
    {
      "id": 1,
      "amount": 1
    },
    {
      "id": 1265,
      "amount": 1
    },
    {
      "id": 12695,
      "amount": 176
    },
    {
      "id": 211,
      "amount": 60
    },
    {
      "id": 205,
      "amount": 1
    },
    {
      "id": 227,
      "amount": 1499
    },
    {
      "id": 3026,
      "amount": 1
    },
    {
      "id": 121,
      "amount": 26
    },
    {
      "id": 255,
      "amount": 1
    },
    {
      "id": 263,
      "amount": 1
    },
    {
      "id": 245,
      "amount": 2
    },
    {
      "id": 2436,
      "amount": 15
    },
    {
      "id": 2440,
      "amount": 15
    },
    {
      "id": 2442,
      "amount": 4
    },
    {
      "id": 207,
      "amount": 1
    },
    {
      "id": 6691,
      "amount": 1
    },
    {
      "id": 2444,
      "amount": 14
    },
    {
      "id": 2434,
      "amount": 100
    },
    {
      "id": 141,
      "amount": 45
    },
    {
      "id": 143,
      "amount": 46
    },
    {
      "id": 173,
      "amount": 34
    },
    {
      "id": 2446,
      "amount": 4
    },
    {
      "id": 171,
      "amount": 35
    },
    {
      "id": 165,
      "amount": 2
    },
    {
      "id": 147,
      "amount": 3
    },
    {
      "id": 159,
      "amount": 4
    },
    {
      "id": 161,
      "amount": 4
    },
    {
      "id": 149,
      "amount": 4
    },
    {
      "id": 12701,
      "amount": 4
    },
    {
      "id": 229,
      "amount": 221
    },
    {
      "id": 177,
      "amount": 2
    },
    {
      "id": 12697,
      "amount": 2
    },
    {
      "id": 3024,
      "amount": 25
    },
    {
      "id": 139,
      "amount": 11
    },
    {
      "id": 169,
      "amount": 7
    },
    {
      "id": 12699,
      "amount": 1
    },
    {
      "id": 267,
      "amount": 45
    },
    {
      "id": 269,
      "amount": 74
    },
    {
      "id": 2452,
      "amount": 3
    },
    {
      "id": 395,
      "amount": 50
    },
    {
      "id": 383,
      "amount": 443
    },
    {
      "id": 13439,
      "amount": 48
    },
    {
      "id": 11934,
      "amount": 60
    },
    {
      "id": 341,
      "amount": 18
    },
    {
      "id": 311,
      "amount": 1
    },
    {
      "id": 303,
      "amount": 1
    },
    {
      "id": 323,
      "amount": 2
    },
    {
      "id": 315,
      "amount": 36
    },
    {
      "id": 321,
      "amount": 2
    },
    {
      "id": 319,
      "amount": 14
    },
    {
      "id": 355,
      "amount": 13
    },
    {
      "id": 361,
      "amount": 54
    },
    {
      "id": 12934,
      "amount": 1299
    },
    null,
    null,
    null,
    null,
    null,
    null,
    null,
    null,
    null,
    null,
    null,
    null,
    null,
    null,
    null,
    null,
    null,
    null,
    null,
    null,
    null,
    null,
    null,
    null,
    null,
    null,
    null,
    null,
    null,
    null,
    null,
    null,
    null,
    null,
    null,
    null,
    null,
    null,
    null,
    null,
    null,
    null,
    null,
    null,
    null,
    null,
    null,
    null,
    null,
    null,
    null,
    null,
    null,
    null,
    null,
    null,
    null,
    null,
    null,
    null,
    null,
    null,
    null,
    null,
    null,
    null,
    null,
    null,
    null,
    null,
    null,
    null,
    null,
    null,
    null,
    null,
    null,
    null,
    null,
    null,
    null,
    null,
    null,
    null,
    null,
    null,
    null,
    null,
    null,
    null,
    null,
    null,
    null,
    null,
    null,
    null,
    null,
    null,
    null,
    null
  ],
  "tabAmounts": [
    199,
    0,
    37,
    13,
    1,
    0,
    0,
    0,
    0,
    0
  ],
  "inventory": [
    null,
    null,
    null,
    null,
    null,
    null,
    {
      "id": 13320,
      "amount": 1
    },
    {
      "id": 537,
      "amount": 152
    },
    {
      "id": 11944,
      "amount": 63
    },
    null,
    null,
    null,
    null,
    null,
    null,
    null,
    null,
    null,
    null,
    null,
    {
      "id": 1514,
      "amount": 2016
    },
    null,
    null,
    null,
    null,
    null,
    null,
    null
  ],
  "equipment": [
    {
      "id": 19641,
      "amount": 1
    },
    {
      "id": 6570,
      "amount": 1
    },
    null,
    null,
    {
      "id": 10400,
      "amount": 1
    },
    null,
    null,
    {
      "id": 10402,
      "amount": 1
    },
    null,
    {
      "id": 7462,
      "amount": 1
    },
    {
      "id": 6328,
      "amount": 1
    },
    null,
    {
      "id": 2572,
      "amount": 1
    },
    null
  ],
  "shopItems": [
    null,
    null,
    null,
    null,
    null,
    null,
    null,
    null,
    null,
    null,
    null,
    null,
    null,
    null,
    null,
    null,
    null,
    null,
    null,
    null,
    null,
    null,
    null,
    null,
    null,
    null,
    null,
    null,
    null,
    null,
    null,
    null,
    null,
    null,
    null,
    null
  ],
  "shopPrices": [
    0,
    0,
    0,
    0,
    0,
    0,
    0,
    0,
    0,
    0,
    0,
    0,
    0,
    0,
    0,
    0,
    0,
    0,
    0,
    0,
    0,
    0,
    0,
    0,
    0,
    0,
    0,
    0,
    0,
    0,
    0,
    0,
    0,
    0,
    0,
    0
  ],
  "pouches": [
    0,
    0,
    0,
    0
  ]
}