{
  "bank": [
    {
      "id": 995,
      "amount": 1
    },
    {
      "id": 12695,
      "amount": 5
    },
    {
      "id": 1844,
      "amount": 1
    },
    {
      "id": 1845,
      "amount": 1
    },
    {
      "id": 1733,
      "amount": 1
    },
    {
      "id": 1734,
      "amount": 20
    },
    {
      "id": 1755,
      "amount": 2
    },
    {
      "id": 892,
      "amount": 1
    },
    {
      "id": 561,
      "amount": 15
    },
    {
      "id": 1753,
      "amount": 51
    },
    {
      "id": 563,
      "amount": 9
    },
    {
      "id": 205,
      "amount": 4
    },
    {
      "id": 2491,
      "amount": 1
    },
    {
      "id": 2682,
      "amount": 1
    },
    {
      "id": 1747,
      "amount": 3
    },
    {
      "id": 11992,
      "amount": 3
    },
    {
      "id": 203,
      "amount": 1
    },
    {
      "id": 3053,
      "amount": 1
    },
    {
      "id": 554,
      "amount": 448
    },
    {
      "id": 558,
      "amount": 98
    },
    {
      "id": 562,
      "amount": 26
    },
    {
      "id": 4101,
      "amount": 1
    },
    {
      "id": 4103,
      "amount": 1
    },
    {
      "id": 1381,
      "amount": 1
    },
    {
      "id": 882,
      "amount": 605
    },
    {
      "id": 841,
      "amount": 1
    },
    {
      "id": 1,
      "amount": 1
    },
    {
      "id": 303,
      "amount": 1
    },
    {
      "id": 2434,
      "amount": 2
    },
    {
      "id": 884,
      "amount": 237
    },
    {
      "id": 2444,
      "amount": 3
    },
    {
      "id": 12934,
      "amount": 832
    },
    {
      "id": 2550,
      "amount": 3
    },
    {
      "id": 171,
      "amount": 1
    },
    {
      "id": 141,
      "amount": 1
    },
    {
      "id": 5288,
      "amount": 1
    },
    {
      "id": 11849,
      "amount": 6
    },
    {
      "id": 201,
      "amount": 6
    },
    {
      "id": 555,
      "amount": 450
    },
    {
      "id": 1243,
      "amount": 1
    },
    {
      "id": 4155,
      "amount": 1
    },
    {
      "id": 199,
      "amount": 1
    },
    {
      "id": 449,
      "amount": 1
    },
    {
      "id": 1161,
      "amount": 1
    },
    {
      "id": 2805,
      "amount": 1
    },
    {
      "id": 1099,
      "amount": 1
    },
    {
      "id": 987,
      "amount": 2
    },
    {
      "id": 560,
      "amount": 45
    },
    {
      "id": 1249,
      "amount": 1
    },
    {
      "id": 207,
      "amount": 1
    },
    {
      "id": 211,
      "amount": 1
    },
    {
      "id": 859,
      "amount": 1
    },
    {
      "id": 1185,
      "amount": 1
    },
    {
      "id": 9674,
      "amount": 1
    },
    {
      "id": 4587,
      "amount": 1
    },
    {
      "id": 9676,
      "amount": 1
    },
    {
      "id": 1540,
      "amount": 1
    },
    {
      "id": 3105,
      "amount": 1
    },
    {
      "id": 2722,
      "amount": 1
    },
    {
      "id": 3486,
      "amount": 1
    },
    {
      "id": 169,
      "amount": 1
    },
    {
      "id": 139,
      "amount": 1
    },
    {
      "id": 6685,
      "amount": 1
    },
    {
      "id": 301,
      "amount": 1
    },
    {
      "id": 315,
      "amount": 35
    },
    {
      "id": 319,
      "amount": 13
    },
    {
      "id": 361,
      "amount": 13
    },
    {
      "id": 379,
      "amount": 181
    },
    {
      "id": 373,
      "amount": 10
    },
    {
      "id": 7946,
      "amount": 34
    },
    {
      "id": 383,
      "amount": 181
    },
    {
      "id": 385,
      "amount": 50
    },
    null,
    null,
    null,
    null,
    null,
    null,
    null,
    null,
    null,
    null,
    null,
    null,
    null,
    null,
    null,
    null,
    null,
    null,
    null,
    null,
    null,
    null,
    null,
    null,
    null,
    null,
    null,
    null,
    null,
    null,
    null,
    null,
    null,
    null,
    null,
    null,
    null,
    null,
    null,
    null,
    null,
    null,
    null,
    null,
    null,
    null,
    null,
    null,
    null,
    null,
    null,
    null,
    null,
    null,
    null,
    null,
    null,
    null,
    null,
    null,
    null,
    null,
    null,
    null,
    null,
    null,
    null,
    null,
    null,
    null,
    null,
    null,
    null,
    null,
    null,
    null,
    null,
    null,
    null,
    null,
    null,
    null,
    null,
    null,
    null,
    null,
    null,
    null,
    null,
    null,
    null,
    null,
    null,
    null,
    null,
    null,
    null,
    null,
    null,
    null,
    null,
    null,
    null,
    null,
    null,
    null,
    null,
    null,
    null,
    null,
    null,
    null,
    null,
    null,
    null,
    null,
    null,
    null,
    null,
    null,
    null,
    null,
    null,
    null,
    null,
    null,
    null,
    null,
    null,
    null,
    null,
    null,
    null,
    null,
    null,
    null,
    null,
    null,
    null,
    null,
    null,
    null,
    null,
    null,
    null,
    null,
    null,
    null,
    null,
    null,
    null,
    null,
    null,
    null,
    null,
    null,
    null,
    null,
    null,
    null,
    null,
    null,
    null,
    null,
    null,
    null,
    null,
    null,
    null,
    null,
    null,
    null,
    null,
    null,
    null,
    null,
    null,
    null,
    null,
    null,
    null,
    null,
    null,
    null,
    null,
    null,
    null,
    null,
    null,
    null,
    null,
    null,
    null,
    null,
    null,
    null,
    null,
    null,
    null,
    null,
    null,
    null,
    null,
    null,
    null,
    null,
    null,
    null,
    null,
    null,
    null,
    null,
    null,
    null,
    null,
    null,
    null,
    null,
    null,
    null,
    null,
    null,
    null,
    null,
    null,
    null,
    null,
    null,
    null,
    null,
    null,
    null,
    null,
    null,
    null,
    null,
    null,
    null,
    null,
    null,
    null,
    null,
    null,
    null,
    null,
    null,
    null,
    null,
    null,
    null,
    null,
    null,
    null,
    null,
    null,
    null,
    null,
    null,
    null,
    null,
    null,
    null,
    null,
    null,
    null,
    null,
    null,
    null,
    null,
    null,
    null,
    null,
    null,
    null,
    null,
    null,
    null,
    null
  ],
  "tabAmounts": [
    64,
    7,
    0,
    0,
    0,
    0,
    0,
    0,
    0,
    0
  ],
  "inventory": [
    {
      "id": 995,
      "amount": 482169
    },
    {
      "id": 311,
      "amount": 1
    },
    null,
    null,
    null,
    null,
    null,
    null,
    null,
    null,
    null,
    null,
    null,
    null,
    null,
    null,
    null,
    null,
    null,
    null,
    null,
    null,
    null,
    null,
    null,
    null,
    null,
    null
  ],
  "equipment": [
    {
      "id": 10828,
      "amount": 1
    },
    {
      "id": 10499,
      "amount": 1
    },
    {
      "id": 1712,
      "amount": 1
    },
    {
      "id": 861,
      "amount": 1
    },
    {
      "id": 2503,
      "amount": 1
    },
    null,
    null,
    {
      "id": 2497,
      "amount": 1
    },
    null,
    {
      "id": 7460,
      "amount": 1
    },
    {
      "id": 6328,
      "amount": 1
    },
    null,
    {
      "id": 2550,
      "amount": 1
    },
    {
      "id": 892,
      "amount": 75
    }
  ],
  "shopItems": [
    null,
    null,
    null,
    null,
    null,
    null,
    null,
    null,
    null,
    null,
    null,
    null,
    null,
    null,
    null,
    null,
    null,
    null,
    null,
    null,
    null,
    null,
    null,
    null,
    null,
    null,
    null,
    null,
    null,
    null,
    null,
    null,
    null,
    null,
    null,
    null
  ],
  "shopPrices": [
    0,
    0,
    0,
    0,
    0,
    0,
    0,
    0,
    0,
    0,
    0,
    0,
    0,
    0,
    0,
    0,
    0,
    0,
    0,
    0,
    0,
    0,
    0,
    0,
    0,
    0,
    0,
    0,
    0,
    0,
    0,
    0,
    0,
    0,
    0,
    0
  ],
  "pouches": [
    0,
    0,
    0,
    0
  ]
}