{
  "bank": [
    {
      "id": 995,
      "amount": 113154297
    },
    {
      "id": 558,
      "amount": 172
    },
    {
      "id": 562,
      "amount": 484
    },
    {
      "id": 565,
      "amount": 200
    },
    {
      "id": 560,
      "amount": 6151
    },
    {
      "id": 556,
      "amount": 1737
    },
    {
      "id": 7936,
      "amount": 2421
    },
    {
      "id": 555,
      "amount": 316
    },
    {
      "id": 561,
      "amount": 563
    },
    {
      "id": 566,
      "amount": 250
    },
    {
      "id": 9185,
      "amount": 3
    },
    {
      "id": 861,
      "amount": 9
    },
    {
      "id": 892,
      "amount": 374
    },
    {
      "id": 10499,
      "amount": 5
    },
    {
      "id": 10952,
      "amount": 4
    },
    {
      "id": 2491,
      "amount": 6
    },
    {
      "id": 2503,
      "amount": 3
    },
    {
      "id": 4749,
      "amount": 3
    },
    {
      "id": 4728,
      "amount": 3
    },
    {
      "id": 4726,
      "amount": 2
    },
    {
      "id": 4753,
      "amount": 1
    },
    {
      "id": 4730,
      "amount": 2
    },
    {
      "id": 4714,
      "amount": 3
    },
    {
      "id": 4932,
      "amount": 1
    },
    {
      "id": 987,
      "amount": 7
    },
    {
      "id": 4734,
      "amount": 3
    },
    {
      "id": 10548,
      "amount": 3
    },
    {
      "id": 1712,
      "amount": 4
    },
    {
      "id": 1704,
      "amount": 2
    },
    {
      "id": 9244,
      "amount": 306
    },
    {
      "id": 1187,
      "amount": 2
    },
    {
      "id": 4225,
      "amount": 3
    },
    {
      "id": 10828,
      "amount": 6
    },
    {
      "id": 4720,
      "amount": 2
    },
    {
      "id": 4722,
      "amount": 1
    },
    {
      "id": 1215,
      "amount": 1
    },
    {
      "id": 4738,
      "amount": 2
    },
    {
      "id": 7462,
      "amount": 6
    },
    {
      "id": 10552,
      "amount": 1
    },
    {
      "id": 6916,
      "amount": 1
    },
    {
      "id": 10547,
      "amount": 3
    },
    {
      "id": 12829,
      "amount": 1
    },
    {
      "id": 4712,
      "amount": 1
    },
    {
      "id": 292,
      "amount": 1
    },
    {
      "id": 10553,
      "amount": 1
    },
    {
      "id": 10549,
      "amount": 1
    },
    {
      "id": 11900,
      "amount": 1
    },
    {
      "id": 11899,
      "amount": 1
    },
    {
      "id": 9763,
      "amount": 1
    },
    {
      "id": 1580,
      "amount": 1
    },
    {
      "id": 13144,
      "amount": 1
    },
    {
      "id": 13072,
      "amount": 1
    },
    {
      "id": 8842,
      "amount": 1
    },
    {
      "id": 11664,
      "amount": 1
    },
    {
      "id": 13073,
      "amount": 1
    },
    {
      "id": 12926,
      "amount": 1
    },
    {
      "id": 12931,
      "amount": 1
    },
    {
      "id": 12006,
      "amount": 1
    },
    {
      "id": 12954,
      "amount": 1
    },
    {
      "id": 2572,
      "amount": 1
    },
    {
      "id": 11826,
      "amount": 1
    },
    {
      "id": 19547,
      "amount": 1
    },
    {
      "id": 19481,
      "amount": 1
    },
    {
      "id": 13235,
      "amount": 1
    },
    {
      "id": 13239,
      "amount": 1
    },
    {
      "id": 12415,
      "amount": 1
    },
    {
      "id": 12414,
      "amount": 1
    },
    {
      "id": 12418,
      "amount": 1
    },
    {
      "id": 10872,
      "amount": 1
    },
    {
      "id": 11834,
      "amount": 1
    },
    {
      "id": 11832,
      "amount": 1
    },
    {
      "id": 10340,
      "amount": 1
    },
    {
      "id": 6570,
      "amount": 1
    },
    {
      "id": 13243,
      "amount": 1
    },
    {
      "id": 11283,
      "amount": 1
    },
    {
      "id": 11828,
      "amount": 1
    },
    {
      "id": 11856,
      "amount": 1
    },
    {
      "id": 11854,
      "amount": 1
    },
    {
      "id": 11897,
      "amount": 1
    },
    {
      "id": 2722,
      "amount": 8
    },
    {
      "id": 7959,
      "amount": 4
    },
    {
      "id": 2682,
      "amount": 1
    },
    {
      "id": 11932,
      "amount": 1
    },
    {
      "id": 12608,
      "amount": 1
    },
    {
      "id": 11929,
      "amount": 1
    },
    {
      "id": 3026,
      "amount": 15
    },
    {
      "id": 3028,
      "amount": 17
    },
    {
      "id": 139,
      "amount": 2
    },
    {
      "id": 175,
      "amount": 1
    },
    {
      "id": 149,
      "amount": 2
    },
    {
      "id": 161,
      "amount": 2
    },
    {
      "id": 229,
      "amount": 78
    },
    {
      "id": 12699,
      "amount": 4
    },
    {
      "id": 2436,
      "amount": 36
    },
    {
      "id": 2444,
      "amount": 37
    },
    {
      "id": 6685,
      "amount": 39
    },
    {
      "id": 3024,
      "amount": 42
    },
    {
      "id": 2446,
      "amount": 8
    },
    {
      "id": 3030,
      "amount": 14
    },
    {
      "id": 12697,
      "amount": 7
    },
    {
      "id": 2440,
      "amount": 15
    },
    {
      "id": 173,
      "amount": 19
    },
    {
      "id": 12695,
      "amount": 224
    },
    {
      "id": 169,
      "amount": 10
    },
    {
      "id": 157,
      "amount": 10
    },
    {
      "id": 6687,
      "amount": 1
    },
    {
      "id": 171,
      "amount": 11
    },
    {
      "id": 159,
      "amount": 4
    },
    {
      "id": 12701,
      "amount": 3
    },
    {
      "id": 145,
      "amount": 9
    },
    {
      "id": 179,
      "amount": 1
    },
    {
      "id": 2456,
      "amount": 1
    },
    {
      "id": 147,
      "amount": 4
    },
    {
      "id": 2452,
      "amount": 23
    },
    {
      "id": 2434,
      "amount": 25
    },
    {
      "id": 141,
      "amount": 5
    },
    {
      "id": 143,
      "amount": 1
    },
    {
      "id": 397,
      "amount": 2210
    },
    {
      "id": 13441,
      "amount": 795
    },
    {
      "id": 11936,
      "amount": 503
    },
    {
      "id": 385,
      "amount": 2157
    },
    {
      "id": 1779,
      "amount": 4519
    },
    {
      "id": 12934,
      "amount": 1781
    },
    {
      "id": 3834,
      "amount": 1
    },
    {
      "id": 563,
      "amount": 724
    },
    {
      "id": 1987,
      "amount": 751
    },
    {
      "id": 5974,
      "amount": 1
    },
    {
      "id": 9193,
      "amount": 168
    },
    {
      "id": 1619,
      "amount": 22
    },
    {
      "id": 464,
      "amount": 20
    },
    {
      "id": 1939,
      "amount": 1
    },
    {
      "id": 2359,
      "amount": 20
    },
    {
      "id": 8782,
      "amount": 100
    },
    {
      "id": 2366,
      "amount": 7
    },
    {
      "id": 12603,
      "amount": 1
    },
    {
      "id": 13233,
      "amount": 4
    },
    {
      "id": 10977,
      "amount": 1
    },
    {
      "id": 10976,
      "amount": 1
    },
    {
      "id": 7158,
      "amount": 1
    },
    {
      "id": 13229,
      "amount": 1
    },
    {
      "id": 7979,
      "amount": 3
    },
    {
      "id": 1149,
      "amount": 4
    },
    {
      "id": 4587,
      "amount": 4
    },
    {
      "id": 4740,
      "amount": 228
    },
    {
      "id": 2368,
      "amount": 4
    },
    {
      "id": 3140,
      "amount": 3
    },
    {
      "id": 6289,
      "amount": 36
    },
    {
      "id": 4585,
      "amount": 5
    },
    {
      "id": 4745,
      "amount": 1
    },
    {
      "id": 4751,
      "amount": 1
    },
    {
      "id": 19484,
      "amount": 1903
    },
    {
      "id": 4747,
      "amount": 1
    },
    {
      "id": 6914,
      "amount": 4
    },
    {
      "id": 536,
      "amount": 173
    },
    {
      "id": 11943,
      "amount": 100
    },
    {
      "id": 7980,
      "amount": 3
    },
    {
      "id": 830,
      "amount": 1851
    },
    {
      "id": 6524,
      "amount": 1
    },
    {
      "id": 4087,
      "amount": 2
    },
    {
      "id": 10540,
      "amount": 2
    },
    {
      "id": 4214,
      "amount": 2
    },
    {
      "id": 4278,
      "amount": 13
    },
    {
      "id": 3460,
      "amount": 1
    },
    {
      "id": 12800,
      "amount": 1
    },
    {
      "id": 11930,
      "amount": 1
    },
    {
      "id": 11230,
      "amount": 26
    },
    {
      "id": 10286,
      "amount": 2
    },
    {
      "id": 10292,
      "amount": 3
    },
    {
      "id": 10288,
      "amount": 2
    },
    {
      "id": 10294,
      "amount": 2
    },
    {
      "id": 10290,
      "amount": 1
    },
    {
      "id": 10314,
      "amount": 1
    },
    {
      "id": 12498,
      "amount": 1
    },
    {
      "id": 12447,
      "amount": 3
    },
    {
      "id": 12451,
      "amount": 1
    },
    {
      "id": 12455,
      "amount": 2
    },
    {
      "id": 12445,
      "amount": 6
    },
    {
      "id": 12449,
      "amount": 6
    },
    {
      "id": 12453,
      "amount": 1
    },
    {
      "id": 2633,
      "amount": 1
    },
    {
      "id": 2665,
      "amount": 1
    },
    {
      "id": 1093,
      "amount": 8
    },
    {
      "id": 7384,
      "amount": 2
    },
    {
      "id": 2669,
      "amount": 3
    },
    {
      "id": 12341,
      "amount": 1
    },
    {
      "id": 7374,
      "amount": 2
    },
    {
      "id": 1432,
      "amount": 6
    },
    {
      "id": 12502,
      "amount": 3
    },
    {
      "id": 1147,
      "amount": 7
    },
    {
      "id": 1303,
      "amount": 5
    },
    {
      "id": 2619,
      "amount": 1
    },
    {
      "id": 2659,
      "amount": 1
    },
    {
      "id": 1113,
      "amount": 4
    },
    {
      "id": 12305,
      "amount": 2
    },
    {
      "id": 12359,
      "amount": 1
    },
    {
      "id": 1289,
      "amount": 5
    },
    {
      "id": 7319,
      "amount": 1
    },
    {
      "id": 2675,
      "amount": 2
    },
    {
      "id": 10438,
      "amount": 1
    },
    {
      "id": 7376,
      "amount": 3
    },
    {
      "id": 1163,
      "amount": 8
    },
    {
      "id": 1185,
      "amount": 3
    },
    {
      "id": 2579,
      "amount": 3
    },
    {
      "id": 1333,
      "amount": 4
    },
    {
      "id": 12375,
      "amount": 3
    },
    {
      "id": 10458,
      "amount": 1
    },
    {
      "id": 2657,
      "amount": 3
    },
    {
      "id": 1079,
      "amount": 6
    },
    {
      "id": 1127,
      "amount": 6
    },
    {
      "id": 2641,
      "amount": 1
    },
    {
      "id": 7342,
      "amount": 2
    },
    {
      "id": 10372,
      "amount": 1
    },
    {
      "id": 2673,
      "amount": 2
    },
    {
      "id": 2627,
      "amount": 1
    },
    {
      "id": 3474,
      "amount": 1
    },
    {
      "id": 1373,
      "amount": 1
    },
    {
      "id": 2653,
      "amount": 3
    },
    {
      "id": 2643,
      "amount": 1
    },
    {
      "id": 10296,
      "amount": 2
    },
    {
      "id": 10376,
      "amount": 1
    },
    {
      "id": 10302,
      "amount": 1
    },
    {
      "id": 12325,
      "amount": 3
    },
    {
      "id": 3480,
      "amount": 3
    },
    {
      "id": 2667,
      "amount": 2
    },
    {
      "id": 12227,
      "amount": 1
    },
    {
      "id": 12520,
      "amount": 1
    },
    {
      "id": 3479,
      "amount": 2
    },
    {
      "id": 12323,
      "amount": 2
    },
    {
      "id": 12518,
      "amount": 1
    },
    {
      "id": 2497,
      "amount": 2
    },
    {
      "id": 7354,
      "amount": 2
    },
    {
      "id": 12528,
      "amount": 1
    },
    {
      "id": 7398,
      "amount": 1
    },
    {
      "id": 12538,
      "amount": 1
    },
    {
      "id": 10452,
      "amount": 2
    },
    {
      "id": 7348,
      "amount": 1
    },
    {
      "id": 2661,
      "amount": 1
    },
    {
      "id": 12307,
      "amount": 2
    },
    {
      "id": 12510,
      "amount": 1
    },
    {
      "id": 1213,
      "amount": 5
    },
    {
      "id": 12504,
      "amount": 1
    },
    {
      "id": 10368,
      "amount": 2
    },
    {
      "id": 10442,
      "amount": 1
    },
    {
      "id": 3486,
      "amount": 3
    },
    {
      "id": 3481,
      "amount": 1
    },
    {
      "id": 3488,
      "amount": 1
    },
    {
      "id": 3485,
      "amount": 1
    },
    {
      "id": 10320,
      "amount": 1
    },
    {
      "id": 19689,
      "amount": 1
    },
    {
      "id": 12317,
      "amount": 1
    },
    {
      "id": 10304,
      "amount": 2
    },
    {
      "id": 2621,
      "amount": 1
    },
    {
      "id": 7336,
      "amount": 2
    },
    {
      "id": 1700,
      "amount": 1
    },
    {
      "id": 12490,
      "amount": 1
    },
    {
      "id": 7360,
      "amount": 1
    },
    {
      "id": 12301,
      "amount": 1
    },
    {
      "id": 2631,
      "amount": 1
    },
    {
      "id": 2605,
      "amount": 2
    },
    {
      "id": 1201,
      "amount": 3
    },
    {
      "id": 10380,
      "amount": 1
    },
    {
      "id": 12275,
      "amount": 1
    },
    {
      "id": 12530,
      "amount": 1
    },
    {
      "id": 2611,
      "amount": 1
    },
    {
      "id": 12197,
      "amount": 1
    },
    {
      "id": 12303,
      "amount": 1
    },
    {
      "id": 12522,
      "amount": 1
    },
    {
      "id": 2645,
      "amount": 1
    },
    {
      "id": 7346,
      "amount": 1
    },
    {
      "id": 7321,
      "amount": 1
    },
    {
      "id": 11942,
      "amount": 1
    },
    {
      "id": 12532,
      "amount": 1
    },
    {
      "id": 7380,
      "amount": 1
    },
    {
      "id": 1275,
      "amount": 2
    },
    {
      "id": 207,
      "amount": 50
    },
    {
      "id": 267,
      "amount": 40
    },
    {
      "id": 269,
      "amount": 30
    },
    {
      "id": 453,
      "amount": 732
    },
    {
      "id": 440,
      "amount": 503
    },
    {
      "id": 311,
      "amount": 2
    },
    {
      "id": 303,
      "amount": 2
    },
    {
      "id": 301,
      "amount": 2
    },
    {
      "id": 315,
      "amount": 53
    },
    {
      "id": 319,
      "amount": 18
    },
    {
      "id": 329,
      "amount": 10
    },
    {
      "id": 333,
      "amount": 12
    },
    {
      "id": 309,
      "amount": 1
    },
    {
      "id": 307,
      "amount": 1
    },
    {
      "id": 314,
      "amount": 478
    },
    {
      "id": 379,
      "amount": 150
    },
    {
      "id": 305,
      "amount": 1
    },
    {
      "id": 7946,
      "amount": 507
    },
    {
      "id": 2361,
      "amount": 236
    },
    {
      "id": 1515,
      "amount": 544
    },
    {
      "id": 1513,
      "amount": 310
    },
    {
      "id": 2363,
      "amount": 99
    },
    {
      "id": 451,
      "amount": 13
    },
    {
      "id": 1755,
      "amount": 1
    },
    {
      "id": 2347,
      "amount": 1
    },
    {
      "id": 590,
      "amount": 1
    },
    {
      "id": 1359,
      "amount": 2
    },
    {
      "id": 383,
      "amount": 2332
    },
    {
      "id": 946,
      "amount": 1
    },
    {
      "id": 447,
      "amount": 622
    },
    {
      "id": 444,
      "amount": 8
    },
    {
      "id": 449,
      "amount": 10
    },
    {
      "id": 5291,
      "amount": 20
    },
    {
      "id": 5295,
      "amount": 20
    },
    {
      "id": 5299,
      "amount": 20
    },
    {
      "id": 5300,
      "amount": 20
    },
    {
      "id": 5301,
      "amount": 20
    },
    {
      "id": 5302,
      "amount": 20
    },
    {
      "id": 5304,
      "amount": 20
    },
    {
      "id": 5303,
      "amount": 20
    },
    {
      "id": 13439,
      "amount": 7
    },
    {
      "id": 11934,
      "amount": 1
    },
    {
      "id": 395,
      "amount": 5
    },
    {
      "id": 11260,
      "amount": 18
    },
    {
      "id": 10010,
      "amount": 1
    },
    {
      "id": 3122,
      "amount": 6
    },
    {
      "id": 1123,
      "amount": 1
    },
    {
      "id": 1073,
      "amount": 1
    },
    {
      "id": 1161,
      "amount": 1
    },
    {
      "id": 6912,
      "amount": 1
    },
    {
      "id": 1,
      "amount": 1
    },
    {
      "id": 6529,
      "amount": 16060
    },
    {
      "id": 9676,
      "amount": 1
    },
    {
      "id": 9674,
      "amount": 1
    },
    {
      "id": 8851,
      "amount": 20
    },
    {
      "id": 8850,
      "amount": 1
    },
    {
      "id": 1393,
      "amount": 1
    },
    {
      "id": 1731,
      "amount": 2
    },
    {
      "id": 1643,
      "amount": 1
    },
    {
      "id": 1347,
      "amount": 3
    },
    {
      "id": 1759,
      "amount": 5
    },
    {
      "id": 70,
      "amount": 1356
    },
    {
      "id": 952,
      "amount": 1
    },
    {
      "id": 2890,
      "amount": 1
    },
    {
      "id": 2493,
      "amount": 1
    },
    {
      "id": 1927,
      "amount": 1
    },
    {
      "id": 3105,
      "amount": 4
    },
    null,
    null,
    null,
    null,
    null,
    null,
    null,
    null,
    null
  ],
  "tabAmounts": [
    85,
    36,
    45,
    107,
    46,
    22,
    0,
    0,
    0,
    0
  ],
  "inventory": [
    {
      "id": 4724,
      "amount": 1
    },
    {
      "id": 4728,
      "amount": 1
    },
    {
      "id": 4730,
      "amount": 1
    },
    {
      "id": 4726,
      "amount": 1
    },
    null,
    null,
    null,
    null,
    null,
    null,
    {
      "id": 11335,
      "amount": 1
    },
    {
      "id": 11335,
      "amount": 1
    },
    {
      "id": 12829,
      "amount": 1
    },
    null,
    null,
    null,
    null,
    null,
    null,
    null,
    null,
    null,
    null,
    null,
    null,
    null,
    null,
    null
  ],
  "equipment": [
    {
      "id": 11863,
      "amount": 1
    },
    {
      "id": 6570,
      "amount": 1
    },
    null,
    null,
    null,
    null,
    null,
    null,
    null,
    null,
    {
      "id": 11840,
      "amount": 1
    },
    null,
    null,
    null
  ],
  "shopItems": [
    null,
    null,
    null,
    null,
    null,
    null,
    null,
    null,
    null,
    null,
    null,
    null,
    null,
    null,
    null,
    null,
    null,
    null,
    null,
    null,
    null,
    null,
    null,
    null,
    null,
    null,
    null,
    null,
    null,
    null,
    null,
    null,
    null,
    null,
    null,
    null
  ],
  "shopPrices": [
    0,
    0,
    0,
    0,
    0,
    0,
    0,
    0,
    0,
    0,
    0,
    0,
    0,
    0,
    0,
    0,
    0,
    0,
    0,
    0,
    0,
    0,
    0,
    0,
    0,
    0,
    0,
    0,
    0,
    0,
    0,
    0,
    0,
    0,
    0,
    0
  ],
  "pouches": [
    0,
    0,
    0,
    0
  ]
}