{
  "bank": [
    {
      "id": 12695,
      "amount": 2
    },
    {
      "id": 7946,
      "amount": 74
    },
    {
      "id": 861,
      "amount": 2
    },
    {
      "id": 892,
      "amount": 100
    },
    {
      "id": 562,
      "amount": 102
    },
    {
      "id": 558,
      "amount": 588
    },
    {
      "id": 554,
      "amount": 875
    },
    {
      "id": 1381,
      "amount": 1
    },
    {
      "id": 1333,
      "amount": 1
    },
    {
      "id": 1327,
      "amount": 1
    },
    {
      "id": 411,
      "amount": 1
    },
    {
      "id": 1321,
      "amount": 1
    },
    {
      "id": 407,
      "amount": 2
    },
    {
      "id": 1846,
      "amount": 1
    },
    {
      "id": 1844,
      "amount": 1
    },
    {
      "id": 1845,
      "amount": 1
    },
    {
      "id": 2363,
      "amount": 1
    },
    {
      "id": 1969,
      "amount": 1
    },
    {
      "id": 1185,
      "amount": 4
    },
    {
      "id": 6916,
      "amount": 1
    },
    {
      "id": 1249,
      "amount": 3
    },
    {
      "id": 1127,
      "amount": 2
    },
    {
      "id": 1099,
      "amount": 2
    },
    {
      "id": 882,
      "amount": 463
    },
    {
      "id": 9143,
      "amount": 8
    },
    {
      "id": 1361,
      "amount": 1
    },
    {
      "id": 1733,
      "amount": 1
    },
    {
      "id": 12223,
      "amount": 1
    },
    {
      "id": 2366,
      "amount": 6
    },
    {
      "id": 1135,
      "amount": 4
    },
    {
      "id": 9340,
      "amount": 126
    },
    {
      "id": 841,
      "amount": 1
    },
    {
      "id": 884,
      "amount": 56
    },
    {
      "id": 1702,
      "amount": 2
    },
    {
      "id": 12612,
      "amount": 4
    },
    {
      "id": 10828,
      "amount": 3
    },
    {
      "id": 385,
      "amount": 187
    },
    {
      "id": 2444,
      "amount": 13
    },
    {
      "id": 2442,
      "amount": 11
    },
    {
      "id": 2452,
      "amount": 18
    },
    {
      "id": 3024,
      "amount": 35
    },
    {
      "id": 229,
      "amount": 5
    },
    {
      "id": 4155,
      "amount": 1
    },
    {
      "id": 163,
      "amount": 8
    },
    {
      "id": 555,
      "amount": 575
    },
    {
      "id": 11849,
      "amount": 5
    },
    {
      "id": 3030,
      "amount": 5
    },
    {
      "id": 559,
      "amount": 81
    },
    {
      "id": 4740,
      "amount": 130
    },
    {
      "id": 4587,
      "amount": 3
    },
    {
      "id": 6889,
      "amount": 1
    },
    {
      "id": 207,
      "amount": 50
    },
    {
      "id": 6322,
      "amount": 3
    },
    {
      "id": 1629,
      "amount": 6
    },
    {
      "id": 169,
      "amount": 4
    },
    {
      "id": 2368,
      "amount": 5
    },
    {
      "id": 3028,
      "amount": 3
    },
    {
      "id": 6571,
      "amount": 6
    },
    {
      "id": 1452,
      "amount": 2
    },
    {
      "id": 329,
      "amount": 3
    },
    {
      "id": 1521,
      "amount": 56
    },
    {
      "id": 1517,
      "amount": 17
    },
    {
      "id": 2446,
      "amount": 22
    },
    {
      "id": 1149,
      "amount": 3
    },
    {
      "id": 379,
      "amount": 19
    },
    {
      "id": 1079,
      "amount": 4
    },
    {
      "id": 12608,
      "amount": 8
    },
    {
      "id": 7336,
      "amount": 1
    },
    {
      "id": 1161,
      "amount": 2
    },
    {
      "id": 1113,
      "amount": 1
    },
    {
      "id": 1347,
      "amount": 1
    },
    {
      "id": 2493,
      "amount": 1
    },
    {
      "id": 175,
      "amount": 2
    },
    {
      "id": 6912,
      "amount": 2
    },
    {
      "id": 565,
      "amount": 89
    },
    {
      "id": 7356,
      "amount": 1
    },
    {
      "id": 1371,
      "amount": 1
    },
    {
      "id": 2637,
      "amount": 2
    },
    {
      "id": 2890,
      "amount": 4
    },
    {
      "id": 3026,
      "amount": 2
    },
    {
      "id": 8782,
      "amount": 50
    },
    {
      "id": 12934,
      "amount": 5619
    },
    {
      "id": 2454,
      "amount": 1
    },
    {
      "id": 3144,
      "amount": 2
    },
    {
      "id": 11260,
      "amount": 22
    },
    {
      "id": 6685,
      "amount": 60
    },
    {
      "id": 6689,
      "amount": 1
    },
    {
      "id": 173,
      "amount": 1
    },
    {
      "id": 6529,
      "amount": 16064
    },
    {
      "id": 2349,
      "amount": 10
    },
    {
      "id": 438,
      "amount": 306
    },
    {
      "id": 436,
      "amount": 301
    },
    {
      "id": 2351,
      "amount": 13
    },
    {
      "id": 453,
      "amount": 614
    },
    {
      "id": 1267,
      "amount": 1
    },
    {
      "id": 444,
      "amount": 326
    },
    {
      "id": 165,
      "amount": 1
    },
    {
      "id": 5520,
      "amount": 1
    },
    {
      "id": 526,
      "amount": 301
    },
    {
      "id": 7936,
      "amount": 94
    },
    {
      "id": 249,
      "amount": 1
    },
    {
      "id": 2550,
      "amount": 4
    },
    {
      "id": 177,
      "amount": 1
    },
    {
      "id": 1440,
      "amount": 1
    },
    {
      "id": 1059,
      "amount": 1
    },
    {
      "id": 1454,
      "amount": 1
    },
    {
      "id": 3393,
      "amount": 4
    },
    {
      "id": 10952,
      "amount": 2
    },
    {
      "id": 7460,
      "amount": 3
    },
    {
      "id": 12610,
      "amount": 3
    },
    {
      "id": 12938,
      "amount": 3
    },
    {
      "id": 10499,
      "amount": 2
    },
    {
      "id": 3387,
      "amount": 3
    },
    {
      "id": 3749,
      "amount": 1
    },
    {
      "id": 9185,
      "amount": 2
    },
    {
      "id": 2497,
      "amount": 1
    },
    {
      "id": 2491,
      "amount": 1
    },
    {
      "id": 11941,
      "amount": 1
    },
    {
      "id": 4131,
      "amount": 2
    },
    {
      "id": 3479,
      "amount": 1
    },
    {
      "id": 373,
      "amount": 1
    },
    {
      "id": 10444,
      "amount": 1
    },
    {
      "id": 12451,
      "amount": 2
    },
    {
      "id": 3391,
      "amount": 2
    },
    {
      "id": 3841,
      "amount": 4
    },
    {
      "id": 3385,
      "amount": 1
    },
    {
      "id": 7344,
      "amount": 1
    },
    {
      "id": 10308,
      "amount": 1
    },
    {
      "id": 560,
      "amount": 140
    },
    {
      "id": 333,
      "amount": 2
    },
    {
      "id": 12207,
      "amount": 1
    },
    {
      "id": 1269,
      "amount": 1
    },
    {
      "id": 1077,
      "amount": 1
    },
    {
      "id": 556,
      "amount": 787
    },
    {
      "id": 1345,
      "amount": 1
    },
    {
      "id": 1430,
      "amount": 1
    },
    {
      "id": 1301,
      "amount": 1
    },
    {
      "id": 12265,
      "amount": 1
    },
    {
      "id": 12271,
      "amount": 1
    },
    {
      "id": 12305,
      "amount": 2
    },
    {
      "id": 12299,
      "amount": 4
    },
    {
      "id": 12307,
      "amount": 1
    },
    {
      "id": 2645,
      "amount": 3
    },
    {
      "id": 7352,
      "amount": 1
    },
    {
      "id": 6908,
      "amount": 2
    },
    {
      "id": 1478,
      "amount": 2
    },
    {
      "id": 4095,
      "amount": 1
    },
    {
      "id": 4738,
      "amount": 2
    },
    {
      "id": 3122,
      "amount": 2
    },
    {
      "id": 3833,
      "amount": 1
    },
    {
      "id": 12455,
      "amount": 2
    },
    {
      "id": 12375,
      "amount": 1
    },
    {
      "id": 1694,
      "amount": 1
    },
    {
      "id": 5547,
      "amount": 2
    },
    {
      "id": 5512,
      "amount": 1
    },
    {
      "id": 6814,
      "amount": 27
    },
    {
      "id": 6330,
      "amount": 3
    },
    {
      "id": 2678,
      "amount": 1
    },
    {
      "id": 12697,
      "amount": 3
    },
    {
      "id": 6324,
      "amount": 2
    },
    {
      "id": 859,
      "amount": 1
    },
    {
      "id": 952,
      "amount": 1
    },
    {
      "id": 12279,
      "amount": 1
    },
    {
      "id": 4823,
      "amount": 2
    },
    {
      "id": 1357,
      "amount": 1
    },
    {
      "id": 3843,
      "amount": 1
    },
    {
      "id": 3753,
      "amount": 6
    },
    {
      "id": 13275,
      "amount": 1
    },
    {
      "id": 4089,
      "amount": 1
    },
    {
      "id": 6326,
      "amount": 1
    },
    {
      "id": 4097,
      "amount": 2
    },
    {
      "id": 12453,
      "amount": 1
    },
    {
      "id": 12445,
      "amount": 1
    },
    {
      "id": 12449,
      "amount": 1
    },
    {
      "id": 1093,
      "amount": 2
    },
    {
      "id": 1753,
      "amount": 17
    },
    {
      "id": 2436,
      "amount": 20
    },
    {
      "id": 1147,
      "amount": 1
    },
    {
      "id": 557,
      "amount": 500
    },
    {
      "id": 317,
      "amount": 200
    },
    {
      "id": 331,
      "amount": 200
    },
    {
      "id": 371,
      "amount": 200
    },
    {
      "id": 395,
      "amount": 200
    },
    {
      "id": 11934,
      "amount": 200
    },
    {
      "id": 447,
      "amount": 300
    },
    {
      "id": 449,
      "amount": 300
    },
    {
      "id": 451,
      "amount": 330
    },
    {
      "id": 1631,
      "amount": 400
    },
    {
      "id": 987,
      "amount": 1
    },
    {
      "id": 1779,
      "amount": 328
    },
    {
      "id": 563,
      "amount": 261
    },
    {
      "id": 1987,
      "amount": 250
    },
    {
      "id": 5974,
      "amount": 20
    },
    {
      "id": 13144,
      "amount": 1
    },
    {
      "id": 12936,
      "amount": 1
    },
    {
      "id": 13263,
      "amount": 1
    },
    {
      "id": 13068,
      "amount": 1
    },
    {
      "id": 9748,
      "amount": 1
    },
    {
      "id": 1513,
      "amount": 50
    },
    {
      "id": 7783,
      "amount": 2
    },
    {
      "id": 2577,
      "amount": 1
    },
    {
      "id": 7786,
      "amount": 1
    },
    {
      "id": 12751,
      "amount": 1
    },
    {
      "id": 7789,
      "amount": 1
    },
    {
      "id": 2803,
      "amount": 1
    },
    {
      "id": 11930,
      "amount": 2
    },
    {
      "id": 1,
      "amount": 1
    },
    {
      "id": 995,
      "amount": 2147306647
    },
    {
      "id": 9749,
      "amount": 1
    },
    {
      "id": 11335,
      "amount": 1
    },
    {
      "id": 845,
      "amount": 1
    },
    {
      "id": 12926,
      "amount": 3
    },
    {
      "id": 985,
      "amount": 3
    },
    {
      "id": 11230,
      "amount": 151
    },
    {
      "id": 4757,
      "amount": 2
    },
    {
      "id": 13307,
      "amount": 2147273647
    },
    {
      "id": 10348,
      "amount": 11
    },
    {
      "id": 1048,
      "amount": 1
    },
    {
      "id": 10352,
      "amount": 1
    },
    {
      "id": 1050,
      "amount": 2
    },
    {
      "id": 13182,
      "amount": 1
    },
    {
      "id": 19610,
      "amount": 1
    },
    {
      "id": 11862,
      "amount": 22
    },
    {
      "id": 10344,
      "amount": 1
    },
    {
      "id": 12817,
      "amount": 1
    },
    {
      "id": 3481,
      "amount": 5
    },
    {
      "id": 3483,
      "amount": 2
    },
    {
      "id": 3486,
      "amount": 2
    },
    {
      "id": 3488,
      "amount": 3
    },
    {
      "id": 11847,
      "amount": 1
    },
    {
      "id": 292,
      "amount": 2
    },
    {
      "id": 12904,
      "amount": 1
    },
    {
      "id": 13343,
      "amount": 1
    },
    {
      "id": 13276,
      "amount": 3
    },
    {
      "id": 6737,
      "amount": 5
    },
    {
      "id": 6731,
      "amount": 2
    },
    {
      "id": 12004,
      "amount": 2
    },
    {
      "id": 11980,
      "amount": 3
    },
    {
      "id": 532,
      "amount": 300
    },
    {
      "id": 536,
      "amount": 330
    },
    {
      "id": 11943,
      "amount": 282
    },
    {
      "id": 11663,
      "amount": 9
    },
    {
      "id": 11664,
      "amount": 9
    },
    {
      "id": 11665,
      "amount": 9
    },
    {
      "id": 8839,
      "amount": 9
    },
    {
      "id": 8840,
      "amount": 9
    },
    {
      "id": 8842,
      "amount": 9
    },
    {
      "id": 10551,
      "amount": 13
    },
    {
      "id": 6570,
      "amount": 10
    },
    {
      "id": 7462,
      "amount": 12
    },
    {
      "id": 2722,
      "amount": 51
    },
    {
      "id": 12389,
      "amount": 1
    },
    {
      "id": 1712,
      "amount": 1
    },
    {
      "id": 12773,
      "amount": 1
    },
    {
      "id": 4720,
      "amount": 2
    },
    {
      "id": 4087,
      "amount": 4
    },
    {
      "id": 11840,
      "amount": 2
    },
    {
      "id": 2572,
      "amount": 1
    },
    {
      "id": 12795,
      "amount": 1
    },
    {
      "id": 303,
      "amount": 1
    },
    {
      "id": 305,
      "amount": 1
    },
    {
      "id": 323,
      "amount": 2
    },
    {
      "id": 321,
      "amount": 4
    },
    {
      "id": 590,
      "amount": 1
    },
    {
      "id": 7142,
      "amount": 1
    },
    {
      "id": 12247,
      "amount": 1
    },
    {
      "id": 6619,
      "amount": 2
    },
    {
      "id": 10394,
      "amount": 1
    },
    {
      "id": 10879,
      "amount": 3
    },
    {
      "id": 9470,
      "amount": 1
    },
    {
      "id": 10370,
      "amount": 2
    },
    {
      "id": 6920,
      "amount": 2
    },
    {
      "id": 617,
      "amount": 54
    },
    {
      "id": 12927,
      "amount": 1
    },
    {
      "id": 12829,
      "amount": 2
    },
    {
      "id": 3140,
      "amount": 5
    },
    {
      "id": 13274,
      "amount": 1
    },
    {
      "id": 11901,
      "amount": 1
    },
    {
      "id": 13277,
      "amount": 7
    },
    {
      "id": 7979,
      "amount": 6
    },
    {
      "id": 6524,
      "amount": 2
    },
    {
      "id": 4151,
      "amount": 3
    },
    {
      "id": 397,
      "amount": 1249
    },
    {
      "id": 1183,
      "amount": 1
    },
    {
      "id": 4716,
      "amount": 2
    },
    {
      "id": 4722,
      "amount": 1
    },
    {
      "id": 4718,
      "amount": 3
    },
    {
      "id": 12006,
      "amount": 2
    },
    {
      "id": 10350,
      "amount": 1
    },
    {
      "id": 10346,
      "amount": 1
    },
    {
      "id": 10386,
      "amount": 1
    },
    {
      "id": 10388,
      "amount": 2
    },
    {
      "id": 4236,
      "amount": 21
    },
    {
      "id": 10872,
      "amount": 3
    },
    {
      "id": 1499,
      "amount": 3
    },
    {
      "id": 1580,
      "amount": 3
    },
    {
      "id": 12399,
      "amount": 1
    },
    {
      "id": 748,
      "amount": 2
    },
    {
      "id": 4710,
      "amount": 1
    },
    {
      "id": 4747,
      "amount": 2
    },
    {
      "id": 1462,
      "amount": 1
    },
    {
      "id": 5302,
      "amount": 50
    },
    {
      "id": 19484,
      "amount": 1000
    },
    {
      "id": 6914,
      "amount": 1
    },
    {
      "id": 4759,
      "amount": 1
    },
    {
      "id": 4753,
      "amount": 1
    },
    {
      "id": 10548,
      "amount": 3
    },
    {
      "id": 4214,
      "amount": 2
    },
    {
      "id": 13092,
      "amount": 1
    },
    {
      "id": 11283,
      "amount": 1
    },
    {
      "id": 12954,
      "amount": 3
    },
    {
      "id": 7980,
      "amount": 3
    },
    {
      "id": 4755,
      "amount": 2
    },
    {
      "id": 4751,
      "amount": 1
    },
    {
      "id": 11936,
      "amount": 25
    },
    {
      "id": 4732,
      "amount": 1
    },
    {
      "id": 383,
      "amount": 50
    },
    {
      "id": 4749,
      "amount": 1
    },
    {
      "id": 4714,
      "amount": 1
    },
    {
      "id": 4734,
      "amount": 1
    },
    {
      "id": 2682,
      "amount": 1
    },
    null,
    null,
    null,
    null,
    null,
    null,
    null,
    null,
    null,
    null,
    null,
    null,
    null,
    null,
    null,
    null,
    null,
    null,
    null,
    null,
    null,
    null,
    null,
    null,
    null,
    null,
    null,
    null,
    null
  ],
  "tabAmounts": [
    206,
    1,
    114,
    0,
    0,
    0,
    0,
    0,
    0,
    0
  ],
  "inventory": [
    null,
    null,
    null,
    null,
    null,
    null,
    null,
    null,
    null,
    null,
    null,
    null,
    null,
    null,
    null,
    null,
    null,
    null,
    null,
    null,
    null,
    null,
    null,
    null,
    null,
    null,
    null,
    null
  ],
  "equipment": [
    {
      "id": 12359,
      "amount": 1
    },
    null,
    {
      "id": 1499,
      "amount": 1
    },
    {
      "id": 4587,
      "amount": 1
    },
    {
      "id": 10551,
      "amount": 1
    },
    {
      "id": 12954,
      "amount": 1
    },
    null,
    {
      "id": 3483,
      "amount": 1
    },
    null,
    {
      "id": 1580,
      "amount": 1
    },
    null,
    null,
    {
      "id": 10872,
      "amount": 1
    },
    null
  ],
  "shopItems": [
    null,
    null,
    null,
    null,
    null,
    null,
    null,
    null,
    null,
    null,
    null,
    null,
    null,
    null,
    null,
    null,
    null,
    null,
    null,
    null,
    null,
    null,
    null,
    null,
    null,
    null,
    null,
    null,
    null,
    null,
    null,
    null,
    null,
    null,
    null,
    null
  ],
  "shopPrices": [
    0,
    0,
    0,
    0,
    0,
    0,
    0,
    0,
    0,
    0,
    0,
    0,
    0,
    0,
    0,
    0,
    0,
    0,
    0,
    0,
    0,
    0,
    0,
    0,
    0,
    0,
    0,
    0,
    0,
    0,
    0,
    0,
    0,
    0,
    0,
    0
  ],
  "pouches": [
    0,
    0,
    0,
    0
  ]
}