{
  "bank": [
    {
      "id": 995,
      "amount": 84071
    },
    {
      "id": 1846,
      "amount": 1
    },
    {
      "id": 1845,
      "amount": 1
    },
    {
      "id": 1844,
      "amount": 1
    },
    {
      "id": 861,
      "amount": 2
    },
    {
      "id": 892,
      "amount": 100
    },
    {
      "id": 557,
      "amount": 27
    },
    {
      "id": 564,
      "amount": 3
    },
    {
      "id": 1755,
      "amount": 3
    },
    {
      "id": 946,
      "amount": 3
    },
    {
      "id": 590,
      "amount": 3
    },
    {
      "id": 303,
      "amount": 3
    },
    {
      "id": 311,
      "amount": 3
    },
    {
      "id": 1351,
      "amount": 3
    },
    {
      "id": 1265,
      "amount": 3
    },
    {
      "id": 2682,
      "amount": 1
    },
    {
      "id": 12695,
      "amount": 4
    },
    {
      "id": 7946,
      "amount": 22
    },
    {
      "id": 10010,
      "amount": 3
    },
    {
      "id": 952,
      "amount": 3
    },
    {
      "id": 2347,
      "amount": 3
    },
    {
      "id": 5296,
      "amount": 1
    },
    {
      "id": 257,
      "amount": 2
    },
    {
      "id": 985,
      "amount": 1
    },
    {
      "id": 4155,
      "amount": 1
    },
    {
      "id": 1201,
      "amount": 1
    },
    {
      "id": 560,
      "amount": 24
    },
    {
      "id": 562,
      "amount": 101
    },
    {
      "id": 558,
      "amount": 97
    },
    {
      "id": 554,
      "amount": 289
    },
    {
      "id": 1381,
      "amount": 1
    },
    {
      "id": 561,
      "amount": 79
    },
    {
      "id": 2489,
      "amount": 1
    },
    {
      "id": 884,
      "amount": 240
    },
    {
      "id": 2495,
      "amount": 1
    },
    {
      "id": 2501,
      "amount": 1
    },
    {
      "id": 3841,
      "amount": 1
    },
    {
      "id": 385,
      "amount": 10
    },
    {
      "id": 2434,
      "amount": 1
    },
    {
      "id": 3144,
      "amount": 2
    },
    {
      "id": 2503,
      "amount": 1
    },
    {
      "id": 2497,
      "amount": 1
    },
    {
      "id": 2491,
      "amount": 1
    },
    {
      "id": 9185,
      "amount": 1
    },
    {
      "id": 10499,
      "amount": 1
    },
    {
      "id": 6328,
      "amount": 1
    },
    {
      "id": 9143,
      "amount": 90
    },
    {
      "id": 6529,
      "amount": 16064
    },
    {
      "id": 11849,
      "amount": 6
    },
    {
      "id": 2349,
      "amount": 10
    },
    null,
    null,
    null,
    null,
    null,
    null,
    null,
    null,
    null,
    null,
    null,
    null,
    null,
    null,
    null,
    null,
    null,
    null,
    null,
    null,
    null,
    null,
    null,
    null,
    null,
    null,
    null,
    null,
    null,
    null,
    null,
    null,
    null,
    null,
    null,
    null,
    null,
    null,
    null,
    null,
    null,
    null,
    null,
    null,
    null,
    null,
    null,
    null,
    null,
    null,
    null,
    null,
    null,
    null,
    null,
    null,
    null,
    null,
    null,
    null,
    null,
    null,
    null,
    null,
    null,
    null,
    null,
    null,
    null,
    null,
    null,
    null,
    null,
    null,
    null,
    null,
    null,
    null,
    null,
    null,
    null,
    null,
    null,
    null,
    null,
    null,
    null,
    null,
    null,
    null,
    null,
    null,
    null,
    null,
    null,
    null,
    null,
    null,
    null,
    null,
    null,
    null,
    null,
    null,
    null,
    null,
    null,
    null,
    null,
    null,
    null,
    null,
    null,
    null,
    null,
    null,
    null,
    null,
    null,
    null,
    null,
    null,
    null,
    null,
    null,
    null,
    null,
    null,
    null,
    null,
    null,
    null,
    null,
    null,
    null,
    null,
    null,
    null,
    null,
    null,
    null,
    null,
    null,
    null,
    null,
    null,
    null,
    null,
    null,
    null,
    null,
    null,
    null,
    null,
    null,
    null,
    null,
    null,
    null,
    null,
    null,
    null,
    null,
    null,
    null,
    null,
    null,
    null,
    null,
    null,
    null,
    null,
    null,
    null,
    null,
    null,
    null,
    null,
    null,
    null,
    null,
    null,
    null,
    null,
    null,
    null,
    null,
    null,
    null,
    null,
    null,
    null,
    null,
    null,
    null,
    null,
    null,
    null,
    null,
    null,
    null,
    null,
    null,
    null,
    null,
    null,
    null,
    null,
    null,
    null,
    null,
    null,
    null,
    null,
    null,
    null,
    null,
    null,
    null,
    null,
    null,
    null,
    null,
    null,
    null,
    null,
    null,
    null,
    null,
    null,
    null,
    null,
    null,
    null,
    null,
    null,
    null,
    null,
    null,
    null,
    null,
    null,
    null,
    null,
    null,
    null,
    null,
    null,
    null,
    null,
    null,
    null,
    null,
    null,
    null,
    null,
    null,
    null,
    null,
    null,
    null,
    null,
    null,
    null,
    null,
    null,
    null,
    null,
    null,
    null,
    null,
    null,
    null,
    null,
    null,
    null,
    null,
    null,
    null,
    null,
    null,
    null,
    null,
    null,
    null,
    null,
    null,
    null,
    null,
    null,
    null,
    null,
    null,
    null,
    null,
    null,
    null,
    null,
    null,
    null
  ],
  "tabAmounts": [
    50,
    0,
    0,
    0,
    0,
    0,
    0,
    0,
    0,
    0
  ],
  "inventory": [
    {
      "id": 1215,
      "amount": 1
    },
    {
      "id": 12699,
      "amount": 1
    },
    {
      "id": 141,
      "amount": 1
    },
    {
      "id": 2434,
      "amount": 1
    },
    null,
    null,
    null,
    null,
    null,
    null,
    null,
    null,
    null,
    null,
    null,
    null,
    null,
    null,
    null,
    null,
    null,
    null,
    null,
    null,
    {
      "id": 7946,
      "amount": 1
    },
    null,
    null,
    null
  ],
  "equipment": [
    {
      "id": 10828,
      "amount": 1
    },
    {
      "id": 6570,
      "amount": 1
    },
    {
      "id": 1712,
      "amount": 1
    },
    {
      "id": 4587,
      "amount": 1
    },
    {
      "id": 1127,
      "amount": 1
    },
    {
      "id": 1540,
      "amount": 1
    },
    null,
    {
      "id": 4087,
      "amount": 1
    },
    null,
    {
      "id": 7460,
      "amount": 1
    },
    {
      "id": 3105,
      "amount": 1
    },
    null,
    null,
    null
  ],
  "shopItems": [
    null,
    null,
    null,
    null,
    null,
    null,
    null,
    null,
    null,
    null,
    null,
    null,
    null,
    null,
    null,
    null,
    null,
    null,
    null,
    null,
    null,
    null,
    null,
    null,
    null,
    null,
    null,
    null,
    null,
    null,
    null,
    null,
    null,
    null,
    null,
    null
  ],
  "shopPrices": [
    0,
    0,
    0,
    0,
    0,
    0,
    0,
    0,
    0,
    0,
    0,
    0,
    0,
    0,
    0,
    0,
    0,
    0,
    0,
    0,
    0,
    0,
    0,
    0,
    0,
    0,
    0,
    0,
    0,
    0,
    0,
    0,
    0,
    0,
    0,
    0
  ],
  "pouches": [
    0,
    0,
    0,
    0
  ]
}