{
  "bank": [
    {
      "id": 1351,
      "amount": 2
    },
    {
      "id": 590,
      "amount": 2
    },
    {
      "id": 303,
      "amount": 2
    },
    {
      "id": 315,
      "amount": 10
    },
    {
      "id": 1925,
      "amount": 1
    },
    {
      "id": 1931,
      "amount": 1
    },
    {
      "id": 2309,
      "amount": 1
    },
    {
      "id": 1265,
      "amount": 3
    },
    {
      "id": 1277,
      "amount": 1
    },
    {
      "id": 1171,
      "amount": 1
    },
    {
      "id": 841,
      "amount": 1
    },
    {
      "id": 882,
      "amount": 2022
    },
    {
      "id": 1267,
      "amount": 2
    },
    {
      "id": 2363,
      "amount": 5
    },
    {
      "id": 407,
      "amount": 2
    },
    {
      "id": 401,
      "amount": 1
    },
    {
      "id": 1462,
      "amount": 5
    },
    {
      "id": 12810,
      "amount": 1
    },
    {
      "id": 12811,
      "amount": 1
    },
    {
      "id": 12812,
      "amount": 1
    },
    {
      "id": 9705,
      "amount": 1
    },
    {
      "id": 1205,
      "amount": 1
    },
    {
      "id": 946,
      "amount": 3
    },
    {
      "id": 307,
      "amount": 1
    },
    {
      "id": 309,
      "amount": 1
    },
    {
      "id": 313,
      "amount": 502
    },
    {
      "id": 314,
      "amount": 350
    },
    {
      "id": 227,
      "amount": 200
    },
    {
      "id": 1595,
      "amount": 1
    },
    {
      "id": 1597,
      "amount": 3
    },
    {
      "id": 1592,
      "amount": 1
    },
    {
      "id": 10010,
      "amount": 2
    },
    {
      "id": 305,
      "amount": 1
    },
    {
      "id": 319,
      "amount": 17
    },
    {
      "id": 253,
      "amount": 1
    },
    {
      "id": 251,
      "amount": 1
    },
    {
      "id": 1359,
      "amount": 1
    },
    {
      "id": 2353,
      "amount": 1
    },
    {
      "id": 1353,
      "amount": 4
    },
    {
      "id": 1615,
      "amount": 4
    },
    {
      "id": 249,
      "amount": 1
    },
    {
      "id": 379,
      "amount": 43
    },
    {
      "id": 301,
      "amount": 1
    },
    {
      "id": 438,
      "amount": 5
    },
    {
      "id": 409,
      "amount": 1
    },
    {
      "id": 829,
      "amount": 40
    },
    {
      "id": 1113,
      "amount": 8
    },
    {
      "id": 1452,
      "amount": 7
    },
    {
      "id": 1454,
      "amount": 2
    },
    {
      "id": 592,
      "amount": 1
    },
    {
      "id": 1163,
      "amount": 17
    },
    {
      "id": 1185,
      "amount": 6
    },
    {
      "id": 4587,
      "amount": 5
    },
    {
      "id": 1147,
      "amount": 10
    },
    {
      "id": 1371,
      "amount": 2
    },
    {
      "id": 4823,
      "amount": 2
    },
    {
      "id": 1135,
      "amount": 6
    },
    {
      "id": 12217,
      "amount": 1
    },
    {
      "id": 12305,
      "amount": 1
    },
    {
      "id": 7936,
      "amount": 310
    },
    {
      "id": 864,
      "amount": 12
    },
    {
      "id": 4585,
      "amount": 1
    },
    {
      "id": 1307,
      "amount": 1
    },
    {
      "id": 2349,
      "amount": 2
    },
    {
      "id": 2132,
      "amount": 3
    },
    {
      "id": 4155,
      "amount": 1
    },
    {
      "id": 954,
      "amount": 1
    },
    {
      "id": 554,
      "amount": 183
    },
    {
      "id": 562,
      "amount": 33
    },
    {
      "id": 558,
      "amount": 62
    },
    {
      "id": 556,
      "amount": 518
    },
    {
      "id": 559,
      "amount": 114
    },
    {
      "id": 1099,
      "amount": 4
    },
    {
      "id": 1061,
      "amount": 1
    },
    {
      "id": 10452,
      "amount": 1
    },
    {
      "id": 12375,
      "amount": 1
    },
    {
      "id": 2351,
      "amount": 6
    },
    {
      "id": 6324,
      "amount": 2
    },
    {
      "id": 1446,
      "amount": 1
    },
    {
      "id": 10410,
      "amount": 1
    },
    {
      "id": 1444,
      "amount": 1
    },
    {
      "id": 19689,
      "amount": 1
    },
    {
      "id": 1199,
      "amount": 1
    },
    {
      "id": 1345,
      "amount": 1
    },
    {
      "id": 3749,
      "amount": 1
    },
    {
      "id": 373,
      "amount": 2
    },
    {
      "id": 13277,
      "amount": 1
    },
    {
      "id": 1734,
      "amount": 1488
    },
    {
      "id": 1733,
      "amount": 507
    },
    {
      "id": 1059,
      "amount": 5
    },
    {
      "id": 1095,
      "amount": 5
    },
    {
      "id": 1777,
      "amount": 628
    },
    {
      "id": 1607,
      "amount": 14
    },
    {
      "id": 1603,
      "amount": 1
    },
    {
      "id": 830,
      "amount": 10
    },
    {
      "id": 1319,
      "amount": 2
    },
    {
      "id": 2357,
      "amount": 13
    },
    {
      "id": 1759,
      "amount": 9
    },
    {
      "id": 1735,
      "amount": 1
    },
    {
      "id": 1755,
      "amount": 3
    },
    {
      "id": 1779,
      "amount": 17
    },
    {
      "id": 1448,
      "amount": 3
    },
    {
      "id": 1605,
      "amount": 4
    },
    {
      "id": 10136,
      "amount": 20
    },
    {
      "id": 3144,
      "amount": 2
    },
    {
      "id": 7178,
      "amount": 8
    },
    {
      "id": 2355,
      "amount": 1
    },
    {
      "id": 1442,
      "amount": 2
    },
    {
      "id": 855,
      "amount": 2
    },
    {
      "id": 555,
      "amount": 180
    },
    {
      "id": 1761,
      "amount": 2
    },
    {
      "id": 2359,
      "amount": 6
    },
    {
      "id": 1523,
      "amount": 2
    },
    {
      "id": 5303,
      "amount": 5
    },
    {
      "id": 453,
      "amount": 2
    },
    {
      "id": 5298,
      "amount": 10
    },
    {
      "id": 1927,
      "amount": 1
    },
    {
      "id": 1273,
      "amount": 3
    },
    {
      "id": 1438,
      "amount": 1
    },
    {
      "id": 560,
      "amount": 125
    },
    {
      "id": 564,
      "amount": 23
    },
    {
      "id": 557,
      "amount": 216
    },
    {
      "id": 1333,
      "amount": 2
    },
    {
      "id": 1145,
      "amount": 1
    },
    {
      "id": 2627,
      "amount": 1
    },
    {
      "id": 1731,
      "amount": 7
    },
    {
      "id": 3839,
      "amount": 1
    },
    {
      "id": 11849,
      "amount": 2
    },
    {
      "id": 12449,
      "amount": 1
    },
    {
      "id": 3049,
      "amount": 1
    },
    {
      "id": 1365,
      "amount": 1
    },
    {
      "id": 1373,
      "amount": 1
    },
    {
      "id": 1149,
      "amount": 2
    },
    {
      "id": 430,
      "amount": 1
    },
    {
      "id": 1478,
      "amount": 1
    },
    {
      "id": 1540,
      "amount": 1
    },
    {
      "id": 3393,
      "amount": 1
    },
    {
      "id": 1643,
      "amount": 1
    },
    {
      "id": 2505,
      "amount": 4
    },
    {
      "id": 5535,
      "amount": 3
    },
    {
      "id": 566,
      "amount": 66
    },
    {
      "id": 565,
      "amount": 92
    },
    {
      "id": 5304,
      "amount": 2
    },
    {
      "id": 5297,
      "amount": 6
    },
    {
      "id": 5286,
      "amount": 1
    },
    {
      "id": 993,
      "amount": 4
    },
    {
      "id": 2007,
      "amount": 1
    },
    {
      "id": 1601,
      "amount": 12
    },
    {
      "id": 2589,
      "amount": 1
    },
    {
      "id": 1275,
      "amount": 1
    },
    {
      "id": 2347,
      "amount": 1
    },
    {
      "id": 995,
      "amount": 1
    },
    {
      "id": 6155,
      "amount": 3
    },
    {
      "id": 1513,
      "amount": 2
    },
    {
      "id": 1440,
      "amount": 2
    },
    {
      "id": 563,
      "amount": 65
    },
    {
      "id": 1700,
      "amount": 7
    },
    {
      "id": 9342,
      "amount": 8
    },
    {
      "id": 1215,
      "amount": 4
    },
    {
      "id": 5300,
      "amount": 2
    },
    {
      "id": 952,
      "amount": 1
    },
    {
      "id": 2645,
      "amount": 1
    },
    {
      "id": 1301,
      "amount": 1
    },
    {
      "id": 2680,
      "amount": 2
    },
    {
      "id": 269,
      "amount": 2
    },
    {
      "id": 4097,
      "amount": 4
    },
    {
      "id": 5285,
      "amount": 1
    },
    {
      "id": 3391,
      "amount": 2
    },
    {
      "id": 5313,
      "amount": 3
    },
    {
      "id": 5294,
      "amount": 2
    },
    {
      "id": 7336,
      "amount": 1
    },
    {
      "id": 1123,
      "amount": 1
    },
    {
      "id": 7399,
      "amount": 1
    },
    {
      "id": 12303,
      "amount": 1
    },
    {
      "id": 10288,
      "amount": 1
    },
    {
      "id": 2493,
      "amount": 1
    },
    {
      "id": 2890,
      "amount": 1
    },
    {
      "id": 1347,
      "amount": 1
    },
    {
      "id": 5541,
      "amount": 2
    },
    {
      "id": 3000,
      "amount": 3
    },
    {
      "id": 5104,
      "amount": 2
    },
    {
      "id": 447,
      "amount": 1
    },
    {
      "id": 2570,
      "amount": 8
    },
    {
      "id": 2568,
      "amount": 3
    },
    {
      "id": 4095,
      "amount": 1
    },
    {
      "id": 1747,
      "amount": 15
    },
    {
      "id": 805,
      "amount": 200
    },
    {
      "id": 5937,
      "amount": 4
    },
    {
      "id": 3385,
      "amount": 2
    },
    {
      "id": 5295,
      "amount": 2
    },
    {
      "id": 7218,
      "amount": 24
    },
    {
      "id": 11237,
      "amount": 10
    },
    {
      "id": 11212,
      "amount": 60
    },
    {
      "id": 5316,
      "amount": 2
    },
    {
      "id": 1704,
      "amount": 2
    },
    {
      "id": 11230,
      "amount": 16
    },
    {
      "id": 9341,
      "amount": 22
    },
    {
      "id": 534,
      "amount": 1
    },
    {
      "id": 9194,
      "amount": 4
    },
    {
      "id": 9193,
      "amount": 23
    },
    {
      "id": 987,
      "amount": 1
    },
    {
      "id": 11260,
      "amount": 9
    },
    {
      "id": 2366,
      "amount": 2
    },
    {
      "id": 1127,
      "amount": 1
    },
    {
      "id": 2663,
      "amount": 1
    },
    {
      "id": 143,
      "amount": 2
    },
    {
      "id": 1249,
      "amount": 1
    },
    {
      "id": 561,
      "amount": 67
    },
    {
      "id": 1623,
      "amount": 3
    },
    {
      "id": 229,
      "amount": 1
    },
    {
      "id": 892,
      "amount": 42
    },
    {
      "id": 245,
      "amount": 20
    },
    {
      "id": 1621,
      "amount": 12
    },
    {
      "id": 863,
      "amount": 1
    },
    {
      "id": 2368,
      "amount": 1
    },
    {
      "id": 2313,
      "amount": 1
    },
    {
      "id": 2297,
      "amount": 1
    },
    null,
    null,
    null,
    null,
    null,
    null,
    null,
    null,
    null,
    null,
    null,
    null,
    null,
    null,
    null,
    null,
    null,
    null,
    null,
    null,
    null,
    null,
    null,
    null,
    null,
    null,
    null,
    null,
    null,
    null,
    null,
    null,
    null,
    null,
    null,
    null,
    null,
    null,
    null,
    null,
    null,
    null,
    null,
    null,
    null,
    null,
    null,
    null,
    null,
    null,
    null,
    null,
    null,
    null,
    null,
    null,
    null,
    null,
    null,
    null,
    null,
    null,
    null,
    null,
    null,
    null,
    null,
    null,
    null,
    null,
    null,
    null,
    null,
    null,
    null,
    null,
    null,
    null,
    null,
    null,
    null,
    null,
    null,
    null,
    null,
    null,
    null,
    null,
    null,
    null,
    null,
    null,
    null,
    null,
    null,
    null,
    null,
    null,
    null,
    null,
    null,
    null,
    null,
    null,
    null,
    null,
    null,
    null,
    null,
    null,
    null,
    null,
    null,
    null,
    null,
    null,
    null,
    null,
    null,
    null,
    null,
    null,
    null,
    null,
    null,
    null,
    null,
    null,
    null,
    null,
    null,
    null,
    null
  ],
  "tabAmounts": [
    217,
    0,
    0,
    0,
    0,
    0,
    0,
    0,
    0,
    0
  ],
  "inventory": [
    {
      "id": 995,
      "amount": 11911
    },
    {
      "id": 143,
      "amount": 1
    },
    {
      "id": 139,
      "amount": 1
    },
    {
      "id": 141,
      "amount": 1
    },
    {
      "id": 563,
      "amount": 510
    },
    {
      "id": 12934,
      "amount": 445
    },
    {
      "id": 863,
      "amount": 7
    },
    null,
    {
      "id": 2297,
      "amount": 1
    },
    {
      "id": 2297,
      "amount": 1
    },
    {
      "id": 2297,
      "amount": 1
    },
    {
      "id": 2297,
      "amount": 1
    },
    null,
    null,
    {
      "id": 7218,
      "amount": 1
    },
    null,
    null,
    {
      "id": 2313,
      "amount": 1
    },
    {
      "id": 2313,
      "amount": 1
    },
    {
      "id": 2313,
      "amount": 1
    },
    {
      "id": 7218,
      "amount": 1
    },
    {
      "id": 7218,
      "amount": 1
    },
    {
      "id": 2313,
      "amount": 1
    },
    {
      "id": 2313,
      "amount": 1
    },
    {
      "id": 7218,
      "amount": 1
    },
    {
      "id": 2313,
      "amount": 1
    },
    {
      "id": 2313,
      "amount": 1
    },
    null
  ],
  "equipment": [
    {
      "id": 11664,
      "amount": 1
    },
    {
      "id": 10499,
      "amount": 1
    },
    {
      "id": 1704,
      "amount": 1
    },
    {
      "id": 863,
      "amount": 371
    },
    {
      "id": 8839,
      "amount": 1
    },
    {
      "id": 1201,
      "amount": 1
    },
    null,
    {
      "id": 8840,
      "amount": 1
    },
    null,
    {
      "id": 8842,
      "amount": 1
    },
    {
      "id": 6328,
      "amount": 1
    },
    null,
    null,
    null
  ],
  "shopItems": [
    null,
    null,
    null,
    null,
    null,
    null,
    null,
    null,
    null,
    null,
    null,
    null,
    null,
    null,
    null,
    null,
    null,
    null,
    null,
    null,
    null,
    null,
    null,
    null,
    null,
    null,
    null,
    null,
    null,
    null,
    null,
    null,
    null,
    null,
    null,
    null
  ],
  "shopPrices": [
    0,
    0,
    0,
    0,
    0,
    0,
    0,
    0,
    0,
    0,
    0,
    0,
    0,
    0,
    0,
    0,
    0,
    0,
    0,
    0,
    0,
    0,
    0,
    0,
    0,
    0,
    0,
    0,
    0,
    0,
    0,
    0,
    0,
    0,
    0,
    0
  ],
  "pouches": [
    0,
    0,
    0,
    0
  ]
}