{
  "bank": [
    {
      "id": 995,
      "amount": 1
    },
    {
      "id": 12695,
      "amount": 2
    },
    {
      "id": 2682,
      "amount": 1
    },
    {
      "id": 1,
      "amount": 1
    },
    {
      "id": 1321,
      "amount": 1
    },
    {
      "id": 1333,
      "amount": 1
    },
    {
      "id": 882,
      "amount": 478
    },
    {
      "id": 1381,
      "amount": 1
    },
    {
      "id": 841,
      "amount": 1
    },
    {
      "id": 554,
      "amount": 85
    },
    {
      "id": 558,
      "amount": 91
    },
    {
      "id": 563,
      "amount": 245
    },
    {
      "id": 562,
      "amount": 65
    },
    {
      "id": 1163,
      "amount": 2
    },
    {
      "id": 1844,
      "amount": 1
    },
    {
      "id": 1845,
      "amount": 1
    },
    {
      "id": 11849,
      "amount": 4
    },
    {
      "id": 1373,
      "amount": 1
    },
    {
      "id": 1247,
      "amount": 2
    },
    {
      "id": 1393,
      "amount": 2
    },
    {
      "id": 1249,
      "amount": 2
    },
    {
      "id": 1462,
      "amount": 1
    },
    {
      "id": 6326,
      "amount": 1
    },
    {
      "id": 6330,
      "amount": 1
    },
    {
      "id": 3393,
      "amount": 1
    },
    {
      "id": 3105,
      "amount": 2
    },
    {
      "id": 6324,
      "amount": 2
    },
    {
      "id": 2366,
      "amount": 1
    },
    {
      "id": 2368,
      "amount": 1
    },
    {
      "id": 2458,
      "amount": 1
    },
    {
      "id": 12697,
      "amount": 2
    },
    {
      "id": 1099,
      "amount": 1
    },
    {
      "id": 1127,
      "amount": 2
    },
    {
      "id": 1079,
      "amount": 3
    },
    {
      "id": 4962,
      "amount": 1
    },
    {
      "id": 2501,
      "amount": 1
    },
    {
      "id": 2495,
      "amount": 1
    },
    {
      "id": 2489,
      "amount": 1
    },
    {
      "id": 3024,
      "amount": 16
    },
    {
      "id": 4155,
      "amount": 1
    },
    {
      "id": 3753,
      "amount": 1
    },
    {
      "id": 1135,
      "amount": 1
    },
    {
      "id": 886,
      "amount": 8
    },
    {
      "id": 884,
      "amount": 205
    },
    {
      "id": 4890,
      "amount": 1
    },
    {
      "id": 6685,
      "amount": 8
    },
    {
      "id": 5302,
      "amount": 9
    },
    {
      "id": 2444,
      "amount": 7
    },
    {
      "id": 12934,
      "amount": 3794
    },
    {
      "id": 1623,
      "amount": 3
    },
    {
      "id": 5974,
      "amount": 40
    },
    {
      "id": 229,
      "amount": 13
    },
    {
      "id": 6691,
      "amount": 1
    },
    {
      "id": 3028,
      "amount": 1
    },
    {
      "id": 169,
      "amount": 1
    },
    {
      "id": 1093,
      "amount": 1
    },
    {
      "id": 3101,
      "amount": 1
    },
    {
      "id": 5317,
      "amount": 1
    },
    {
      "id": 2550,
      "amount": 10
    },
    {
      "id": 3030,
      "amount": 1
    },
    {
      "id": 9758,
      "amount": 1
    },
    {
      "id": 9756,
      "amount": 1
    },
    {
      "id": 7218,
      "amount": 10
    },
    {
      "id": 385,
      "amount": 96
    },
    {
      "id": 2456,
      "amount": 2
    },
    {
      "id": 1731,
      "amount": 1
    },
    {
      "id": 3389,
      "amount": 1
    },
    {
      "id": 1779,
      "amount": 1755
    },
    {
      "id": 2434,
      "amount": 85
    },
    {
      "id": 1201,
      "amount": 1
    },
    {
      "id": 139,
      "amount": 3
    },
    {
      "id": 2452,
      "amount": 2
    },
    {
      "id": 143,
      "amount": 1
    },
    {
      "id": 536,
      "amount": 3
    },
    {
      "id": 141,
      "amount": 1
    },
    {
      "id": 6908,
      "amount": 1
    },
    {
      "id": 7460,
      "amount": 2
    },
    {
      "id": 8010,
      "amount": 1
    },
    {
      "id": 8011,
      "amount": 1
    },
    {
      "id": 1167,
      "amount": 6
    },
    {
      "id": 1061,
      "amount": 1
    },
    {
      "id": 1129,
      "amount": 5
    },
    {
      "id": 1059,
      "amount": 2
    },
    {
      "id": 1734,
      "amount": 150
    },
    {
      "id": 1733,
      "amount": 1
    },
    {
      "id": 1777,
      "amount": 227
    },
    {
      "id": 9676,
      "amount": 1
    },
    {
      "id": 561,
      "amount": 92
    },
    {
      "id": 1436,
      "amount": 916
    },
    {
      "id": 10828,
      "amount": 1
    },
    {
      "id": 1387,
      "amount": 1
    },
    {
      "id": 9674,
      "amount": 1
    },
    {
      "id": 1540,
      "amount": 1
    },
    {
      "id": 564,
      "amount": 25
    },
    {
      "id": 556,
      "amount": 56
    },
    {
      "id": 559,
      "amount": 18
    },
    {
      "id": 1592,
      "amount": 16
    },
    {
      "id": 1267,
      "amount": 1
    },
    {
      "id": 1271,
      "amount": 1
    },
    {
      "id": 1273,
      "amount": 1
    },
    {
      "id": 863,
      "amount": 255
    },
    {
      "id": 864,
      "amount": 60
    },
    {
      "id": 1205,
      "amount": 1
    },
    {
      "id": 1117,
      "amount": 1
    },
    {
      "id": 2351,
      "amount": 8
    },
    {
      "id": 2347,
      "amount": 1
    },
    {
      "id": 2357,
      "amount": 17
    },
    {
      "id": 1755,
      "amount": 1
    },
    {
      "id": 557,
      "amount": 455
    },
    {
      "id": 555,
      "amount": 455
    },
    {
      "id": 2572,
      "amount": 1
    },
    {
      "id": 1275,
      "amount": 1
    },
    {
      "id": 6289,
      "amount": 35
    },
    {
      "id": 1513,
      "amount": 200
    },
    {
      "id": 892,
      "amount": 633
    },
    {
      "id": 1987,
      "amount": 250
    },
    {
      "id": 1452,
      "amount": 1
    },
    {
      "id": 173,
      "amount": 1
    },
    {
      "id": 3749,
      "amount": 1
    },
    {
      "id": 10499,
      "amount": 1
    },
    {
      "id": 1712,
      "amount": 1
    },
    {
      "id": 861,
      "amount": 1
    },
    {
      "id": 2503,
      "amount": 1
    },
    {
      "id": 2497,
      "amount": 1
    },
    {
      "id": 2491,
      "amount": 1
    },
    {
      "id": 6328,
      "amount": 1
    },
    null,
    null,
    null,
    null,
    null,
    null,
    null,
    null,
    null,
    null,
    null,
    null,
    null,
    null,
    null,
    null,
    null,
    null,
    null,
    null,
    null,
    null,
    null,
    null,
    null,
    null,
    null,
    null,
    null,
    null,
    null,
    null,
    null,
    null,
    null,
    null,
    null,
    null,
    null,
    null,
    null,
    null,
    null,
    null,
    null,
    null,
    null,
    null,
    null,
    null,
    null,
    null,
    null,
    null,
    null,
    null,
    null,
    null,
    null,
    null,
    null,
    null,
    null,
    null,
    null,
    null,
    null,
    null,
    null,
    null,
    null,
    null,
    null,
    null,
    null,
    null,
    null,
    null,
    null,
    null,
    null,
    null,
    null,
    null,
    null,
    null,
    null,
    null,
    null,
    null,
    null,
    null,
    null,
    null,
    null,
    null,
    null,
    null,
    null,
    null,
    null,
    null,
    null,
    null,
    null,
    null,
    null,
    null,
    null,
    null,
    null,
    null,
    null,
    null,
    null,
    null,
    null,
    null,
    null,
    null,
    null,
    null,
    null,
    null,
    null,
    null,
    null,
    null,
    null,
    null,
    null,
    null,
    null,
    null,
    null,
    null,
    null,
    null,
    null,
    null,
    null,
    null,
    null,
    null,
    null,
    null,
    null,
    null,
    null,
    null,
    null,
    null,
    null,
    null,
    null,
    null,
    null,
    null,
    null,
    null,
    null,
    null,
    null,
    null,
    null,
    null,
    null,
    null,
    null,
    null,
    null,
    null,
    null,
    null,
    null,
    null,
    null,
    null,
    null,
    null,
    null,
    null,
    null,
    null,
    null,
    null,
    null,
    null,
    null,
    null,
    null,
    null,
    null,
    null,
    null,
    null,
    null,
    null,
    null,
    null,
    null,
    null,
    null,
    null,
    null,
    null,
    null,
    null,
    null,
    null,
    null,
    null,
    null,
    null,
    null,
    null,
    null,
    null,
    null,
    null,
    null,
    null,
    null,
    null
  ],
  "tabAmounts": [
    126,
    0,
    0,
    0,
    0,
    0,
    0,
    0,
    0,
    0
  ],
  "inventory": [
    {
      "id": 2572,
      "amount": 1
    },
    {
      "id": 2572,
      "amount": 1
    },
    {
      "id": 2572,
      "amount": 1
    },
    {
      "id": 2572,
      "amount": 1
    },
    {
      "id": 2572,
      "amount": 1
    },
    {
      "id": 2572,
      "amount": 1
    },
    {
      "id": 2572,
      "amount": 1
    },
    {
      "id": 2572,
      "amount": 1
    },
    {
      "id": 2572,
      "amount": 1
    },
    {
      "id": 2572,
      "amount": 1
    },
    {
      "id": 4908,
      "amount": 1
    },
    {
      "id": 4872,
      "amount": 1
    },
    {
      "id": 2723,
      "amount": 1
    },
    {
      "id": 3836,
      "amount": 1
    },
    {
      "id": 3835,
      "amount": 1
    },
    {
      "id": 995,
      "amount": 2969756
    },
    {
      "id": 12938,
      "amount": 71
    },
    {
      "id": 988,
      "amount": 6
    },
    {
      "id": 4588,
      "amount": 2
    },
    null,
    null,
    null,
    null,
    null,
    null,
    null,
    null,
    null
  ],
  "equipment": [
    null,
    null,
    null,
    null,
    null,
    null,
    null,
    null,
    null,
    null,
    null,
    null,
    null,
    null
  ],
  "shopItems": [
    null,
    null,
    null,
    null,
    null,
    null,
    null,
    null,
    null,
    null,
    null,
    null,
    null,
    null,
    null,
    null,
    null,
    null,
    null,
    null,
    null,
    null,
    null,
    null,
    null,
    null,
    null,
    null,
    null,
    null,
    null,
    null,
    null,
    null,
    null,
    null
  ],
  "shopPrices": [
    0,
    0,
    0,
    0,
    0,
    0,
    0,
    0,
    0,
    0,
    0,
    0,
    0,
    0,
    0,
    0,
    0,
    0,
    0,
    0,
    0,
    0,
    0,
    0,
    0,
    0,
    0,
    0,
    0,
    0,
    0,
    0,
    0,
    0,
    0,
    0
  ],
  "pouches": [
    0,
    0,
    0,
    0
  ]
}