{
  "bank": [
    {
      "id": 1321,
      "amount": 1
    },
    {
      "id": 841,
      "amount": 1
    },
    {
      "id": 562,
      "amount": 100
    },
    {
      "id": 1381,
      "amount": 1
    },
    {
      "id": 12695,
      "amount": 5
    },
    {
      "id": 554,
      "amount": 300
    },
    {
      "id": 558,
      "amount": 100
    },
    {
      "id": 1,
      "amount": 1
    },
    {
      "id": 884,
      "amount": 181
    },
    {
      "id": 1333,
      "amount": 1
    },
    {
      "id": 1846,
      "amount": 1
    },
    {
      "id": 11849,
      "amount": 3
    },
    {
      "id": 1844,
      "amount": 1
    },
    {
      "id": 1845,
      "amount": 1
    },
    {
      "id": 1249,
      "amount": 1
    },
    {
      "id": 7460,
      "amount": 2
    },
    {
      "id": 9676,
      "amount": 1
    },
    {
      "id": 9674,
      "amount": 1
    },
    {
      "id": 859,
      "amount": 1
    },
    {
      "id": 229,
      "amount": 6
    },
    {
      "id": 987,
      "amount": 2
    },
    {
      "id": 4587,
      "amount": 1
    },
    {
      "id": 3105,
      "amount": 2
    },
    {
      "id": 985,
      "amount": 2
    },
    {
      "id": 9144,
      "amount": 22
    },
    {
      "id": 9185,
      "amount": 2
    },
    {
      "id": 379,
      "amount": 12
    },
    {
      "id": 7936,
      "amount": 18
    },
    {
      "id": 5520,
      "amount": 1
    },
    {
      "id": 143,
      "amount": 3
    },
    {
      "id": 139,
      "amount": 1
    },
    {
      "id": 995,
      "amount": 304022
    },
    {
      "id": 1163,
      "amount": 4
    },
    {
      "id": 1185,
      "amount": 1
    },
    {
      "id": 1147,
      "amount": 2
    },
    {
      "id": 1113,
      "amount": 1
    },
    {
      "id": 1127,
      "amount": 1
    },
    {
      "id": 3755,
      "amount": 2
    },
    {
      "id": 4131,
      "amount": 1
    },
    {
      "id": 6322,
      "amount": 1
    },
    {
      "id": 6908,
      "amount": 1
    },
    {
      "id": 6324,
      "amount": 2
    },
    {
      "id": 6326,
      "amount": 1
    },
    {
      "id": 2890,
      "amount": 1
    },
    {
      "id": 12449,
      "amount": 1
    },
    {
      "id": 12455,
      "amount": 1
    },
    {
      "id": 3122,
      "amount": 1
    },
    {
      "id": 12453,
      "amount": 1
    },
    {
      "id": 2366,
      "amount": 1
    },
    {
      "id": 1099,
      "amount": 1
    },
    {
      "id": 2682,
      "amount": 1
    },
    {
      "id": 811,
      "amount": 65
    },
    null,
    null,
    null,
    null,
    null,
    null,
    null,
    null,
    null,
    null,
    null,
    null,
    null,
    null,
    null,
    null,
    null,
    null,
    null,
    null,
    null,
    null,
    null,
    null,
    null,
    null,
    null,
    null,
    null,
    null,
    null,
    null,
    null,
    null,
    null,
    null,
    null,
    null,
    null,
    null,
    null,
    null,
    null,
    null,
    null,
    null,
    null,
    null,
    null,
    null,
    null,
    null,
    null,
    null,
    null,
    null,
    null,
    null,
    null,
    null,
    null,
    null,
    null,
    null,
    null,
    null,
    null,
    null,
    null,
    null,
    null,
    null,
    null,
    null,
    null,
    null,
    null,
    null,
    null,
    null,
    null,
    null,
    null,
    null,
    null,
    null,
    null,
    null,
    null,
    null,
    null,
    null,
    null,
    null,
    null,
    null,
    null,
    null,
    null,
    null,
    null,
    null,
    null,
    null,
    null,
    null,
    null,
    null,
    null,
    null,
    null,
    null,
    null,
    null,
    null,
    null,
    null,
    null,
    null,
    null,
    null,
    null,
    null,
    null,
    null,
    null,
    null,
    null,
    null,
    null,
    null,
    null,
    null,
    null,
    null,
    null,
    null,
    null,
    null,
    null,
    null,
    null,
    null,
    null,
    null,
    null,
    null,
    null,
    null,
    null,
    null,
    null,
    null,
    null,
    null,
    null,
    null,
    null,
    null,
    null,
    null,
    null,
    null,
    null,
    null,
    null,
    null,
    null,
    null,
    null,
    null,
    null,
    null,
    null,
    null,
    null,
    null,
    null,
    null,
    null,
    null,
    null,
    null,
    null,
    null,
    null,
    null,
    null,
    null,
    null,
    null,
    null,
    null,
    null,
    null,
    null,
    null,
    null,
    null,
    null,
    null,
    null,
    null,
    null,
    null,
    null,
    null,
    null,
    null,
    null,
    null,
    null,
    null,
    null,
    null,
    null,
    null,
    null,
    null,
    null,
    null,
    null,
    null,
    null,
    null,
    null,
    null,
    null,
    null,
    null,
    null,
    null,
    null,
    null,
    null,
    null,
    null,
    null,
    null,
    null,
    null,
    null,
    null,
    null,
    null,
    null,
    null,
    null,
    null,
    null,
    null,
    null,
    null,
    null,
    null,
    null,
    null,
    null,
    null,
    null,
    null,
    null,
    null,
    null,
    null,
    null,
    null,
    null,
    null,
    null,
    null,
    null,
    null,
    null,
    null,
    null,
    null,
    null,
    null,
    null,
    null,
    null,
    null,
    null,
    null,
    null,
    null,
    null,
    null,
    null,
    null,
    null,
    null,
    null,
    null,
    null,
    null,
    null
  ],
  "tabAmounts": [
    52,
    0,
    0,
    0,
    0,
    0,
    0,
    0,
    0,
    0
  ],
  "inventory": [
    {
      "id": 2434,
      "amount": 1
    },
    {
      "id": 7946,
      "amount": 1
    },
    null,
    null,
    {
      "id": 7946,
      "amount": 1
    },
    null,
    {
      "id": 7946,
      "amount": 1
    },
    null,
    {
      "id": 7946,
      "amount": 1
    },
    null,
    {
      "id": 7946,
      "amount": 1
    },
    {
      "id": 7946,
      "amount": 1
    },
    {
      "id": 7946,
      "amount": 1
    },
    {
      "id": 7946,
      "amount": 1
    },
    {
      "id": 7946,
      "amount": 1
    },
    {
      "id": 7946,
      "amount": 1
    },
    {
      "id": 7946,
      "amount": 1
    },
    {
      "id": 7946,
      "amount": 1
    },
    {
      "id": 7946,
      "amount": 1
    },
    {
      "id": 7946,
      "amount": 1
    },
    {
      "id": 7946,
      "amount": 1
    },
    {
      "id": 7946,
      "amount": 1
    },
    {
      "id": 7946,
      "amount": 1
    },
    {
      "id": 7946,
      "amount": 1
    },
    {
      "id": 7946,
      "amount": 1
    },
    {
      "id": 7946,
      "amount": 1
    },
    {
      "id": 7946,
      "amount": 1
    },
    {
      "id": 7946,
      "amount": 1
    }
  ],
  "equipment": [
    {
      "id": 10828,
      "amount": 1
    },
    {
      "id": 10499,
      "amount": 1
    },
    {
      "id": 1712,
      "amount": 1
    },
    {
      "id": 861,
      "amount": 1
    },
    {
      "id": 2503,
      "amount": 1
    },
    null,
    null,
    {
      "id": 2497,
      "amount": 1
    },
    null,
    {
      "id": 2491,
      "amount": 1
    },
    {
      "id": 6328,
      "amount": 1
    },
    null,
    null,
    {
      "id": 892,
      "amount": 17
    }
  ],
  "shopItems": [
    null,
    null,
    null,
    null,
    null,
    null,
    null,
    null,
    null,
    null,
    null,
    null,
    null,
    null,
    null,
    null,
    null,
    null,
    null,
    null,
    null,
    null,
    null,
    null,
    null,
    null,
    null,
    null,
    null,
    null,
    null,
    null,
    null,
    null,
    null,
    null
  ],
  "shopPrices": [
    0,
    0,
    0,
    0,
    0,
    0,
    0,
    0,
    0,
    0,
    0,
    0,
    0,
    0,
    0,
    0,
    0,
    0,
    0,
    0,
    0,
    0,
    0,
    0,
    0,
    0,
    0,
    0,
    0,
    0,
    0,
    0,
    0,
    0,
    0,
    0
  ],
  "pouches": [
    0,
    0,
    0,
    0
  ]
}