{
  "bank": [
    {
      "id": 1845,
      "amount": 1
    },
    {
      "id": 1846,
      "amount": 1
    },
    {
      "id": 1712,
      "amount": 1
    },
    {
      "id": 12695,
      "amount": 4
    },
    {
      "id": 1,
      "amount": 1
    },
    {
      "id": 12701,
      "amount": 1
    },
    {
      "id": 2682,
      "amount": 1
    },
    {
      "id": 315,
      "amount": 102
    },
    {
      "id": 317,
      "amount": 9
    },
    {
      "id": 892,
      "amount": 100
    },
    {
      "id": 861,
      "amount": 1
    },
    {
      "id": 884,
      "amount": 7
    },
    {
      "id": 841,
      "amount": 1
    },
    {
      "id": 554,
      "amount": 300
    },
    {
      "id": 562,
      "amount": 82
    },
    {
      "id": 532,
      "amount": 7
    },
    {
      "id": 7460,
      "amount": 1
    },
    {
      "id": 1844,
      "amount": 1
    },
    {
      "id": 558,
      "amount": 87
    },
    {
      "id": 50,
      "amount": 3
    },
    {
      "id": 319,
      "amount": 99
    },
    {
      "id": 39,
      "amount": 135
    },
    {
      "id": 40,
      "amount": 75
    },
    {
      "id": 882,
      "amount": 30
    },
    {
      "id": 2347,
      "amount": 1
    },
    {
      "id": 987,
      "amount": 2
    },
    {
      "id": 4155,
      "amount": 1
    },
    {
      "id": 12451,
      "amount": 1
    },
    {
      "id": 44,
      "amount": 16
    },
    {
      "id": 2366,
      "amount": 1
    },
    {
      "id": 10952,
      "amount": 1
    },
    {
      "id": 6328,
      "amount": 1
    },
    {
      "id": 9185,
      "amount": 1
    },
    {
      "id": 339,
      "amount": 8
    },
    {
      "id": 355,
      "amount": 9
    },
    {
      "id": 379,
      "amount": 26
    },
    {
      "id": 995,
      "amount": 125752
    },
    {
      "id": 946,
      "amount": 2
    },
    {
      "id": 952,
      "amount": 2
    },
    {
      "id": 303,
      "amount": 2
    },
    {
      "id": 305,
      "amount": 2
    },
    {
      "id": 309,
      "amount": 2
    },
    {
      "id": 307,
      "amount": 2
    },
    {
      "id": 301,
      "amount": 1
    },
    {
      "id": 1755,
      "amount": 2
    },
    {
      "id": 590,
      "amount": 2
    },
    {
      "id": 1349,
      "amount": 2
    },
    {
      "id": 1359,
      "amount": 2
    },
    {
      "id": 1267,
      "amount": 2
    },
    {
      "id": 1275,
      "amount": 2
    },
    {
      "id": 1623,
      "amount": 3
    },
    {
      "id": 1621,
      "amount": 3
    },
    {
      "id": 1619,
      "amount": 2
    },
    {
      "id": 1617,
      "amount": 2
    },
    {
      "id": 1511,
      "amount": 1
    },
    {
      "id": 1521,
      "amount": 12
    },
    {
      "id": 1517,
      "amount": 10
    },
    {
      "id": 11849,
      "amount": 14
    },
    {
      "id": 436,
      "amount": 1
    },
    {
      "id": 438,
      "amount": 1
    },
    {
      "id": 440,
      "amount": 1
    },
    {
      "id": 2349,
      "amount": 1
    },
    {
      "id": 2351,
      "amount": 1
    },
    {
      "id": 1779,
      "amount": 37
    },
    {
      "id": 314,
      "amount": 455
    },
    {
      "id": 53,
      "amount": 15
    },
    {
      "id": 1743,
      "amount": 20
    },
    {
      "id": 1741,
      "amount": 20
    },
    {
      "id": 11260,
      "amount": 10
    },
    null,
    null,
    null,
    null,
    null,
    null,
    null,
    null,
    null,
    null,
    null,
    null,
    null,
    null,
    null,
    null,
    null,
    null,
    null,
    null,
    null,
    null,
    null,
    null,
    null,
    null,
    null,
    null,
    null,
    null,
    null,
    null,
    null,
    null,
    null,
    null,
    null,
    null,
    null,
    null,
    null,
    null,
    null,
    null,
    null,
    null,
    null,
    null,
    null,
    null,
    null,
    null,
    null,
    null,
    null,
    null,
    null,
    null,
    null,
    null,
    null,
    null,
    null,
    null,
    null,
    null,
    null,
    null,
    null,
    null,
    null,
    null,
    null,
    null,
    null,
    null,
    null,
    null,
    null,
    null,
    null,
    null,
    null,
    null,
    null,
    null,
    null,
    null,
    null,
    null,
    null,
    null,
    null,
    null,
    null,
    null,
    null,
    null,
    null,
    null,
    null,
    null,
    null,
    null,
    null,
    null,
    null,
    null,
    null,
    null,
    null,
    null,
    null,
    null,
    null,
    null,
    null,
    null,
    null,
    null,
    null,
    null,
    null,
    null,
    null,
    null,
    null,
    null,
    null,
    null,
    null,
    null,
    null,
    null,
    null,
    null,
    null,
    null,
    null,
    null,
    null,
    null,
    null,
    null,
    null,
    null,
    null,
    null,
    null,
    null,
    null,
    null,
    null,
    null,
    null,
    null,
    null,
    null,
    null,
    null,
    null,
    null,
    null,
    null,
    null,
    null,
    null,
    null,
    null,
    null,
    null,
    null,
    null,
    null,
    null,
    null,
    null,
    null,
    null,
    null,
    null,
    null,
    null,
    null,
    null,
    null,
    null,
    null,
    null,
    null,
    null,
    null,
    null,
    null,
    null,
    null,
    null,
    null,
    null,
    null,
    null,
    null,
    null,
    null,
    null,
    null,
    null,
    null,
    null,
    null,
    null,
    null,
    null,
    null,
    null,
    null,
    null,
    null,
    null,
    null,
    null,
    null,
    null,
    null,
    null,
    null,
    null,
    null,
    null,
    null,
    null,
    null,
    null,
    null,
    null,
    null,
    null,
    null,
    null,
    null,
    null,
    null,
    null,
    null,
    null,
    null,
    null,
    null,
    null,
    null,
    null,
    null,
    null,
    null,
    null,
    null,
    null,
    null,
    null,
    null,
    null,
    null,
    null,
    null,
    null,
    null,
    null,
    null,
    null,
    null,
    null,
    null,
    null,
    null,
    null,
    null,
    null,
    null,
    null,
    null,
    null
  ],
  "tabAmounts": [
    36,
    33,
    0,
    0,
    0,
    0,
    0,
    0,
    0,
    0
  ],
  "inventory": [
    {
      "id": 301,
      "amount": 1
    },
    {
      "id": 379,
      "amount": 1
    },
    {
      "id": 379,
      "amount": 1
    },
    {
      "id": 379,
      "amount": 1
    },
    {
      "id": 379,
      "amount": 1
    },
    {
      "id": 379,
      "amount": 1
    },
    {
      "id": 379,
      "amount": 1
    },
    {
      "id": 379,
      "amount": 1
    },
    {
      "id": 379,
      "amount": 1
    },
    {
      "id": 379,
      "amount": 1
    },
    {
      "id": 379,
      "amount": 1
    },
    {
      "id": 379,
      "amount": 1
    },
    {
      "id": 379,
      "amount": 1
    },
    {
      "id": 379,
      "amount": 1
    },
    {
      "id": 379,
      "amount": 1
    },
    {
      "id": 379,
      "amount": 1
    },
    {
      "id": 379,
      "amount": 1
    },
    {
      "id": 379,
      "amount": 1
    },
    {
      "id": 379,
      "amount": 1
    },
    {
      "id": 379,
      "amount": 1
    },
    {
      "id": 379,
      "amount": 1
    },
    {
      "id": 379,
      "amount": 1
    },
    {
      "id": 379,
      "amount": 1
    },
    {
      "id": 379,
      "amount": 1
    },
    {
      "id": 379,
      "amount": 1
    },
    {
      "id": 379,
      "amount": 1
    },
    {
      "id": 379,
      "amount": 1
    },
    {
      "id": 379,
      "amount": 1
    }
  ],
  "equipment": [
    {
      "id": 1163,
      "amount": 1
    },
    null,
    null,
    {
      "id": 4587,
      "amount": 1
    },
    {
      "id": 1127,
      "amount": 1
    },
    {
      "id": 1540,
      "amount": 1
    },
    null,
    {
      "id": 1079,
      "amount": 1
    },
    null,
    {
      "id": 7460,
      "amount": 1
    },
    {
      "id": 3105,
      "amount": 1
    },
    null,
    null,
    {
      "id": 884,
      "amount": 141
    }
  ],
  "shopItems": [
    null,
    null,
    null,
    null,
    null,
    null,
    null,
    null,
    null,
    null,
    null,
    null,
    null,
    null,
    null,
    null,
    null,
    null,
    null,
    null,
    null,
    null,
    null,
    null,
    null,
    null,
    null,
    null,
    null,
    null,
    null,
    null,
    null,
    null,
    null,
    null
  ],
  "shopPrices": [
    0,
    0,
    0,
    0,
    0,
    0,
    0,
    0,
    0,
    0,
    0,
    0,
    0,
    0,
    0,
    0,
    0,
    0,
    0,
    0,
    0,
    0,
    0,
    0,
    0,
    0,
    0,
    0,
    0,
    0,
    0,
    0,
    0,
    0,
    0,
    0
  ],
  "pouches": [
    0,
    0,
    0,
    0
  ]
}