{
  "bank": [
    {
      "id": 884,
      "amount": 1
    },
    {
      "id": 892,
      "amount": 396
    },
    {
      "id": 1381,
      "amount": 1
    },
    {
      "id": 554,
      "amount": 300
    },
    {
      "id": 558,
      "amount": 100
    },
    {
      "id": 562,
      "amount": 100
    },
    {
      "id": 7946,
      "amount": 15
    },
    {
      "id": 1,
      "amount": 1
    },
    {
      "id": 526,
      "amount": 4
    },
    {
      "id": 2446,
      "amount": 4
    },
    {
      "id": 7936,
      "amount": 1631
    },
    {
      "id": 430,
      "amount": 3
    },
    {
      "id": 12608,
      "amount": 10
    },
    {
      "id": 1099,
      "amount": 4
    },
    {
      "id": 3393,
      "amount": 5
    },
    {
      "id": 1731,
      "amount": 7
    },
    {
      "id": 143,
      "amount": 21
    },
    {
      "id": 3389,
      "amount": 4
    },
    {
      "id": 10952,
      "amount": 7
    },
    {
      "id": 3841,
      "amount": 8
    },
    {
      "id": 3843,
      "amount": 7
    },
    {
      "id": 9185,
      "amount": 9
    },
    {
      "id": 859,
      "amount": 5
    },
    {
      "id": 3387,
      "amount": 7
    },
    {
      "id": 3839,
      "amount": 7
    },
    {
      "id": 10499,
      "amount": 10
    },
    {
      "id": 3749,
      "amount": 9
    },
    {
      "id": 6328,
      "amount": 6
    },
    {
      "id": 229,
      "amount": 94
    },
    {
      "id": 6324,
      "amount": 3
    },
    {
      "id": 12612,
      "amount": 8
    },
    {
      "id": 2890,
      "amount": 5
    },
    {
      "id": 3122,
      "amount": 5
    },
    {
      "id": 7458,
      "amount": 4
    },
    {
      "id": 6908,
      "amount": 6
    },
    {
      "id": 1079,
      "amount": 5
    },
    {
      "id": 7573,
      "amount": 1
    },
    {
      "id": 1123,
      "amount": 1
    },
    {
      "id": 1073,
      "amount": 1
    },
    {
      "id": 1161,
      "amount": 1
    },
    {
      "id": 1199,
      "amount": 1
    },
    {
      "id": 6529,
      "amount": 16064
    },
    {
      "id": 1183,
      "amount": 1
    },
    {
      "id": 7346,
      "amount": 2
    },
    {
      "id": 1249,
      "amount": 2
    },
    {
      "id": 141,
      "amount": 26
    },
    {
      "id": 1113,
      "amount": 5
    },
    {
      "id": 6326,
      "amount": 3
    },
    {
      "id": 1135,
      "amount": 10
    },
    {
      "id": 6322,
      "amount": 7
    },
    {
      "id": 1201,
      "amount": 7
    },
    {
      "id": 3101,
      "amount": 7
    },
    {
      "id": 863,
      "amount": 682
    },
    {
      "id": 2550,
      "amount": 4
    },
    {
      "id": 3391,
      "amount": 6
    },
    {
      "id": 139,
      "amount": 44
    },
    {
      "id": 12701,
      "amount": 4
    },
    {
      "id": 3105,
      "amount": 4
    },
    {
      "id": 3385,
      "amount": 5
    },
    {
      "id": 4131,
      "amount": 4
    },
    {
      "id": 175,
      "amount": 1
    },
    {
      "id": 6330,
      "amount": 6
    },
    {
      "id": 1478,
      "amount": 6
    },
    {
      "id": 12610,
      "amount": 4
    },
    {
      "id": 7340,
      "amount": 1
    },
    {
      "id": 4992,
      "amount": 1
    },
    {
      "id": 4932,
      "amount": 1
    },
    {
      "id": 4938,
      "amount": 1
    },
    {
      "id": 4740,
      "amount": 220
    },
    {
      "id": 9244,
      "amount": 60
    },
    {
      "id": 173,
      "amount": 10
    },
    {
      "id": 563,
      "amount": 200
    },
    {
      "id": 1213,
      "amount": 1
    },
    {
      "id": 7354,
      "amount": 2
    },
    {
      "id": 1147,
      "amount": 2
    },
    {
      "id": 10294,
      "amount": 2
    },
    {
      "id": 11849,
      "amount": 33
    },
    {
      "id": 2366,
      "amount": 15
    },
    {
      "id": 1615,
      "amount": 8
    },
    {
      "id": 451,
      "amount": 90
    },
    {
      "id": 579,
      "amount": 1
    },
    {
      "id": 557,
      "amount": 82
    },
    {
      "id": 7460,
      "amount": 4
    },
    {
      "id": 1393,
      "amount": 1
    },
    {
      "id": 1540,
      "amount": 1
    },
    {
      "id": 2361,
      "amount": 30
    },
    {
      "id": 6809,
      "amount": 1
    },
    {
      "id": 592,
      "amount": 1
    },
    {
      "id": 1631,
      "amount": 5
    },
    {
      "id": 3755,
      "amount": 5
    },
    {
      "id": 1127,
      "amount": 4
    },
    {
      "id": 3753,
      "amount": 8
    },
    {
      "id": 685,
      "amount": 1
    },
    {
      "id": 5300,
      "amount": 1
    },
    {
      "id": 1163,
      "amount": 3
    },
    {
      "id": 3024,
      "amount": 10
    },
    {
      "id": 560,
      "amount": 881
    },
    {
      "id": 1724,
      "amount": 1
    },
    {
      "id": 1704,
      "amount": 2
    },
    {
      "id": 1432,
      "amount": 1
    },
    {
      "id": 4012,
      "amount": 1
    },
    {
      "id": 3026,
      "amount": 1
    },
    {
      "id": 269,
      "amount": 12
    },
    {
      "id": 11126,
      "amount": 1
    },
    {
      "id": 1267,
      "amount": 1
    },
    {
      "id": 658,
      "amount": 1
    },
    {
      "id": 1093,
      "amount": 2
    },
    {
      "id": 4587,
      "amount": 4
    },
    {
      "id": 830,
      "amount": 114
    },
    {
      "id": 169,
      "amount": 6
    },
    {
      "id": 861,
      "amount": 1
    },
    {
      "id": 10549,
      "amount": 1
    },
    {
      "id": 10555,
      "amount": 3
    },
    {
      "id": 10550,
      "amount": 3
    },
    {
      "id": 10552,
      "amount": 3
    },
    {
      "id": 10547,
      "amount": 4
    },
    {
      "id": 10553,
      "amount": 3
    },
    {
      "id": 323,
      "amount": 1
    },
    {
      "id": 6912,
      "amount": 3
    },
    {
      "id": 1149,
      "amount": 6
    },
    {
      "id": 171,
      "amount": 6
    },
    {
      "id": 4974,
      "amount": 1
    },
    {
      "id": 1939,
      "amount": 390
    },
    {
      "id": 985,
      "amount": 4
    },
    {
      "id": 2493,
      "amount": 1
    },
    {
      "id": 1347,
      "amount": 1
    },
    {
      "id": 305,
      "amount": 1
    },
    {
      "id": 303,
      "amount": 1
    },
    {
      "id": 311,
      "amount": 1
    },
    {
      "id": 301,
      "amount": 1
    },
    {
      "id": 317,
      "amount": 1
    },
    {
      "id": 321,
      "amount": 1
    },
    {
      "id": 11934,
      "amount": 1
    },
    {
      "id": 315,
      "amount": 45
    },
    {
      "id": 319,
      "amount": 28
    },
    {
      "id": 379,
      "amount": 976
    },
    {
      "id": 11936,
      "amount": 26
    },
    {
      "id": 377,
      "amount": 36
    },
    {
      "id": 383,
      "amount": 215
    },
    {
      "id": 11940,
      "amount": 18
    },
    {
      "id": 13320,
      "amount": 1
    },
    {
      "id": 1359,
      "amount": 1
    },
    {
      "id": 1517,
      "amount": 12
    },
    {
      "id": 590,
      "amount": 1
    },
    {
      "id": 1349,
      "amount": 1
    },
    {
      "id": 995,
      "amount": 459582
    },
    {
      "id": 4724,
      "amount": 1
    },
    {
      "id": 4708,
      "amount": 2
    },
    {
      "id": 4732,
      "amount": 3
    },
    {
      "id": 4745,
      "amount": 1
    },
    {
      "id": 4716,
      "amount": 1
    },
    {
      "id": 4753,
      "amount": 1
    },
    {
      "id": 4757,
      "amount": 1
    },
    {
      "id": 2434,
      "amount": 71
    },
    {
      "id": 4728,
      "amount": 1
    },
    {
      "id": 4712,
      "amount": 2
    },
    {
      "id": 4710,
      "amount": 3
    },
    {
      "id": 4718,
      "amount": 1
    },
    {
      "id": 4755,
      "amount": 2
    },
    {
      "id": 4747,
      "amount": 2
    },
    {
      "id": 4734,
      "amount": 1
    },
    {
      "id": 2444,
      "amount": 98
    },
    {
      "id": 4920,
      "amount": 1
    },
    {
      "id": 4714,
      "amount": 1
    },
    {
      "id": 4726,
      "amount": 3
    },
    {
      "id": 4759,
      "amount": 1
    },
    {
      "id": 3140,
      "amount": 7
    },
    {
      "id": 12415,
      "amount": 1
    },
    {
      "id": 12418,
      "amount": 2
    },
    {
      "id": 385,
      "amount": 1961
    },
    {
      "id": 11942,
      "amount": 1
    },
    {
      "id": 10828,
      "amount": 7
    },
    {
      "id": 6889,
      "amount": 1
    },
    {
      "id": 10548,
      "amount": 3
    },
    {
      "id": 6914,
      "amount": 7
    },
    {
      "id": 4738,
      "amount": 2
    },
    {
      "id": 19484,
      "amount": 1190
    },
    {
      "id": 12773,
      "amount": 1
    },
    {
      "id": 11840,
      "amount": 6
    },
    {
      "id": 12417,
      "amount": 1
    },
    {
      "id": 10551,
      "amount": 6
    },
    {
      "id": 8839,
      "amount": 1
    },
    {
      "id": 8840,
      "amount": 1
    },
    {
      "id": 11664,
      "amount": 1
    },
    {
      "id": 8842,
      "amount": 1
    },
    {
      "id": 2368,
      "amount": 1
    },
    {
      "id": 1643,
      "amount": 1
    },
    {
      "id": 4151,
      "amount": 1
    },
    {
      "id": 4736,
      "amount": 2
    },
    {
      "id": 4722,
      "amount": 1
    },
    {
      "id": 12307,
      "amount": 2
    },
    {
      "id": 12305,
      "amount": 1
    },
    {
      "id": 2649,
      "amount": 2
    },
    {
      "id": 2645,
      "amount": 2
    },
    {
      "id": 2647,
      "amount": 1
    },
    {
      "id": 12275,
      "amount": 1
    },
    {
      "id": 12263,
      "amount": 2
    },
    {
      "id": 7344,
      "amount": 2
    },
    {
      "id": 12323,
      "amount": 1
    },
    {
      "id": 12321,
      "amount": 1
    },
    {
      "id": 12325,
      "amount": 1
    },
    {
      "id": 10408,
      "amount": 1
    },
    {
      "id": 12343,
      "amount": 1
    },
    {
      "id": 12283,
      "amount": 1
    },
    {
      "id": 3488,
      "amount": 5
    },
    {
      "id": 7327,
      "amount": 1
    },
    {
      "id": 12453,
      "amount": 10
    },
    {
      "id": 12449,
      "amount": 8
    },
    {
      "id": 12445,
      "amount": 10
    },
    {
      "id": 12219,
      "amount": 1
    },
    {
      "id": 2631,
      "amount": 1
    },
    {
      "id": 2613,
      "amount": 1
    },
    {
      "id": 12277,
      "amount": 1
    },
    {
      "id": 10420,
      "amount": 1
    },
    {
      "id": 12455,
      "amount": 11
    },
    {
      "id": 12451,
      "amount": 7
    },
    {
      "id": 12447,
      "amount": 11
    },
    {
      "id": 12195,
      "amount": 1
    },
    {
      "id": 7399,
      "amount": 1
    },
    {
      "id": 12349,
      "amount": 1
    },
    {
      "id": 12518,
      "amount": 1
    },
    {
      "id": 10284,
      "amount": 1
    },
    {
      "id": 2599,
      "amount": 1
    },
    {
      "id": 12498,
      "amount": 2
    },
    {
      "id": 3478,
      "amount": 2
    },
    {
      "id": 12259,
      "amount": 1
    },
    {
      "id": 7332,
      "amount": 1
    },
    {
      "id": 10318,
      "amount": 1
    },
    {
      "id": 19691,
      "amount": 1
    },
    {
      "id": 12387,
      "amount": 1
    },
    {
      "id": 2667,
      "amount": 1
    },
    {
      "id": 3476,
      "amount": 1
    },
    {
      "id": 10322,
      "amount": 3
    },
    {
      "id": 2639,
      "amount": 1
    },
    {
      "id": 2671,
      "amount": 1
    },
    {
      "id": 10388,
      "amount": 1
    },
    {
      "id": 10454,
      "amount": 1
    },
    {
      "id": 2593,
      "amount": 1
    },
    {
      "id": 10466,
      "amount": 1
    },
    {
      "id": 12359,
      "amount": 1
    },
    {
      "id": 3473,
      "amount": 2
    },
    {
      "id": 12267,
      "amount": 1
    },
    {
      "id": 12235,
      "amount": 1
    },
    {
      "id": 2655,
      "amount": 1
    },
    {
      "id": 2661,
      "amount": 1
    },
    {
      "id": 3483,
      "amount": 6
    },
    {
      "id": 12522,
      "amount": 1
    },
    {
      "id": 2651,
      "amount": 2
    },
    {
      "id": 7319,
      "amount": 1
    },
    {
      "id": 10430,
      "amount": 1
    },
    {
      "id": 10410,
      "amount": 1
    },
    {
      "id": 3832,
      "amount": 1
    },
    {
      "id": 12375,
      "amount": 8
    },
    {
      "id": 10376,
      "amount": 1
    },
    {
      "id": 2657,
      "amount": 1
    },
    {
      "id": 7384,
      "amount": 1
    },
    {
      "id": 12530,
      "amount": 1
    },
    {
      "id": 12538,
      "amount": 1
    },
    {
      "id": 12528,
      "amount": 1
    },
    {
      "id": 3485,
      "amount": 4
    },
    {
      "id": 952,
      "amount": 1
    },
    {
      "id": 10392,
      "amount": 1
    },
    {
      "id": 10386,
      "amount": 1
    },
    {
      "id": 7374,
      "amount": 1
    },
    {
      "id": 7382,
      "amount": 1
    },
    {
      "id": 12520,
      "amount": 1
    },
    {
      "id": 7981,
      "amount": 5
    },
    {
      "id": 7980,
      "amount": 7
    },
    {
      "id": 7979,
      "amount": 4
    },
    {
      "id": 12934,
      "amount": 110
    },
    {
      "id": 8782,
      "amount": 50
    },
    {
      "id": 1779,
      "amount": 3029
    },
    {
      "id": 1513,
      "amount": 650
    },
    {
      "id": 9193,
      "amount": 41
    },
    {
      "id": 5316,
      "amount": 1
    },
    {
      "id": 12769,
      "amount": 3
    },
    {
      "id": 12771,
      "amount": 1
    },
    {
      "id": 536,
      "amount": 1
    },
    {
      "id": 11943,
      "amount": 11
    },
    {
      "id": 12938,
      "amount": 12
    },
    {
      "id": 5289,
      "amount": 1
    },
    {
      "id": 3204,
      "amount": 1
    },
    {
      "id": 11230,
      "amount": 384
    },
    {
      "id": 13249,
      "amount": 5
    },
    {
      "id": 2722,
      "amount": 86
    },
    {
      "id": 4225,
      "amount": 3
    },
    {
      "id": 12802,
      "amount": 1
    },
    {
      "id": 3486,
      "amount": 5
    },
    {
      "id": 12954,
      "amount": 3
    },
    {
      "id": 4214,
      "amount": 3
    },
    {
      "id": 7462,
      "amount": 4
    },
    {
      "id": 3481,
      "amount": 2
    },
    {
      "id": 2581,
      "amount": 1
    },
    {
      "id": 4585,
      "amount": 7
    },
    {
      "id": 6920,
      "amount": 1
    },
    {
      "id": 2803,
      "amount": 3
    },
    {
      "id": 6571,
      "amount": 1
    },
    {
      "id": 2579,
      "amount": 1
    },
    {
      "id": 12751,
      "amount": 2
    },
    {
      "id": 4087,
      "amount": 6
    },
    {
      "id": 11933,
      "amount": 2
    },
    {
      "id": 2682,
      "amount": 3
    },
    {
      "id": 11932,
      "amount": 1
    },
    {
      "id": 4720,
      "amount": 1
    },
    {
      "id": 397,
      "amount": 50
    },
    {
      "id": 2944,
      "amount": 3
    },
    {
      "id": 2442,
      "amount": 20
    },
    {
      "id": 2440,
      "amount": 30
    },
    {
      "id": 2436,
      "amount": 10
    },
    {
      "id": 4749,
      "amount": 1
    },
    {
      "id": 5302,
      "amount": 30
    },
    {
      "id": 11897,
      "amount": 1
    },
    {
      "id": 6524,
      "amount": 1
    },
    {
      "id": 7783,
      "amount": 3
    },
    {
      "id": 7798,
      "amount": 4
    },
    {
      "id": 207,
      "amount": 25
    },
    {
      "id": 2802,
      "amount": 2
    },
    {
      "id": 989,
      "amount": 2
    },
    {
      "id": 13187,
      "amount": 1
    },
    {
      "id": 7786,
      "amount": 3
    },
    {
      "id": 1185,
      "amount": 1
    },
    {
      "id": 1129,
      "amount": 1
    },
    {
      "id": 10308,
      "amount": 1
    },
    {
      "id": 10288,
      "amount": 1
    },
    {
      "id": 7376,
      "amount": 1
    },
    {
      "id": 7342,
      "amount": 1
    },
    {
      "id": 7352,
      "amount": 1
    },
    {
      "id": 1345,
      "amount": 1
    },
    {
      "id": 2623,
      "amount": 1
    },
    {
      "id": 1289,
      "amount": 1
    },
    {
      "id": 7338,
      "amount": 1
    },
    {
      "id": 1456,
      "amount": 1
    },
    {
      "id": 1446,
      "amount": 1
    },
    {
      "id": 559,
      "amount": 38
    },
    {
      "id": 1341,
      "amount": 1
    },
    {
      "id": 6570,
      "amount": 1
    },
    {
      "id": 12939,
      "amount": 1
    },
    {
      "id": 11930,
      "amount": 2
    },
    {
      "id": 7780,
      "amount": 1
    },
    {
      "id": 7789,
      "amount": 1
    },
    {
      "id": 7792,
      "amount": 1
    },
    {
      "id": 7795,
      "amount": 1
    },
    null,
    null,
    null,
    null,
    null,
    null,
    null,
    null
  ],
  "tabAmounts": [
    126,
    19,
    45,
    76,
    76,
    0,
    0,
    0,
    0,
    0
  ],
  "inventory": [
    null,
    null,
    null,
    null,
    null,
    null,
    null,
    null,
    null,
    null,
    null,
    null,
    null,
    null,
    null,
    null,
    null,
    null,
    null,
    null,
    null,
    null,
    null,
    null,
    null,
    null,
    null,
    null
  ],
  "equipment": [
    {
      "id": 7394,
      "amount": 1
    },
    {
      "id": 6570,
      "amount": 1
    },
    null,
    {
      "id": 12375,
      "amount": 1
    },
    {
      "id": 7362,
      "amount": 1
    },
    {
      "id": 12213,
      "amount": 1
    },
    null,
    {
      "id": 12207,
      "amount": 1
    },
    null,
    {
      "id": 7462,
      "amount": 1
    },
    {
      "id": 12391,
      "amount": 1
    },
    null,
    null,
    null
  ],
  "shopItems": [
    null,
    null,
    null,
    null,
    null,
    null,
    null,
    null,
    null,
    null,
    null,
    null,
    null,
    null,
    null,
    null,
    null,
    null,
    null,
    null,
    null,
    null,
    null,
    null,
    null,
    null,
    null,
    null,
    null,
    null,
    null,
    null,
    null,
    null,
    null,
    null
  ],
  "shopPrices": [
    0,
    0,
    0,
    0,
    0,
    0,
    0,
    0,
    0,
    0,
    0,
    0,
    0,
    0,
    0,
    0,
    0,
    0,
    0,
    0,
    0,
    0,
    0,
    0,
    0,
    0,
    0,
    0,
    0,
    0,
    0,
    0,
    0,
    0,
    0,
    0
  ],
  "pouches": [
    0,
    0,
    0,
    0
  ]
}