{
  "bank": [
    {
      "id": 995,
      "amount": 1828104
    },
    {
      "id": 3049,
      "amount": 6
    },
    {
      "id": 1321,
      "amount": 1
    },
    {
      "id": 841,
      "amount": 2
    },
    {
      "id": 861,
      "amount": 1
    },
    {
      "id": 892,
      "amount": 100
    },
    {
      "id": 554,
      "amount": 1
    },
    {
      "id": 558,
      "amount": 322
    },
    {
      "id": 562,
      "amount": 15
    },
    {
      "id": 313,
      "amount": 5
    },
    {
      "id": 882,
      "amount": 7
    },
    {
      "id": 12695,
      "amount": 4
    },
    {
      "id": 2682,
      "amount": 1
    },
    {
      "id": 1731,
      "amount": 3
    },
    {
      "id": 555,
      "amount": 7
    },
    {
      "id": 1747,
      "amount": 49
    },
    {
      "id": 1615,
      "amount": 2
    },
    {
      "id": 2347,
      "amount": 3
    },
    {
      "id": 952,
      "amount": 3
    },
    {
      "id": 10010,
      "amount": 3
    },
    {
      "id": 1755,
      "amount": 3
    },
    {
      "id": 946,
      "amount": 3
    },
    {
      "id": 590,
      "amount": 3
    },
    {
      "id": 303,
      "amount": 3
    },
    {
      "id": 311,
      "amount": 3
    },
    {
      "id": 1351,
      "amount": 3
    },
    {
      "id": 1265,
      "amount": 3
    },
    {
      "id": 4155,
      "amount": 1
    },
    {
      "id": 563,
      "amount": 90
    },
    {
      "id": 2487,
      "amount": 1
    },
    {
      "id": 7458,
      "amount": 2
    },
    {
      "id": 1846,
      "amount": 1
    },
    {
      "id": 853,
      "amount": 1
    },
    {
      "id": 884,
      "amount": 738
    },
    {
      "id": 1381,
      "amount": 1
    },
    {
      "id": 849,
      "amount": 1
    },
    {
      "id": 1845,
      "amount": 1
    },
    {
      "id": 1844,
      "amount": 1
    },
    {
      "id": 2493,
      "amount": 1
    },
    {
      "id": 2499,
      "amount": 1
    },
    {
      "id": 1753,
      "amount": 6
    },
    {
      "id": 1333,
      "amount": 1
    },
    {
      "id": 442,
      "amount": 100
    },
    {
      "id": 2485,
      "amount": 1
    },
    {
      "id": 2444,
      "amount": 6
    },
    {
      "id": 2448,
      "amount": 5
    },
    {
      "id": 373,
      "amount": 29
    },
    {
      "id": 536,
      "amount": 3
    },
    {
      "id": 2456,
      "amount": 4
    },
    {
      "id": 11849,
      "amount": 6
    },
    {
      "id": 1515,
      "amount": 1
    },
    {
      "id": 565,
      "amount": 180
    },
    {
      "id": 7946,
      "amount": 1
    },
    {
      "id": 556,
      "amount": 1571
    },
    {
      "id": 2366,
      "amount": 3
    },
    {
      "id": 1511,
      "amount": 5
    },
    {
      "id": 229,
      "amount": 4
    },
    {
      "id": 1135,
      "amount": 2
    },
    {
      "id": 3843,
      "amount": 1
    },
    {
      "id": 6330,
      "amount": 1
    },
    {
      "id": 1113,
      "amount": 1
    },
    {
      "id": 6328,
      "amount": 2
    },
    {
      "id": 3753,
      "amount": 1
    },
    {
      "id": 1275,
      "amount": 1
    },
    {
      "id": 2550,
      "amount": 1
    },
    {
      "id": 1099,
      "amount": 3
    },
    {
      "id": 3391,
      "amount": 1
    },
    {
      "id": 1436,
      "amount": 428
    },
    {
      "id": 5509,
      "amount": 1
    },
    {
      "id": 1438,
      "amount": 1
    },
    {
      "id": 1454,
      "amount": 1
    },
    {
      "id": 1163,
      "amount": 1
    },
    {
      "id": 171,
      "amount": 2
    },
    {
      "id": 2434,
      "amount": 3
    },
    {
      "id": 2452,
      "amount": 3
    },
    {
      "id": 143,
      "amount": 2
    },
    {
      "id": 2458,
      "amount": 1
    },
    {
      "id": 169,
      "amount": 1
    },
    {
      "id": 2723,
      "amount": 1
    },
    {
      "id": 561,
      "amount": 1
    },
    {
      "id": 560,
      "amount": 90
    },
    {
      "id": 985,
      "amount": 5
    },
    {
      "id": 7936,
      "amount": 480
    },
    {
      "id": 1149,
      "amount": 1
    },
    {
      "id": 4587,
      "amount": 1
    },
    {
      "id": 12699,
      "amount": 1
    },
    {
      "id": 3387,
      "amount": 1
    },
    {
      "id": 3841,
      "amount": 1
    },
    {
      "id": 2491,
      "amount": 1
    },
    {
      "id": 6322,
      "amount": 1
    },
    {
      "id": 10499,
      "amount": 1
    },
    {
      "id": 139,
      "amount": 5
    },
    {
      "id": 6529,
      "amount": 16064
    },
    {
      "id": 9185,
      "amount": 1
    },
    {
      "id": 2497,
      "amount": 1
    },
    {
      "id": 2503,
      "amount": 1
    },
    {
      "id": 1478,
      "amount": 1
    },
    {
      "id": 48,
      "amount": 8
    },
    {
      "id": 52,
      "amount": 30
    },
    {
      "id": 50,
      "amount": 5
    },
    {
      "id": 54,
      "amount": 8
    },
    {
      "id": 56,
      "amount": 43
    },
    {
      "id": 2436,
      "amount": 3
    },
    {
      "id": 2440,
      "amount": 3
    },
    {
      "id": 9438,
      "amount": 1
    },
    {
      "id": 145,
      "amount": 2
    },
    {
      "id": 157,
      "amount": 2
    },
    {
      "id": 141,
      "amount": 1
    },
    {
      "id": 1215,
      "amount": 1
    },
    {
      "id": 1540,
      "amount": 1
    },
    {
      "id": 1359,
      "amount": 1
    },
    {
      "id": 4884,
      "amount": 1
    },
    null,
    null,
    null,
    null,
    null,
    null,
    null,
    null,
    null,
    null,
    null,
    null,
    null,
    null,
    null,
    null,
    null,
    null,
    null,
    null,
    null,
    null,
    null,
    null,
    null,
    null,
    null,
    null,
    null,
    null,
    null,
    null,
    null,
    null,
    null,
    null,
    null,
    null,
    null,
    null,
    null,
    null,
    null,
    null,
    null,
    null,
    null,
    null,
    null,
    null,
    null,
    null,
    null,
    null,
    null,
    null,
    null,
    null,
    null,
    null,
    null,
    null,
    null,
    null,
    null,
    null,
    null,
    null,
    null,
    null,
    null,
    null,
    null,
    null,
    null,
    null,
    null,
    null,
    null,
    null,
    null,
    null,
    null,
    null,
    null,
    null,
    null,
    null,
    null,
    null,
    null,
    null,
    null,
    null,
    null,
    null,
    null,
    null,
    null,
    null,
    null,
    null,
    null,
    null,
    null,
    null,
    null,
    null,
    null,
    null,
    null,
    null,
    null,
    null,
    null,
    null,
    null,
    null,
    null,
    null,
    null,
    null,
    null,
    null,
    null,
    null,
    null,
    null,
    null,
    null,
    null,
    null,
    null,
    null,
    null,
    null,
    null,
    null,
    null,
    null,
    null,
    null,
    null,
    null,
    null,
    null,
    null,
    null,
    null,
    null,
    null,
    null,
    null,
    null,
    null,
    null,
    null,
    null,
    null,
    null,
    null,
    null,
    null,
    null,
    null,
    null,
    null,
    null,
    null,
    null,
    null,
    null,
    null,
    null,
    null,
    null,
    null,
    null,
    null,
    null,
    null,
    null,
    null,
    null,
    null,
    null,
    null,
    null,
    null,
    null,
    null,
    null,
    null,
    null,
    null,
    null,
    null,
    null,
    null,
    null,
    null,
    null,
    null,
    null,
    null,
    null,
    null,
    null,
    null,
    null,
    null,
    null,
    null,
    null,
    null,
    null,
    null,
    null,
    null,
    null,
    null,
    null,
    null,
    null,
    null,
    null,
    null,
    null,
    null,
    null,
    null,
    null,
    null,
    null,
    null,
    null,
    null,
    null
  ],
  "tabAmounts": [
    112,
    0,
    0,
    0,
    0,
    0,
    0,
    0,
    0,
    0
  ],
  "inventory": [
    {
      "id": 1516,
      "amount": 448
    },
    {
      "id": 554,
      "amount": 785
    },
    {
      "id": 561,
      "amount": 62
    },
    {
      "id": 398,
      "amount": 500
    },
    {
      "id": 995,
      "amount": 76896
    },
    {
      "id": 4153,
      "amount": 1
    },
    null,
    null,
    null,
    null,
    null,
    null,
    null,
    null,
    null,
    null,
    null,
    null,
    null,
    null,
    null,
    null,
    null,
    null,
    null,
    null,
    null,
    null
  ],
  "equipment": [
    {
      "id": 1149,
      "amount": 1
    },
    {
      "id": 6570,
      "amount": 1
    },
    {
      "id": 1710,
      "amount": 1
    },
    {
      "id": 1249,
      "amount": 1
    },
    {
      "id": 1113,
      "amount": 1
    },
    null,
    null,
    {
      "id": 4585,
      "amount": 1
    },
    null,
    {
      "id": 7460,
      "amount": 1
    },
    {
      "id": 4131,
      "amount": 1
    },
    null,
    {
      "id": 2572,
      "amount": 1
    },
    {
      "id": 9143,
      "amount": 604
    }
  ],
  "shopItems": [
    null,
    null,
    null,
    null,
    null,
    null,
    null,
    null,
    null,
    null,
    null,
    null,
    null,
    null,
    null,
    null,
    null,
    null,
    null,
    null,
    null,
    null,
    null,
    null,
    null,
    null,
    null,
    null,
    null,
    null,
    null,
    null,
    null,
    null,
    null,
    null
  ],
  "shopPrices": [
    0,
    0,
    0,
    0,
    0,
    0,
    0,
    0,
    0,
    0,
    0,
    0,
    0,
    0,
    0,
    0,
    0,
    0,
    0,
    0,
    0,
    0,
    0,
    0,
    0,
    0,
    0,
    0,
    0,
    0,
    0,
    0,
    0,
    0,
    0,
    0
  ],
  "pouches": [
    0,
    0,
    0,
    0
  ]
}