{
  "bank": [
    {
      "id": 7946,
      "amount": 88
    },
    {
      "id": 12695,
      "amount": 63
    },
    {
      "id": 952,
      "amount": 3
    },
    {
      "id": 7356,
      "amount": 2
    },
    {
      "id": 3827,
      "amount": 2
    },
    {
      "id": 7344,
      "amount": 1
    },
    {
      "id": 385,
      "amount": 82
    },
    {
      "id": 2805,
      "amount": 1
    },
    {
      "id": 2679,
      "amount": 1
    },
    {
      "id": 2444,
      "amount": 122
    },
    {
      "id": 2434,
      "amount": 214
    },
    {
      "id": 139,
      "amount": 3
    },
    {
      "id": 2440,
      "amount": 10
    },
    {
      "id": 397,
      "amount": 100
    },
    {
      "id": 7460,
      "amount": 1
    },
    {
      "id": 892,
      "amount": 85
    },
    {
      "id": 2436,
      "amount": 10
    },
    {
      "id": 12518,
      "amount": 1
    },
    {
      "id": 12510,
      "amount": 2
    },
    {
      "id": 7319,
      "amount": 1
    },
    {
      "id": 10456,
      "amount": 1
    },
    {
      "id": 7372,
      "amount": 1
    },
    {
      "id": 12492,
      "amount": 1
    },
    {
      "id": 2637,
      "amount": 1
    },
    {
      "id": 2651,
      "amount": 1
    },
    {
      "id": 7346,
      "amount": 1
    },
    {
      "id": 2663,
      "amount": 1
    },
    {
      "id": 12261,
      "amount": 1
    },
    {
      "id": 12498,
      "amount": 1
    },
    {
      "id": 12299,
      "amount": 1
    },
    {
      "id": 12307,
      "amount": 2
    },
    {
      "id": 12233,
      "amount": 1
    },
    {
      "id": 2649,
      "amount": 1
    },
    {
      "id": 7323,
      "amount": 1
    },
    {
      "id": 12506,
      "amount": 1
    },
    {
      "id": 10288,
      "amount": 1
    },
    {
      "id": 12385,
      "amount": 1
    },
    {
      "id": 3829,
      "amount": 1
    },
    {
      "id": 2587,
      "amount": 1
    },
    {
      "id": 10292,
      "amount": 1
    },
    {
      "id": 7382,
      "amount": 1
    },
    {
      "id": 10952,
      "amount": 1
    },
    {
      "id": 4587,
      "amount": 1
    },
    {
      "id": 995,
      "amount": 117849
    },
    {
      "id": 12699,
      "amount": 1
    },
    {
      "id": 141,
      "amount": 1
    },
    {
      "id": 2682,
      "amount": 2
    },
    {
      "id": 2491,
      "amount": 1
    },
    {
      "id": 6328,
      "amount": 1
    },
    {
      "id": 10499,
      "amount": 1
    },
    {
      "id": 1079,
      "amount": 1
    },
    {
      "id": 10551,
      "amount": 2
    },
    {
      "id": 1201,
      "amount": 1
    },
    {
      "id": 1702,
      "amount": 1
    },
    {
      "id": 811,
      "amount": 130
    },
    {
      "id": 2503,
      "amount": 1
    },
    {
      "id": 2497,
      "amount": 1
    },
    {
      "id": 1710,
      "amount": 1
    },
    {
      "id": 229,
      "amount": 10
    },
    {
      "id": 169,
      "amount": 1
    },
    {
      "id": 12313,
      "amount": 3
    },
    {
      "id": 2673,
      "amount": 1
    },
    {
      "id": 2669,
      "amount": 2
    },
    {
      "id": 3480,
      "amount": 1
    },
    {
      "id": 10472,
      "amount": 1
    },
    {
      "id": 10386,
      "amount": 1
    },
    {
      "id": 3835,
      "amount": 1
    },
    {
      "id": 10442,
      "amount": 1
    },
    {
      "id": 2675,
      "amount": 1
    },
    {
      "id": 10388,
      "amount": 1
    },
    {
      "id": 12524,
      "amount": 2
    },
    {
      "id": 2629,
      "amount": 2
    },
    {
      "id": 7321,
      "amount": 1
    },
    {
      "id": 2585,
      "amount": 2
    },
    {
      "id": 10368,
      "amount": 2
    },
    {
      "id": 12247,
      "amount": 1
    },
    {
      "id": 7376,
      "amount": 1
    },
    {
      "id": 12275,
      "amount": 2
    },
    {
      "id": 2655,
      "amount": 4
    },
    {
      "id": 7360,
      "amount": 1
    },
    {
      "id": 7354,
      "amount": 3
    },
    {
      "id": 7336,
      "amount": 4
    },
    {
      "id": 2633,
      "amount": 1
    },
    {
      "id": 2667,
      "amount": 2
    },
    {
      "id": 12516,
      "amount": 2
    },
    {
      "id": 10304,
      "amount": 2
    },
    {
      "id": 7374,
      "amount": 1
    },
    {
      "id": 2627,
      "amount": 2
    },
    {
      "id": 2625,
      "amount": 1
    },
    {
      "id": 7342,
      "amount": 6
    },
    {
      "id": 3830,
      "amount": 1
    },
    {
      "id": 7340,
      "amount": 1
    },
    {
      "id": 7334,
      "amount": 1
    },
    {
      "id": 2601,
      "amount": 1
    },
    {
      "id": 2631,
      "amount": 1
    },
    {
      "id": 10364,
      "amount": 3
    },
    {
      "id": 12453,
      "amount": 6
    },
    {
      "id": 12449,
      "amount": 10
    },
    {
      "id": 3478,
      "amount": 2
    },
    {
      "id": 12379,
      "amount": 1
    },
    {
      "id": 12445,
      "amount": 10
    },
    {
      "id": 12269,
      "amount": 2
    },
    {
      "id": 2645,
      "amount": 2
    },
    {
      "id": 12375,
      "amount": 6
    },
    {
      "id": 7399,
      "amount": 2
    },
    {
      "id": 12301,
      "amount": 2
    },
    {
      "id": 10284,
      "amount": 2
    },
    {
      "id": 7325,
      "amount": 1
    },
    {
      "id": 12418,
      "amount": 2
    },
    {
      "id": 2641,
      "amount": 1
    },
    {
      "id": 2653,
      "amount": 2
    },
    {
      "id": 12502,
      "amount": 1
    },
    {
      "id": 7350,
      "amount": 1
    },
    {
      "id": 3475,
      "amount": 1
    },
    {
      "id": 3479,
      "amount": 1
    },
    null,
    null,
    null,
    null,
    null,
    null,
    null,
    null,
    null,
    null,
    null,
    null,
    null,
    null,
    null,
    null,
    null,
    null,
    null,
    null,
    null,
    null,
    null,
    null,
    null,
    null,
    null,
    null,
    null,
    null,
    null,
    null,
    null,
    null,
    null,
    null,
    null,
    null,
    null,
    null,
    null,
    null,
    null,
    null,
    null,
    null,
    null,
    null,
    null,
    null,
    null,
    null,
    null,
    null,
    null,
    null,
    null,
    null,
    null,
    null,
    null,
    null,
    null,
    null,
    null,
    null,
    null,
    null,
    null,
    null,
    null,
    null,
    null,
    null,
    null,
    null,
    null,
    null,
    null,
    null,
    null,
    null,
    null,
    null,
    null,
    null,
    null,
    null,
    null,
    null,
    null,
    null,
    null,
    null,
    null,
    null,
    null,
    null,
    null,
    null,
    null,
    null,
    null,
    null,
    null,
    null,
    null,
    null,
    null,
    null,
    null,
    null,
    null,
    null,
    null,
    null,
    null,
    null,
    null,
    null,
    null,
    null,
    null,
    null,
    null,
    null,
    null,
    null,
    null,
    null,
    null,
    null,
    null,
    null,
    null,
    null,
    null,
    null,
    null,
    null,
    null,
    null,
    null,
    null,
    null,
    null,
    null,
    null,
    null,
    null,
    null,
    null,
    null,
    null,
    null,
    null,
    null,
    null,
    null,
    null,
    null,
    null,
    null,
    null,
    null,
    null,
    null,
    null,
    null,
    null,
    null,
    null,
    null,
    null,
    null,
    null,
    null,
    null,
    null,
    null,
    null,
    null,
    null,
    null,
    null,
    null,
    null,
    null,
    null,
    null,
    null,
    null,
    null,
    null,
    null,
    null,
    null,
    null,
    null,
    null,
    null,
    null,
    null,
    null,
    null,
    null,
    null,
    null,
    null,
    null,
    null,
    null,
    null,
    null,
    null,
    null,
    null,
    null,
    null,
    null,
    null,
    null,
    null,
    null,
    null,
    null,
    null,
    null,
    null,
    null,
    null,
    null,
    null,
    null,
    null
  ],
  "tabAmounts": [
    60,
    55,
    0,
    0,
    0,
    0,
    0,
    0,
    0,
    0
  ],
  "inventory": [
    {
      "id": 169,
      "amount": 1
    },
    {
      "id": 2444,
      "amount": 1
    },
    {
      "id": 2444,
      "amount": 1
    },
    {
      "id": 2444,
      "amount": 1
    },
    {
      "id": 2444,
      "amount": 1
    },
    {
      "id": 2434,
      "amount": 1
    },
    {
      "id": 2434,
      "amount": 1
    },
    {
      "id": 2434,
      "amount": 1
    },
    {
      "id": 2434,
      "amount": 1
    },
    {
      "id": 2434,
      "amount": 1
    },
    {
      "id": 2434,
      "amount": 1
    },
    {
      "id": 2434,
      "amount": 1
    },
    {
      "id": 2434,
      "amount": 1
    },
    {
      "id": 2434,
      "amount": 1
    },
    {
      "id": 2434,
      "amount": 1
    },
    {
      "id": 2434,
      "amount": 1
    },
    null,
    null,
    null,
    null,
    null,
    null,
    null,
    null,
    null,
    null,
    null,
    null
  ],
  "equipment": [
    {
      "id": 3749,
      "amount": 1
    },
    {
      "id": 10499,
      "amount": 1
    },
    {
      "id": 6585,
      "amount": 1
    },
    {
      "id": 4214,
      "amount": 1
    },
    {
      "id": 4736,
      "amount": 1
    },
    null,
    null,
    {
      "id": 4738,
      "amount": 1
    },
    null,
    {
      "id": 7462,
      "amount": 1
    },
    {
      "id": 6328,
      "amount": 1
    },
    null,
    {
      "id": 2572,
      "amount": 1
    },
    null
  ],
  "shopItems": [
    null,
    null,
    null,
    null,
    null,
    null,
    null,
    null,
    null,
    null,
    null,
    null,
    null,
    null,
    null,
    null,
    null,
    null,
    null,
    null,
    null,
    null,
    null,
    null,
    null,
    null,
    null,
    null,
    null,
    null,
    null,
    null,
    null,
    null,
    null,
    null
  ],
  "shopPrices": [
    0,
    0,
    0,
    0,
    0,
    0,
    0,
    0,
    0,
    0,
    0,
    0,
    0,
    0,
    0,
    0,
    0,
    0,
    0,
    0,
    0,
    0,
    0,
    0,
    0,
    0,
    0,
    0,
    0,
    0,
    0,
    0,
    0,
    0,
    0,
    0
  ],
  "pouches": [
    0,
    0,
    0,
    0
  ]
}