{
  "bank": [
    {
      "id": 1351,
      "amount": 2
    },
    {
      "id": 1277,
      "amount": 1
    },
    {
      "id": 1925,
      "amount": 1
    },
    {
      "id": 1931,
      "amount": 1
    },
    {
      "id": 1265,
      "amount": 2
    },
    {
      "id": 1205,
      "amount": 1
    },
    {
      "id": 556,
      "amount": 25
    },
    {
      "id": 558,
      "amount": 15
    },
    {
      "id": 555,
      "amount": 6
    },
    {
      "id": 557,
      "amount": 4
    },
    {
      "id": 559,
      "amount": 2
    },
    {
      "id": 561,
      "amount": 67
    },
    {
      "id": 12810,
      "amount": 1
    },
    {
      "id": 409,
      "amount": 1
    },
    {
      "id": 411,
      "amount": 1
    },
    {
      "id": 401,
      "amount": 2
    },
    {
      "id": 946,
      "amount": 1
    },
    {
      "id": 5323,
      "amount": 2
    },
    {
      "id": 249,
      "amount": 10
    },
    {
      "id": 253,
      "amount": 23
    },
    {
      "id": 1511,
      "amount": 8
    },
    {
      "id": 1521,
      "amount": 64
    },
    {
      "id": 1517,
      "amount": 9
    },
    {
      "id": 1519,
      "amount": 19
    },
    {
      "id": 829,
      "amount": 20
    },
    {
      "id": 1454,
      "amount": 1
    },
    {
      "id": 7458,
      "amount": 1
    },
    {
      "id": 2363,
      "amount": 1
    },
    {
      "id": 1201,
      "amount": 1
    },
    {
      "id": 985,
      "amount": 1
    },
    {
      "id": 1249,
      "amount": 1
    },
    {
      "id": 1267,
      "amount": 1
    },
    {
      "id": 892,
      "amount": 42
    },
    {
      "id": 1623,
      "amount": 9
    },
    {
      "id": 1619,
      "amount": 1
    },
    {
      "id": 1755,
      "amount": 1
    },
    {
      "id": 199,
      "amount": 1
    },
    {
      "id": 590,
      "amount": 1
    },
    {
      "id": 303,
      "amount": 1
    },
    {
      "id": 3385,
      "amount": 2
    },
    {
      "id": 3049,
      "amount": 2
    },
    {
      "id": 882,
      "amount": 7
    },
    {
      "id": 313,
      "amount": 1
    },
    {
      "id": 841,
      "amount": 1
    },
    {
      "id": 6326,
      "amount": 1
    },
    {
      "id": 1135,
      "amount": 1
    },
    {
      "id": 1099,
      "amount": 1
    },
    {
      "id": 1327,
      "amount": 1
    },
    {
      "id": 1540,
      "amount": 1
    },
    {
      "id": 7459,
      "amount": 1
    },
    {
      "id": 6330,
      "amount": 1
    },
    {
      "id": 12811,
      "amount": 1
    },
    {
      "id": 3839,
      "amount": 1
    },
    {
      "id": 3393,
      "amount": 1
    },
    {
      "id": 251,
      "amount": 15
    },
    {
      "id": 255,
      "amount": 66
    },
    {
      "id": 995,
      "amount": 289695
    },
    {
      "id": 233,
      "amount": 1
    },
    {
      "id": 221,
      "amount": 1
    },
    {
      "id": 1975,
      "amount": 1
    },
    {
      "id": 225,
      "amount": 1
    },
    {
      "id": 223,
      "amount": 1
    },
    null,
    null,
    null,
    null,
    null,
    null,
    null,
    null,
    null,
    null,
    null,
    null,
    null,
    null,
    null,
    null,
    null,
    null,
    null,
    null,
    null,
    null,
    null,
    null,
    null,
    null,
    null,
    null,
    null,
    null,
    null,
    null,
    null,
    null,
    null,
    null,
    null,
    null,
    null,
    null,
    null,
    null,
    null,
    null,
    null,
    null,
    null,
    null,
    null,
    null,
    null,
    null,
    null,
    null,
    null,
    null,
    null,
    null,
    null,
    null,
    null,
    null,
    null,
    null,
    null,
    null,
    null,
    null,
    null,
    null,
    null,
    null,
    null,
    null,
    null,
    null,
    null,
    null,
    null,
    null,
    null,
    null,
    null,
    null,
    null,
    null,
    null,
    null,
    null,
    null,
    null,
    null,
    null,
    null,
    null,
    null,
    null,
    null,
    null,
    null,
    null,
    null,
    null,
    null,
    null,
    null,
    null,
    null,
    null,
    null,
    null,
    null,
    null,
    null,
    null,
    null,
    null,
    null,
    null,
    null,
    null,
    null,
    null,
    null,
    null,
    null,
    null,
    null,
    null,
    null,
    null,
    null,
    null,
    null,
    null,
    null,
    null,
    null,
    null,
    null,
    null,
    null,
    null,
    null,
    null,
    null,
    null,
    null,
    null,
    null,
    null,
    null,
    null,
    null,
    null,
    null,
    null,
    null,
    null,
    null,
    null,
    null,
    null,
    null,
    null,
    null,
    null,
    null,
    null,
    null,
    null,
    null,
    null,
    null,
    null,
    null,
    null,
    null,
    null,
    null,
    null,
    null,
    null,
    null,
    null,
    null,
    null,
    null,
    null,
    null,
    null,
    null,
    null,
    null,
    null,
    null,
    null,
    null,
    null,
    null,
    null,
    null,
    null,
    null,
    null,
    null,
    null,
    null,
    null,
    null,
    null,
    null,
    null,
    null,
    null,
    null,
    null,
    null,
    null,
    null,
    null,
    null,
    null,
    null,
    null,
    null,
    null,
    null,
    null,
    null,
    null,
    null,
    null,
    null,
    null,
    null,
    null,
    null,
    null,
    null,
    null,
    null,
    null,
    null,
    null,
    null,
    null,
    null,
    null,
    null,
    null,
    null,
    null,
    null,
    null,
    null,
    null,
    null,
    null,
    null,
    null,
    null,
    null,
    null,
    null,
    null,
    null,
    null,
    null,
    null,
    null,
    null,
    null,
    null,
    null,
    null,
    null,
    null,
    null,
    null,
    null,
    null,
    null,
    null,
    null,
    null,
    null,
    null
  ],
  "tabAmounts": [
    62,
    0,
    0,
    0,
    0,
    0,
    0,
    0,
    0,
    0
  ],
  "inventory": [
    {
      "id": 251,
      "amount": 1
    },
    {
      "id": 2363,
      "amount": 1
    },
    {
      "id": 1452,
      "amount": 1
    },
    {
      "id": 1623,
      "amount": 1
    },
    {
      "id": 1149,
      "amount": 1
    },
    {
      "id": 5322,
      "amount": 3
    },
    {
      "id": 985,
      "amount": 1
    },
    {
      "id": 1623,
      "amount": 1
    },
    {
      "id": 985,
      "amount": 1
    },
    null,
    {
      "id": 555,
      "amount": 7
    },
    null,
    null,
    {
      "id": 1623,
      "amount": 1
    },
    null,
    null,
    null,
    null,
    null,
    null,
    null,
    null,
    null,
    null,
    null,
    null,
    null,
    null
  ],
  "equipment": [
    {
      "id": 1149,
      "amount": 1
    },
    {
      "id": 10499,
      "amount": 1
    },
    null,
    {
      "id": 1249,
      "amount": 1
    },
    {
      "id": 1127,
      "amount": 1
    },
    null,
    null,
    {
      "id": 12812,
      "amount": 1
    },
    null,
    {
      "id": 7460,
      "amount": 1
    },
    {
      "id": 6328,
      "amount": 1
    },
    null,
    null,
    {
      "id": 882,
      "amount": 3832
    }
  ],
  "shopItems": [
    null,
    null,
    null,
    null,
    null,
    null,
    null,
    null,
    null,
    null,
    null,
    null,
    null,
    null,
    null,
    null,
    null,
    null,
    null,
    null,
    null,
    null,
    null,
    null,
    null,
    null,
    null,
    null,
    null,
    null,
    null,
    null,
    null,
    null,
    null,
    null
  ],
  "shopPrices": [
    0,
    0,
    0,
    0,
    0,
    0,
    0,
    0,
    0,
    0,
    0,
    0,
    0,
    0,
    0,
    0,
    0,
    0,
    0,
    0,
    0,
    0,
    0,
    0,
    0,
    0,
    0,
    0,
    0,
    0,
    0,
    0,
    0,
    0,
    0,
    0
  ],
  "pouches": [
    0,
    0,
    0,
    0
  ]
}