{
  "bank": [
    {
      "id": 995,
      "amount": 1
    },
    {
      "id": 554,
      "amount": 300
    },
    {
      "id": 558,
      "amount": 307
    },
    {
      "id": 562,
      "amount": 1100
    },
    {
      "id": 561,
      "amount": 183
    },
    {
      "id": 560,
      "amount": 274
    },
    {
      "id": 563,
      "amount": 944
    },
    {
      "id": 556,
      "amount": 263
    },
    {
      "id": 2452,
      "amount": 12
    },
    {
      "id": 6685,
      "amount": 30
    },
    {
      "id": 3024,
      "amount": 1
    },
    {
      "id": 12695,
      "amount": 1
    },
    {
      "id": 2434,
      "amount": 8
    },
    {
      "id": 2444,
      "amount": 1
    },
    {
      "id": 385,
      "amount": 1
    },
    {
      "id": 395,
      "amount": 24
    },
    {
      "id": 2454,
      "amount": 2
    },
    {
      "id": 6687,
      "amount": 1
    },
    {
      "id": 12697,
      "amount": 22
    },
    {
      "id": 139,
      "amount": 1
    },
    {
      "id": 169,
      "amount": 30
    },
    {
      "id": 13441,
      "amount": 1
    },
    {
      "id": 7946,
      "amount": 2
    },
    {
      "id": 2456,
      "amount": 2
    },
    {
      "id": 6689,
      "amount": 21
    },
    {
      "id": 3028,
      "amount": 16
    },
    {
      "id": 12699,
      "amount": 25
    },
    {
      "id": 141,
      "amount": 6
    },
    {
      "id": 171,
      "amount": 25
    },
    {
      "id": 383,
      "amount": 46
    },
    {
      "id": 13439,
      "amount": 23
    },
    {
      "id": 2458,
      "amount": 3
    },
    {
      "id": 6691,
      "amount": 2
    },
    {
      "id": 3030,
      "amount": 17
    },
    {
      "id": 12701,
      "amount": 7
    },
    {
      "id": 143,
      "amount": 5
    },
    {
      "id": 173,
      "amount": 12
    },
    {
      "id": 11934,
      "amount": 30
    },
    {
      "id": 7462,
      "amount": 6
    },
    {
      "id": 8851,
      "amount": 10
    },
    {
      "id": 7509,
      "amount": 1
    },
    {
      "id": 10828,
      "amount": 2
    },
    {
      "id": 6328,
      "amount": 1
    },
    {
      "id": 952,
      "amount": 2
    },
    {
      "id": 10499,
      "amount": 1
    },
    {
      "id": 6289,
      "amount": 102
    },
    {
      "id": 8840,
      "amount": 1
    },
    {
      "id": 8839,
      "amount": 1
    },
    {
      "id": 1987,
      "amount": 1
    },
    {
      "id": 1712,
      "amount": 1
    },
    {
      "id": 1185,
      "amount": 1
    },
    {
      "id": 10034,
      "amount": 1
    },
    {
      "id": 2807,
      "amount": 1
    },
    {
      "id": 985,
      "amount": 5
    },
    {
      "id": 12341,
      "amount": 1
    },
    {
      "id": 9676,
      "amount": 1
    },
    {
      "id": 12257,
      "amount": 1
    },
    {
      "id": 1169,
      "amount": 1
    },
    {
      "id": 1287,
      "amount": 1
    },
    {
      "id": 9244,
      "amount": 399
    },
    {
      "id": 2366,
      "amount": 1
    },
    {
      "id": 229,
      "amount": 166
    },
    {
      "id": 532,
      "amount": 150
    },
    {
      "id": 1779,
      "amount": 5619
    },
    {
      "id": 3204,
      "amount": 2
    },
    {
      "id": 1215,
      "amount": 2
    },
    {
      "id": 1540,
      "amount": 1
    },
    {
      "id": 7936,
      "amount": 1585
    },
    {
      "id": 1515,
      "amount": 450
    },
    {
      "id": 442,
      "amount": 100
    },
    {
      "id": 1513,
      "amount": 877
    },
    {
      "id": 2509,
      "amount": 80
    },
    {
      "id": 1731,
      "amount": 4
    },
    {
      "id": 10952,
      "amount": 6
    },
    {
      "id": 1127,
      "amount": 3
    },
    {
      "id": 861,
      "amount": 5
    },
    {
      "id": 10887,
      "amount": 3
    },
    {
      "id": 7418,
      "amount": 1
    },
    {
      "id": 7416,
      "amount": 1
    },
    {
      "id": 1631,
      "amount": 15
    },
    {
      "id": 892,
      "amount": 496
    },
    {
      "id": 830,
      "amount": 1884
    },
    {
      "id": 1319,
      "amount": 1
    },
    {
      "id": 1373,
      "amount": 1
    },
    {
      "id": 4587,
      "amount": 1
    },
    {
      "id": 1147,
      "amount": 1
    },
    {
      "id": 451,
      "amount": 10
    },
    {
      "id": 2361,
      "amount": 51
    },
    {
      "id": 9144,
      "amount": 75
    },
    {
      "id": 4740,
      "amount": 60
    },
    {
      "id": 1201,
      "amount": 1
    },
    {
      "id": 1249,
      "amount": 1
    },
    {
      "id": 3216,
      "amount": 1
    },
    {
      "id": 7979,
      "amount": 2
    },
    {
      "id": 4728,
      "amount": 1
    },
    {
      "id": 8782,
      "amount": 100
    },
    {
      "id": 7170,
      "amount": 1
    },
    {
      "id": 1643,
      "amount": 1
    },
    {
      "id": 1444,
      "amount": 1
    },
    {
      "id": 11260,
      "amount": 19
    },
    {
      "id": 4155,
      "amount": 1
    },
    {
      "id": 592,
      "amount": 1965
    },
    {
      "id": 6529,
      "amount": 16064
    },
    {
      "id": 1347,
      "amount": 2
    },
    {
      "id": 1113,
      "amount": 3
    },
    {
      "id": 1163,
      "amount": 7
    },
    {
      "id": 1,
      "amount": 1
    },
    {
      "id": 10977,
      "amount": 1
    },
    {
      "id": 2890,
      "amount": 2
    },
    {
      "id": 1387,
      "amount": 1
    },
    {
      "id": 9193,
      "amount": 73
    },
    {
      "id": 6729,
      "amount": 1
    },
    {
      "id": 526,
      "amount": 3
    },
    {
      "id": 1623,
      "amount": 5
    },
    {
      "id": 1621,
      "amount": 7
    },
    {
      "id": 7054,
      "amount": 1
    },
    {
      "id": 1303,
      "amount": 1
    },
    {
      "id": 9741,
      "amount": 1
    },
    {
      "id": 1391,
      "amount": 5
    },
    {
      "id": 3391,
      "amount": 2
    },
    {
      "id": 9674,
      "amount": 1
    },
    {
      "id": 11943,
      "amount": 4
    },
    {
      "id": 225,
      "amount": 5
    },
    {
      "id": 449,
      "amount": 117
    },
    {
      "id": 5290,
      "amount": 2
    },
    {
      "id": 444,
      "amount": 100
    },
    {
      "id": 1971,
      "amount": 2
    },
    {
      "id": 2493,
      "amount": 1
    },
    {
      "id": 12277,
      "amount": 1
    },
    {
      "id": 2649,
      "amount": 1
    },
    {
      "id": 2643,
      "amount": 1
    },
    {
      "id": 12375,
      "amount": 5
    },
    {
      "id": 12447,
      "amount": 1
    },
    {
      "id": 12265,
      "amount": 1
    },
    {
      "id": 12273,
      "amount": 1
    },
    {
      "id": 12506,
      "amount": 1
    },
    {
      "id": 7348,
      "amount": 1
    },
    {
      "id": 3837,
      "amount": 1
    },
    {
      "id": 2585,
      "amount": 1
    },
    {
      "id": 2673,
      "amount": 2
    },
    {
      "id": 430,
      "amount": 3
    },
    {
      "id": 12538,
      "amount": 3
    },
    {
      "id": 6908,
      "amount": 3
    },
    {
      "id": 7344,
      "amount": 2
    },
    {
      "id": 7356,
      "amount": 1
    },
    {
      "id": 12612,
      "amount": 4
    },
    {
      "id": 12608,
      "amount": 2
    },
    {
      "id": 7340,
      "amount": 1
    },
    {
      "id": 6912,
      "amount": 2
    },
    {
      "id": 10306,
      "amount": 1
    },
    {
      "id": 2583,
      "amount": 1
    },
    {
      "id": 12221,
      "amount": 1
    },
    {
      "id": 3835,
      "amount": 1
    },
    {
      "id": 10324,
      "amount": 1
    },
    {
      "id": 10292,
      "amount": 1
    },
    {
      "id": 2631,
      "amount": 1
    },
    {
      "id": 1187,
      "amount": 1
    },
    {
      "id": 6920,
      "amount": 1
    },
    {
      "id": 12449,
      "amount": 5
    },
    {
      "id": 7382,
      "amount": 2
    },
    {
      "id": 7384,
      "amount": 1
    },
    {
      "id": 12453,
      "amount": 2
    },
    {
      "id": 12451,
      "amount": 3
    },
    {
      "id": 2368,
      "amount": 1
    },
    {
      "id": 3749,
      "amount": 1
    },
    {
      "id": 12746,
      "amount": 2
    },
    {
      "id": 4131,
      "amount": 3
    },
    {
      "id": 6326,
      "amount": 1
    },
    {
      "id": 1093,
      "amount": 2
    },
    {
      "id": 6916,
      "amount": 1
    },
    {
      "id": 12455,
      "amount": 1
    },
    {
      "id": 7398,
      "amount": 1
    },
    {
      "id": 7338,
      "amount": 1
    },
    {
      "id": 7321,
      "amount": 1
    },
    {
      "id": 1073,
      "amount": 1
    },
    {
      "id": 12303,
      "amount": 1
    },
    {
      "id": 12610,
      "amount": 5
    },
    {
      "id": 2669,
      "amount": 1
    },
    {
      "id": 12445,
      "amount": 3
    },
    {
      "id": 12235,
      "amount": 1
    },
    {
      "id": 7358,
      "amount": 1
    },
    {
      "id": 7354,
      "amount": 1
    },
    {
      "id": 1099,
      "amount": 1
    },
    {
      "id": 1357,
      "amount": 1
    },
    {
      "id": 1301,
      "amount": 2
    },
    {
      "id": 10288,
      "amount": 1
    },
    {
      "id": 3479,
      "amount": 1
    },
    {
      "id": 1345,
      "amount": 1
    },
    {
      "id": 2497,
      "amount": 2
    },
    {
      "id": 859,
      "amount": 1
    },
    {
      "id": 7346,
      "amount": 1
    },
    {
      "id": 7376,
      "amount": 1
    },
    {
      "id": 2503,
      "amount": 2
    },
    {
      "id": 12317,
      "amount": 1
    },
    {
      "id": 7386,
      "amount": 1
    },
    {
      "id": 12496,
      "amount": 1
    },
    {
      "id": 12295,
      "amount": 1
    },
    {
      "id": 12313,
      "amount": 1
    },
    {
      "id": 3389,
      "amount": 1
    },
    {
      "id": 12323,
      "amount": 1
    },
    {
      "id": 12205,
      "amount": 1
    },
    {
      "id": 12520,
      "amount": 1
    },
    {
      "id": 12255,
      "amount": 1
    },
    {
      "id": 3122,
      "amount": 1
    },
    {
      "id": 1199,
      "amount": 1
    },
    {
      "id": 1135,
      "amount": 1
    },
    {
      "id": 2661,
      "amount": 1
    },
    {
      "id": 10364,
      "amount": 1
    },
    {
      "id": 9770,
      "amount": 1
    },
    {
      "id": 12307,
      "amount": 1
    },
    {
      "id": 1183,
      "amount": 1
    },
    {
      "id": 12305,
      "amount": 1
    },
    {
      "id": 12271,
      "amount": 1
    },
    {
      "id": 2659,
      "amount": 1
    },
    {
      "id": 12361,
      "amount": 1
    },
    {
      "id": 2645,
      "amount": 1
    },
    {
      "id": 10392,
      "amount": 1
    },
    {
      "id": 12319,
      "amount": 1
    },
    {
      "id": 1149,
      "amount": 1
    },
    {
      "id": 1025,
      "amount": 1
    },
    {
      "id": 9769,
      "amount": 2
    },
    {
      "id": 1857,
      "amount": 3
    },
    {
      "id": 2446,
      "amount": 6
    },
    {
      "id": 179,
      "amount": 1
    },
    {
      "id": 1359,
      "amount": 1
    },
    {
      "id": 590,
      "amount": 1
    },
    {
      "id": 1521,
      "amount": 1
    },
    {
      "id": 946,
      "amount": 1
    },
    {
      "id": 1349,
      "amount": 1
    },
    {
      "id": 1700,
      "amount": 1
    },
    {
      "id": 175,
      "amount": 1
    },
    null,
    null,
    null,
    null,
    null,
    null,
    null,
    null,
    null,
    null,
    null,
    null,
    null,
    null,
    null,
    null,
    null,
    null,
    null,
    null,
    null,
    null,
    null,
    null,
    null,
    null,
    null,
    null,
    null,
    null,
    null,
    null,
    null,
    null,
    null,
    null,
    null,
    null,
    null,
    null,
    null,
    null,
    null,
    null,
    null,
    null,
    null,
    null,
    null,
    null,
    null,
    null,
    null,
    null,
    null,
    null,
    null,
    null,
    null,
    null,
    null,
    null,
    null,
    null,
    null,
    null,
    null,
    null,
    null,
    null,
    null,
    null,
    null,
    null,
    null,
    null,
    null,
    null,
    null,
    null,
    null,
    null,
    null,
    null,
    null,
    null,
    null,
    null,
    null,
    null,
    null,
    null,
    null,
    null,
    null,
    null,
    null,
    null,
    null,
    null,
    null,
    null,
    null,
    null,
    null,
    null,
    null,
    null,
    null,
    null,
    null,
    null,
    null,
    null,
    null,
    null,
    null,
    null,
    null
  ],
  "tabAmounts": [
    59,
    65,
    4,
    92,
    4,
    7,
    0,
    0,
    0,
    0
  ],
  "inventory": [
    {
      "id": 2454,
      "amount": 1
    },
    {
      "id": 6687,
      "amount": 1
    },
    {
      "id": 3026,
      "amount": 1
    },
    {
      "id": 3026,
      "amount": 1
    },
    {
      "id": 12699,
      "amount": 1
    },
    {
      "id": 1215,
      "amount": 1
    },
    {
      "id": 7946,
      "amount": 1
    },
    {
      "id": 7946,
      "amount": 1
    },
    {
      "id": 7946,
      "amount": 1
    },
    {
      "id": 7946,
      "amount": 1
    },
    {
      "id": 7946,
      "amount": 1
    },
    {
      "id": 7946,
      "amount": 1
    },
    {
      "id": 7946,
      "amount": 1
    },
    {
      "id": 7946,
      "amount": 1
    },
    {
      "id": 7946,
      "amount": 1
    },
    {
      "id": 7946,
      "amount": 1
    },
    {
      "id": 7946,
      "amount": 1
    },
    {
      "id": 7946,
      "amount": 1
    },
    {
      "id": 7946,
      "amount": 1
    },
    {
      "id": 7946,
      "amount": 1
    },
    {
      "id": 7946,
      "amount": 1
    },
    {
      "id": 7946,
      "amount": 1
    },
    {
      "id": 7946,
      "amount": 1
    },
    {
      "id": 7946,
      "amount": 1
    },
    {
      "id": 7946,
      "amount": 1
    },
    {
      "id": 7946,
      "amount": 1
    },
    {
      "id": 7946,
      "amount": 1
    },
    {
      "id": 7946,
      "amount": 1
    }
  ],
  "equipment": [
    {
      "id": 10828,
      "amount": 1
    },
    {
      "id": 6570,
      "amount": 1
    },
    {
      "id": 1712,
      "amount": 1
    },
    {
      "id": 4587,
      "amount": 1
    },
    {
      "id": 9674,
      "amount": 1
    },
    null,
    null,
    {
      "id": 9676,
      "amount": 1
    },
    null,
    {
      "id": 7462,
      "amount": 1
    },
    {
      "id": 3105,
      "amount": 1
    },
    null,
    {
      "id": 2550,
      "amount": 1
    },
    null
  ],
  "shopItems": [
    null,
    null,
    null,
    null,
    null,
    null,
    null,
    null,
    null,
    null,
    null,
    null,
    null,
    null,
    null,
    null,
    null,
    null,
    null,
    null,
    null,
    null,
    null,
    null,
    null,
    null,
    null,
    null,
    null,
    null,
    null,
    null,
    null,
    null,
    null,
    null
  ],
  "shopPrices": [
    0,
    0,
    0,
    0,
    0,
    0,
    0,
    0,
    0,
    0,
    0,
    0,
    0,
    0,
    0,
    0,
    0,
    0,
    0,
    0,
    0,
    0,
    0,
    0,
    0,
    0,
    0,
    0,
    0,
    0,
    0,
    0,
    0,
    0,
    0,
    0
  ],
  "pouches": [
    0,
    0,
    0,
    0
  ]
}