{
  "bank": [
    {
      "id": 995,
      "amount": 684847
    },
    {
      "id": 7946,
      "amount": 35
    },
    {
      "id": 397,
      "amount": 330
    },
    {
      "id": 373,
      "amount": 85
    },
    {
      "id": 2440,
      "amount": 6
    },
    {
      "id": 2436,
      "amount": 6
    },
    {
      "id": 2434,
      "amount": 8
    },
    {
      "id": 2444,
      "amount": 9
    },
    {
      "id": 3024,
      "amount": 12
    },
    {
      "id": 952,
      "amount": 11
    },
    {
      "id": 556,
      "amount": 635
    },
    {
      "id": 555,
      "amount": 625
    },
    {
      "id": 557,
      "amount": 439
    },
    {
      "id": 554,
      "amount": 920
    },
    {
      "id": 558,
      "amount": 1935
    },
    {
      "id": 562,
      "amount": 159
    },
    {
      "id": 560,
      "amount": 975
    },
    {
      "id": 565,
      "amount": 620
    },
    {
      "id": 563,
      "amount": 39
    },
    {
      "id": 561,
      "amount": 158
    },
    {
      "id": 4699,
      "amount": 109
    },
    {
      "id": 559,
      "amount": 234
    },
    {
      "id": 12695,
      "amount": 2
    },
    {
      "id": 1845,
      "amount": 1
    },
    {
      "id": 892,
      "amount": 455
    },
    {
      "id": 9674,
      "amount": 2
    },
    {
      "id": 11663,
      "amount": 1
    },
    {
      "id": 6328,
      "amount": 2
    },
    {
      "id": 4155,
      "amount": 1
    },
    {
      "id": 4740,
      "amount": 1860
    },
    {
      "id": 884,
      "amount": 678
    },
    {
      "id": 3391,
      "amount": 1
    },
    {
      "id": 2550,
      "amount": 1
    },
    {
      "id": 1844,
      "amount": 1
    },
    {
      "id": 464,
      "amount": 10
    },
    {
      "id": 11665,
      "amount": 1
    },
    {
      "id": 11230,
      "amount": 50
    },
    {
      "id": 1540,
      "amount": 2
    },
    {
      "id": 2491,
      "amount": 2
    },
    {
      "id": 9676,
      "amount": 2
    },
    {
      "id": 532,
      "amount": 301
    },
    {
      "id": 442,
      "amount": 151
    },
    {
      "id": 1381,
      "amount": 3
    },
    {
      "id": 10499,
      "amount": 5
    },
    {
      "id": 1712,
      "amount": 2
    },
    {
      "id": 245,
      "amount": 10
    },
    {
      "id": 2481,
      "amount": 4
    },
    {
      "id": 2297,
      "amount": 8
    },
    {
      "id": 9143,
      "amount": 340
    },
    {
      "id": 4091,
      "amount": 1
    },
    {
      "id": 3755,
      "amount": 1
    },
    {
      "id": 4107,
      "amount": 1
    },
    {
      "id": 2412,
      "amount": 1
    },
    {
      "id": 379,
      "amount": 3
    },
    {
      "id": 385,
      "amount": 3
    },
    {
      "id": 564,
      "amount": 8
    },
    {
      "id": 9194,
      "amount": 2
    },
    {
      "id": 9144,
      "amount": 2
    },
    {
      "id": 1387,
      "amount": 1
    },
    {
      "id": 143,
      "amount": 1
    },
    {
      "id": 157,
      "amount": 1
    },
    {
      "id": 145,
      "amount": 1
    },
    {
      "id": 4724,
      "amount": 1
    },
    {
      "id": 4726,
      "amount": 1
    },
    {
      "id": 4992,
      "amount": 1
    },
    {
      "id": 4986,
      "amount": 1
    },
    {
      "id": 4708,
      "amount": 1
    },
    {
      "id": 4587,
      "amount": 1
    },
    {
      "id": 2663,
      "amount": 1
    },
    {
      "id": 2890,
      "amount": 1
    },
    {
      "id": 9185,
      "amount": 1
    },
    {
      "id": 2503,
      "amount": 1
    },
    {
      "id": 1643,
      "amount": 1
    },
    {
      "id": 861,
      "amount": 2
    },
    {
      "id": 1247,
      "amount": 1
    },
    {
      "id": 11936,
      "amount": 24
    },
    {
      "id": 2368,
      "amount": 1
    },
    {
      "id": 4732,
      "amount": 1
    },
    {
      "id": 451,
      "amount": 23
    },
    {
      "id": 12492,
      "amount": 1
    },
    {
      "id": 3101,
      "amount": 1
    },
    {
      "id": 6733,
      "amount": 1
    },
    {
      "id": 3105,
      "amount": 1
    },
    {
      "id": 1201,
      "amount": 1
    },
    {
      "id": 205,
      "amount": 1
    },
    {
      "id": 1215,
      "amount": 1
    },
    {
      "id": 12697,
      "amount": 1
    },
    {
      "id": 7936,
      "amount": 60
    },
    {
      "id": 3835,
      "amount": 1
    },
    {
      "id": 3837,
      "amount": 1
    },
    {
      "id": 2499,
      "amount": 1
    },
    {
      "id": 2487,
      "amount": 1
    },
    {
      "id": 1213,
      "amount": 1
    },
    {
      "id": 10977,
      "amount": 1
    },
    {
      "id": 2493,
      "amount": 1
    },
    {
      "id": 3839,
      "amount": 1
    },
    {
      "id": 3830,
      "amount": 1
    },
    {
      "id": 3827,
      "amount": 1
    },
    {
      "id": 1621,
      "amount": 1
    },
    {
      "id": 1623,
      "amount": 5
    },
    {
      "id": 1619,
      "amount": 1
    },
    {
      "id": 257,
      "amount": 2
    },
    {
      "id": 255,
      "amount": 1
    },
    {
      "id": 1349,
      "amount": 1
    },
    {
      "id": 1359,
      "amount": 2
    },
    {
      "id": 303,
      "amount": 4
    },
    {
      "id": 309,
      "amount": 1
    },
    {
      "id": 307,
      "amount": 1
    },
    {
      "id": 311,
      "amount": 4
    },
    {
      "id": 5294,
      "amount": 10
    },
    {
      "id": 5295,
      "amount": 24
    },
    {
      "id": 1733,
      "amount": 100
    },
    {
      "id": 11849,
      "amount": 9
    },
    {
      "id": 5291,
      "amount": 5
    },
    {
      "id": 5341,
      "amount": 1
    },
    {
      "id": 5331,
      "amount": 1
    },
    {
      "id": 5325,
      "amount": 1
    },
    {
      "id": 2347,
      "amount": 3
    },
    {
      "id": 1755,
      "amount": 3
    },
    {
      "id": 946,
      "amount": 3
    },
    {
      "id": 1351,
      "amount": 3
    },
    {
      "id": 1265,
      "amount": 2
    },
    {
      "id": 590,
      "amount": 3
    },
    {
      "id": 10010,
      "amount": 2
    },
    {
      "id": 1605,
      "amount": 5
    },
    {
      "id": 1607,
      "amount": 7
    },
    {
      "id": 440,
      "amount": 24
    },
    {
      "id": 1601,
      "amount": 24
    },
    {
      "id": 453,
      "amount": 1
    },
    {
      "id": 1275,
      "amount": 4
    },
    {
      "id": 2359,
      "amount": 1
    },
    {
      "id": 1700,
      "amount": 11
    },
    {
      "id": 269,
      "amount": 4
    },
    {
      "id": 5300,
      "amount": 6
    },
    {
      "id": 566,
      "amount": 66
    },
    {
      "id": 10136,
      "amount": 5
    },
    {
      "id": 7170,
      "amount": 1
    },
    {
      "id": 1205,
      "amount": 4
    },
    {
      "id": 1323,
      "amount": 12
    },
    {
      "id": 261,
      "amount": 5
    },
    {
      "id": 251,
      "amount": 2
    },
    {
      "id": 253,
      "amount": 13
    },
    {
      "id": 249,
      "amount": 2
    },
    {
      "id": 987,
      "amount": 2
    },
    {
      "id": 569,
      "amount": 15
    },
    {
      "id": 1478,
      "amount": 1
    },
    {
      "id": 1347,
      "amount": 1
    },
    {
      "id": 5298,
      "amount": 5
    },
    {
      "id": 5303,
      "amount": 1
    },
    {
      "id": 2623,
      "amount": 1
    },
    {
      "id": 6910,
      "amount": 1
    },
    {
      "id": 6322,
      "amount": 1
    },
    {
      "id": 3385,
      "amount": 2
    },
    {
      "id": 2497,
      "amount": 2
    },
    {
      "id": 7399,
      "amount": 1
    },
    {
      "id": 7340,
      "amount": 1
    },
    {
      "id": 1163,
      "amount": 1
    },
    {
      "id": 859,
      "amount": 1
    },
    {
      "id": 1319,
      "amount": 5
    },
    {
      "id": 993,
      "amount": 3
    },
    {
      "id": 1731,
      "amount": 12
    },
    {
      "id": 2568,
      "amount": 24
    },
    {
      "id": 2570,
      "amount": 12
    },
    {
      "id": 139,
      "amount": 13
    },
    {
      "id": 1747,
      "amount": 50
    },
    {
      "id": 2363,
      "amount": 20
    },
    {
      "id": 5316,
      "amount": 3
    },
    {
      "id": 11260,
      "amount": 1
    },
    {
      "id": 1615,
      "amount": 3
    },
    null,
    null,
    null,
    null,
    null,
    null,
    null,
    null,
    null,
    null,
    null,
    null,
    null,
    null,
    null,
    null,
    null,
    null,
    null,
    null,
    null,
    null,
    null,
    null,
    null,
    null,
    null,
    null,
    null,
    null,
    null,
    null,
    null,
    null,
    null,
    null,
    null,
    null,
    null,
    null,
    null,
    null,
    null,
    null,
    null,
    null,
    null,
    null,
    null,
    null,
    null,
    null,
    null,
    null,
    null,
    null,
    null,
    null,
    null,
    null,
    null,
    null,
    null,
    null,
    null,
    null,
    null,
    null,
    null,
    null,
    null,
    null,
    null,
    null,
    null,
    null,
    null,
    null,
    null,
    null,
    null,
    null,
    null,
    null,
    null,
    null,
    null,
    null,
    null,
    null,
    null,
    null,
    null,
    null,
    null,
    null,
    null,
    null,
    null,
    null,
    null,
    null,
    null,
    null,
    null,
    null,
    null,
    null,
    null,
    null,
    null,
    null,
    null,
    null,
    null,
    null,
    null,
    null,
    null,
    null,
    null,
    null,
    null,
    null,
    null,
    null,
    null,
    null,
    null,
    null,
    null,
    null,
    null,
    null,
    null,
    null,
    null,
    null,
    null,
    null,
    null,
    null,
    null,
    null,
    null,
    null,
    null,
    null,
    null,
    null,
    null,
    null,
    null,
    null,
    null,
    null,
    null,
    null,
    null,
    null,
    null,
    null,
    null,
    null,
    null,
    null,
    null,
    null,
    null,
    null,
    null,
    null,
    null,
    null,
    null,
    null,
    null,
    null,
    null,
    null,
    null
  ],
  "tabAmounts": [
    88,
    10,
    41,
    10,
    10,
    10,
    0,
    0,
    0,
    0
  ],
  "inventory": [
    null,
    null,
    null,
    null,
    null,
    null,
    null,
    null,
    null,
    null,
    null,
    null,
    null,
    null,
    null,
    null,
    null,
    null,
    null,
    null,
    null,
    null,
    null,
    null,
    null,
    null,
    null,
    null
  ],
  "equipment": [
    {
      "id": 10828,
      "amount": 1
    },
    {
      "id": 6570,
      "amount": 1
    },
    {
      "id": 10364,
      "amount": 1
    },
    {
      "id": 4587,
      "amount": 1
    },
    {
      "id": 10551,
      "amount": 1
    },
    {
      "id": 3122,
      "amount": 1
    },
    null,
    {
      "id": 4730,
      "amount": 1
    },
    null,
    {
      "id": 7462,
      "amount": 1
    },
    {
      "id": 4131,
      "amount": 1
    },
    null,
    null,
    null
  ],
  "shopItems": [
    null,
    null,
    null,
    null,
    null,
    null,
    null,
    null,
    null,
    null,
    null,
    null,
    null,
    null,
    null,
    null,
    null,
    null,
    null,
    null,
    null,
    null,
    null,
    null,
    null,
    null,
    null,
    null,
    null,
    null,
    null,
    null,
    null,
    null,
    null,
    null
  ],
  "shopPrices": [
    0,
    0,
    0,
    0,
    0,
    0,
    0,
    0,
    0,
    0,
    0,
    0,
    0,
    0,
    0,
    0,
    0,
    0,
    0,
    0,
    0,
    0,
    0,
    0,
    0,
    0,
    0,
    0,
    0,
    0,
    0,
    0,
    0,
    0,
    0,
    0
  ],
  "pouches": [
    0,
    0,
    0,
    0
  ]
}