{
  "bank": [
    {
      "id": 995,
      "amount": 1
    },
    {
      "id": 892,
      "amount": 23
    },
    {
      "id": 7946,
      "amount": 56
    },
    {
      "id": 2682,
      "amount": 1
    },
    {
      "id": 1,
      "amount": 1
    },
    {
      "id": 841,
      "amount": 1
    },
    {
      "id": 1846,
      "amount": 1
    },
    {
      "id": 1149,
      "amount": 2
    },
    {
      "id": 1844,
      "amount": 1
    },
    {
      "id": 1845,
      "amount": 1
    },
    {
      "id": 3105,
      "amount": 2
    },
    {
      "id": 2491,
      "amount": 1
    },
    {
      "id": 884,
      "amount": 380
    },
    {
      "id": 861,
      "amount": 1
    },
    {
      "id": 2434,
      "amount": 8
    },
    {
      "id": 6685,
      "amount": 8
    },
    {
      "id": 385,
      "amount": 185
    },
    {
      "id": 2550,
      "amount": 72
    },
    {
      "id": 2723,
      "amount": 1
    },
    {
      "id": 173,
      "amount": 5
    },
    {
      "id": 1601,
      "amount": 1
    },
    {
      "id": 229,
      "amount": 12
    },
    {
      "id": 169,
      "amount": 5
    },
    {
      "id": 6687,
      "amount": 2
    },
    {
      "id": 171,
      "amount": 7
    },
    {
      "id": 442,
      "amount": 100
    },
    {
      "id": 2497,
      "amount": 1
    },
    {
      "id": 1333,
      "amount": 1
    },
    {
      "id": 1712,
      "amount": 1
    },
    {
      "id": 3028,
      "amount": 4
    },
    {
      "id": 12938,
      "amount": 91
    },
    {
      "id": 11840,
      "amount": 1
    },
    {
      "id": 9778,
      "amount": 1
    },
    {
      "id": 9779,
      "amount": 1
    },
    {
      "id": 3024,
      "amount": 92
    },
    {
      "id": 2444,
      "amount": 85
    },
    {
      "id": 9143,
      "amount": 92
    },
    {
      "id": 12699,
      "amount": 1
    },
    {
      "id": 12697,
      "amount": 1
    },
    {
      "id": 143,
      "amount": 1
    },
    {
      "id": 2503,
      "amount": 1
    },
    {
      "id": 554,
      "amount": 292
    },
    {
      "id": 558,
      "amount": 94
    },
    {
      "id": 562,
      "amount": 88
    },
    {
      "id": 1381,
      "amount": 1
    },
    {
      "id": 3749,
      "amount": 1
    },
    {
      "id": 7460,
      "amount": 1
    },
    {
      "id": 9758,
      "amount": 1
    },
    {
      "id": 3030,
      "amount": 4
    },
    {
      "id": 1623,
      "amount": 4
    },
    {
      "id": 395,
      "amount": 38
    },
    {
      "id": 292,
      "amount": 1
    },
    {
      "id": 3026,
      "amount": 7
    },
    {
      "id": 11936,
      "amount": 71
    },
    {
      "id": 13441,
      "amount": 127
    },
    {
      "id": 5316,
      "amount": 3
    },
    {
      "id": 11230,
      "amount": 48
    },
    {
      "id": 6529,
      "amount": 16064
    },
    {
      "id": 1059,
      "amount": 10
    },
    {
      "id": 1741,
      "amount": 10
    },
    {
      "id": 1733,
      "amount": 1
    },
    {
      "id": 1734,
      "amount": 490
    },
    {
      "id": 1777,
      "amount": 112
    },
    {
      "id": 1755,
      "amount": 1
    },
    {
      "id": 9757,
      "amount": 1
    },
    {
      "id": 8839,
      "amount": 1
    },
    {
      "id": 8840,
      "amount": 1
    },
    {
      "id": 6570,
      "amount": 1
    },
    {
      "id": 7981,
      "amount": 1
    },
    {
      "id": 5302,
      "amount": 10
    },
    {
      "id": 4585,
      "amount": 1
    },
    {
      "id": 7980,
      "amount": 1
    },
    {
      "id": 563,
      "amount": 206
    },
    {
      "id": 13439,
      "amount": 3
    },
    {
      "id": 11934,
      "amount": 2
    },
    {
      "id": 7462,
      "amount": 1
    },
    {
      "id": 2452,
      "amount": 18
    },
    {
      "id": 2454,
      "amount": 1
    },
    {
      "id": 1515,
      "amount": 150
    },
    {
      "id": 987,
      "amount": 4
    },
    {
      "id": 13092,
      "amount": 1
    },
    {
      "id": 11665,
      "amount": 1
    },
    {
      "id": 1540,
      "amount": 1
    },
    {
      "id": 9185,
      "amount": 1
    },
    {
      "id": 3843,
      "amount": 1
    },
    {
      "id": 536,
      "amount": 33
    },
    {
      "id": 5974,
      "amount": 1
    },
    {
      "id": 12934,
      "amount": 1
    },
    {
      "id": 1779,
      "amount": 2461
    },
    {
      "id": 9193,
      "amount": 56
    },
    {
      "id": 1249,
      "amount": 1
    },
    {
      "id": 560,
      "amount": 300
    },
    {
      "id": 830,
      "amount": 187
    },
    {
      "id": 383,
      "amount": 232
    },
    {
      "id": 1513,
      "amount": 500
    },
    {
      "id": 6289,
      "amount": 1
    },
    null,
    null,
    null,
    null,
    null,
    null,
    null,
    null,
    null,
    null,
    null,
    null,
    null,
    null,
    null,
    null,
    null,
    null,
    null,
    null,
    null,
    null,
    null,
    null,
    null,
    null,
    null,
    null,
    null,
    null,
    null,
    null,
    null,
    null,
    null,
    null,
    null,
    null,
    null,
    null,
    null,
    null,
    null,
    null,
    null,
    null,
    null,
    null,
    null,
    null,
    null,
    null,
    null,
    null,
    null,
    null,
    null,
    null,
    null,
    null,
    null,
    null,
    null,
    null,
    null,
    null,
    null,
    null,
    null,
    null,
    null,
    null,
    null,
    null,
    null,
    null,
    null,
    null,
    null,
    null,
    null,
    null,
    null,
    null,
    null,
    null,
    null,
    null,
    null,
    null,
    null,
    null,
    null,
    null,
    null,
    null,
    null,
    null,
    null,
    null,
    null,
    null,
    null,
    null,
    null,
    null,
    null,
    null,
    null,
    null,
    null,
    null,
    null,
    null,
    null,
    null,
    null,
    null,
    null,
    null,
    null,
    null,
    null,
    null,
    null,
    null,
    null,
    null,
    null,
    null,
    null,
    null,
    null,
    null,
    null,
    null,
    null,
    null,
    null,
    null,
    null,
    null,
    null,
    null,
    null,
    null,
    null,
    null,
    null,
    null,
    null,
    null,
    null,
    null,
    null,
    null,
    null,
    null,
    null,
    null,
    null,
    null,
    null,
    null,
    null,
    null,
    null,
    null,
    null,
    null,
    null,
    null,
    null,
    null,
    null,
    null,
    null,
    null,
    null,
    null,
    null,
    null,
    null,
    null,
    null,
    null,
    null,
    null,
    null,
    null,
    null,
    null,
    null,
    null,
    null,
    null,
    null,
    null,
    null,
    null,
    null,
    null,
    null,
    null,
    null,
    null,
    null,
    null,
    null,
    null,
    null,
    null,
    null,
    null,
    null,
    null,
    null,
    null,
    null,
    null,
    null,
    null,
    null,
    null,
    null,
    null,
    null,
    null,
    null,
    null,
    null,
    null,
    null,
    null,
    null,
    null,
    null,
    null,
    null,
    null,
    null,
    null,
    null,
    null,
    null,
    null,
    null,
    null,
    null,
    null,
    null,
    null,
    null,
    null
  ],
  "tabAmounts": [
    86,
    10,
    0,
    0,
    0,
    0,
    0,
    0,
    0,
    0
  ],
  "inventory": [
    null,
    null,
    null,
    null,
    null,
    null,
    null,
    null,
    null,
    null,
    null,
    null,
    null,
    null,
    null,
    null,
    null,
    null,
    null,
    null,
    null,
    null,
    null,
    null,
    null,
    null,
    null,
    null
  ],
  "equipment": [
    {
      "id": 11664,
      "amount": 1
    },
    {
      "id": 10499,
      "amount": 1
    },
    null,
    null,
    {
      "id": 13072,
      "amount": 1
    },
    null,
    null,
    {
      "id": 13073,
      "amount": 1
    },
    null,
    {
      "id": 8842,
      "amount": 1
    },
    {
      "id": 6328,
      "amount": 1
    },
    null,
    null,
    {
      "id": 9144,
      "amount": 963
    }
  ],
  "shopItems": [
    null,
    null,
    null,
    null,
    null,
    null,
    null,
    null,
    null,
    null,
    null,
    null,
    null,
    null,
    null,
    null,
    null,
    null,
    null,
    null,
    null,
    null,
    null,
    null,
    null,
    null,
    null,
    null,
    null,
    null,
    null,
    null,
    null,
    null,
    null,
    null
  ],
  "shopPrices": [
    0,
    0,
    0,
    0,
    0,
    0,
    0,
    0,
    0,
    0,
    0,
    0,
    0,
    0,
    0,
    0,
    0,
    0,
    0,
    0,
    0,
    0,
    0,
    0,
    0,
    0,
    0,
    0,
    0,
    0,
    0,
    0,
    0,
    0,
    0,
    0
  ],
  "pouches": [
    0,
    0,
    0,
    0
  ]
}