{
  "bank": [
    {
      "id": 995,
      "amount": 1
    },
    {
      "id": 11830,
      "amount": 1
    },
    {
      "id": 13237,
      "amount": 1
    },
    {
      "id": 11806,
      "amount": 1
    },
    {
      "id": 11824,
      "amount": 1
    },
    {
      "id": 12417,
      "amount": 1
    },
    {
      "id": 11283,
      "amount": 2
    },
    {
      "id": 4151,
      "amount": 1
    },
    {
      "id": 19481,
      "amount": 4
    },
    {
      "id": 11808,
      "amount": 1
    },
    {
      "id": 13275,
      "amount": 1
    },
    {
      "id": 11898,
      "amount": 1
    },
    {
      "id": 19484,
      "amount": 4364
    },
    {
      "id": 12414,
      "amount": 1
    },
    {
      "id": 6733,
      "amount": 1
    },
    {
      "id": 11804,
      "amount": 1
    },
    {
      "id": 11826,
      "amount": 1
    },
    {
      "id": 4718,
      "amount": 2
    },
    {
      "id": 4720,
      "amount": 1
    },
    {
      "id": 4722,
      "amount": 1
    },
    {
      "id": 4714,
      "amount": 1
    },
    {
      "id": 11933,
      "amount": 2
    },
    {
      "id": 6924,
      "amount": 1
    },
    {
      "id": 13092,
      "amount": 3
    },
    {
      "id": 19544,
      "amount": 1
    },
    {
      "id": 13441,
      "amount": 910
    },
    {
      "id": 4747,
      "amount": 3
    },
    {
      "id": 4214,
      "amount": 1
    },
    {
      "id": 11928,
      "amount": 2
    },
    {
      "id": 11929,
      "amount": 3
    },
    {
      "id": 11932,
      "amount": 1
    },
    {
      "id": 12528,
      "amount": 1
    },
    {
      "id": 397,
      "amount": 3390
    },
    {
      "id": 12938,
      "amount": 120
    },
    {
      "id": 6573,
      "amount": 10
    },
    {
      "id": 536,
      "amount": 430
    },
    {
      "id": 11943,
      "amount": 200
    },
    {
      "id": 6920,
      "amount": 2
    },
    {
      "id": 12416,
      "amount": 1
    },
    {
      "id": 6737,
      "amount": 2
    },
    {
      "id": 11924,
      "amount": 1
    },
    {
      "id": 12802,
      "amount": 1
    },
    {
      "id": 12695,
      "amount": 1457
    },
    {
      "id": 3026,
      "amount": 178
    },
    {
      "id": 6687,
      "amount": 195
    },
    {
      "id": 11936,
      "amount": 733
    },
    {
      "id": 565,
      "amount": 16800
    },
    {
      "id": 561,
      "amount": 4786
    },
    {
      "id": 554,
      "amount": 12886
    },
    {
      "id": 10887,
      "amount": 3
    },
    {
      "id": 3024,
      "amount": 178
    },
    {
      "id": 169,
      "amount": 200
    },
    {
      "id": 11838,
      "amount": 1
    },
    {
      "id": 11023,
      "amount": 1
    },
    {
      "id": 10896,
      "amount": 1
    },
    {
      "id": 13321,
      "amount": 1
    },
    {
      "id": 6562,
      "amount": 1
    },
    {
      "id": 2434,
      "amount": 105
    },
    {
      "id": 385,
      "amount": 677
    },
    {
      "id": 592,
      "amount": 21930
    },
    {
      "id": 564,
      "amount": 1040
    },
    {
      "id": 292,
      "amount": 1
    },
    {
      "id": 12934,
      "amount": 4978
    },
    {
      "id": 19675,
      "amount": 1
    },
    {
      "id": 12774,
      "amount": 1
    },
    {
      "id": 11836,
      "amount": 1
    },
    {
      "id": 4749,
      "amount": 1
    },
    {
      "id": 4730,
      "amount": 1
    },
    {
      "id": 2572,
      "amount": 1
    },
    {
      "id": 4724,
      "amount": 1
    },
    {
      "id": 19553,
      "amount": 1
    },
    {
      "id": 12899,
      "amount": 1
    },
    {
      "id": 11802,
      "amount": 1
    },
    {
      "id": 7142,
      "amount": 1
    },
    {
      "id": 13271,
      "amount": 2
    },
    {
      "id": 13263,
      "amount": 1
    },
    {
      "id": 19607,
      "amount": 1
    },
    {
      "id": 11832,
      "amount": 1
    },
    {
      "id": 748,
      "amount": 1
    },
    {
      "id": 12926,
      "amount": 1
    },
    {
      "id": 12415,
      "amount": 1
    },
    {
      "id": 10952,
      "amount": 2
    },
    {
      "id": 12006,
      "amount": 1
    },
    {
      "id": 12748,
      "amount": 1
    },
    {
      "id": 987,
      "amount": 3
    },
    {
      "id": 11834,
      "amount": 1
    },
    {
      "id": 11335,
      "amount": 1
    },
    {
      "id": 11773,
      "amount": 1
    },
    {
      "id": 11889,
      "amount": 1
    },
    {
      "id": 12746,
      "amount": 3
    },
    {
      "id": 3140,
      "amount": 1
    },
    {
      "id": 10549,
      "amount": 1
    },
    {
      "id": 4755,
      "amount": 2
    },
    {
      "id": 6585,
      "amount": 6
    },
    {
      "id": 13239,
      "amount": 1
    },
    {
      "id": 13182,
      "amount": 1
    },
    {
      "id": 13320,
      "amount": 1
    },
    {
      "id": 2803,
      "amount": 1
    },
    {
      "id": 10499,
      "amount": 1
    },
    {
      "id": 6916,
      "amount": 1
    },
    {
      "id": 10828,
      "amount": 1
    },
    {
      "id": 3755,
      "amount": 2
    },
    {
      "id": 12749,
      "amount": 1
    },
    {
      "id": 2890,
      "amount": 1
    },
    {
      "id": 12800,
      "amount": 1
    },
    {
      "id": 13243,
      "amount": 1
    },
    null,
    null,
    null,
    null,
    null,
    null,
    null,
    null,
    null,
    null,
    null,
    null,
    null,
    null,
    null,
    null,
    null,
    null,
    null,
    null,
    null,
    null,
    null,
    null,
    null,
    null,
    null,
    null,
    null,
    null,
    null,
    null,
    null,
    null,
    null,
    null,
    null,
    null,
    null,
    null,
    null,
    null,
    null,
    null,
    null,
    null,
    null,
    null,
    null,
    null,
    null,
    null,
    null,
    null,
    null,
    null,
    null,
    null,
    null,
    null,
    null,
    null,
    null,
    null,
    null,
    null,
    null,
    null,
    null,
    null,
    null,
    null,
    null,
    null,
    null,
    null,
    null,
    null,
    null,
    null,
    null,
    null,
    null,
    null,
    null,
    null,
    null,
    null,
    null,
    null,
    null,
    null,
    null,
    null,
    null,
    null,
    null,
    null,
    null,
    null,
    null,
    null,
    null,
    null,
    null,
    null,
    null,
    null,
    null,
    null,
    null,
    null,
    null,
    null,
    null,
    null,
    null,
    null,
    null,
    null,
    null,
    null,
    null,
    null,
    null,
    null,
    null,
    null,
    null,
    null,
    null,
    null,
    null,
    null,
    null,
    null,
    null,
    null,
    null,
    null,
    null,
    null,
    null,
    null,
    null,
    null,
    null,
    null,
    null,
    null,
    null,
    null,
    null,
    null,
    null,
    null,
    null,
    null,
    null,
    null,
    null,
    null,
    null,
    null,
    null,
    null,
    null,
    null,
    null,
    null,
    null,
    null,
    null,
    null,
    null,
    null,
    null,
    null,
    null,
    null,
    null,
    null,
    null,
    null,
    null,
    null,
    null,
    null,
    null,
    null,
    null,
    null,
    null,
    null,
    null,
    null,
    null,
    null,
    null,
    null,
    null,
    null,
    null,
    null,
    null,
    null,
    null,
    null,
    null,
    null,
    null,
    null,
    null,
    null,
    null,
    null,
    null,
    null,
    null,
    null,
    null,
    null,
    null,
    null,
    null,
    null,
    null,
    null,
    null,
    null,
    null,
    null,
    null,
    null,
    null,
    null,
    null,
    null,
    null,
    null,
    null,
    null,
    null,
    null
  ],
  "tabAmounts": [
    106,
    0,
    0,
    0,
    0,
    0,
    0,
    0,
    0,
    0
  ],
  "inventory": [
    {
      "id": 995,
      "amount": 149681701
    },
    {
      "id": 1037,
      "amount": 1
    },
    {
      "id": 12422,
      "amount": 1
    },
    {
      "id": 13322,
      "amount": 1
    },
    null,
    null,
    null,
    null,
    null,
    null,
    null,
    null,
    null,
    null,
    null,
    null,
    null,
    null,
    null,
    null,
    null,
    null,
    null,
    null,
    null,
    null,
    null,
    null
  ],
  "equipment": [
    {
      "id": 1042,
      "amount": 1
    },
    {
      "id": 13222,
      "amount": 1
    },
    {
      "id": 12436,
      "amount": 1
    },
    {
      "id": 12904,
      "amount": 1
    },
    {
      "id": 11899,
      "amount": 1
    },
    {
      "id": 12825,
      "amount": 1
    },
    null,
    {
      "id": 11900,
      "amount": 1
    },
    null,
    null,
    {
      "id": 13235,
      "amount": 1
    },
    null,
    null,
    null
  ],
  "shopItems": [
    null,
    null,
    null,
    null,
    null,
    null,
    null,
    null,
    null,
    null,
    null,
    null,
    null,
    null,
    null,
    null,
    null,
    null,
    null,
    null,
    null,
    null,
    null,
    null,
    null,
    null,
    null,
    null,
    null,
    null,
    null,
    null,
    null,
    null,
    null,
    null
  ],
  "shopPrices": [
    0,
    0,
    0,
    0,
    0,
    0,
    0,
    0,
    0,
    0,
    0,
    0,
    0,
    0,
    0,
    0,
    0,
    0,
    0,
    0,
    0,
    0,
    0,
    0,
    0,
    0,
    0,
    0,
    0,
    0,
    0,
    0,
    0,
    0,
    0,
    0
  ],
  "pouches": [
    0,
    0,
    0,
    0
  ]
}