{
  "bank": [
    {
      "id": 12695,
      "amount": 149
    },
    {
      "id": 2434,
      "amount": 41
    },
    {
      "id": 2444,
      "amount": 5
    },
    {
      "id": 2446,
      "amount": 13
    },
    {
      "id": 995,
      "amount": 246609939
    },
    {
      "id": 411,
      "amount": 1
    },
    {
      "id": 1061,
      "amount": 2
    },
    {
      "id": 554,
      "amount": 157
    },
    {
      "id": 12697,
      "amount": 10
    },
    {
      "id": 139,
      "amount": 18
    },
    {
      "id": 169,
      "amount": 12
    },
    {
      "id": 175,
      "amount": 4
    },
    {
      "id": 3144,
      "amount": 533
    },
    {
      "id": 13441,
      "amount": 313
    },
    {
      "id": 884,
      "amount": 230
    },
    {
      "id": 1319,
      "amount": 2
    },
    {
      "id": 12699,
      "amount": 14
    },
    {
      "id": 141,
      "amount": 25
    },
    {
      "id": 171,
      "amount": 13
    },
    {
      "id": 177,
      "amount": 1
    },
    {
      "id": 385,
      "amount": 805
    },
    {
      "id": 7936,
      "amount": 2398
    },
    {
      "id": 562,
      "amount": 391
    },
    {
      "id": 1341,
      "amount": 1
    },
    {
      "id": 12701,
      "amount": 8
    },
    {
      "id": 143,
      "amount": 27
    },
    {
      "id": 173,
      "amount": 4
    },
    {
      "id": 179,
      "amount": 2
    },
    {
      "id": 12938,
      "amount": 4
    },
    {
      "id": 229,
      "amount": 146
    },
    {
      "id": 2550,
      "amount": 5
    },
    {
      "id": 2440,
      "amount": 4
    },
    {
      "id": 2436,
      "amount": 4
    },
    {
      "id": 10952,
      "amount": 6
    },
    {
      "id": 563,
      "amount": 2057
    },
    {
      "id": 11212,
      "amount": 13
    },
    {
      "id": 11260,
      "amount": 7
    },
    {
      "id": 2491,
      "amount": 5
    },
    {
      "id": 3105,
      "amount": 7
    },
    {
      "id": 6524,
      "amount": 3
    },
    {
      "id": 868,
      "amount": 282
    },
    {
      "id": 1623,
      "amount": 7
    },
    {
      "id": 379,
      "amount": 14
    },
    {
      "id": 7460,
      "amount": 2
    },
    {
      "id": 892,
      "amount": 546
    },
    {
      "id": 859,
      "amount": 6
    },
    {
      "id": 7509,
      "amount": 1
    },
    {
      "id": 10499,
      "amount": 4
    },
    {
      "id": 6529,
      "amount": 16064
    },
    {
      "id": 841,
      "amount": 1
    },
    {
      "id": 556,
      "amount": 1368
    },
    {
      "id": 561,
      "amount": 419
    },
    {
      "id": 565,
      "amount": 1942
    },
    {
      "id": 1381,
      "amount": 1
    },
    {
      "id": 1387,
      "amount": 1
    },
    {
      "id": 1846,
      "amount": 1
    },
    {
      "id": 4012,
      "amount": 2
    },
    {
      "id": 397,
      "amount": 1050
    },
    {
      "id": 5316,
      "amount": 3
    },
    {
      "id": 4131,
      "amount": 4
    },
    {
      "id": 1333,
      "amount": 2
    },
    {
      "id": 2499,
      "amount": 1
    },
    {
      "id": 5289,
      "amount": 1
    },
    {
      "id": 1621,
      "amount": 2
    },
    {
      "id": 861,
      "amount": 3
    },
    {
      "id": 8844,
      "amount": 2
    },
    {
      "id": 558,
      "amount": 37
    },
    {
      "id": 10977,
      "amount": 1
    },
    {
      "id": 10976,
      "amount": 1
    },
    {
      "id": 869,
      "amount": 7
    },
    {
      "id": 532,
      "amount": 103
    },
    {
      "id": 8845,
      "amount": 1
    },
    {
      "id": 8846,
      "amount": 1
    },
    {
      "id": 8847,
      "amount": 1
    },
    {
      "id": 8848,
      "amount": 1
    },
    {
      "id": 8849,
      "amount": 1
    },
    {
      "id": 8850,
      "amount": 1
    },
    {
      "id": 9676,
      "amount": 1
    },
    {
      "id": 536,
      "amount": 209
    },
    {
      "id": 1735,
      "amount": 1
    },
    {
      "id": 4153,
      "amount": 1
    },
    {
      "id": 3024,
      "amount": 13
    },
    {
      "id": 3026,
      "amount": 2
    },
    {
      "id": 1215,
      "amount": 2
    },
    {
      "id": 557,
      "amount": 270
    },
    {
      "id": 9075,
      "amount": 170
    },
    {
      "id": 559,
      "amount": 57
    },
    {
      "id": 1089,
      "amount": 1
    },
    {
      "id": 952,
      "amount": 2
    },
    {
      "id": 7458,
      "amount": 2
    },
    {
      "id": 1187,
      "amount": 1
    },
    {
      "id": 811,
      "amount": 278
    },
    {
      "id": 2503,
      "amount": 2
    },
    {
      "id": 2497,
      "amount": 3
    },
    {
      "id": 10551,
      "amount": 1
    },
    {
      "id": 6685,
      "amount": 12
    },
    {
      "id": 1313,
      "amount": 1
    },
    {
      "id": 1249,
      "amount": 1
    },
    {
      "id": 560,
      "amount": 976
    },
    {
      "id": 4278,
      "amount": 8
    },
    {
      "id": 12199,
      "amount": 1
    },
    {
      "id": 19484,
      "amount": 1323
    },
    {
      "id": 12610,
      "amount": 1
    },
    {
      "id": 5295,
      "amount": 9
    },
    {
      "id": 830,
      "amount": 4772
    },
    {
      "id": 2363,
      "amount": 45
    },
    {
      "id": 7981,
      "amount": 2
    },
    {
      "id": 2442,
      "amount": 10
    },
    {
      "id": 8008,
      "amount": 4
    },
    {
      "id": 8007,
      "amount": 7
    },
    {
      "id": 8010,
      "amount": 10
    },
    {
      "id": 8011,
      "amount": 7
    },
    {
      "id": 8009,
      "amount": 6
    },
    {
      "id": 11741,
      "amount": 10
    },
    {
      "id": 11742,
      "amount": 10
    },
    {
      "id": 11746,
      "amount": 7
    },
    {
      "id": 11743,
      "amount": 10
    },
    {
      "id": 11745,
      "amount": 10
    },
    {
      "id": 3391,
      "amount": 2
    },
    {
      "id": 6912,
      "amount": 3
    },
    {
      "id": 1844,
      "amount": 1
    },
    {
      "id": 1845,
      "amount": 1
    },
    {
      "id": 6889,
      "amount": 1
    },
    {
      "id": 11230,
      "amount": 1440
    },
    {
      "id": 9144,
      "amount": 1
    },
    {
      "id": 2568,
      "amount": 18
    },
    {
      "id": 12954,
      "amount": 4
    },
    {
      "id": 7946,
      "amount": 3
    },
    {
      "id": 2487,
      "amount": 1
    },
    {
      "id": 8851,
      "amount": 55
    },
    {
      "id": 6916,
      "amount": 1
    },
    {
      "id": 11936,
      "amount": 50
    },
    {
      "id": 11943,
      "amount": 322
    },
    {
      "id": 9749,
      "amount": 1
    },
    {
      "id": 292,
      "amount": 1
    },
    {
      "id": 4710,
      "amount": 1
    },
    {
      "id": 4214,
      "amount": 3
    },
    {
      "id": 1731,
      "amount": 1
    },
    {
      "id": 1643,
      "amount": 1
    },
    {
      "id": 1359,
      "amount": 2
    },
    {
      "id": 1511,
      "amount": 2
    },
    {
      "id": 590,
      "amount": 1
    },
    {
      "id": 1349,
      "amount": 1
    },
    {
      "id": 6328,
      "amount": 1
    },
    {
      "id": 12445,
      "amount": 1
    },
    {
      "id": 4151,
      "amount": 2
    },
    {
      "id": 12934,
      "amount": 3258
    },
    {
      "id": 2361,
      "amount": 73
    },
    {
      "id": 12612,
      "amount": 1
    },
    {
      "id": 12939,
      "amount": 1
    },
    {
      "id": 9748,
      "amount": 1
    },
    {
      "id": 12418,
      "amount": 1
    },
    {
      "id": 6922,
      "amount": 1
    },
    {
      "id": 12414,
      "amount": 1
    },
    {
      "id": 12417,
      "amount": 1
    },
    {
      "id": 12416,
      "amount": 1
    },
    {
      "id": 13092,
      "amount": 1
    },
    {
      "id": 11665,
      "amount": 1
    },
    {
      "id": 8839,
      "amount": 1
    },
    {
      "id": 8840,
      "amount": 1
    },
    {
      "id": 11664,
      "amount": 1
    },
    {
      "id": 2669,
      "amount": 1
    },
    {
      "id": 10286,
      "amount": 1
    },
    {
      "id": 10896,
      "amount": 1
    },
    {
      "id": 10392,
      "amount": 1
    },
    {
      "id": 7780,
      "amount": 1
    },
    {
      "id": 207,
      "amount": 75
    },
    {
      "id": 451,
      "amount": 15
    },
    {
      "id": 989,
      "amount": 2
    },
    {
      "id": 7980,
      "amount": 1
    },
    {
      "id": 7792,
      "amount": 1
    },
    {
      "id": 4087,
      "amount": 1
    },
    {
      "id": 2714,
      "amount": 1
    },
    {
      "id": 4718,
      "amount": 1
    },
    {
      "id": 383,
      "amount": 50
    },
    {
      "id": 1464,
      "amount": 1
    },
    {
      "id": 5020,
      "amount": 1
    },
    {
      "id": 5023,
      "amount": 1
    },
    {
      "id": 4067,
      "amount": 1
    },
    {
      "id": 526,
      "amount": 100
    },
    {
      "id": 1050,
      "amount": 1
    },
    {
      "id": 11863,
      "amount": 1
    },
    {
      "id": 12426,
      "amount": 1
    },
    {
      "id": 10320,
      "amount": 1
    },
    {
      "id": 10338,
      "amount": 1
    },
    {
      "id": 10394,
      "amount": 1
    },
    {
      "id": 6570,
      "amount": 1
    },
    {
      "id": 2722,
      "amount": 6
    },
    {
      "id": 3485,
      "amount": 1
    },
    {
      "id": 2682,
      "amount": 1
    },
    {
      "id": 12802,
      "amount": 1
    },
    {
      "id": 962,
      "amount": 1
    },
    {
      "id": 7798,
      "amount": 1
    },
    {
      "id": 12589,
      "amount": 1
    },
    {
      "id": 12591,
      "amount": 1
    },
    {
      "id": 12580,
      "amount": 1
    },
    {
      "id": 12583,
      "amount": 1
    },
    {
      "id": 10304,
      "amount": 1
    },
    {
      "id": 9183,
      "amount": 1
    },
    {
      "id": 2639,
      "amount": 1
    },
    {
      "id": 2724,
      "amount": 18
    },
    {
      "id": 2653,
      "amount": 1
    },
    {
      "id": 1448,
      "amount": 1
    },
    {
      "id": 1185,
      "amount": 2
    },
    {
      "id": 12257,
      "amount": 1
    },
    {
      "id": 1345,
      "amount": 1
    },
    {
      "id": 1111,
      "amount": 1
    },
    {
      "id": 1147,
      "amount": 1
    },
    {
      "id": 7360,
      "amount": 1
    },
    {
      "id": 12385,
      "amount": 1
    },
    {
      "id": 12512,
      "amount": 1
    },
    {
      "id": 2649,
      "amount": 1
    },
    {
      "id": 12536,
      "amount": 1
    },
    {
      "id": 12524,
      "amount": 1
    },
    {
      "id": 3478,
      "amount": 1
    },
    {
      "id": 7321,
      "amount": 1
    },
    {
      "id": 1199,
      "amount": 1
    },
    {
      "id": 7342,
      "amount": 2
    },
    {
      "id": 2663,
      "amount": 1
    },
    {
      "id": 12271,
      "amount": 1
    },
    {
      "id": 7399,
      "amount": 1
    },
    {
      "id": 3488,
      "amount": 1
    },
    {
      "id": 7400,
      "amount": 1
    },
    {
      "id": 10296,
      "amount": 1
    },
    {
      "id": 12817,
      "amount": 2147000100
    },
    {
      "id": 985,
      "amount": 7
    },
    {
      "id": 2509,
      "amount": 297
    },
    {
      "id": 9244,
      "amount": 939
    },
    {
      "id": 1631,
      "amount": 30
    },
    {
      "id": 1779,
      "amount": 3099
    },
    {
      "id": 592,
      "amount": 7004
    },
    {
      "id": 6573,
      "amount": 3
    },
    {
      "id": 1149,
      "amount": 7
    },
    {
      "id": 7979,
      "amount": 3
    },
    {
      "id": 10828,
      "amount": 6
    },
    {
      "id": 4587,
      "amount": 3
    },
    {
      "id": 7462,
      "amount": 12
    },
    {
      "id": 9674,
      "amount": 1
    },
    {
      "id": 3204,
      "amount": 5
    },
    {
      "id": 11849,
      "amount": 8
    },
    {
      "id": 453,
      "amount": 300
    },
    {
      "id": 1513,
      "amount": 1394
    },
    {
      "id": 2673,
      "amount": 1
    },
    {
      "id": 1163,
      "amount": 7
    },
    {
      "id": 12608,
      "amount": 7
    },
    {
      "id": 3122,
      "amount": 3
    },
    {
      "id": 10300,
      "amount": 1
    },
    {
      "id": 12387,
      "amount": 1
    },
    {
      "id": 1201,
      "amount": 4
    },
    {
      "id": 1093,
      "amount": 5
    },
    {
      "id": 1113,
      "amount": 6
    },
    {
      "id": 1127,
      "amount": 4
    },
    {
      "id": 12453,
      "amount": 4
    },
    {
      "id": 2368,
      "amount": 5
    },
    {
      "id": 12449,
      "amount": 3
    },
    {
      "id": 12447,
      "amount": 5
    },
    {
      "id": 3387,
      "amount": 3
    },
    {
      "id": 3101,
      "amount": 4
    },
    {
      "id": 1079,
      "amount": 10
    },
    {
      "id": 12451,
      "amount": 3
    },
    {
      "id": 9185,
      "amount": 2
    },
    {
      "id": 2665,
      "amount": 1
    },
    {
      "id": 12229,
      "amount": 1
    },
    {
      "id": 1367,
      "amount": 2
    },
    {
      "id": 10314,
      "amount": 2
    },
    {
      "id": 1456,
      "amount": 1
    },
    {
      "id": 6908,
      "amount": 2
    },
    {
      "id": 2631,
      "amount": 1
    },
    {
      "id": 3753,
      "amount": 3
    },
    {
      "id": 3389,
      "amount": 5
    },
    {
      "id": 3755,
      "amount": 3
    },
    {
      "id": 3385,
      "amount": 5
    },
    {
      "id": 430,
      "amount": 3
    },
    {
      "id": 2366,
      "amount": 5
    },
    {
      "id": 3749,
      "amount": 3
    },
    {
      "id": 1478,
      "amount": 1
    },
    {
      "id": 3479,
      "amount": 1
    },
    {
      "id": 2890,
      "amount": 6
    },
    {
      "id": 1135,
      "amount": 6
    },
    {
      "id": 1099,
      "amount": 4
    },
    {
      "id": 6322,
      "amount": 2
    },
    {
      "id": 1,
      "amount": 1
    },
    {
      "id": 6330,
      "amount": 2
    },
    {
      "id": 3843,
      "amount": 4
    },
    {
      "id": 3839,
      "amount": 2
    },
    {
      "id": 1692,
      "amount": 1
    },
    {
      "id": 1696,
      "amount": 2
    },
    {
      "id": 11232,
      "amount": 12
    },
    {
      "id": 9193,
      "amount": 102
    },
    {
      "id": 8782,
      "amount": 97
    },
    {
      "id": 4093,
      "amount": 1
    },
    {
      "id": 7384,
      "amount": 3
    },
    {
      "id": 3393,
      "amount": 2
    },
    {
      "id": 1702,
      "amount": 3
    },
    {
      "id": 6326,
      "amount": 2
    },
    {
      "id": 3841,
      "amount": 2
    },
    {
      "id": 12375,
      "amount": 3
    },
    {
      "id": 12508,
      "amount": 1
    },
    {
      "id": 12516,
      "amount": 1
    },
    {
      "id": 6324,
      "amount": 1
    },
    {
      "id": 1095,
      "amount": 2
    },
    {
      "id": 10282,
      "amount": 2
    },
    {
      "id": 3830,
      "amount": 1
    },
    {
      "id": 10312,
      "amount": 1
    },
    {
      "id": 1462,
      "amount": 2
    },
    {
      "id": 2635,
      "amount": 1
    },
    {
      "id": 1327,
      "amount": 3
    },
    {
      "id": 10426,
      "amount": 1
    },
    {
      "id": 1446,
      "amount": 1
    },
    {
      "id": 1107,
      "amount": 3
    },
    {
      "id": 10468,
      "amount": 1
    },
    {
      "id": 1059,
      "amount": 1
    },
    {
      "id": 2585,
      "amount": 1
    },
    {
      "id": 1125,
      "amount": 1
    },
    {
      "id": 10310,
      "amount": 2
    },
    {
      "id": 1165,
      "amount": 1
    },
    {
      "id": 7344,
      "amount": 1
    },
    {
      "id": 7338,
      "amount": 1
    },
    {
      "id": 1694,
      "amount": 1
    },
    {
      "id": 1167,
      "amount": 1
    },
    {
      "id": 2587,
      "amount": 1
    },
    {
      "id": 1426,
      "amount": 2
    },
    {
      "id": 7356,
      "amount": 1
    },
    {
      "id": 3837,
      "amount": 1
    },
    {
      "id": 1301,
      "amount": 1
    },
    {
      "id": 12303,
      "amount": 1
    },
    {
      "id": 12455,
      "amount": 1
    },
    {
      "id": 2671,
      "amount": 2
    },
    {
      "id": 12500,
      "amount": 1
    },
    {
      "id": 10290,
      "amount": 1
    },
    {
      "id": 10294,
      "amount": 1
    },
    {
      "id": 2655,
      "amount": 1
    },
    {
      "id": 7336,
      "amount": 1
    },
    {
      "id": 2657,
      "amount": 1
    },
    {
      "id": 10302,
      "amount": 1
    },
    {
      "id": 10422,
      "amount": 1
    },
    {
      "id": 7327,
      "amount": 1
    },
    {
      "id": 1347,
      "amount": 1
    },
    {
      "id": 1963,
      "amount": 1
    },
    {
      "id": 1169,
      "amount": 1
    },
    {
      "id": 7332,
      "amount": 1
    },
    {
      "id": 1145,
      "amount": 1
    },
    {
      "id": 7358,
      "amount": 1
    },
    {
      "id": 1373,
      "amount": 3
    },
    {
      "id": 2667,
      "amount": 2
    },
    {
      "id": 2493,
      "amount": 1
    },
    {
      "id": 12504,
      "amount": 1
    },
    {
      "id": 12299,
      "amount": 1
    },
    {
      "id": 1710,
      "amount": 1
    },
    {
      "id": 10450,
      "amount": 1
    }
  ],
  "tabAmounts": [
    225,
    9,
    5,
    3,
    108,
    0,
    0,
    0,
    0,
    0
  ],
  "inventory": [
    null,
    null,
    null,
    null,
    null,
    null,
    null,
    null,
    null,
    null,
    null,
    null,
    null,
    null,
    null,
    null,
    null,
    null,
    null,
    null,
    null,
    null,
    null,
    null,
    null,
    null,
    null,
    null
  ],
  "equipment": [
    {
      "id": 12399,
      "amount": 1
    },
    {
      "id": 13068,
      "amount": 1
    },
    {
      "id": 6585,
      "amount": 1
    },
    {
      "id": 7142,
      "amount": 1
    },
    {
      "id": 10338,
      "amount": 1
    },
    {
      "id": 12817,
      "amount": 1
    },
    null,
    {
      "id": 10340,
      "amount": 1
    },
    null,
    {
      "id": 8842,
      "amount": 1
    },
    {
      "id": 11840,
      "amount": 1
    },
    null,
    {
      "id": 2572,
      "amount": 1
    },
    null
  ],
  "shopItems": [
    null,
    null,
    null,
    null,
    null,
    null,
    null,
    null,
    null,
    null,
    null,
    null,
    null,
    null,
    null,
    null,
    null,
    null,
    null,
    null,
    null,
    null,
    null,
    null,
    null,
    null,
    null,
    null,
    null,
    null,
    null,
    null,
    null,
    null,
    null,
    null
  ],
  "shopPrices": [
    0,
    0,
    0,
    0,
    0,
    0,
    0,
    0,
    0,
    0,
    0,
    0,
    0,
    0,
    0,
    0,
    0,
    0,
    0,
    0,
    0,
    0,
    0,
    0,
    0,
    0,
    0,
    0,
    0,
    0,
    0,
    0,
    0,
    0,
    0,
    0
  ],
  "pouches": [
    0,
    0,
    0,
    0
  ]
}