{
  "bank": [
    {
      "id": 995,
      "amount": 10174335
    },
    {
      "id": 1381,
      "amount": 1
    },
    {
      "id": 554,
      "amount": 1300
    },
    {
      "id": 558,
      "amount": 1100
    },
    {
      "id": 562,
      "amount": 1100
    },
    {
      "id": 2434,
      "amount": 203
    },
    {
      "id": 12695,
      "amount": 5
    },
    {
      "id": 2444,
      "amount": 5
    },
    {
      "id": 1,
      "amount": 1
    },
    {
      "id": 861,
      "amount": 2
    },
    {
      "id": 1321,
      "amount": 1
    },
    {
      "id": 1845,
      "amount": 1
    },
    {
      "id": 1844,
      "amount": 1
    },
    {
      "id": 841,
      "amount": 1
    },
    {
      "id": 7946,
      "amount": 70
    },
    {
      "id": 561,
      "amount": 1072
    },
    {
      "id": 1846,
      "amount": 1
    },
    {
      "id": 1127,
      "amount": 1
    },
    {
      "id": 2366,
      "amount": 2
    },
    {
      "id": 10828,
      "amount": 1
    },
    {
      "id": 3122,
      "amount": 1
    },
    {
      "id": 3753,
      "amount": 1
    },
    {
      "id": 1702,
      "amount": 5
    },
    {
      "id": 12451,
      "amount": 3
    },
    {
      "id": 3839,
      "amount": 4
    },
    {
      "id": 12375,
      "amount": 4
    },
    {
      "id": 3843,
      "amount": 2
    },
    {
      "id": 6908,
      "amount": 1
    },
    {
      "id": 9185,
      "amount": 4
    },
    {
      "id": 12455,
      "amount": 3
    },
    {
      "id": 6912,
      "amount": 3
    },
    {
      "id": 6322,
      "amount": 2
    },
    {
      "id": 1731,
      "amount": 2
    },
    {
      "id": 7460,
      "amount": 3
    },
    {
      "id": 3391,
      "amount": 2
    },
    {
      "id": 6328,
      "amount": 4
    },
    {
      "id": 3385,
      "amount": 1
    },
    {
      "id": 12447,
      "amount": 3
    },
    {
      "id": 1135,
      "amount": 4
    },
    {
      "id": 7936,
      "amount": 65
    },
    {
      "id": 12453,
      "amount": 2
    },
    {
      "id": 4131,
      "amount": 3
    },
    {
      "id": 555,
      "amount": 1008
    },
    {
      "id": 557,
      "amount": 1110
    },
    {
      "id": 559,
      "amount": 1000
    },
    {
      "id": 560,
      "amount": 1300
    },
    {
      "id": 563,
      "amount": 2133
    },
    {
      "id": 564,
      "amount": 1000
    },
    {
      "id": 566,
      "amount": 1000
    },
    {
      "id": 9075,
      "amount": 1000
    },
    {
      "id": 1079,
      "amount": 1
    },
    {
      "id": 12608,
      "amount": 2
    },
    {
      "id": 12612,
      "amount": 1
    },
    {
      "id": 3749,
      "amount": 1
    },
    {
      "id": 12449,
      "amount": 2
    },
    {
      "id": 430,
      "amount": 1
    },
    {
      "id": 10499,
      "amount": 2
    },
    {
      "id": 12445,
      "amount": 1
    },
    {
      "id": 7458,
      "amount": 2
    },
    {
      "id": 3105,
      "amount": 1
    },
    {
      "id": 2550,
      "amount": 18
    },
    {
      "id": 6324,
      "amount": 2
    },
    {
      "id": 3755,
      "amount": 1
    },
    {
      "id": 3387,
      "amount": 1
    },
    {
      "id": 7979,
      "amount": 2
    },
    {
      "id": 884,
      "amount": 134
    },
    {
      "id": 892,
      "amount": 100
    },
    {
      "id": 385,
      "amount": 28
    },
    {
      "id": 229,
      "amount": 10
    },
    {
      "id": 1623,
      "amount": 1
    },
    {
      "id": 9193,
      "amount": 25
    },
    {
      "id": 6326,
      "amount": 1
    },
    {
      "id": 12938,
      "amount": 2
    },
    {
      "id": 2368,
      "amount": 1
    },
    {
      "id": 811,
      "amount": 169
    },
    {
      "id": 2497,
      "amount": 1
    },
    {
      "id": 2503,
      "amount": 1
    },
    {
      "id": 12610,
      "amount": 1
    },
    {
      "id": 2491,
      "amount": 1
    },
    {
      "id": 4944,
      "amount": 1
    },
    {
      "id": 987,
      "amount": 7
    },
    {
      "id": 3828,
      "amount": 1
    },
    {
      "id": 143,
      "amount": 2
    },
    {
      "id": 2499,
      "amount": 1
    },
    {
      "id": 2487,
      "amount": 1
    },
    {
      "id": 1347,
      "amount": 1
    },
    {
      "id": 2493,
      "amount": 1
    },
    {
      "id": 2890,
      "amount": 1
    },
    {
      "id": 1059,
      "amount": 3
    },
    {
      "id": 1169,
      "amount": 1
    },
    {
      "id": 1456,
      "amount": 3
    },
    {
      "id": 1095,
      "amount": 6
    },
    {
      "id": 1345,
      "amount": 1
    },
    {
      "id": 1393,
      "amount": 2
    },
    {
      "id": 1301,
      "amount": 1
    },
    {
      "id": 379,
      "amount": 1
    },
    {
      "id": 7356,
      "amount": 2
    },
    {
      "id": 1107,
      "amount": 3
    },
    {
      "id": 10314,
      "amount": 3
    },
    {
      "id": 2647,
      "amount": 1
    },
    {
      "id": 10420,
      "amount": 1
    },
    {
      "id": 1442,
      "amount": 2
    },
    {
      "id": 1061,
      "amount": 3
    },
    {
      "id": 1195,
      "amount": 5
    },
    {
      "id": 7338,
      "amount": 2
    },
    {
      "id": 10308,
      "amount": 5
    },
    {
      "id": 10306,
      "amount": 1
    },
    {
      "id": 1151,
      "amount": 1
    },
    {
      "id": 1444,
      "amount": 2
    },
    {
      "id": 7350,
      "amount": 1
    },
    {
      "id": 1179,
      "amount": 1
    },
    {
      "id": 2631,
      "amount": 1
    },
    {
      "id": 1446,
      "amount": 2
    },
    {
      "id": 10282,
      "amount": 2
    },
    {
      "id": 10436,
      "amount": 1
    },
    {
      "id": 1426,
      "amount": 3
    },
    {
      "id": 1448,
      "amount": 2
    },
    {
      "id": 2637,
      "amount": 2
    },
    {
      "id": 1327,
      "amount": 4
    },
    {
      "id": 1269,
      "amount": 3
    },
    {
      "id": 1698,
      "amount": 1
    },
    {
      "id": 7366,
      "amount": 1
    },
    {
      "id": 1167,
      "amount": 2
    },
    {
      "id": 1367,
      "amount": 2
    },
    {
      "id": 1462,
      "amount": 4
    },
    {
      "id": 10434,
      "amount": 1
    },
    {
      "id": 7332,
      "amount": 1
    },
    {
      "id": 12207,
      "amount": 1
    },
    {
      "id": 10284,
      "amount": 2
    },
    {
      "id": 12235,
      "amount": 1
    },
    {
      "id": 1454,
      "amount": 2
    },
    {
      "id": 10310,
      "amount": 1
    },
    {
      "id": 12205,
      "amount": 1
    },
    {
      "id": 1452,
      "amount": 1
    },
    {
      "id": 1361,
      "amount": 2
    },
    {
      "id": 1077,
      "amount": 2
    },
    {
      "id": 1700,
      "amount": 1
    },
    {
      "id": 1313,
      "amount": 2
    },
    {
      "id": 1458,
      "amount": 1
    },
    {
      "id": 849,
      "amount": 2
    },
    {
      "id": 7344,
      "amount": 3
    },
    {
      "id": 19691,
      "amount": 1
    },
    {
      "id": 1099,
      "amount": 1
    },
    {
      "id": 859,
      "amount": 1
    },
    {
      "id": 12213,
      "amount": 1
    },
    {
      "id": 10412,
      "amount": 1
    },
    {
      "id": 1165,
      "amount": 2
    },
    {
      "id": 333,
      "amount": 1
    },
    {
      "id": 1063,
      "amount": 1
    },
    {
      "id": 3830,
      "amount": 1
    },
    {
      "id": 10280,
      "amount": 1
    },
    {
      "id": 329,
      "amount": 2
    },
    {
      "id": 1287,
      "amount": 1
    },
    {
      "id": 1073,
      "amount": 1
    },
    {
      "id": 1430,
      "amount": 1
    },
    {
      "id": 10300,
      "amount": 1
    },
    {
      "id": 373,
      "amount": 1
    },
    {
      "id": 1341,
      "amount": 2
    },
    {
      "id": 2649,
      "amount": 1
    },
    {
      "id": 952,
      "amount": 1
    },
    {
      "id": 7390,
      "amount": 1
    },
    {
      "id": 10312,
      "amount": 1
    },
    {
      "id": 1283,
      "amount": 1
    },
    {
      "id": 1317,
      "amount": 1
    },
    {
      "id": 4587,
      "amount": 1
    },
    null,
    null,
    null,
    null,
    null,
    null,
    null,
    null,
    null,
    null,
    null,
    null,
    null,
    null,
    null,
    null,
    null,
    null,
    null,
    null,
    null,
    null,
    null,
    null,
    null,
    null,
    null,
    null,
    null,
    null,
    null,
    null,
    null,
    null,
    null,
    null,
    null,
    null,
    null,
    null,
    null,
    null,
    null,
    null,
    null,
    null,
    null,
    null,
    null,
    null,
    null,
    null,
    null,
    null,
    null,
    null,
    null,
    null,
    null,
    null,
    null,
    null,
    null,
    null,
    null,
    null,
    null,
    null,
    null,
    null,
    null,
    null,
    null,
    null,
    null,
    null,
    null,
    null,
    null,
    null,
    null,
    null,
    null,
    null,
    null,
    null,
    null,
    null,
    null,
    null,
    null,
    null,
    null,
    null,
    null,
    null,
    null,
    null,
    null,
    null,
    null,
    null,
    null,
    null,
    null,
    null,
    null,
    null,
    null,
    null,
    null,
    null,
    null,
    null,
    null,
    null,
    null,
    null,
    null,
    null,
    null,
    null,
    null,
    null,
    null,
    null,
    null,
    null,
    null,
    null,
    null,
    null,
    null,
    null,
    null,
    null,
    null,
    null,
    null,
    null,
    null,
    null,
    null,
    null,
    null,
    null,
    null,
    null,
    null,
    null,
    null,
    null,
    null,
    null,
    null,
    null,
    null,
    null,
    null,
    null,
    null,
    null,
    null,
    null,
    null,
    null,
    null,
    null,
    null,
    null,
    null,
    null,
    null,
    null,
    null,
    null,
    null,
    null,
    null,
    null,
    null,
    null,
    null,
    null,
    null
  ],
  "tabAmounts": [
    165,
    0,
    0,
    0,
    0,
    0,
    0,
    0,
    0,
    0
  ],
  "inventory": [
    null,
    null,
    null,
    null,
    null,
    null,
    null,
    null,
    null,
    null,
    null,
    null,
    null,
    null,
    null,
    null,
    null,
    null,
    null,
    null,
    null,
    null,
    null,
    null,
    null,
    null,
    null,
    null
  ],
  "equipment": [
    {
      "id": 10828,
      "amount": 1
    },
    null,
    {
      "id": 1712,
      "amount": 1
    },
    {
      "id": 12773,
      "amount": 1
    },
    {
      "id": 9674,
      "amount": 1
    },
    {
      "id": 3841,
      "amount": 1
    },
    null,
    {
      "id": 9676,
      "amount": 1
    },
    null,
    {
      "id": 7460,
      "amount": 1
    },
    {
      "id": 3105,
      "amount": 1
    },
    null,
    null,
    null
  ],
  "shopItems": [
    null,
    null,
    null,
    null,
    null,
    null,
    null,
    null,
    null,
    null,
    null,
    null,
    null,
    null,
    null,
    null,
    null,
    null,
    null,
    null,
    null,
    null,
    null,
    null,
    null,
    null,
    null,
    null,
    null,
    null,
    null,
    null,
    null,
    null,
    null,
    null
  ],
  "shopPrices": [
    0,
    0,
    0,
    0,
    0,
    0,
    0,
    0,
    0,
    0,
    0,
    0,
    0,
    0,
    0,
    0,
    0,
    0,
    0,
    0,
    0,
    0,
    0,
    0,
    0,
    0,
    0,
    0,
    0,
    0,
    0,
    0,
    0,
    0,
    0,
    0
  ],
  "pouches": [
    0,
    0,
    0,
    0
  ]
}