{
  "bank": [
    {
      "id": 995,
      "amount": 284352
    },
    {
      "id": 7946,
      "amount": 43
    },
    {
      "id": 12695,
      "amount": 5
    },
    {
      "id": 1,
      "amount": 1
    },
    {
      "id": 7394,
      "amount": 1
    },
    {
      "id": 1448,
      "amount": 1
    },
    {
      "id": 564,
      "amount": 4
    },
    {
      "id": 1454,
      "amount": 1
    },
    {
      "id": 1462,
      "amount": 2
    },
    {
      "id": 1267,
      "amount": 2
    },
    {
      "id": 7460,
      "amount": 2
    },
    {
      "id": 9674,
      "amount": 1
    },
    {
      "id": 3755,
      "amount": 1
    },
    {
      "id": 1478,
      "amount": 1
    },
    {
      "id": 7936,
      "amount": 994
    },
    {
      "id": 1731,
      "amount": 2
    },
    {
      "id": 12375,
      "amount": 2
    },
    {
      "id": 4155,
      "amount": 1
    },
    {
      "id": 217,
      "amount": 2
    },
    {
      "id": 3841,
      "amount": 1
    },
    {
      "id": 11230,
      "amount": 1
    },
    {
      "id": 430,
      "amount": 2
    },
    {
      "id": 12455,
      "amount": 2
    },
    {
      "id": 2349,
      "amount": 1
    },
    {
      "id": 2351,
      "amount": 1
    },
    {
      "id": 2353,
      "amount": 1
    },
    {
      "id": 2355,
      "amount": 1
    },
    {
      "id": 2359,
      "amount": 46
    },
    {
      "id": 2361,
      "amount": 6
    },
    {
      "id": 267,
      "amount": 1
    },
    {
      "id": 253,
      "amount": 1
    },
    {
      "id": 201,
      "amount": 1
    },
    {
      "id": 257,
      "amount": 2
    },
    {
      "id": 203,
      "amount": 3
    },
    {
      "id": 207,
      "amount": 4
    },
    {
      "id": 269,
      "amount": 14
    },
    {
      "id": 11260,
      "amount": 21
    },
    {
      "id": 9194,
      "amount": 16
    },
    {
      "id": 5316,
      "amount": 1
    },
    {
      "id": 9193,
      "amount": 24
    },
    {
      "id": 453,
      "amount": 132
    },
    {
      "id": 554,
      "amount": 1182
    },
    {
      "id": 12449,
      "amount": 1
    },
    {
      "id": 566,
      "amount": 242
    },
    {
      "id": 1387,
      "amount": 1
    },
    {
      "id": 562,
      "amount": 130
    },
    {
      "id": 558,
      "amount": 152
    },
    {
      "id": 555,
      "amount": 322
    },
    {
      "id": 560,
      "amount": 415
    },
    {
      "id": 556,
      "amount": 432
    },
    {
      "id": 561,
      "amount": 147
    },
    {
      "id": 557,
      "amount": 566
    },
    {
      "id": 4675,
      "amount": 1
    },
    {
      "id": 4091,
      "amount": 1
    },
    {
      "id": 4093,
      "amount": 1
    },
    {
      "id": 1623,
      "amount": 1
    },
    {
      "id": 1702,
      "amount": 2
    },
    {
      "id": 385,
      "amount": 99
    },
    {
      "id": 7334,
      "amount": 1
    },
    {
      "id": 12271,
      "amount": 1
    },
    {
      "id": 12301,
      "amount": 1
    },
    {
      "id": 9758,
      "amount": 1
    },
    {
      "id": 9756,
      "amount": 1
    },
    {
      "id": 3024,
      "amount": 2
    },
    {
      "id": 6685,
      "amount": 2
    },
    {
      "id": 2434,
      "amount": 2
    },
    {
      "id": 3749,
      "amount": 1
    },
    {
      "id": 8844,
      "amount": 1
    },
    {
      "id": 8845,
      "amount": 1
    },
    {
      "id": 1619,
      "amount": 1
    },
    {
      "id": 8846,
      "amount": 1
    },
    {
      "id": 1710,
      "amount": 1
    },
    {
      "id": 10314,
      "amount": 1
    },
    {
      "id": 7356,
      "amount": 1
    },
    {
      "id": 559,
      "amount": 11
    },
    {
      "id": 8848,
      "amount": 1
    },
    {
      "id": 8847,
      "amount": 1
    },
    {
      "id": 1381,
      "amount": 1
    },
    {
      "id": 1127,
      "amount": 3
    },
    {
      "id": 1163,
      "amount": 2
    },
    {
      "id": 8851,
      "amount": 35
    },
    {
      "id": 8849,
      "amount": 1
    },
    {
      "id": 8850,
      "amount": 1
    },
    {
      "id": 2446,
      "amount": 6
    },
    {
      "id": 5520,
      "amount": 1
    },
    {
      "id": 7979,
      "amount": 1
    },
    {
      "id": 6912,
      "amount": 1
    },
    {
      "id": 565,
      "amount": 271
    },
    {
      "id": 4740,
      "amount": 15
    },
    {
      "id": 10010,
      "amount": 1
    },
    {
      "id": 590,
      "amount": 1
    },
    {
      "id": 315,
      "amount": 37
    },
    {
      "id": 319,
      "amount": 10
    },
    {
      "id": 303,
      "amount": 1
    },
    {
      "id": 311,
      "amount": 1
    },
    {
      "id": 325,
      "amount": 15
    },
    {
      "id": 351,
      "amount": 6
    },
    {
      "id": 347,
      "amount": 4
    },
    {
      "id": 379,
      "amount": 46
    },
    {
      "id": 1149,
      "amount": 1
    },
    {
      "id": 6330,
      "amount": 1
    },
    {
      "id": 301,
      "amount": 1
    },
    {
      "id": 1540,
      "amount": 1
    },
    {
      "id": 4097,
      "amount": 2
    },
    {
      "id": 3053,
      "amount": 1
    },
    {
      "id": 2444,
      "amount": 5
    },
    {
      "id": 2499,
      "amount": 1
    },
    {
      "id": 2890,
      "amount": 2
    },
    {
      "id": 1347,
      "amount": 1
    },
    {
      "id": 2357,
      "amount": 2
    },
    {
      "id": 2487,
      "amount": 1
    },
    {
      "id": 7398,
      "amount": 1
    },
    {
      "id": 1755,
      "amount": 1
    },
    {
      "id": 10499,
      "amount": 1
    },
    {
      "id": 1249,
      "amount": 1
    },
    {
      "id": 3839,
      "amount": 1
    },
    {
      "id": 261,
      "amount": 1
    },
    {
      "id": 1373,
      "amount": 1
    },
    {
      "id": 2366,
      "amount": 3
    },
    {
      "id": 7458,
      "amount": 1
    },
    {
      "id": 12453,
      "amount": 1
    },
    {
      "id": 9185,
      "amount": 1
    },
    {
      "id": 373,
      "amount": 95
    },
    {
      "id": 179,
      "amount": 1
    },
    {
      "id": 9143,
      "amount": 352
    },
    {
      "id": 6326,
      "amount": 1
    },
    {
      "id": 2503,
      "amount": 1
    },
    {
      "id": 2497,
      "amount": 1
    },
    {
      "id": 1201,
      "amount": 2
    },
    {
      "id": 3105,
      "amount": 2
    },
    {
      "id": 1269,
      "amount": 1
    },
    {
      "id": 952,
      "amount": 1
    },
    {
      "id": 10310,
      "amount": 1
    },
    {
      "id": 1179,
      "amount": 1
    },
    {
      "id": 1301,
      "amount": 2
    },
    {
      "id": 1111,
      "amount": 1
    },
    {
      "id": 7348,
      "amount": 1
    },
    {
      "id": 12257,
      "amount": 1
    },
    {
      "id": 2675,
      "amount": 1
    },
    {
      "id": 1442,
      "amount": 1
    },
    {
      "id": 1079,
      "amount": 1
    },
    {
      "id": 608,
      "amount": 1
    },
    {
      "id": 3204,
      "amount": 1
    },
    {
      "id": 11942,
      "amount": 1
    },
    {
      "id": 12313,
      "amount": 1
    },
    {
      "id": 2493,
      "amount": 1
    },
    {
      "id": 1331,
      "amount": 1
    },
    {
      "id": 1099,
      "amount": 2
    },
    {
      "id": 10422,
      "amount": 1
    },
    {
      "id": 658,
      "amount": 1
    },
    {
      "id": 6328,
      "amount": 1
    },
    {
      "id": 1734,
      "amount": 10
    },
    {
      "id": 6908,
      "amount": 1
    },
    {
      "id": 1759,
      "amount": 1
    },
    {
      "id": 1185,
      "amount": 1
    },
    {
      "id": 3122,
      "amount": 1
    },
    {
      "id": 2722,
      "amount": 1
    },
    {
      "id": 12612,
      "amount": 2
    },
    {
      "id": 12608,
      "amount": 1
    },
    {
      "id": 3387,
      "amount": 1
    },
    {
      "id": 11849,
      "amount": 6
    },
    {
      "id": 2412,
      "amount": 1
    },
    {
      "id": 1215,
      "amount": 1
    },
    {
      "id": 10828,
      "amount": 1
    },
    {
      "id": 6570,
      "amount": 1
    },
    {
      "id": 4587,
      "amount": 1
    },
    {
      "id": 10551,
      "amount": 1
    },
    {
      "id": 12954,
      "amount": 1
    },
    {
      "id": 9676,
      "amount": 1
    },
    {
      "id": 7462,
      "amount": 1
    },
    {
      "id": 2572,
      "amount": 1
    },
    null,
    null,
    null,
    null,
    null,
    null,
    null,
    null,
    null,
    null,
    null,
    null,
    null,
    null,
    null,
    null,
    null,
    null,
    null,
    null,
    null,
    null,
    null,
    null,
    null,
    null,
    null,
    null,
    null,
    null,
    null,
    null,
    null,
    null,
    null,
    null,
    null,
    null,
    null,
    null,
    null,
    null,
    null,
    null,
    null,
    null,
    null,
    null,
    null,
    null,
    null,
    null,
    null,
    null,
    null,
    null,
    null,
    null,
    null,
    null,
    null,
    null,
    null,
    null,
    null,
    null,
    null,
    null,
    null,
    null,
    null,
    null,
    null,
    null,
    null,
    null,
    null,
    null,
    null,
    null,
    null,
    null,
    null,
    null,
    null,
    null,
    null,
    null,
    null,
    null,
    null,
    null,
    null,
    null,
    null,
    null,
    null,
    null,
    null,
    null,
    null,
    null,
    null,
    null,
    null,
    null,
    null,
    null,
    null,
    null,
    null,
    null,
    null,
    null,
    null,
    null,
    null,
    null,
    null,
    null,
    null,
    null,
    null,
    null,
    null,
    null,
    null,
    null,
    null,
    null,
    null,
    null,
    null,
    null,
    null,
    null,
    null,
    null,
    null,
    null,
    null,
    null,
    null,
    null,
    null,
    null,
    null,
    null,
    null,
    null,
    null,
    null,
    null,
    null,
    null,
    null,
    null,
    null,
    null,
    null,
    null,
    null,
    null,
    null,
    null,
    null,
    null,
    null,
    null,
    null,
    null,
    null,
    null,
    null,
    null,
    null,
    null,
    null,
    null
  ],
  "tabAmounts": [
    171,
    0,
    0,
    0,
    0,
    0,
    0,
    0,
    0,
    0
  ],
  "inventory": [
    {
      "id": 11849,
      "amount": 11
    },
    {
      "id": 10952,
      "amount": 1
    },
    null,
    null,
    null,
    null,
    null,
    null,
    null,
    null,
    null,
    null,
    null,
    null,
    null,
    null,
    null,
    null,
    null,
    null,
    null,
    null,
    null,
    null,
    null,
    null,
    null,
    null
  ],
  "equipment": [
    null,
    null,
    null,
    null,
    null,
    null,
    null,
    null,
    null,
    null,
    null,
    null,
    null,
    null
  ],
  "shopItems": [
    null,
    null,
    null,
    null,
    null,
    null,
    null,
    null,
    null,
    null,
    null,
    null,
    null,
    null,
    null,
    null,
    null,
    null,
    null,
    null,
    null,
    null,
    null,
    null,
    null,
    null,
    null,
    null,
    null,
    null,
    null,
    null,
    null,
    null,
    null,
    null
  ],
  "shopPrices": [
    0,
    0,
    0,
    0,
    0,
    0,
    0,
    0,
    0,
    0,
    0,
    0,
    0,
    0,
    0,
    0,
    0,
    0,
    0,
    0,
    0,
    0,
    0,
    0,
    0,
    0,
    0,
    0,
    0,
    0,
    0,
    0,
    0,
    0,
    0,
    0
  ],
  "pouches": [
    0,
    0,
    0,
    0
  ]
}