{
  "bank": [
    {
      "id": 12695,
      "amount": 15
    },
    {
      "id": 1321,
      "amount": 1
    },
    {
      "id": 1373,
      "amount": 1
    },
    {
      "id": 1327,
      "amount": 1
    },
    {
      "id": 1779,
      "amount": 7
    },
    {
      "id": 1333,
      "amount": 1
    },
    {
      "id": 407,
      "amount": 2
    },
    {
      "id": 411,
      "amount": 1
    },
    {
      "id": 882,
      "amount": 657
    },
    {
      "id": 1734,
      "amount": 80
    },
    {
      "id": 1733,
      "amount": 1
    },
    {
      "id": 11260,
      "amount": 1
    },
    {
      "id": 1844,
      "amount": 1
    },
    {
      "id": 1845,
      "amount": 1
    },
    {
      "id": 1846,
      "amount": 1
    },
    {
      "id": 1163,
      "amount": 1
    },
    {
      "id": 257,
      "amount": 3
    },
    {
      "id": 9674,
      "amount": 1
    },
    {
      "id": 9676,
      "amount": 1
    },
    {
      "id": 229,
      "amount": 16
    },
    {
      "id": 3030,
      "amount": 4
    },
    {
      "id": 3026,
      "amount": 6
    },
    {
      "id": 6330,
      "amount": 1
    },
    {
      "id": 2509,
      "amount": 61
    },
    {
      "id": 6908,
      "amount": 2
    },
    {
      "id": 3753,
      "amount": 1
    },
    {
      "id": 3028,
      "amount": 5
    },
    {
      "id": 1201,
      "amount": 1
    },
    {
      "id": 3755,
      "amount": 1
    },
    {
      "id": 12451,
      "amount": 1
    },
    {
      "id": 6912,
      "amount": 2
    },
    {
      "id": 1123,
      "amount": 1
    },
    {
      "id": 7460,
      "amount": 3
    },
    {
      "id": 5302,
      "amount": 10
    },
    {
      "id": 4012,
      "amount": 2
    },
    {
      "id": 1755,
      "amount": 1
    },
    {
      "id": 1,
      "amount": 1
    },
    {
      "id": 1725,
      "amount": 1
    },
    {
      "id": 884,
      "amount": 248
    },
    {
      "id": 841,
      "amount": 1
    },
    {
      "id": 1381,
      "amount": 1
    },
    {
      "id": 2434,
      "amount": 21
    },
    {
      "id": 2499,
      "amount": 1
    },
    {
      "id": 952,
      "amount": 1
    },
    {
      "id": 2487,
      "amount": 1
    },
    {
      "id": 12773,
      "amount": 1
    },
    {
      "id": 8011,
      "amount": 3
    },
    {
      "id": 2493,
      "amount": 1
    },
    {
      "id": 1347,
      "amount": 1
    },
    {
      "id": 2890,
      "amount": 1
    },
    {
      "id": 1127,
      "amount": 1
    },
    {
      "id": 19484,
      "amount": 500
    },
    {
      "id": 1615,
      "amount": 1
    },
    {
      "id": 11665,
      "amount": 1
    },
    {
      "id": 12699,
      "amount": 1
    },
    {
      "id": 143,
      "amount": 1
    },
    {
      "id": 861,
      "amount": 1
    },
    {
      "id": 10828,
      "amount": 1
    },
    {
      "id": 11849,
      "amount": 13
    },
    {
      "id": 2723,
      "amount": 1
    },
    {
      "id": 2682,
      "amount": 3
    },
    {
      "id": 2803,
      "amount": 1
    },
    {
      "id": 2805,
      "amount": 1
    },
    {
      "id": 385,
      "amount": 371
    },
    {
      "id": 3024,
      "amount": 99
    },
    {
      "id": 12938,
      "amount": 23
    },
    {
      "id": 11943,
      "amount": 100
    },
    {
      "id": 536,
      "amount": 265
    },
    {
      "id": 11230,
      "amount": 1
    },
    {
      "id": 292,
      "amount": 1
    },
    {
      "id": 1631,
      "amount": 6
    },
    {
      "id": 6573,
      "amount": 1
    },
    {
      "id": 987,
      "amount": 7
    },
    {
      "id": 12748,
      "amount": 1
    },
    {
      "id": 9193,
      "amount": 35
    },
    {
      "id": 12934,
      "amount": 3870
    },
    {
      "id": 7862,
      "amount": 1
    },
    {
      "id": 11664,
      "amount": 1
    },
    {
      "id": 12926,
      "amount": 1
    },
    {
      "id": 1712,
      "amount": 1
    },
    {
      "id": 4716,
      "amount": 1
    },
    {
      "id": 10499,
      "amount": 1
    },
    {
      "id": 1623,
      "amount": 1
    },
    {
      "id": 1249,
      "amount": 1
    },
    {
      "id": 13441,
      "amount": 1
    },
    {
      "id": 7462,
      "amount": 3
    },
    {
      "id": 1215,
      "amount": 1
    },
    {
      "id": 12931,
      "amount": 1
    },
    {
      "id": 7142,
      "amount": 1
    },
    {
      "id": 10551,
      "amount": 1
    },
    {
      "id": 1540,
      "amount": 1
    },
    {
      "id": 1079,
      "amount": 1
    },
    {
      "id": 892,
      "amount": 272
    },
    {
      "id": 3841,
      "amount": 2
    },
    {
      "id": 12608,
      "amount": 4
    },
    {
      "id": 12610,
      "amount": 1
    },
    {
      "id": 12612,
      "amount": 4
    },
    {
      "id": 3843,
      "amount": 1
    },
    null,
    null,
    null,
    null,
    null,
    null,
    null,
    null,
    null,
    null,
    null,
    null,
    null,
    null,
    null,
    null,
    null,
    null,
    null,
    null,
    null,
    null,
    null,
    null,
    null,
    null,
    null,
    null,
    null,
    null,
    null,
    null,
    null,
    null,
    null,
    null,
    null,
    null,
    null,
    null,
    null,
    null,
    null,
    null,
    null,
    null,
    null,
    null,
    null,
    null,
    null,
    null,
    null,
    null,
    null,
    null,
    null,
    null,
    null,
    null,
    null,
    null,
    null,
    null,
    null,
    null,
    null,
    null,
    null,
    null,
    null,
    null,
    null,
    null,
    null,
    null,
    null,
    null,
    null,
    null,
    null,
    null,
    null,
    null,
    null,
    null,
    null,
    null,
    null,
    null,
    null,
    null,
    null,
    null,
    null,
    null,
    null,
    null,
    null,
    null,
    null,
    null,
    null,
    null,
    null,
    null,
    null,
    null,
    null,
    null,
    null,
    null,
    null,
    null,
    null,
    null,
    null,
    null,
    null,
    null,
    null,
    null,
    null,
    null,
    null,
    null,
    null,
    null,
    null,
    null,
    null,
    null,
    null,
    null,
    null,
    null,
    null,
    null,
    null,
    null,
    null,
    null,
    null,
    null,
    null,
    null,
    null,
    null,
    null,
    null,
    null,
    null,
    null,
    null,
    null,
    null,
    null,
    null,
    null,
    null,
    null,
    null,
    null,
    null,
    null,
    null,
    null,
    null,
    null,
    null,
    null,
    null,
    null,
    null,
    null,
    null,
    null,
    null,
    null,
    null,
    null,
    null,
    null,
    null,
    null,
    null,
    null,
    null,
    null,
    null,
    null,
    null,
    null,
    null,
    null,
    null,
    null,
    null,
    null,
    null,
    null,
    null,
    null,
    null,
    null,
    null,
    null,
    null,
    null,
    null,
    null,
    null,
    null,
    null,
    null,
    null,
    null,
    null,
    null,
    null,
    null,
    null,
    null,
    null,
    null,
    null,
    null,
    null,
    null,
    null,
    null,
    null,
    null,
    null,
    null,
    null,
    null,
    null,
    null,
    null,
    null,
    null,
    null,
    null,
    null,
    null,
    null,
    null,
    null,
    null,
    null,
    null
  ],
  "tabAmounts": [
    59,
    4,
    30,
    5,
    0,
    0,
    0,
    0,
    0,
    0
  ],
  "inventory": [
    {
      "id": 556,
      "amount": 1193
    },
    {
      "id": 555,
      "amount": 344
    },
    {
      "id": 557,
      "amount": 1591
    },
    {
      "id": 559,
      "amount": 18
    },
    {
      "id": 995,
      "amount": 12501502
    },
    {
      "id": 560,
      "amount": 998
    },
    {
      "id": 565,
      "amount": 1295
    },
    {
      "id": 554,
      "amount": 2228
    },
    {
      "id": 562,
      "amount": 1123
    },
    {
      "id": 558,
      "amount": 112
    },
    {
      "id": 566,
      "amount": 1358
    },
    {
      "id": 886,
      "amount": 150
    },
    {
      "id": 1383,
      "amount": 1
    },
    {
      "id": 882,
      "amount": 1167
    },
    null,
    null,
    null,
    null,
    null,
    null,
    null,
    null,
    null,
    null,
    null,
    null,
    null,
    null
  ],
  "equipment": [
    {
      "id": 11663,
      "amount": 1
    },
    {
      "id": 6570,
      "amount": 1
    },
    {
      "id": 1702,
      "amount": 1
    },
    {
      "id": 4675,
      "amount": 1
    },
    {
      "id": 8839,
      "amount": 1
    },
    {
      "id": 3839,
      "amount": 1
    },
    null,
    {
      "id": 8840,
      "amount": 1
    },
    null,
    {
      "id": 8842,
      "amount": 1
    },
    {
      "id": 3105,
      "amount": 1
    },
    null,
    {
      "id": 6735,
      "amount": 1
    },
    null
  ],
  "shopItems": [
    null,
    null,
    null,
    null,
    null,
    null,
    null,
    null,
    null,
    null,
    null,
    null,
    null,
    null,
    null,
    null,
    null,
    null,
    null,
    null,
    null,
    null,
    null,
    null,
    null,
    null,
    null,
    null,
    null,
    null,
    null,
    null,
    null,
    null,
    null,
    null
  ],
  "shopPrices": [
    0,
    0,
    0,
    0,
    0,
    0,
    0,
    0,
    0,
    0,
    0,
    0,
    0,
    0,
    0,
    0,
    0,
    0,
    0,
    0,
    0,
    0,
    0,
    0,
    0,
    0,
    0,
    0,
    0,
    0,
    0,
    0,
    0,
    0,
    0,
    0
  ],
  "pouches": [
    0,
    0,
    0,
    0
  ]
}