{
  "bank": [
    {
      "id": 995,
      "amount": 45040553
    },
    {
      "id": 554,
      "amount": 205
    },
    {
      "id": 558,
      "amount": 97
    },
    {
      "id": 562,
      "amount": 823
    },
    {
      "id": 12695,
      "amount": 157
    },
    {
      "id": 1,
      "amount": 1
    },
    {
      "id": 884,
      "amount": 212
    },
    {
      "id": 841,
      "amount": 1
    },
    {
      "id": 1462,
      "amount": 1
    },
    {
      "id": 892,
      "amount": 170
    },
    {
      "id": 1844,
      "amount": 1
    },
    {
      "id": 1845,
      "amount": 1
    },
    {
      "id": 11849,
      "amount": 1
    },
    {
      "id": 1712,
      "amount": 5
    },
    {
      "id": 1846,
      "amount": 1
    },
    {
      "id": 2444,
      "amount": 36
    },
    {
      "id": 6685,
      "amount": 24
    },
    {
      "id": 3024,
      "amount": 104
    },
    {
      "id": 3028,
      "amount": 27
    },
    {
      "id": 173,
      "amount": 30
    },
    {
      "id": 6687,
      "amount": 2
    },
    {
      "id": 10380,
      "amount": 1
    },
    {
      "id": 952,
      "amount": 6
    },
    {
      "id": 3030,
      "amount": 27
    },
    {
      "id": 3026,
      "amount": 24
    },
    {
      "id": 12699,
      "amount": 8
    },
    {
      "id": 2491,
      "amount": 20
    },
    {
      "id": 2503,
      "amount": 25
    },
    {
      "id": 2497,
      "amount": 21
    },
    {
      "id": 9144,
      "amount": 439
    },
    {
      "id": 171,
      "amount": 30
    },
    {
      "id": 1127,
      "amount": 5
    },
    {
      "id": 7460,
      "amount": 2
    },
    {
      "id": 12612,
      "amount": 1
    },
    {
      "id": 19697,
      "amount": 1
    },
    {
      "id": 2366,
      "amount": 4
    },
    {
      "id": 12375,
      "amount": 1
    },
    {
      "id": 6922,
      "amount": 1
    },
    {
      "id": 10952,
      "amount": 6
    },
    {
      "id": 8015,
      "amount": 10
    },
    {
      "id": 9185,
      "amount": 2
    },
    {
      "id": 863,
      "amount": 842
    },
    {
      "id": 12610,
      "amount": 1
    },
    {
      "id": 1623,
      "amount": 49
    },
    {
      "id": 1619,
      "amount": 57
    },
    {
      "id": 1621,
      "amount": 29
    },
    {
      "id": 385,
      "amount": 2291
    },
    {
      "id": 7946,
      "amount": 661
    },
    {
      "id": 3144,
      "amount": 105
    },
    {
      "id": 9758,
      "amount": 1
    },
    {
      "id": 1710,
      "amount": 1
    },
    {
      "id": 1381,
      "amount": 1
    },
    {
      "id": 561,
      "amount": 539
    },
    {
      "id": 229,
      "amount": 129
    },
    {
      "id": 12697,
      "amount": 11
    },
    {
      "id": 9193,
      "amount": 243
    },
    {
      "id": 556,
      "amount": 195
    },
    {
      "id": 4740,
      "amount": 135
    },
    {
      "id": 4860,
      "amount": 1
    },
    {
      "id": 560,
      "amount": 4662
    },
    {
      "id": 315,
      "amount": 51
    },
    {
      "id": 319,
      "amount": 30
    },
    {
      "id": 397,
      "amount": 2146
    },
    {
      "id": 379,
      "amount": 146
    },
    {
      "id": 169,
      "amount": 12
    },
    {
      "id": 10404,
      "amount": 1
    },
    {
      "id": 8007,
      "amount": 5
    },
    {
      "id": 8008,
      "amount": 9
    },
    {
      "id": 8009,
      "amount": 10
    },
    {
      "id": 8010,
      "amount": 8
    },
    {
      "id": 8011,
      "amount": 5
    },
    {
      "id": 11741,
      "amount": 10
    },
    {
      "id": 11742,
      "amount": 10
    },
    {
      "id": 11743,
      "amount": 10
    },
    {
      "id": 11745,
      "amount": 10
    },
    {
      "id": 11746,
      "amount": 10
    },
    {
      "id": 1247,
      "amount": 1
    },
    {
      "id": 1511,
      "amount": 4
    },
    {
      "id": 1521,
      "amount": 24
    },
    {
      "id": 1359,
      "amount": 1
    },
    {
      "id": 175,
      "amount": 2
    },
    {
      "id": 7979,
      "amount": 2
    },
    {
      "id": 2680,
      "amount": 1
    },
    {
      "id": 6912,
      "amount": 2
    },
    {
      "id": 4087,
      "amount": 2
    },
    {
      "id": 6916,
      "amount": 1
    },
    {
      "id": 1702,
      "amount": 3
    },
    {
      "id": 7462,
      "amount": 6
    },
    {
      "id": 10828,
      "amount": 3
    },
    {
      "id": 1059,
      "amount": 11
    },
    {
      "id": 1741,
      "amount": 9
    },
    {
      "id": 1734,
      "amount": 389
    },
    {
      "id": 1607,
      "amount": 10
    },
    {
      "id": 1603,
      "amount": 30
    },
    {
      "id": 1267,
      "amount": 1
    },
    {
      "id": 1731,
      "amount": 1
    },
    {
      "id": 2368,
      "amount": 2
    },
    {
      "id": 12934,
      "amount": 1
    },
    {
      "id": 1513,
      "amount": 3013
    },
    {
      "id": 563,
      "amount": 3506
    },
    {
      "id": 5974,
      "amount": 41
    },
    {
      "id": 1779,
      "amount": 9474
    },
    {
      "id": 1987,
      "amount": 501
    },
    {
      "id": 1939,
      "amount": 2000
    },
    {
      "id": 1249,
      "amount": 4
    },
    {
      "id": 536,
      "amount": 187
    },
    {
      "id": 2509,
      "amount": 299
    },
    {
      "id": 442,
      "amount": 183
    },
    {
      "id": 2351,
      "amount": 27
    },
    {
      "id": 2347,
      "amount": 1
    },
    {
      "id": 7936,
      "amount": 1904
    },
    {
      "id": 2355,
      "amount": 17
    },
    {
      "id": 12938,
      "amount": 6
    },
    {
      "id": 830,
      "amount": 534
    },
    {
      "id": 2550,
      "amount": 104
    },
    {
      "id": 8782,
      "amount": 100
    },
    {
      "id": 9244,
      "amount": 759
    },
    {
      "id": 5290,
      "amount": 2
    },
    {
      "id": 5316,
      "amount": 4
    },
    {
      "id": 6573,
      "amount": 2
    },
    {
      "id": 9341,
      "amount": 8
    },
    {
      "id": 4745,
      "amount": 1
    },
    {
      "id": 10896,
      "amount": 1
    },
    {
      "id": 2803,
      "amount": 4
    },
    {
      "id": 1733,
      "amount": 1
    },
    {
      "id": 4587,
      "amount": 5
    },
    {
      "id": 3105,
      "amount": 1
    },
    {
      "id": 1540,
      "amount": 1
    },
    {
      "id": 6289,
      "amount": 106
    },
    {
      "id": 1857,
      "amount": 1
    },
    {
      "id": 451,
      "amount": 10
    },
    {
      "id": 861,
      "amount": 2
    },
    {
      "id": 1163,
      "amount": 11
    },
    {
      "id": 12701,
      "amount": 4
    },
    {
      "id": 5295,
      "amount": 6
    },
    {
      "id": 8845,
      "amount": 1
    },
    {
      "id": 1777,
      "amount": 28
    },
    {
      "id": 1597,
      "amount": 1
    },
    {
      "id": 12940,
      "amount": 1
    },
    {
      "id": 2363,
      "amount": 32
    },
    {
      "id": 11943,
      "amount": 14
    },
    {
      "id": 565,
      "amount": 657
    },
    {
      "id": 444,
      "amount": 1
    },
    {
      "id": 555,
      "amount": 645
    },
    {
      "id": 557,
      "amount": 105
    },
    {
      "id": 564,
      "amount": 77
    },
    {
      "id": 2357,
      "amount": 5
    },
    {
      "id": 6529,
      "amount": 16064
    },
    {
      "id": 16,
      "amount": 1
    },
    {
      "id": 4732,
      "amount": 1
    },
    {
      "id": 440,
      "amount": 102
    },
    {
      "id": 453,
      "amount": 726
    },
    {
      "id": 1275,
      "amount": 1
    },
    {
      "id": 1149,
      "amount": 7
    },
    {
      "id": 4726,
      "amount": 1
    },
    {
      "id": 3140,
      "amount": 2
    },
    {
      "id": 1592,
      "amount": 8
    },
    {
      "id": 1405,
      "amount": 2
    },
    {
      "id": 11936,
      "amount": 656
    },
    {
      "id": 6689,
      "amount": 1
    },
    {
      "id": 4695,
      "amount": 300
    },
    {
      "id": 3051,
      "amount": 61
    },
    {
      "id": 267,
      "amount": 1
    },
    {
      "id": 1601,
      "amount": 8
    },
    {
      "id": 2361,
      "amount": 48
    },
    {
      "id": 207,
      "amount": 28
    },
    {
      "id": 7856,
      "amount": 2
    },
    {
      "id": 19484,
      "amount": 1194
    },
    {
      "id": 1391,
      "amount": 40
    },
    {
      "id": 10925,
      "amount": 2
    },
    {
      "id": 13441,
      "amount": 269
    },
    {
      "id": 303,
      "amount": 1
    },
    {
      "id": 1755,
      "amount": 6
    },
    {
      "id": 4697,
      "amount": 200
    },
    {
      "id": 13233,
      "amount": 1
    },
    {
      "id": 1079,
      "amount": 2
    },
    {
      "id": 1387,
      "amount": 1
    },
    {
      "id": 1113,
      "amount": 13
    },
    {
      "id": 11230,
      "amount": 235
    },
    {
      "id": 566,
      "amount": 562
    },
    {
      "id": 1724,
      "amount": 4
    },
    {
      "id": 269,
      "amount": 96
    },
    {
      "id": 1319,
      "amount": 7
    },
    {
      "id": 1373,
      "amount": 1
    },
    {
      "id": 1617,
      "amount": 11
    },
    {
      "id": 9194,
      "amount": 12
    },
    {
      "id": 1333,
      "amount": 2
    },
    {
      "id": 993,
      "amount": 3
    },
    {
      "id": 5288,
      "amount": 1
    },
    {
      "id": 4675,
      "amount": 1
    },
    {
      "id": 1645,
      "amount": 1
    },
    {
      "id": 1401,
      "amount": 1
    },
    {
      "id": 6524,
      "amount": 1
    },
    {
      "id": 7981,
      "amount": 1
    },
    {
      "id": 1147,
      "amount": 1
    },
    {
      "id": 1185,
      "amount": 2
    },
    {
      "id": 2682,
      "amount": 5
    },
    {
      "id": 12648,
      "amount": 1
    },
    {
      "id": 5510,
      "amount": 1
    },
    {
      "id": 5512,
      "amount": 1
    },
    {
      "id": 5514,
      "amount": 1
    },
    {
      "id": 5509,
      "amount": 1
    },
    {
      "id": 3204,
      "amount": 1
    },
    {
      "id": 292,
      "amount": 1
    },
    {
      "id": 2446,
      "amount": 20
    },
    {
      "id": 177,
      "amount": 4
    },
    {
      "id": 4720,
      "amount": 1
    },
    {
      "id": 4722,
      "amount": 1
    },
    {
      "id": 987,
      "amount": 3
    },
    {
      "id": 4585,
      "amount": 1
    },
    {
      "id": 12524,
      "amount": 1
    },
    {
      "id": 12323,
      "amount": 1
    },
    {
      "id": 179,
      "amount": 2
    },
    {
      "id": 3481,
      "amount": 1
    },
    {
      "id": 4749,
      "amount": 1
    },
    {
      "id": 1432,
      "amount": 1
    },
    {
      "id": 1201,
      "amount": 1
    },
    {
      "id": 2663,
      "amount": 1
    },
    {
      "id": 383,
      "amount": 658
    },
    {
      "id": 5331,
      "amount": 1
    },
    {
      "id": 249,
      "amount": 5
    },
    {
      "id": 5291,
      "amount": 4
    },
    {
      "id": 5292,
      "amount": 4
    },
    {
      "id": 5293,
      "amount": 4
    },
    {
      "id": 5294,
      "amount": 3
    },
    {
      "id": 6055,
      "amount": 3
    },
    {
      "id": 251,
      "amount": 15
    },
    {
      "id": 205,
      "amount": 12
    },
    {
      "id": 253,
      "amount": 9
    },
    {
      "id": 3049,
      "amount": 37
    },
    {
      "id": 203,
      "amount": 4
    },
    {
      "id": 209,
      "amount": 42
    },
    {
      "id": 5297,
      "amount": 1
    },
    {
      "id": 211,
      "amount": 38
    },
    {
      "id": 213,
      "amount": 47
    },
    {
      "id": 215,
      "amount": 94
    },
    {
      "id": 5301,
      "amount": 7
    },
    {
      "id": 2485,
      "amount": 176
    },
    {
      "id": 5302,
      "amount": 9
    },
    {
      "id": 217,
      "amount": 205
    },
    {
      "id": 5303,
      "amount": 15
    },
    {
      "id": 219,
      "amount": 168
    },
    {
      "id": 5341,
      "amount": 1
    },
    {
      "id": 5343,
      "amount": 1
    },
    {
      "id": 5325,
      "amount": 1
    },
    {
      "id": 5304,
      "amount": 34
    },
    {
      "id": 5554,
      "amount": 1
    },
    {
      "id": 12357,
      "amount": 1
    },
    {
      "id": 5553,
      "amount": 1
    },
    {
      "id": 5555,
      "amount": 1
    },
    {
      "id": 5556,
      "amount": 1
    },
    {
      "id": 5557,
      "amount": 1
    },
    {
      "id": 13265,
      "amount": 1
    },
    {
      "id": 12528,
      "amount": 1
    },
    {
      "id": 1347,
      "amount": 1
    },
    {
      "id": 2890,
      "amount": 1
    },
    {
      "id": 2493,
      "amount": 1
    },
    {
      "id": 2434,
      "amount": 25
    },
    {
      "id": 13249,
      "amount": 1
    },
    {
      "id": 4738,
      "amount": 1
    },
    {
      "id": 9756,
      "amount": 1
    },
    {
      "id": 10499,
      "amount": 1
    },
    {
      "id": 1478,
      "amount": 1
    },
    {
      "id": 4214,
      "amount": 1
    },
    {
      "id": 6328,
      "amount": 1
    },
    {
      "id": 12389,
      "amount": 1
    },
    {
      "id": 307,
      "amount": 1
    },
    {
      "id": 11940,
      "amount": 2887
    },
    {
      "id": 11934,
      "amount": 746
    },
    {
      "id": 6914,
      "amount": 1
    },
    {
      "id": 989,
      "amount": 3
    },
    {
      "id": 19649,
      "amount": 1
    },
    {
      "id": 6570,
      "amount": 1
    },
    {
      "id": 13263,
      "amount": 1
    },
    {
      "id": 11832,
      "amount": 1
    },
    {
      "id": 11834,
      "amount": 1
    },
    {
      "id": 11840,
      "amount": 1
    },
    {
      "id": 2572,
      "amount": 1
    },
    {
      "id": 2440,
      "amount": 10
    },
    {
      "id": 301,
      "amount": 1
    },
    {
      "id": 13320,
      "amount": 2
    },
    {
      "id": 311,
      "amount": 1
    },
    {
      "id": 11850,
      "amount": 1
    },
    {
      "id": 11852,
      "amount": 1
    },
    {
      "id": 6585,
      "amount": 1
    },
    {
      "id": 12773,
      "amount": 1
    },
    {
      "id": 11854,
      "amount": 1
    },
    {
      "id": 11283,
      "amount": 1
    },
    {
      "id": 11856,
      "amount": 1
    },
    {
      "id": 11858,
      "amount": 1
    },
    {
      "id": 11860,
      "amount": 1
    },
    null,
    null,
    null,
    null,
    null,
    null,
    null,
    null,
    null,
    null,
    null,
    null,
    null,
    null,
    null,
    null,
    null,
    null,
    null,
    null,
    null,
    null,
    null,
    null,
    null,
    null,
    null,
    null,
    null,
    null,
    null,
    null,
    null,
    null,
    null,
    null,
    null,
    null,
    null,
    null,
    null,
    null,
    null,
    null,
    null,
    null,
    null,
    null,
    null,
    null,
    null,
    null,
    null,
    null,
    null,
    null,
    null,
    null,
    null
  ],
  "tabAmounts": [
    291,
    0,
    0,
    0,
    0,
    0,
    0,
    0,
    0,
    0
  ],
  "inventory": [
    null,
    null,
    null,
    null,
    null,
    null,
    null,
    null,
    null,
    null,
    null,
    null,
    null,
    null,
    null,
    null,
    null,
    null,
    null,
    null,
    null,
    null,
    null,
    null,
    null,
    null,
    null,
    null
  ],
  "equipment": [
    null,
    null,
    null,
    null,
    null,
    null,
    null,
    null,
    null,
    null,
    null,
    null,
    null,
    null
  ],
  "shopItems": [
    null,
    null,
    null,
    null,
    null,
    null,
    null,
    null,
    null,
    null,
    null,
    null,
    null,
    null,
    null,
    null,
    null,
    null,
    null,
    null,
    null,
    null,
    null,
    null,
    null,
    null,
    null,
    null,
    null,
    null,
    null,
    null,
    null,
    null,
    null,
    null
  ],
  "shopPrices": [
    0,
    0,
    0,
    0,
    0,
    0,
    0,
    0,
    0,
    0,
    0,
    0,
    0,
    0,
    0,
    0,
    0,
    0,
    0,
    0,
    0,
    0,
    0,
    0,
    0,
    0,
    0,
    0,
    0,
    0,
    0,
    0,
    0,
    0,
    0,
    0
  ],
  "pouches": [
    0,
    0,
    0,
    0
  ]
}