{
  "bank": [
    {
      "id": 995,
      "amount": 42776854
    },
    {
      "id": 385,
      "amount": 13148
    },
    {
      "id": 2434,
      "amount": 10000
    },
    {
      "id": 139,
      "amount": 10000
    },
    {
      "id": 141,
      "amount": 10000
    },
    {
      "id": 143,
      "amount": 10000
    },
    {
      "id": 292,
      "amount": 1
    },
    {
      "id": 748,
      "amount": 1
    },
    {
      "id": 1755,
      "amount": 1
    },
    {
      "id": 12934,
      "amount": 1956
    },
    {
      "id": 12938,
      "amount": 100042
    },
    {
      "id": 536,
      "amount": 3
    },
    {
      "id": 383,
      "amount": 368
    },
    {
      "id": 1513,
      "amount": 405
    },
    {
      "id": 1779,
      "amount": 898
    },
    {
      "id": 5974,
      "amount": 20
    },
    {
      "id": 6685,
      "amount": 30
    },
    {
      "id": 6289,
      "amount": 210
    },
    {
      "id": 830,
      "amount": 341
    },
    {
      "id": 1247,
      "amount": 2
    },
    {
      "id": 1623,
      "amount": 8
    },
    {
      "id": 9193,
      "amount": 45
    },
    {
      "id": 7936,
      "amount": 2148
    },
    {
      "id": 5290,
      "amount": 2
    },
    {
      "id": 453,
      "amount": 15
    },
    {
      "id": 1601,
      "amount": 10
    },
    {
      "id": 1615,
      "amount": 1
    },
    {
      "id": 5316,
      "amount": 1
    },
    {
      "id": 1149,
      "amount": 2
    },
    {
      "id": 5288,
      "amount": 1
    },
    {
      "id": 2366,
      "amount": 3
    },
    {
      "id": 987,
      "amount": 3
    },
    {
      "id": 1249,
      "amount": 2
    },
    {
      "id": 563,
      "amount": 200
    },
    {
      "id": 1391,
      "amount": 10
    },
    {
      "id": 13249,
      "amount": 34626
    },
    {
      "id": 11943,
      "amount": 3
    },
    {
      "id": 989,
      "amount": 1
    },
    {
      "id": 1619,
      "amount": 2
    },
    {
      "id": 19645,
      "amount": 1
    },
    {
      "id": 19649,
      "amount": 1
    },
    {
      "id": 1939,
      "amount": 1000
    },
    null,
    null,
    null,
    null,
    null,
    null,
    null,
    null,
    null,
    null,
    null,
    null,
    null,
    null,
    null,
    null,
    null,
    null,
    null,
    null,
    null,
    null,
    null,
    null,
    null,
    null,
    null,
    null,
    null,
    null,
    null,
    null,
    null,
    null,
    null,
    null,
    null,
    null,
    null,
    null,
    null,
    null,
    null,
    null,
    null,
    null,
    null,
    null,
    null,
    null,
    null,
    null,
    null,
    null,
    null,
    null,
    null,
    null,
    null,
    null,
    null,
    null,
    null,
    null,
    null,
    null,
    null,
    null,
    null,
    null,
    null,
    null,
    null,
    null,
    null,
    null,
    null,
    null,
    null,
    null,
    null,
    null,
    null,
    null,
    null,
    null,
    null,
    null,
    null,
    null,
    null,
    null,
    null,
    null,
    null,
    null,
    null,
    null,
    null,
    null,
    null,
    null,
    null,
    null,
    null,
    null,
    null,
    null,
    null,
    null,
    null,
    null,
    null,
    null,
    null,
    null,
    null,
    null,
    null,
    null,
    null,
    null,
    null,
    null,
    null,
    null,
    null,
    null,
    null,
    null,
    null,
    null,
    null,
    null,
    null,
    null,
    null,
    null,
    null,
    null,
    null,
    null,
    null,
    null,
    null,
    null,
    null,
    null,
    null,
    null,
    null,
    null,
    null,
    null,
    null,
    null,
    null,
    null,
    null,
    null,
    null,
    null,
    null,
    null,
    null,
    null,
    null,
    null,
    null,
    null,
    null,
    null,
    null,
    null,
    null,
    null,
    null,
    null,
    null,
    null,
    null,
    null,
    null,
    null,
    null,
    null,
    null,
    null,
    null,
    null,
    null,
    null,
    null,
    null,
    null,
    null,
    null,
    null,
    null,
    null,
    null,
    null,
    null,
    null,
    null,
    null,
    null,
    null,
    null,
    null,
    null,
    null,
    null,
    null,
    null,
    null,
    null,
    null,
    null,
    null,
    null,
    null,
    null,
    null,
    null,
    null,
    null,
    null,
    null,
    null,
    null,
    null,
    null,
    null,
    null,
    null,
    null,
    null,
    null,
    null,
    null,
    null,
    null,
    null,
    null,
    null,
    null,
    null,
    null,
    null,
    null,
    null,
    null,
    null,
    null,
    null,
    null,
    null,
    null,
    null,
    null,
    null,
    null,
    null,
    null,
    null,
    null,
    null,
    null,
    null,
    null,
    null,
    null,
    null,
    null,
    null,
    null,
    null,
    null,
    null,
    null,
    null,
    null,
    null,
    null,
    null,
    null,
    null,
    null,
    null,
    null,
    null,
    null,
    null,
    null,
    null,
    null,
    null,
    null,
    null,
    null,
    null,
    null,
    null,
    null,
    null,
    null,
    null
  ],
  "tabAmounts": [
    9,
    26,
    4,
    2,
    0,
    0,
    0,
    0,
    0,
    0
  ],
  "inventory": [
    null,
    null,
    null,
    null,
    null,
    null,
    null,
    null,
    null,
    null,
    null,
    null,
    null,
    null,
    null,
    null,
    null,
    null,
    null,
    null,
    null,
    null,
    null,
    null,
    null,
    null,
    null,
    null
  ],
  "equipment": [
    {
      "id": 19641,
      "amount": 1
    },
    {
      "id": 10499,
      "amount": 1
    },
    {
      "id": 1499,
      "amount": 1
    },
    {
      "id": 12926,
      "amount": 1
    },
    {
      "id": 11828,
      "amount": 1
    },
    null,
    null,
    {
      "id": 11830,
      "amount": 1
    },
    null,
    {
      "id": 1580,
      "amount": 1
    },
    {
      "id": 13237,
      "amount": 1
    },
    null,
    {
      "id": 10872,
      "amount": 1
    },
    null
  ],
  "shopItems": [
    null,
    null,
    null,
    null,
    null,
    null,
    null,
    null,
    null,
    null,
    null,
    null,
    null,
    null,
    null,
    null,
    null,
    null,
    null,
    null,
    null,
    null,
    null,
    null,
    null,
    null,
    null,
    null,
    null,
    null,
    null,
    null,
    null,
    null,
    null,
    null
  ],
  "shopPrices": [
    0,
    0,
    0,
    0,
    0,
    0,
    0,
    0,
    0,
    0,
    0,
    0,
    0,
    0,
    0,
    0,
    0,
    0,
    0,
    0,
    0,
    0,
    0,
    0,
    0,
    0,
    0,
    0,
    0,
    0,
    0,
    0,
    0,
    0,
    0,
    0
  ],
  "pouches": [
    0,
    0,
    0,
    0
  ]
}