{
  "bank": [
    {
      "id": 1265,
      "amount": 1
    },
    {
      "id": 1205,
      "amount": 1
    },
    {
      "id": 556,
      "amount": 159
    },
    {
      "id": 557,
      "amount": 154
    },
    {
      "id": 558,
      "amount": 114
    },
    {
      "id": 555,
      "amount": 184
    },
    {
      "id": 1171,
      "amount": 1
    },
    {
      "id": 1351,
      "amount": 1
    },
    {
      "id": 5520,
      "amount": 2
    },
    {
      "id": 559,
      "amount": 29
    },
    {
      "id": 303,
      "amount": 2
    },
    {
      "id": 1925,
      "amount": 1
    },
    {
      "id": 1931,
      "amount": 1
    },
    {
      "id": 590,
      "amount": 1
    },
    {
      "id": 560,
      "amount": 166
    },
    {
      "id": 1277,
      "amount": 1
    },
    {
      "id": 1615,
      "amount": 3
    },
    {
      "id": 1327,
      "amount": 1
    },
    {
      "id": 1185,
      "amount": 4
    },
    {
      "id": 554,
      "amount": 1281
    },
    {
      "id": 1619,
      "amount": 2
    },
    {
      "id": 10499,
      "amount": 8
    },
    {
      "id": 10952,
      "amount": 1
    },
    {
      "id": 3385,
      "amount": 2
    },
    {
      "id": 6794,
      "amount": 2
    },
    {
      "id": 7344,
      "amount": 1
    },
    {
      "id": 1313,
      "amount": 2
    },
    {
      "id": 1269,
      "amount": 1
    },
    {
      "id": 11260,
      "amount": 19
    },
    {
      "id": 227,
      "amount": 4
    },
    {
      "id": 5331,
      "amount": 1
    },
    {
      "id": 5343,
      "amount": 1
    },
    {
      "id": 5341,
      "amount": 1
    },
    {
      "id": 123,
      "amount": 1
    },
    {
      "id": 249,
      "amount": 4
    },
    {
      "id": 5318,
      "amount": 1
    },
    {
      "id": 12811,
      "amount": 1
    },
    {
      "id": 12197,
      "amount": 1
    },
    {
      "id": 10010,
      "amount": 1
    },
    {
      "id": 892,
      "amount": 562
    },
    {
      "id": 4823,
      "amount": 1
    },
    {
      "id": 12299,
      "amount": 1
    },
    {
      "id": 1123,
      "amount": 2
    },
    {
      "id": 1211,
      "amount": 1
    },
    {
      "id": 1319,
      "amount": 3
    },
    {
      "id": 5319,
      "amount": 16
    },
    {
      "id": 5321,
      "amount": 2
    },
    {
      "id": 5320,
      "amount": 3
    },
    {
      "id": 1199,
      "amount": 1
    },
    {
      "id": 12449,
      "amount": 1
    },
    {
      "id": 3122,
      "amount": 1
    },
    {
      "id": 7460,
      "amount": 1
    },
    {
      "id": 1151,
      "amount": 1
    },
    {
      "id": 1063,
      "amount": 1
    },
    {
      "id": 2613,
      "amount": 1
    },
    {
      "id": 1357,
      "amount": 1
    },
    {
      "id": 6912,
      "amount": 3
    },
    {
      "id": 5322,
      "amount": 2
    },
    {
      "id": 1594,
      "amount": 1
    },
    {
      "id": 3841,
      "amount": 3
    },
    {
      "id": 1099,
      "amount": 3
    },
    {
      "id": 563,
      "amount": 310
    },
    {
      "id": 442,
      "amount": 300
    },
    {
      "id": 6330,
      "amount": 1
    },
    {
      "id": 3839,
      "amount": 2
    },
    {
      "id": 9142,
      "amount": 15
    },
    {
      "id": 1623,
      "amount": 14
    },
    {
      "id": 12810,
      "amount": 1
    },
    {
      "id": 1145,
      "amount": 1
    },
    {
      "id": 12315,
      "amount": 1
    },
    {
      "id": 1345,
      "amount": 1
    },
    {
      "id": 1301,
      "amount": 1
    },
    {
      "id": 7334,
      "amount": 1
    },
    {
      "id": 1129,
      "amount": 41
    },
    {
      "id": 12812,
      "amount": 1
    },
    {
      "id": 562,
      "amount": 25
    },
    {
      "id": 1331,
      "amount": 1
    },
    {
      "id": 886,
      "amount": 450
    },
    {
      "id": 532,
      "amount": 17
    },
    {
      "id": 841,
      "amount": 1
    },
    {
      "id": 1135,
      "amount": 3
    },
    {
      "id": 7936,
      "amount": 149
    },
    {
      "id": 592,
      "amount": 3
    },
    {
      "id": 10434,
      "amount": 1
    },
    {
      "id": 10282,
      "amount": 1
    },
    {
      "id": 561,
      "amount": 140
    },
    {
      "id": 1617,
      "amount": 1
    },
    {
      "id": 12303,
      "amount": 1
    },
    {
      "id": 4587,
      "amount": 1
    },
    {
      "id": 3843,
      "amount": 3
    },
    {
      "id": 6908,
      "amount": 1
    },
    {
      "id": 10400,
      "amount": 1
    },
    {
      "id": 1161,
      "amount": 1
    },
    {
      "id": 564,
      "amount": 3
    },
    {
      "id": 12455,
      "amount": 2
    },
    {
      "id": 1093,
      "amount": 1
    },
    {
      "id": 1702,
      "amount": 1
    },
    {
      "id": 1731,
      "amount": 2
    },
    {
      "id": 12445,
      "amount": 1
    },
    {
      "id": 10977,
      "amount": 1
    },
    {
      "id": 11849,
      "amount": 1
    },
    {
      "id": 3749,
      "amount": 3
    },
    {
      "id": 305,
      "amount": 1
    },
    {
      "id": 315,
      "amount": 59
    },
    {
      "id": 319,
      "amount": 35
    },
    {
      "id": 321,
      "amount": 1
    },
    {
      "id": 1247,
      "amount": 2
    },
    {
      "id": 1753,
      "amount": 3
    },
    {
      "id": 1751,
      "amount": 24
    },
    {
      "id": 1462,
      "amount": 1
    },
    {
      "id": 6324,
      "amount": 1
    },
    {
      "id": 7458,
      "amount": 1
    },
    {
      "id": 12447,
      "amount": 1
    },
    {
      "id": 5288,
      "amount": 1
    },
    {
      "id": 857,
      "amount": 1
    },
    {
      "id": 2361,
      "amount": 4
    },
    {
      "id": 377,
      "amount": 162
    },
    {
      "id": 1355,
      "amount": 1
    },
    {
      "id": 1540,
      "amount": 1
    },
    {
      "id": 565,
      "amount": 7
    },
    {
      "id": 830,
      "amount": 5
    },
    {
      "id": 4866,
      "amount": 1
    },
    {
      "id": 4920,
      "amount": 1
    },
    {
      "id": 4872,
      "amount": 1
    },
    {
      "id": 4740,
      "amount": 340
    },
    {
      "id": 4986,
      "amount": 1
    },
    {
      "id": 301,
      "amount": 1
    },
    {
      "id": 1361,
      "amount": 1
    },
    {
      "id": 952,
      "amount": 1
    },
    {
      "id": 1079,
      "amount": 1
    },
    {
      "id": 8851,
      "amount": 110
    },
    {
      "id": 8844,
      "amount": 1
    },
    {
      "id": 8845,
      "amount": 1
    },
    {
      "id": 379,
      "amount": 105
    },
    {
      "id": 2444,
      "amount": 3
    },
    {
      "id": 385,
      "amount": 199
    },
    {
      "id": 11665,
      "amount": 1
    },
    {
      "id": 3391,
      "amount": 1
    },
    {
      "id": 229,
      "amount": 1
    },
    {
      "id": 526,
      "amount": 1
    },
    {
      "id": 10551,
      "amount": 3
    },
    {
      "id": 10828,
      "amount": 1
    },
    {
      "id": 7462,
      "amount": 2
    },
    {
      "id": 4722,
      "amount": 1
    },
    {
      "id": 6570,
      "amount": 2
    },
    {
      "id": 3755,
      "amount": 1
    },
    {
      "id": 2368,
      "amount": 1
    },
    {
      "id": 12746,
      "amount": 1
    },
    {
      "id": 169,
      "amount": 1
    },
    {
      "id": 11664,
      "amount": 1
    },
    {
      "id": 861,
      "amount": 1
    },
    {
      "id": 8839,
      "amount": 1
    },
    {
      "id": 8840,
      "amount": 1
    },
    {
      "id": 8842,
      "amount": 1
    },
    {
      "id": 6328,
      "amount": 1
    },
    {
      "id": 11862,
      "amount": 2
    },
    {
      "id": 1511,
      "amount": 600
    },
    {
      "id": 19610,
      "amount": 1
    },
    {
      "id": 7789,
      "amount": 5
    },
    {
      "id": 11335,
      "amount": 6
    },
    {
      "id": 12795,
      "amount": 1
    },
    {
      "id": 12829,
      "amount": 3
    },
    {
      "id": 1521,
      "amount": 600
    },
    {
      "id": 1519,
      "amount": 600
    },
    {
      "id": 1517,
      "amount": 600
    },
    {
      "id": 1515,
      "amount": 600
    },
    {
      "id": 1513,
      "amount": 800
    },
    {
      "id": 1777,
      "amount": 3600
    },
    {
      "id": 19607,
      "amount": 1
    },
    {
      "id": 6737,
      "amount": 1
    },
    {
      "id": 7798,
      "amount": 6
    },
    {
      "id": 2722,
      "amount": 62
    },
    {
      "id": 7792,
      "amount": 7
    },
    {
      "id": 3481,
      "amount": 5
    },
    {
      "id": 2724,
      "amount": 1
    },
    {
      "id": 11943,
      "amount": 20
    },
    {
      "id": 3024,
      "amount": 20
    },
    {
      "id": 7981,
      "amount": 1
    },
    {
      "id": 2442,
      "amount": 10
    },
    {
      "id": 4757,
      "amount": 1
    },
    {
      "id": 4585,
      "amount": 3
    },
    {
      "id": 7795,
      "amount": 5
    },
    {
      "id": 1195,
      "amount": 1
    },
    {
      "id": 1169,
      "amount": 1
    },
    {
      "id": 1217,
      "amount": 1
    },
    {
      "id": 6735,
      "amount": 1
    },
    {
      "id": 11840,
      "amount": 3
    },
    {
      "id": 12883,
      "amount": 1
    },
    {
      "id": 608,
      "amount": 2
    },
    {
      "id": 7780,
      "amount": 5
    },
    {
      "id": 7783,
      "amount": 1
    },
    {
      "id": 13275,
      "amount": 1
    },
    {
      "id": 2803,
      "amount": 1
    },
    {
      "id": 2944,
      "amount": 18
    },
    {
      "id": 1149,
      "amount": 3
    },
    {
      "id": 7786,
      "amount": 1
    },
    {
      "id": 2577,
      "amount": 2
    },
    {
      "id": 12802,
      "amount": 1
    },
    {
      "id": 1187,
      "amount": 2
    },
    {
      "id": 2945,
      "amount": 28
    },
    {
      "id": 3485,
      "amount": 1
    },
    {
      "id": 11933,
      "amount": 1
    },
    {
      "id": 10548,
      "amount": 2
    },
    {
      "id": 11928,
      "amount": 1
    },
    {
      "id": 12608,
      "amount": 2
    },
    {
      "id": 2682,
      "amount": 1
    },
    {
      "id": 3486,
      "amount": 2
    },
    {
      "id": 4087,
      "amount": 3
    },
    {
      "id": 12612,
      "amount": 1
    },
    {
      "id": 12751,
      "amount": 1
    },
    {
      "id": 4724,
      "amount": 1
    },
    {
      "id": 2434,
      "amount": 25
    },
    {
      "id": 5302,
      "amount": 10
    },
    {
      "id": 4716,
      "amount": 1
    },
    {
      "id": 6524,
      "amount": 1
    },
    {
      "id": 2802,
      "amount": 1
    },
    {
      "id": 4708,
      "amount": 1
    },
    {
      "id": 207,
      "amount": 25
    },
    {
      "id": 11936,
      "amount": 25
    },
    {
      "id": 6199,
      "amount": 7
    },
    {
      "id": 4734,
      "amount": 1
    },
    {
      "id": 995,
      "amount": 7884184
    },
    {
      "id": 6289,
      "amount": 35
    },
    {
      "id": 1987,
      "amount": 250
    },
    {
      "id": 5974,
      "amount": 20
    },
    {
      "id": 1779,
      "amount": 942
    },
    {
      "id": 11663,
      "amount": 1
    },
    {
      "id": 12287,
      "amount": 1
    },
    {
      "id": 985,
      "amount": 6
    },
    {
      "id": 4155,
      "amount": 6
    },
    {
      "id": 12934,
      "amount": 4964
    },
    {
      "id": 536,
      "amount": 60
    },
    {
      "id": 3837,
      "amount": 1
    },
    {
      "id": 1741,
      "amount": 234
    },
    {
      "id": 1059,
      "amount": 24
    },
    {
      "id": 1167,
      "amount": 2
    },
    {
      "id": 1733,
      "amount": 11
    },
    {
      "id": 1734,
      "amount": 434
    },
    {
      "id": 1095,
      "amount": 1
    },
    null,
    null,
    null,
    null,
    null,
    null,
    null,
    null,
    null,
    null,
    null,
    null,
    null,
    null,
    null,
    null,
    null,
    null,
    null,
    null,
    null,
    null,
    null,
    null,
    null,
    null,
    null,
    null,
    null,
    null,
    null,
    null,
    null,
    null,
    null,
    null,
    null,
    null,
    null,
    null,
    null,
    null,
    null,
    null,
    null,
    null,
    null,
    null,
    null,
    null,
    null,
    null,
    null,
    null,
    null,
    null,
    null,
    null,
    null,
    null,
    null,
    null,
    null,
    null,
    null,
    null,
    null,
    null,
    null,
    null,
    null,
    null,
    null,
    null,
    null,
    null,
    null,
    null,
    null,
    null,
    null,
    null,
    null,
    null,
    null,
    null,
    null,
    null,
    null,
    null,
    null,
    null,
    null,
    null,
    null,
    null,
    null,
    null,
    null,
    null,
    null,
    null,
    null,
    null,
    null,
    null,
    null,
    null,
    null,
    null,
    null
  ],
  "tabAmounts": [
    226,
    1,
    2,
    1,
    9,
    0,
    0,
    0,
    0,
    0
  ],
  "inventory": [
    null,
    null,
    null,
    null,
    null,
    null,
    null,
    null,
    null,
    null,
    null,
    null,
    null,
    null,
    null,
    null,
    null,
    null,
    null,
    null,
    null,
    null,
    null,
    null,
    null,
    null,
    null,
    null
  ],
  "equipment": [
    {
      "id": 4732,
      "amount": 1
    },
    null,
    {
      "id": 1499,
      "amount": 1
    },
    {
      "id": 4236,
      "amount": 1
    },
    {
      "id": 4736,
      "amount": 1
    },
    null,
    null,
    {
      "id": 4738,
      "amount": 1
    },
    null,
    {
      "id": 1580,
      "amount": 1
    },
    null,
    null,
    {
      "id": 10872,
      "amount": 1
    },
    {
      "id": 882,
      "amount": 6109
    }
  ],
  "shopItems": [
    null,
    null,
    null,
    null,
    null,
    null,
    null,
    null,
    null,
    null,
    null,
    null,
    null,
    null,
    null,
    null,
    null,
    null,
    null,
    null,
    null,
    null,
    null,
    null,
    null,
    null,
    null,
    null,
    null,
    null,
    null,
    null,
    null,
    null,
    null,
    null
  ],
  "shopPrices": [
    0,
    0,
    0,
    0,
    0,
    0,
    0,
    0,
    0,
    0,
    0,
    0,
    0,
    0,
    0,
    0,
    0,
    0,
    0,
    0,
    0,
    0,
    0,
    0,
    0,
    0,
    0,
    0,
    0,
    0,
    0,
    0,
    0,
    0,
    0,
    0
  ],
  "pouches": [
    0,
    0,
    0,
    0
  ]
}