{
  "bank": [
    {
      "id": 1351,
      "amount": 1
    },
    {
      "id": 590,
      "amount": 2
    },
    {
      "id": 303,
      "amount": 3
    },
    {
      "id": 315,
      "amount": 1
    },
    {
      "id": 1925,
      "amount": 1
    },
    {
      "id": 1931,
      "amount": 1
    },
    {
      "id": 2309,
      "amount": 1
    },
    {
      "id": 1265,
      "amount": 1
    },
    {
      "id": 1205,
      "amount": 1
    },
    {
      "id": 1171,
      "amount": 1
    },
    {
      "id": 841,
      "amount": 1
    },
    {
      "id": 882,
      "amount": 25
    },
    {
      "id": 12810,
      "amount": 1
    },
    {
      "id": 1359,
      "amount": 2
    },
    {
      "id": 9185,
      "amount": 3
    },
    {
      "id": 10499,
      "amount": 2
    },
    {
      "id": 1448,
      "amount": 2
    },
    {
      "id": 1438,
      "amount": 1
    },
    {
      "id": 1273,
      "amount": 1
    },
    {
      "id": 5313,
      "amount": 1
    },
    {
      "id": 5295,
      "amount": 3
    },
    {
      "id": 5286,
      "amount": 1
    },
    {
      "id": 5100,
      "amount": 1
    },
    {
      "id": 1442,
      "amount": 2
    },
    {
      "id": 564,
      "amount": 1087
    },
    {
      "id": 565,
      "amount": 7685
    },
    {
      "id": 563,
      "amount": 2629
    },
    {
      "id": 5285,
      "amount": 2
    },
    {
      "id": 5297,
      "amount": 6
    },
    {
      "id": 5541,
      "amount": 7
    },
    {
      "id": 993,
      "amount": 8
    },
    {
      "id": 5287,
      "amount": 5
    },
    {
      "id": 2568,
      "amount": 18
    },
    {
      "id": 1747,
      "amount": 89
    },
    {
      "id": 4095,
      "amount": 8
    },
    {
      "id": 3391,
      "amount": 8
    },
    {
      "id": 1731,
      "amount": 9
    },
    {
      "id": 4097,
      "amount": 18
    },
    {
      "id": 2570,
      "amount": 28
    },
    {
      "id": 2363,
      "amount": 4
    },
    {
      "id": 1347,
      "amount": 4
    },
    {
      "id": 1215,
      "amount": 13
    },
    {
      "id": 6908,
      "amount": 4
    },
    {
      "id": 10896,
      "amount": 1
    },
    {
      "id": 6155,
      "amount": 15
    },
    {
      "id": 805,
      "amount": 150
    },
    {
      "id": 6313,
      "amount": 5
    },
    {
      "id": 9194,
      "amount": 20
    },
    {
      "id": 10952,
      "amount": 3
    },
    {
      "id": 7170,
      "amount": 1
    },
    {
      "id": 9342,
      "amount": 6
    },
    {
      "id": 5547,
      "amount": 5
    },
    {
      "id": 3385,
      "amount": 9
    },
    {
      "id": 7218,
      "amount": 58
    },
    {
      "id": 11237,
      "amount": 45
    },
    {
      "id": 11212,
      "amount": 103
    },
    {
      "id": 534,
      "amount": 31
    },
    {
      "id": 11232,
      "amount": 47
    },
    {
      "id": 987,
      "amount": 9
    },
    {
      "id": 5937,
      "amount": 8
    },
    {
      "id": 526,
      "amount": 45
    },
    {
      "id": 5316,
      "amount": 7
    },
    {
      "id": 1700,
      "amount": 7
    },
    {
      "id": 9193,
      "amount": 138
    },
    {
      "id": 11260,
      "amount": 8
    },
    {
      "id": 1277,
      "amount": 1
    },
    {
      "id": 12811,
      "amount": 1
    },
    {
      "id": 12608,
      "amount": 4
    },
    {
      "id": 1201,
      "amount": 3
    },
    {
      "id": 314,
      "amount": 166
    },
    {
      "id": 309,
      "amount": 1
    },
    {
      "id": 1753,
      "amount": 29
    },
    {
      "id": 11849,
      "amount": 4
    },
    {
      "id": 12451,
      "amount": 4
    },
    {
      "id": 1247,
      "amount": 1
    },
    {
      "id": 5535,
      "amount": 1
    },
    {
      "id": 229,
      "amount": 27
    },
    {
      "id": 1623,
      "amount": 4
    },
    {
      "id": 1452,
      "amount": 3
    },
    {
      "id": 6322,
      "amount": 1
    },
    {
      "id": 430,
      "amount": 3
    },
    {
      "id": 379,
      "amount": 8
    },
    {
      "id": 7946,
      "amount": 3
    },
    {
      "id": 305,
      "amount": 1
    },
    {
      "id": 301,
      "amount": 1
    },
    {
      "id": 10306,
      "amount": 3
    },
    {
      "id": 2631,
      "amount": 2
    },
    {
      "id": 1125,
      "amount": 2
    },
    {
      "id": 1462,
      "amount": 2
    },
    {
      "id": 1249,
      "amount": 1
    },
    {
      "id": 886,
      "amount": 150
    },
    {
      "id": 3839,
      "amount": 2
    },
    {
      "id": 2347,
      "amount": 1
    },
    {
      "id": 864,
      "amount": 209
    },
    {
      "id": 1157,
      "amount": 1
    },
    {
      "id": 1059,
      "amount": 2
    },
    {
      "id": 1063,
      "amount": 3
    },
    {
      "id": 1777,
      "amount": 64
    },
    {
      "id": 1743,
      "amount": 1
    },
    {
      "id": 1131,
      "amount": 5
    },
    {
      "id": 1733,
      "amount": 1010
    },
    {
      "id": 1540,
      "amount": 1
    },
    {
      "id": 558,
      "amount": 1182
    },
    {
      "id": 559,
      "amount": 1002
    },
    {
      "id": 557,
      "amount": 1292
    },
    {
      "id": 555,
      "amount": 1471
    },
    {
      "id": 12812,
      "amount": 1
    },
    {
      "id": 1061,
      "amount": 1
    },
    {
      "id": 12453,
      "amount": 5
    },
    {
      "id": 265,
      "amount": 50
    },
    {
      "id": 10977,
      "amount": 1
    },
    {
      "id": 2366,
      "amount": 1
    },
    {
      "id": 9752,
      "amount": 1
    },
    {
      "id": 12445,
      "amount": 2
    },
    {
      "id": 1454,
      "amount": 1
    },
    {
      "id": 562,
      "amount": 1344
    },
    {
      "id": 12612,
      "amount": 4
    },
    {
      "id": 3841,
      "amount": 3
    },
    {
      "id": 12610,
      "amount": 3
    },
    {
      "id": 1478,
      "amount": 4
    },
    {
      "id": 2550,
      "amount": 2
    },
    {
      "id": 1183,
      "amount": 1
    },
    {
      "id": 1357,
      "amount": 1
    },
    {
      "id": 1361,
      "amount": 3
    },
    {
      "id": 8778,
      "amount": 1
    },
    {
      "id": 3122,
      "amount": 4
    },
    {
      "id": 6326,
      "amount": 2
    },
    {
      "id": 11942,
      "amount": 1
    },
    {
      "id": 1151,
      "amount": 1
    },
    {
      "id": 397,
      "amount": 1050
    },
    {
      "id": 12245,
      "amount": 1
    },
    {
      "id": 1379,
      "amount": 2
    },
    {
      "id": 3387,
      "amount": 1
    },
    {
      "id": 556,
      "amount": 1330
    },
    {
      "id": 560,
      "amount": 2139
    },
    {
      "id": 2357,
      "amount": 15
    },
    {
      "id": 3053,
      "amount": 2
    },
    {
      "id": 532,
      "amount": 150
    },
    {
      "id": 4740,
      "amount": 795
    },
    {
      "id": 1341,
      "amount": 1
    },
    {
      "id": 1283,
      "amount": 1
    },
    {
      "id": 1327,
      "amount": 2
    },
    {
      "id": 1167,
      "amount": 2
    },
    {
      "id": 3827,
      "amount": 1
    },
    {
      "id": 7460,
      "amount": 2
    },
    {
      "id": 12375,
      "amount": 2
    },
    {
      "id": 10422,
      "amount": 1
    },
    {
      "id": 1111,
      "amount": 1
    },
    {
      "id": 1430,
      "amount": 2
    },
    {
      "id": 1077,
      "amount": 1
    },
    {
      "id": 1426,
      "amount": 2
    },
    {
      "id": 1692,
      "amount": 1
    },
    {
      "id": 12243,
      "amount": 1
    },
    {
      "id": 1089,
      "amount": 2
    },
    {
      "id": 1367,
      "amount": 2
    },
    {
      "id": 7356,
      "amount": 1
    },
    {
      "id": 1169,
      "amount": 1
    },
    {
      "id": 2635,
      "amount": 1
    },
    {
      "id": 890,
      "amount": 19
    },
    {
      "id": 869,
      "amount": 173
    },
    {
      "id": 6330,
      "amount": 3
    },
    {
      "id": 12769,
      "amount": 1
    },
    {
      "id": 554,
      "amount": 1496
    },
    {
      "id": 1621,
      "amount": 25
    },
    {
      "id": 7981,
      "amount": 1
    },
    {
      "id": 19484,
      "amount": 500
    },
    {
      "id": 453,
      "amount": 331
    },
    {
      "id": 4131,
      "amount": 1
    },
    {
      "id": 4757,
      "amount": 2
    },
    {
      "id": 1779,
      "amount": 2289
    },
    {
      "id": 4585,
      "amount": 1
    },
    {
      "id": 1939,
      "amount": 2000
    },
    {
      "id": 141,
      "amount": 4
    },
    {
      "id": 830,
      "amount": 454
    },
    {
      "id": 10034,
      "amount": 248
    },
    {
      "id": 62,
      "amount": 6
    },
    {
      "id": 143,
      "amount": 1
    },
    {
      "id": 9341,
      "amount": 24
    },
    {
      "id": 3472,
      "amount": 1
    },
    {
      "id": 10312,
      "amount": 1
    },
    {
      "id": 10308,
      "amount": 1
    },
    {
      "id": 1095,
      "amount": 1
    },
    {
      "id": 333,
      "amount": 1
    },
    {
      "id": 10010,
      "amount": 1
    },
    {
      "id": 2491,
      "amount": 2
    },
    {
      "id": 4759,
      "amount": 1
    },
    {
      "id": 4753,
      "amount": 1
    },
    {
      "id": 4755,
      "amount": 2
    },
    {
      "id": 2497,
      "amount": 2
    },
    {
      "id": 10828,
      "amount": 1
    },
    {
      "id": 9676,
      "amount": 1
    },
    {
      "id": 9674,
      "amount": 1
    },
    {
      "id": 4153,
      "amount": 1
    },
    {
      "id": 3204,
      "amount": 1
    },
    {
      "id": 385,
      "amount": 331
    },
    {
      "id": 373,
      "amount": 301
    },
    {
      "id": 2440,
      "amount": 20
    },
    {
      "id": 2434,
      "amount": 32
    },
    {
      "id": 2436,
      "amount": 20
    },
    {
      "id": 3389,
      "amount": 1
    },
    {
      "id": 6912,
      "amount": 2
    },
    {
      "id": 329,
      "amount": 1
    },
    {
      "id": 3829,
      "amount": 1
    },
    {
      "id": 1107,
      "amount": 2
    },
    {
      "id": 2444,
      "amount": 4
    },
    {
      "id": 2368,
      "amount": 2
    },
    {
      "id": 892,
      "amount": 538
    },
    {
      "id": 4732,
      "amount": 2
    },
    {
      "id": 442,
      "amount": 200
    },
    {
      "id": 6328,
      "amount": 3
    },
    {
      "id": 4087,
      "amount": 3
    },
    {
      "id": 3140,
      "amount": 3
    },
    {
      "id": 12455,
      "amount": 3
    },
    {
      "id": 6324,
      "amount": 1
    },
    {
      "id": 859,
      "amount": 97
    },
    {
      "id": 592,
      "amount": 6884
    },
    {
      "id": 12695,
      "amount": 142
    },
    {
      "id": 9244,
      "amount": 372
    },
    {
      "id": 1631,
      "amount": 10
    },
    {
      "id": 13441,
      "amount": 147
    },
    {
      "id": 7462,
      "amount": 1
    },
    {
      "id": 952,
      "amount": 2
    },
    {
      "id": 1287,
      "amount": 1
    },
    {
      "id": 1301,
      "amount": 1
    },
    {
      "id": 1456,
      "amount": 1
    },
    {
      "id": 1317,
      "amount": 1
    },
    {
      "id": 383,
      "amount": 202
    },
    {
      "id": 9750,
      "amount": 1
    },
    {
      "id": 863,
      "amount": 149
    },
    {
      "id": 173,
      "amount": 1
    },
    {
      "id": 2361,
      "amount": 50
    },
    {
      "id": 3138,
      "amount": 100
    },
    {
      "id": 451,
      "amount": 10
    },
    {
      "id": 7980,
      "amount": 2
    },
    {
      "id": 6585,
      "amount": 1
    },
    {
      "id": 181,
      "amount": 1
    },
    {
      "id": 11931,
      "amount": 1
    },
    {
      "id": 4734,
      "amount": 1
    },
    {
      "id": 13276,
      "amount": 1
    },
    {
      "id": 13233,
      "amount": 1
    },
    {
      "id": 4207,
      "amount": 1
    },
    {
      "id": 10394,
      "amount": 1
    },
    {
      "id": 10416,
      "amount": 1
    },
    {
      "id": 4728,
      "amount": 1
    },
    {
      "id": 811,
      "amount": 500
    },
    {
      "id": 861,
      "amount": 1
    },
    {
      "id": 3749,
      "amount": 1
    },
    {
      "id": 3753,
      "amount": 1
    },
    {
      "id": 1147,
      "amount": 3
    },
    {
      "id": 139,
      "amount": 28
    },
    {
      "id": 292,
      "amount": 1
    },
    {
      "id": 169,
      "amount": 14
    },
    {
      "id": 12938,
      "amount": 9
    },
    {
      "id": 12522,
      "amount": 1
    },
    {
      "id": 4225,
      "amount": 1
    },
    {
      "id": 4708,
      "amount": 1
    },
    {
      "id": 4710,
      "amount": 1
    },
    {
      "id": 857,
      "amount": 26
    },
    {
      "id": 855,
      "amount": 104
    },
    {
      "id": 2647,
      "amount": 1
    },
    {
      "id": 7398,
      "amount": 2
    },
    {
      "id": 1432,
      "amount": 1
    },
    {
      "id": 1269,
      "amount": 2
    },
    {
      "id": 1615,
      "amount": 2
    },
    {
      "id": 72,
      "amount": 191
    },
    {
      "id": 70,
      "amount": 1133
    },
    {
      "id": 4722,
      "amount": 1
    },
    {
      "id": 6524,
      "amount": 2
    },
    {
      "id": 946,
      "amount": 1
    },
    {
      "id": 9470,
      "amount": 1
    },
    {
      "id": 12449,
      "amount": 1
    },
    {
      "id": 11854,
      "amount": 1
    },
    {
      "id": 11856,
      "amount": 1
    },
    {
      "id": 311,
      "amount": 1
    },
    {
      "id": 1734,
      "amount": 745
    },
    {
      "id": 5324,
      "amount": 5
    },
    {
      "id": 5323,
      "amount": 10
    },
    {
      "id": 5321,
      "amount": 20
    },
    {
      "id": 5292,
      "amount": 2
    },
    {
      "id": 5298,
      "amount": 9
    },
    {
      "id": 5291,
      "amount": 4
    },
    {
      "id": 5293,
      "amount": 5
    },
    {
      "id": 5294,
      "amount": 5
    },
    {
      "id": 7936,
      "amount": 80
    },
    {
      "id": 5296,
      "amount": 4
    },
    {
      "id": 5300,
      "amount": 15
    },
    {
      "id": 13439,
      "amount": 59
    },
    {
      "id": 5341,
      "amount": 1
    },
    {
      "id": 5343,
      "amount": 1
    },
    {
      "id": 561,
      "amount": 2141
    },
    {
      "id": 5325,
      "amount": 1
    },
    {
      "id": 985,
      "amount": 1
    },
    {
      "id": 11959,
      "amount": 5
    },
    {
      "id": 11230,
      "amount": 1
    },
    {
      "id": 1755,
      "amount": 1
    },
    {
      "id": 1387,
      "amount": 1
    },
    {
      "id": 395,
      "amount": 63
    },
    {
      "id": 11934,
      "amount": 56
    },
    {
      "id": 444,
      "amount": 76
    },
    {
      "id": 440,
      "amount": 21
    },
    {
      "id": 447,
      "amount": 1
    },
    {
      "id": 13321,
      "amount": 1
    },
    {
      "id": 1275,
      "amount": 1
    },
    {
      "id": 12924,
      "amount": 1
    },
    {
      "id": 5514,
      "amount": 1
    },
    {
      "id": 5512,
      "amount": 1
    },
    {
      "id": 5510,
      "amount": 1
    },
    {
      "id": 5509,
      "amount": 1
    },
    {
      "id": 227,
      "amount": 369
    },
    {
      "id": 1975,
      "amount": 9
    },
    {
      "id": 175,
      "amount": 7
    },
    {
      "id": 93,
      "amount": 1
    },
    {
      "id": 251,
      "amount": 1
    },
    {
      "id": 3010,
      "amount": 1
    },
    {
      "id": 3018,
      "amount": 16
    },
    {
      "id": 157,
      "amount": 41
    },
    {
      "id": 3026,
      "amount": 34
    },
    {
      "id": 223,
      "amount": 2
    },
    {
      "id": 267,
      "amount": 86
    },
    {
      "id": 269,
      "amount": 328
    },
    {
      "id": 2481,
      "amount": 63
    },
    {
      "id": 2998,
      "amount": 14
    },
    {
      "id": 233,
      "amount": 1
    },
    {
      "id": 536,
      "amount": 90
    },
    {
      "id": 6685,
      "amount": 10
    },
    {
      "id": 1513,
      "amount": 100
    },
    {
      "id": 12746,
      "amount": 1
    },
    {
      "id": 9075,
      "amount": 1000
    },
    {
      "id": 566,
      "amount": 1000
    },
    {
      "id": 608,
      "amount": 1
    },
    {
      "id": 1093,
      "amount": 1
    },
    {
      "id": 10376,
      "amount": 1
    },
    {
      "id": 2890,
      "amount": 1
    },
    {
      "id": 3837,
      "amount": 1
    },
    {
      "id": 10282,
      "amount": 1
    },
    {
      "id": 10392,
      "amount": 1
    },
    {
      "id": 1217,
      "amount": 1
    },
    {
      "id": 10366,
      "amount": 1
    },
    {
      "id": 2499,
      "amount": 1
    },
    {
      "id": 2493,
      "amount": 1
    },
    {
      "id": 10434,
      "amount": 1
    },
    {
      "id": 2487,
      "amount": 1
    },
    {
      "id": 1113,
      "amount": 1
    },
    {
      "id": 995,
      "amount": 42844038
    },
    null,
    null,
    null,
    null,
    null,
    null
  ],
  "tabAmounts": [
    344,
    0,
    0,
    0,
    0,
    0,
    0,
    0,
    0,
    0
  ],
  "inventory": [
    {
      "id": 169,
      "amount": 1
    },
    {
      "id": 141,
      "amount": 1
    },
    {
      "id": 2434,
      "amount": 1
    },
    {
      "id": 2434,
      "amount": 1
    },
    {
      "id": 2434,
      "amount": 1
    },
    {
      "id": 2434,
      "amount": 1
    },
    {
      "id": 2434,
      "amount": 1
    },
    {
      "id": 2434,
      "amount": 1
    },
    {
      "id": 2434,
      "amount": 1
    },
    {
      "id": 2434,
      "amount": 1
    },
    {
      "id": 2434,
      "amount": 1
    },
    {
      "id": 4155,
      "amount": 1
    },
    {
      "id": 7937,
      "amount": 60
    },
    {
      "id": 995,
      "amount": 2648
    },
    {
      "id": 6912,
      "amount": 1
    },
    {
      "id": 2550,
      "amount": 1
    },
    null,
    null,
    null,
    null,
    null,
    null,
    null,
    null,
    null,
    null,
    null,
    null
  ],
  "equipment": [
    {
      "id": 11664,
      "amount": 1
    },
    {
      "id": 10499,
      "amount": 1
    },
    {
      "id": 6585,
      "amount": 1
    },
    {
      "id": 12926,
      "amount": 1
    },
    {
      "id": 8839,
      "amount": 1
    },
    null,
    null,
    {
      "id": 8840,
      "amount": 1
    },
    null,
    {
      "id": 8842,
      "amount": 1
    },
    {
      "id": 6328,
      "amount": 1
    },
    null,
    {
      "id": 2572,
      "amount": 1
    },
    null
  ],
  "shopItems": [
    null,
    null,
    null,
    null,
    null,
    null,
    null,
    null,
    null,
    null,
    null,
    null,
    null,
    null,
    null,
    null,
    null,
    null,
    null,
    null,
    null,
    null,
    null,
    null,
    null,
    null,
    null,
    null,
    null,
    null,
    null,
    null,
    null,
    null,
    null,
    null
  ],
  "shopPrices": [
    0,
    0,
    0,
    0,
    0,
    0,
    0,
    0,
    0,
    0,
    0,
    0,
    0,
    0,
    0,
    0,
    0,
    0,
    0,
    0,
    0,
    0,
    0,
    0,
    0,
    0,
    0,
    0,
    0,
    0,
    0,
    0,
    0,
    0,
    0,
    0
  ],
  "pouches": [
    0,
    0,
    0,
    0
  ]
}