{
  "bank": [
    {
      "id": 590,
      "amount": 2
    },
    {
      "id": 303,
      "amount": 2
    },
    {
      "id": 315,
      "amount": 51
    },
    {
      "id": 1925,
      "amount": 1
    },
    {
      "id": 1931,
      "amount": 1
    },
    {
      "id": 2309,
      "amount": 1
    },
    {
      "id": 1205,
      "amount": 1
    },
    {
      "id": 1277,
      "amount": 1
    },
    {
      "id": 1171,
      "amount": 1
    },
    {
      "id": 556,
      "amount": 85
    },
    {
      "id": 558,
      "amount": 40
    },
    {
      "id": 555,
      "amount": 36
    },
    {
      "id": 557,
      "amount": 68
    },
    {
      "id": 559,
      "amount": 30
    },
    {
      "id": 11849,
      "amount": 35
    },
    {
      "id": 11850,
      "amount": 1
    },
    {
      "id": 11852,
      "amount": 1
    },
    {
      "id": 11854,
      "amount": 1
    },
    {
      "id": 11856,
      "amount": 1
    },
    {
      "id": 11858,
      "amount": 1
    },
    {
      "id": 11860,
      "amount": 1
    },
    {
      "id": 4093,
      "amount": 16
    },
    {
      "id": 7936,
      "amount": 117
    },
    {
      "id": 946,
      "amount": 2
    },
    {
      "id": 565,
      "amount": 17
    },
    {
      "id": 1448,
      "amount": 1
    },
    {
      "id": 566,
      "amount": 11
    },
    {
      "id": 564,
      "amount": 4
    },
    {
      "id": 562,
      "amount": 44
    },
    {
      "id": 6016,
      "amount": 4
    },
    {
      "id": 3000,
      "amount": 1
    },
    {
      "id": 5313,
      "amount": 1
    },
    {
      "id": 5294,
      "amount": 2
    },
    {
      "id": 5304,
      "amount": 1
    },
    {
      "id": 5100,
      "amount": 1
    },
    {
      "id": 5299,
      "amount": 1
    },
    {
      "id": 5298,
      "amount": 5
    },
    {
      "id": 3391,
      "amount": 2
    },
    {
      "id": 1747,
      "amount": 24
    },
    {
      "id": 2568,
      "amount": 6
    },
    {
      "id": 2363,
      "amount": 8
    },
    {
      "id": 993,
      "amount": 3
    },
    {
      "id": 1601,
      "amount": 175
    },
    {
      "id": 1347,
      "amount": 10
    },
    {
      "id": 5300,
      "amount": 35
    },
    {
      "id": 1185,
      "amount": 4
    },
    {
      "id": 5541,
      "amount": 2
    },
    {
      "id": 1731,
      "amount": 10
    },
    {
      "id": 2570,
      "amount": 4
    },
    {
      "id": 4095,
      "amount": 1
    },
    {
      "id": 6155,
      "amount": 12
    },
    {
      "id": 4097,
      "amount": 6
    },
    {
      "id": 9194,
      "amount": 24
    },
    {
      "id": 6313,
      "amount": 3
    },
    {
      "id": 9342,
      "amount": 16
    },
    {
      "id": 1113,
      "amount": 7
    },
    {
      "id": 3385,
      "amount": 5
    },
    {
      "id": 805,
      "amount": 100
    },
    {
      "id": 5937,
      "amount": 12
    },
    {
      "id": 1333,
      "amount": 4
    },
    {
      "id": 11232,
      "amount": 226
    },
    {
      "id": 5316,
      "amount": 17
    },
    {
      "id": 4587,
      "amount": 12
    },
    {
      "id": 7218,
      "amount": 179
    },
    {
      "id": 1704,
      "amount": 20
    },
    {
      "id": 1615,
      "amount": 34
    },
    {
      "id": 11230,
      "amount": 423
    },
    {
      "id": 11237,
      "amount": 186
    },
    {
      "id": 9193,
      "amount": 206
    },
    {
      "id": 5547,
      "amount": 24
    },
    {
      "id": 9341,
      "amount": 143
    },
    {
      "id": 11212,
      "amount": 298
    },
    {
      "id": 1700,
      "amount": 22
    },
    {
      "id": 1215,
      "amount": 20
    },
    {
      "id": 10010,
      "amount": 1
    },
    {
      "id": 383,
      "amount": 7814
    },
    {
      "id": 323,
      "amount": 2
    },
    {
      "id": 319,
      "amount": 17
    },
    {
      "id": 379,
      "amount": 92
    },
    {
      "id": 7946,
      "amount": 312
    },
    {
      "id": 305,
      "amount": 1
    },
    {
      "id": 11934,
      "amount": 47
    },
    {
      "id": 301,
      "amount": 1
    },
    {
      "id": 385,
      "amount": 503
    },
    {
      "id": 11936,
      "amount": 994
    },
    {
      "id": 1779,
      "amount": 27
    },
    {
      "id": 1059,
      "amount": 10
    },
    {
      "id": 1095,
      "amount": 9
    },
    {
      "id": 1167,
      "amount": 5
    },
    {
      "id": 1613,
      "amount": 200
    },
    {
      "id": 1607,
      "amount": 44
    },
    {
      "id": 1605,
      "amount": 179
    },
    {
      "id": 1603,
      "amount": 189
    },
    {
      "id": 1755,
      "amount": 1
    },
    {
      "id": 1265,
      "amount": 1
    },
    {
      "id": 819,
      "amount": 405
    },
    {
      "id": 2357,
      "amount": 60
    },
    {
      "id": 1637,
      "amount": 156
    },
    {
      "id": 453,
      "amount": 57
    },
    {
      "id": 822,
      "amount": 435
    },
    {
      "id": 2347,
      "amount": 1
    },
    {
      "id": 12453,
      "amount": 1
    },
    {
      "id": 2805,
      "amount": 1
    },
    {
      "id": 560,
      "amount": 96
    },
    {
      "id": 554,
      "amount": 748
    },
    {
      "id": 985,
      "amount": 4
    },
    {
      "id": 987,
      "amount": 9
    },
    {
      "id": 1733,
      "amount": 1
    },
    {
      "id": 1734,
      "amount": 474
    },
    {
      "id": 1061,
      "amount": 2
    },
    {
      "id": 5291,
      "amount": 15
    },
    {
      "id": 5341,
      "amount": 1
    },
    {
      "id": 952,
      "amount": 1
    },
    {
      "id": 5343,
      "amount": 1
    },
    {
      "id": 121,
      "amount": 41
    },
    {
      "id": 231,
      "amount": 17
    },
    {
      "id": 227,
      "amount": 406
    },
    {
      "id": 2434,
      "amount": 407
    },
    {
      "id": 229,
      "amount": 146
    },
    {
      "id": 139,
      "amount": 2
    },
    {
      "id": 143,
      "amount": 3
    },
    {
      "id": 442,
      "amount": 100
    },
    {
      "id": 563,
      "amount": 46
    },
    {
      "id": 1319,
      "amount": 1
    },
    {
      "id": 1213,
      "amount": 1
    },
    {
      "id": 1147,
      "amount": 4
    },
    {
      "id": 9749,
      "amount": 1
    },
    {
      "id": 1371,
      "amount": 1
    },
    {
      "id": 1540,
      "amount": 1
    },
    {
      "id": 12810,
      "amount": 1
    },
    {
      "id": 2890,
      "amount": 2
    },
    {
      "id": 12812,
      "amount": 1
    },
    {
      "id": 3839,
      "amount": 1
    },
    {
      "id": 6685,
      "amount": 20
    },
    {
      "id": 2722,
      "amount": 3
    },
    {
      "id": 13322,
      "amount": 1
    },
    {
      "id": 52,
      "amount": 405
    },
    {
      "id": 1149,
      "amount": 2
    },
    {
      "id": 70,
      "amount": 62
    },
    {
      "id": 882,
      "amount": 12
    },
    {
      "id": 892,
      "amount": 278
    },
    {
      "id": 995,
      "amount": 42886704
    },
    {
      "id": 841,
      "amount": 1
    },
    {
      "id": 1623,
      "amount": 1
    },
    {
      "id": 532,
      "amount": 1
    },
    {
      "id": 4732,
      "amount": 1
    },
    {
      "id": 10499,
      "amount": 1
    },
    {
      "id": 861,
      "amount": 1
    },
    {
      "id": 1129,
      "amount": 1
    },
    {
      "id": 6324,
      "amount": 1
    },
    {
      "id": 4755,
      "amount": 2
    },
    {
      "id": 4726,
      "amount": 1
    },
    {
      "id": 207,
      "amount": 25
    },
    {
      "id": 2436,
      "amount": 19
    },
    {
      "id": 7981,
      "amount": 1
    },
    {
      "id": 6524,
      "amount": 2
    },
    {
      "id": 2442,
      "amount": 30
    },
    {
      "id": 10314,
      "amount": 1
    },
    {
      "id": 4724,
      "amount": 2
    },
    {
      "id": 11943,
      "amount": 10
    },
    {
      "id": 397,
      "amount": 50
    },
    {
      "id": 1327,
      "amount": 1
    },
    {
      "id": 7350,
      "amount": 1
    },
    {
      "id": 7356,
      "amount": 1
    },
    {
      "id": 4012,
      "amount": 1
    },
    {
      "id": 7979,
      "amount": 2
    },
    {
      "id": 19484,
      "amount": 500
    },
    {
      "id": 451,
      "amount": 30
    },
    {
      "id": 4734,
      "amount": 1
    },
    {
      "id": 13320,
      "amount": 1
    },
    {
      "id": 311,
      "amount": 1
    },
    {
      "id": 1079,
      "amount": 1
    },
    {
      "id": 1163,
      "amount": 1
    },
    {
      "id": 8851,
      "amount": 275
    },
    {
      "id": 145,
      "amount": 1
    },
    {
      "id": 8845,
      "amount": 1
    },
    {
      "id": 8844,
      "amount": 1
    },
    {
      "id": 12811,
      "amount": 1
    },
    {
      "id": 9748,
      "amount": 1
    },
    {
      "id": 1127,
      "amount": 1
    },
    {
      "id": 1201,
      "amount": 1
    },
    {
      "id": 4585,
      "amount": 1
    },
    {
      "id": 7462,
      "amount": 1
    },
    {
      "id": 6735,
      "amount": 1
    },
    {
      "id": 1275,
      "amount": 1
    },
    null,
    null,
    null,
    null,
    null,
    null,
    null,
    null,
    null,
    null,
    null,
    null,
    null,
    null,
    null,
    null,
    null,
    null,
    null,
    null,
    null,
    null,
    null,
    null,
    null,
    null,
    null,
    null,
    null,
    null,
    null,
    null,
    null,
    null,
    null,
    null,
    null,
    null,
    null,
    null,
    null,
    null,
    null,
    null,
    null,
    null,
    null,
    null,
    null,
    null,
    null,
    null,
    null,
    null,
    null,
    null,
    null,
    null,
    null,
    null,
    null,
    null,
    null,
    null,
    null,
    null,
    null,
    null,
    null,
    null,
    null,
    null,
    null,
    null,
    null,
    null,
    null,
    null,
    null,
    null,
    null,
    null,
    null,
    null,
    null,
    null,
    null,
    null,
    null,
    null,
    null,
    null,
    null,
    null,
    null,
    null,
    null,
    null,
    null,
    null,
    null,
    null,
    null,
    null,
    null,
    null,
    null,
    null,
    null,
    null,
    null,
    null,
    null,
    null,
    null,
    null,
    null,
    null,
    null,
    null,
    null,
    null,
    null,
    null,
    null,
    null,
    null,
    null,
    null,
    null,
    null,
    null,
    null,
    null,
    null,
    null,
    null,
    null,
    null,
    null,
    null,
    null,
    null,
    null,
    null,
    null,
    null,
    null,
    null,
    null,
    null,
    null,
    null,
    null,
    null,
    null,
    null,
    null,
    null,
    null,
    null,
    null,
    null,
    null,
    null
  ],
  "tabAmounts": [
    185,
    0,
    0,
    0,
    0,
    0,
    0,
    0,
    0,
    0
  ],
  "inventory": [
    null,
    null,
    null,
    null,
    null,
    null,
    null,
    null,
    null,
    null,
    null,
    null,
    null,
    null,
    null,
    null,
    null,
    null,
    null,
    null,
    null,
    null,
    null,
    null,
    null,
    null,
    null,
    null
  ],
  "equipment": [
    null,
    null,
    null,
    {
      "id": 1359,
      "amount": 1
    },
    null,
    null,
    null,
    null,
    null,
    null,
    null,
    null,
    null,
    null
  ],
  "shopItems": [
    null,
    null,
    null,
    null,
    null,
    null,
    null,
    null,
    null,
    null,
    null,
    null,
    null,
    null,
    null,
    null,
    null,
    null,
    null,
    null,
    null,
    null,
    null,
    null,
    null,
    null,
    null,
    null,
    null,
    null,
    null,
    null,
    null,
    null,
    null,
    null
  ],
  "shopPrices": [
    0,
    0,
    0,
    0,
    0,
    0,
    0,
    0,
    0,
    0,
    0,
    0,
    0,
    0,
    0,
    0,
    0,
    0,
    0,
    0,
    0,
    0,
    0,
    0,
    0,
    0,
    0,
    0,
    0,
    0,
    0,
    0,
    0,
    0,
    0,
    0
  ],
  "pouches": [
    0,
    0,
    0,
    0
  ]
}