{
  "bank": [
    {
      "id": 1351,
      "amount": 2
    },
    {
      "id": 590,
      "amount": 2
    },
    {
      "id": 303,
      "amount": 2
    },
    {
      "id": 315,
      "amount": 22
    },
    {
      "id": 1925,
      "amount": 1
    },
    {
      "id": 1931,
      "amount": 1
    },
    {
      "id": 2309,
      "amount": 1
    },
    {
      "id": 1265,
      "amount": 1
    },
    {
      "id": 1205,
      "amount": 1
    },
    {
      "id": 841,
      "amount": 1
    },
    {
      "id": 882,
      "amount": 774
    },
    {
      "id": 556,
      "amount": 25
    },
    {
      "id": 558,
      "amount": 15
    },
    {
      "id": 555,
      "amount": 6
    },
    {
      "id": 557,
      "amount": 4
    },
    {
      "id": 559,
      "amount": 2
    },
    {
      "id": 2366,
      "amount": 1
    },
    {
      "id": 1277,
      "amount": 1
    },
    {
      "id": 1267,
      "amount": 1
    },
    {
      "id": 1327,
      "amount": 1
    },
    {
      "id": 1171,
      "amount": 1
    },
    {
      "id": 886,
      "amount": 150
    },
    {
      "id": 563,
      "amount": 45
    },
    {
      "id": 1373,
      "amount": 1
    },
    {
      "id": 1201,
      "amount": 1
    },
    {
      "id": 2805,
      "amount": 1
    },
    {
      "id": 1249,
      "amount": 1
    },
    {
      "id": 1359,
      "amount": 1
    },
    {
      "id": 1275,
      "amount": 1
    },
    {
      "id": 1755,
      "amount": 1
    },
    {
      "id": 946,
      "amount": 1
    },
    {
      "id": 1540,
      "amount": 1
    },
    {
      "id": 4155,
      "amount": 1
    },
    {
      "id": 2890,
      "amount": 1
    },
    {
      "id": 954,
      "amount": 5
    },
    {
      "id": 323,
      "amount": 1
    },
    {
      "id": 305,
      "amount": 1
    },
    {
      "id": 307,
      "amount": 1
    },
    {
      "id": 313,
      "amount": 200
    },
    {
      "id": 333,
      "amount": 20
    },
    {
      "id": 309,
      "amount": 1
    },
    {
      "id": 314,
      "amount": 475
    },
    {
      "id": 301,
      "amount": 1
    },
    {
      "id": 379,
      "amount": 6
    },
    {
      "id": 987,
      "amount": 1
    },
    {
      "id": 3841,
      "amount": 1
    },
    {
      "id": 3843,
      "amount": 1
    },
    {
      "id": 7356,
      "amount": 1
    },
    {
      "id": 1269,
      "amount": 1
    },
    {
      "id": 995,
      "amount": 1533485
    },
    {
      "id": 952,
      "amount": 1
    },
    {
      "id": 1129,
      "amount": 1
    },
    {
      "id": 1426,
      "amount": 1
    },
    {
      "id": 10426,
      "amount": 1
    },
    {
      "id": 1448,
      "amount": 1
    },
    {
      "id": 12748,
      "amount": 1
    },
    {
      "id": 3755,
      "amount": 1
    },
    {
      "id": 12810,
      "amount": 1
    },
    null,
    null,
    null,
    null,
    null,
    null,
    null,
    null,
    null,
    null,
    null,
    null,
    null,
    null,
    null,
    null,
    null,
    null,
    null,
    null,
    null,
    null,
    null,
    null,
    null,
    null,
    null,
    null,
    null,
    null,
    null,
    null,
    null,
    null,
    null,
    null,
    null,
    null,
    null,
    null,
    null,
    null,
    null,
    null,
    null,
    null,
    null,
    null,
    null,
    null,
    null,
    null,
    null,
    null,
    null,
    null,
    null,
    null,
    null,
    null,
    null,
    null,
    null,
    null,
    null,
    null,
    null,
    null,
    null,
    null,
    null,
    null,
    null,
    null,
    null,
    null,
    null,
    null,
    null,
    null,
    null,
    null,
    null,
    null,
    null,
    null,
    null,
    null,
    null,
    null,
    null,
    null,
    null,
    null,
    null,
    null,
    null,
    null,
    null,
    null,
    null,
    null,
    null,
    null,
    null,
    null,
    null,
    null,
    null,
    null,
    null,
    null,
    null,
    null,
    null,
    null,
    null,
    null,
    null,
    null,
    null,
    null,
    null,
    null,
    null,
    null,
    null,
    null,
    null,
    null,
    null,
    null,
    null,
    null,
    null,
    null,
    null,
    null,
    null,
    null,
    null,
    null,
    null,
    null,
    null,
    null,
    null,
    null,
    null,
    null,
    null,
    null,
    null,
    null,
    null,
    null,
    null,
    null,
    null,
    null,
    null,
    null,
    null,
    null,
    null,
    null,
    null,
    null,
    null,
    null,
    null,
    null,
    null,
    null,
    null,
    null,
    null,
    null,
    null,
    null,
    null,
    null,
    null,
    null,
    null,
    null,
    null,
    null,
    null,
    null,
    null,
    null,
    null,
    null,
    null,
    null,
    null,
    null,
    null,
    null,
    null,
    null,
    null,
    null,
    null,
    null,
    null,
    null,
    null,
    null,
    null,
    null,
    null,
    null,
    null,
    null,
    null,
    null,
    null,
    null,
    null,
    null,
    null,
    null,
    null,
    null,
    null,
    null,
    null,
    null,
    null,
    null,
    null,
    null,
    null,
    null,
    null,
    null,
    null,
    null,
    null,
    null,
    null,
    null,
    null,
    null,
    null,
    null,
    null,
    null,
    null,
    null,
    null,
    null,
    null,
    null,
    null,
    null,
    null,
    null,
    null,
    null,
    null,
    null,
    null,
    null,
    null,
    null,
    null,
    null,
    null,
    null,
    null,
    null,
    null,
    null,
    null,
    null,
    null,
    null,
    null,
    null,
    null,
    null,
    null,
    null,
    null,
    null,
    null,
    null,
    null,
    null
  ],
  "tabAmounts": [
    58,
    0,
    0,
    0,
    0,
    0,
    0,
    0,
    0,
    0
  ],
  "inventory": [
    null,
    null,
    null,
    null,
    null,
    null,
    null,
    null,
    null,
    null,
    null,
    null,
    null,
    null,
    null,
    null,
    null,
    null,
    null,
    null,
    null,
    null,
    null,
    null,
    null,
    null,
    null,
    null
  ],
  "equipment": [
    {
      "id": 7350,
      "amount": 1
    },
    null,
    null,
    {
      "id": 1319,
      "amount": 1
    },
    {
      "id": 12811,
      "amount": 1
    },
    null,
    null,
    {
      "id": 12812,
      "amount": 1
    },
    null,
    {
      "id": 19691,
      "amount": 1
    },
    null,
    null,
    null,
    null
  ],
  "shopItems": [
    null,
    null,
    null,
    null,
    null,
    null,
    null,
    null,
    null,
    null,
    null,
    null,
    null,
    null,
    null,
    null,
    null,
    null,
    null,
    null,
    null,
    null,
    null,
    null,
    null,
    null,
    null,
    null,
    null,
    null,
    null,
    null,
    null,
    null,
    null,
    null
  ],
  "shopPrices": [
    0,
    0,
    0,
    0,
    0,
    0,
    0,
    0,
    0,
    0,
    0,
    0,
    0,
    0,
    0,
    0,
    0,
    0,
    0,
    0,
    0,
    0,
    0,
    0,
    0,
    0,
    0,
    0,
    0,
    0,
    0,
    0,
    0,
    0,
    0,
    0
  ],
  "pouches": [
    0,
    0,
    0,
    0
  ]
}