{
  "bank": [
    {
      "id": 1381,
      "amount": 1
    },
    {
      "id": 554,
      "amount": 410
    },
    {
      "id": 558,
      "amount": 100
    },
    {
      "id": 562,
      "amount": 100
    },
    {
      "id": 7946,
      "amount": 17
    },
    {
      "id": 12695,
      "amount": 2
    },
    {
      "id": 2682,
      "amount": 1
    },
    {
      "id": 4587,
      "amount": 4
    },
    {
      "id": 1201,
      "amount": 3
    },
    {
      "id": 1321,
      "amount": 1
    },
    {
      "id": 841,
      "amount": 1
    },
    {
      "id": 884,
      "amount": 249
    },
    {
      "id": 2491,
      "amount": 1
    },
    {
      "id": 1846,
      "amount": 1
    },
    {
      "id": 11992,
      "amount": 7
    },
    {
      "id": 1540,
      "amount": 1
    },
    {
      "id": 1712,
      "amount": 1
    },
    {
      "id": 442,
      "amount": 100
    },
    {
      "id": 2434,
      "amount": 39
    },
    {
      "id": 6529,
      "amount": 16064
    },
    {
      "id": 561,
      "amount": 6
    },
    {
      "id": 5295,
      "amount": 1
    },
    {
      "id": 229,
      "amount": 21
    },
    {
      "id": 5294,
      "amount": 1
    },
    {
      "id": 557,
      "amount": 234
    },
    {
      "id": 556,
      "amount": 178
    },
    {
      "id": 1093,
      "amount": 2
    },
    {
      "id": 1099,
      "amount": 1
    },
    {
      "id": 1333,
      "amount": 1
    },
    {
      "id": 555,
      "amount": 95
    },
    {
      "id": 560,
      "amount": 384
    },
    {
      "id": 2809,
      "amount": 1
    },
    {
      "id": 4097,
      "amount": 1
    },
    {
      "id": 3053,
      "amount": 1
    },
    {
      "id": 3843,
      "amount": 1
    },
    {
      "id": 2368,
      "amount": 3
    },
    {
      "id": 5304,
      "amount": 1
    },
    {
      "id": 987,
      "amount": 10
    },
    {
      "id": 1163,
      "amount": 2
    },
    {
      "id": 12453,
      "amount": 2
    },
    {
      "id": 12697,
      "amount": 3
    },
    {
      "id": 565,
      "amount": 40
    },
    {
      "id": 1127,
      "amount": 2
    },
    {
      "id": 10952,
      "amount": 5
    },
    {
      "id": 890,
      "amount": 293
    },
    {
      "id": 1631,
      "amount": 12
    },
    {
      "id": 1149,
      "amount": 2
    },
    {
      "id": 4089,
      "amount": 1
    },
    {
      "id": 952,
      "amount": 3
    },
    {
      "id": 1844,
      "amount": 1
    },
    {
      "id": 1845,
      "amount": 1
    },
    {
      "id": 4155,
      "amount": 1
    },
    {
      "id": 9674,
      "amount": 1
    },
    {
      "id": 4749,
      "amount": 1
    },
    {
      "id": 10555,
      "amount": 1
    },
    {
      "id": 8851,
      "amount": 40
    },
    {
      "id": 143,
      "amount": 6
    },
    {
      "id": 1079,
      "amount": 1
    },
    {
      "id": 9185,
      "amount": 1
    },
    {
      "id": 385,
      "amount": 542
    },
    {
      "id": 2444,
      "amount": 14
    },
    {
      "id": 2550,
      "amount": 4
    },
    {
      "id": 2361,
      "amount": 25
    },
    {
      "id": 173,
      "amount": 7
    },
    {
      "id": 3105,
      "amount": 1
    },
    {
      "id": 536,
      "amount": 94
    },
    {
      "id": 12608,
      "amount": 1
    },
    {
      "id": 5974,
      "amount": 20
    },
    {
      "id": 451,
      "amount": 10
    },
    {
      "id": 1623,
      "amount": 4
    },
    {
      "id": 1513,
      "amount": 400
    },
    {
      "id": 169,
      "amount": 2
    },
    {
      "id": 1462,
      "amount": 1
    },
    {
      "id": 4726,
      "amount": 1
    },
    {
      "id": 4740,
      "amount": 25
    },
    {
      "id": 6570,
      "amount": 1
    },
    {
      "id": 10551,
      "amount": 1
    },
    {
      "id": 1187,
      "amount": 1
    },
    {
      "id": 9676,
      "amount": 1
    },
    {
      "id": 171,
      "amount": 3
    },
    {
      "id": 11856,
      "amount": 1
    },
    {
      "id": 11854,
      "amount": 1
    },
    {
      "id": 11850,
      "amount": 1
    },
    {
      "id": 11858,
      "amount": 1
    },
    {
      "id": 11852,
      "amount": 1
    },
    {
      "id": 11860,
      "amount": 1
    },
    {
      "id": 139,
      "amount": 1
    },
    {
      "id": 995,
      "amount": 6997913
    },
    {
      "id": 861,
      "amount": 1
    },
    {
      "id": 892,
      "amount": 35
    },
    {
      "id": 9144,
      "amount": 125
    },
    {
      "id": 12934,
      "amount": 20264
    },
    {
      "id": 1779,
      "amount": 2285
    },
    {
      "id": 563,
      "amount": 1430
    },
    {
      "id": 2366,
      "amount": 1
    },
    {
      "id": 383,
      "amount": 100
    },
    {
      "id": 9193,
      "amount": 48
    },
    {
      "id": 4207,
      "amount": 1
    },
    {
      "id": 12524,
      "amount": 1
    },
    {
      "id": 12255,
      "amount": 2
    },
    {
      "id": 10426,
      "amount": 1
    },
    {
      "id": 2667,
      "amount": 2
    },
    {
      "id": 2655,
      "amount": 1
    },
    {
      "id": 7398,
      "amount": 1
    },
    {
      "id": 7400,
      "amount": 1
    },
    {
      "id": 3476,
      "amount": 1
    },
    {
      "id": 3478,
      "amount": 2
    },
    {
      "id": 10452,
      "amount": 1
    },
    {
      "id": 10420,
      "amount": 2
    },
    {
      "id": 10430,
      "amount": 3
    },
    {
      "id": 10396,
      "amount": 1
    },
    {
      "id": 12317,
      "amount": 1
    },
    {
      "id": 12347,
      "amount": 3
    },
    {
      "id": 10432,
      "amount": 1
    },
    {
      "id": 2661,
      "amount": 1
    },
    {
      "id": 10450,
      "amount": 1
    },
    {
      "id": 12273,
      "amount": 1
    },
    {
      "id": 12263,
      "amount": 1
    },
    {
      "id": 10412,
      "amount": 1
    },
    {
      "id": 2665,
      "amount": 1
    },
    {
      "id": 10416,
      "amount": 1
    },
    {
      "id": 12359,
      "amount": 2
    },
    {
      "id": 7325,
      "amount": 1
    },
    {
      "id": 10316,
      "amount": 1
    },
    {
      "id": 10464,
      "amount": 1
    },
    {
      "id": 2673,
      "amount": 1
    },
    {
      "id": 2675,
      "amount": 1
    },
    {
      "id": 10398,
      "amount": 1
    },
    {
      "id": 2503,
      "amount": 130
    },
    {
      "id": 592,
      "amount": 19705
    },
    {
      "id": 10458,
      "amount": 1
    },
    {
      "id": 12193,
      "amount": 1
    },
    {
      "id": 12195,
      "amount": 1
    },
    {
      "id": 2609,
      "amount": 1
    },
    {
      "id": 2583,
      "amount": 1
    },
    {
      "id": 10284,
      "amount": 1
    },
    {
      "id": 10406,
      "amount": 1
    },
    {
      "id": 10366,
      "amount": 1
    },
    {
      "id": 12215,
      "amount": 1
    },
    {
      "id": 12209,
      "amount": 1
    },
    {
      "id": 2625,
      "amount": 1
    },
    {
      "id": 2663,
      "amount": 1
    },
    {
      "id": 10370,
      "amount": 1
    },
    {
      "id": 12271,
      "amount": 1
    },
    {
      "id": 7384,
      "amount": 1
    },
    {
      "id": 3830,
      "amount": 2
    },
    {
      "id": 3836,
      "amount": 2
    },
    {
      "id": 3838,
      "amount": 1
    },
    {
      "id": 3827,
      "amount": 1
    },
    {
      "id": 3831,
      "amount": 1
    },
    {
      "id": 3837,
      "amount": 1
    },
    null,
    null,
    null,
    null,
    null,
    null,
    null,
    null,
    null,
    null,
    null,
    null,
    null,
    null,
    null,
    null,
    null,
    null,
    null,
    null,
    null,
    null,
    null,
    null,
    null,
    null,
    null,
    null,
    null,
    null,
    null,
    null,
    null,
    null,
    null,
    null,
    null,
    null,
    null,
    null,
    null,
    null,
    null,
    null,
    null,
    null,
    null,
    null,
    null,
    null,
    null,
    null,
    null,
    null,
    null,
    null,
    null,
    null,
    null,
    null,
    null,
    null,
    null,
    null,
    null,
    null,
    null,
    null,
    null,
    null,
    null,
    null,
    null,
    null,
    null,
    null,
    null,
    null,
    null,
    null,
    null,
    null,
    null,
    null,
    null,
    null,
    null,
    null,
    null,
    null,
    null,
    null,
    null,
    null,
    null,
    null,
    null,
    null,
    null,
    null,
    null,
    null,
    null,
    null,
    null,
    null,
    null,
    null,
    null,
    null,
    null,
    null,
    null,
    null,
    null,
    null,
    null,
    null,
    null,
    null,
    null,
    null,
    null,
    null,
    null,
    null,
    null,
    null,
    null,
    null,
    null,
    null,
    null,
    null,
    null,
    null,
    null,
    null,
    null,
    null,
    null,
    null,
    null,
    null,
    null,
    null,
    null,
    null,
    null,
    null,
    null,
    null,
    null,
    null,
    null,
    null,
    null,
    null,
    null,
    null,
    null,
    null,
    null,
    null,
    null,
    null,
    null,
    null,
    null,
    null,
    null,
    null,
    null,
    null,
    null,
    null,
    null,
    null,
    null,
    null,
    null,
    null,
    null,
    null,
    null,
    null,
    null,
    null,
    null,
    null,
    null,
    null,
    null,
    null,
    null,
    null,
    null,
    null,
    null
  ],
  "tabAmounts": [
    91,
    7,
    53,
    0,
    0,
    0,
    0,
    0,
    0,
    0
  ],
  "inventory": [
    {
      "id": 12938,
      "amount": 2
    },
    null,
    null,
    null,
    null,
    null,
    null,
    null,
    null,
    null,
    null,
    null,
    null,
    null,
    null,
    null,
    null,
    null,
    null,
    null,
    null,
    null,
    null,
    null,
    null,
    null,
    null,
    null
  ],
  "equipment": [
    {
      "id": 10828,
      "amount": 1
    },
    {
      "id": 10499,
      "amount": 1
    },
    {
      "id": 6585,
      "amount": 1
    },
    {
      "id": 868,
      "amount": 197
    },
    {
      "id": 2503,
      "amount": 1
    },
    {
      "id": 12612,
      "amount": 1
    },
    null,
    {
      "id": 2497,
      "amount": 1
    },
    null,
    {
      "id": 7460,
      "amount": 1
    },
    {
      "id": 4131,
      "amount": 1
    },
    null,
    null,
    null
  ],
  "shopItems": [
    null,
    null,
    null,
    null,
    null,
    null,
    null,
    null,
    null,
    null,
    null,
    null,
    null,
    null,
    null,
    null,
    null,
    null,
    null,
    null,
    null,
    null,
    null,
    null,
    null,
    null,
    null,
    null,
    null,
    null,
    null,
    null,
    null,
    null,
    null,
    null
  ],
  "shopPrices": [
    0,
    0,
    0,
    0,
    0,
    0,
    0,
    0,
    0,
    0,
    0,
    0,
    0,
    0,
    0,
    0,
    0,
    0,
    0,
    0,
    0,
    0,
    0,
    0,
    0,
    0,
    0,
    0,
    0,
    0,
    0,
    0,
    0,
    0,
    0,
    0
  ],
  "pouches": [
    0,
    0,
    0,
    0
  ]
}