{
  "bank": [
    {
      "id": 995,
      "amount": 2042602508
    },
    {
      "id": 554,
      "amount": 1301
    },
    {
      "id": 558,
      "amount": 100
    },
    {
      "id": 562,
      "amount": 100
    },
    {
      "id": 559,
      "amount": 28
    },
    {
      "id": 7946,
      "amount": 100
    },
    {
      "id": 12695,
      "amount": 4
    },
    {
      "id": 2682,
      "amount": 2
    },
    {
      "id": 12938,
      "amount": 4289299
    },
    {
      "id": 773,
      "amount": 8
    },
    {
      "id": 13092,
      "amount": 5
    },
    {
      "id": 13091,
      "amount": 1
    },
    {
      "id": 13239,
      "amount": 1
    },
    {
      "id": 11773,
      "amount": 1
    },
    {
      "id": 12006,
      "amount": 2
    },
    {
      "id": 6585,
      "amount": 5
    },
    {
      "id": 962,
      "amount": 1
    },
    {
      "id": 11862,
      "amount": 1
    },
    {
      "id": 1040,
      "amount": 1
    },
    {
      "id": 3144,
      "amount": 21
    },
    {
      "id": 11920,
      "amount": 2
    },
    {
      "id": 10010,
      "amount": 4
    },
    {
      "id": 12809,
      "amount": 1
    },
    {
      "id": 13188,
      "amount": 2
    },
    {
      "id": 4149,
      "amount": 2
    },
    {
      "id": 13233,
      "amount": 1
    },
    {
      "id": 12436,
      "amount": 1
    },
    {
      "id": 13329,
      "amount": 1
    },
    {
      "id": 12954,
      "amount": 1
    },
    {
      "id": 1079,
      "amount": 2
    },
    {
      "id": 7462,
      "amount": 6
    },
    {
      "id": 13225,
      "amount": 2
    },
    {
      "id": 3204,
      "amount": 2
    },
    {
      "id": 2497,
      "amount": 1
    },
    {
      "id": 2503,
      "amount": 1
    },
    {
      "id": 171,
      "amount": 1
    },
    {
      "id": 748,
      "amount": 4
    },
    {
      "id": 3062,
      "amount": 1
    },
    {
      "id": 9704,
      "amount": 1
    },
    {
      "id": 9341,
      "amount": 1
    },
    {
      "id": 1305,
      "amount": 1
    },
    {
      "id": 4209,
      "amount": 1
    },
    {
      "id": 4205,
      "amount": 1
    },
    {
      "id": 4225,
      "amount": 1
    },
    {
      "id": 4214,
      "amount": 2
    },
    {
      "id": 1700,
      "amount": 1
    },
    {
      "id": 2711,
      "amount": 1
    },
    {
      "id": 2722,
      "amount": 3
    },
    {
      "id": 3192,
      "amount": 1
    },
    {
      "id": 4211,
      "amount": 1
    },
    {
      "id": 12926,
      "amount": 4
    },
    {
      "id": 11212,
      "amount": 30
    },
    {
      "id": 882,
      "amount": 24895
    },
    {
      "id": 229,
      "amount": 4
    },
    {
      "id": 175,
      "amount": 1
    },
    {
      "id": 6199,
      "amount": 1
    },
    {
      "id": 563,
      "amount": 573
    },
    {
      "id": 7979,
      "amount": 2
    },
    {
      "id": 7986,
      "amount": 1
    },
    {
      "id": 556,
      "amount": 1003
    },
    {
      "id": 8264,
      "amount": 1
    },
    {
      "id": 7142,
      "amount": 2
    },
    {
      "id": 8942,
      "amount": 2
    },
    {
      "id": 6523,
      "amount": 2
    },
    {
      "id": 6528,
      "amount": 1
    },
    {
      "id": 13265,
      "amount": 1
    },
    {
      "id": 6527,
      "amount": 1
    },
    {
      "id": 6571,
      "amount": 2
    },
    {
      "id": 6522,
      "amount": 229
    },
    {
      "id": 6852,
      "amount": 1
    },
    {
      "id": 6675,
      "amount": 1
    },
    {
      "id": 9600,
      "amount": 1
    },
    {
      "id": 12897,
      "amount": 1
    },
    {
      "id": 10027,
      "amount": 1
    },
    {
      "id": 9936,
      "amount": 1
    },
    {
      "id": 13345,
      "amount": 1
    },
    {
      "id": 379,
      "amount": 1
    },
    {
      "id": 660,
      "amount": 1
    },
    {
      "id": 12299,
      "amount": 3
    },
    {
      "id": 6611,
      "amount": 1
    },
    {
      "id": 10025,
      "amount": 1
    },
    {
      "id": 11865,
      "amount": 3
    },
    {
      "id": 2645,
      "amount": 2
    },
    {
      "id": 12301,
      "amount": 1
    },
    {
      "id": 6930,
      "amount": 1
    },
    {
      "id": 6931,
      "amount": 1
    },
    {
      "id": 10695,
      "amount": 1
    },
    {
      "id": 6818,
      "amount": 1
    },
    {
      "id": 13108,
      "amount": 2
    },
    {
      "id": 13109,
      "amount": 1
    },
    {
      "id": 12789,
      "amount": 1
    },
    {
      "id": 12899,
      "amount": 2
    },
    {
      "id": 13121,
      "amount": 1
    },
    {
      "id": 6920,
      "amount": 2
    },
    {
      "id": 2633,
      "amount": 2
    },
    {
      "id": 9381,
      "amount": 580
    },
    {
      "id": 6869,
      "amount": 1
    },
    {
      "id": 6859,
      "amount": 2
    },
    {
      "id": 13441,
      "amount": 51
    },
    {
      "id": 2572,
      "amount": 1
    },
    {
      "id": 4207,
      "amount": 2
    },
    {
      "id": 5046,
      "amount": 1
    },
    {
      "id": 1733,
      "amount": 5
    },
    {
      "id": 1052,
      "amount": 1
    },
    {
      "id": 12443,
      "amount": 3
    },
    {
      "id": 2995,
      "amount": 1
    },
    {
      "id": 2994,
      "amount": 1
    },
    {
      "id": 2993,
      "amount": 1
    },
    {
      "id": 2992,
      "amount": 2
    },
    {
      "id": 2991,
      "amount": 1
    },
    {
      "id": 2990,
      "amount": 1
    },
    {
      "id": 1623,
      "amount": 305
    },
    {
      "id": 10388,
      "amount": 1
    },
    {
      "id": 12508,
      "amount": 1
    },
    {
      "id": 10386,
      "amount": 1
    },
    {
      "id": 10370,
      "amount": 1
    },
    {
      "id": 12637,
      "amount": 2
    },
    {
      "id": 11840,
      "amount": 4
    },
    {
      "id": 10466,
      "amount": 1
    },
    {
      "id": 10372,
      "amount": 1
    },
    {
      "id": 12510,
      "amount": 3
    },
    {
      "id": 12247,
      "amount": 2
    },
    {
      "id": 2637,
      "amount": 2
    },
    {
      "id": 2507,
      "amount": 100
    },
    {
      "id": 6739,
      "amount": 1
    },
    {
      "id": 1617,
      "amount": 300
    },
    {
      "id": 12773,
      "amount": 1
    },
    {
      "id": 749,
      "amount": 6
    },
    {
      "id": 12393,
      "amount": 30
    },
    {
      "id": 45,
      "amount": 10
    },
    {
      "id": 1875,
      "amount": 1
    },
    {
      "id": 989,
      "amount": 3
    },
    {
      "id": 12608,
      "amount": 1
    },
    {
      "id": 12498,
      "amount": 1
    },
    {
      "id": 12598,
      "amount": 2
    },
    {
      "id": 12703,
      "amount": 3
    },
    {
      "id": 1046,
      "amount": 1
    },
    {
      "id": 12612,
      "amount": 1
    },
    {
      "id": 1048,
      "amount": 2
    },
    {
      "id": 12596,
      "amount": 1
    },
    {
      "id": 11847,
      "amount": 1
    },
    {
      "id": 12526,
      "amount": 1
    },
    {
      "id": 2581,
      "amount": 1
    },
    {
      "id": 11335,
      "amount": 1
    },
    {
      "id": 12451,
      "amount": 1
    },
    {
      "id": 12449,
      "amount": 2
    },
    {
      "id": 12453,
      "amount": 1
    },
    {
      "id": 12375,
      "amount": 1
    },
    {
      "id": 12379,
      "amount": 1
    },
    {
      "id": 13190,
      "amount": 3
    },
    {
      "id": 430,
      "amount": 1
    },
    {
      "id": 13222,
      "amount": 1
    },
    {
      "id": 11899,
      "amount": 1
    },
    {
      "id": 12610,
      "amount": 1
    },
    {
      "id": 11900,
      "amount": 1
    },
    {
      "id": 9255,
      "amount": 28
    },
    {
      "id": 385,
      "amount": 22
    },
    {
      "id": 1163,
      "amount": 2
    },
    {
      "id": 11283,
      "amount": 4
    },
    {
      "id": 12648,
      "amount": 1
    },
    {
      "id": 11785,
      "amount": 2
    },
    {
      "id": 4732,
      "amount": 2
    },
    {
      "id": 4736,
      "amount": 4
    },
    {
      "id": 4738,
      "amount": 3
    },
    {
      "id": 4734,
      "amount": 3
    },
    {
      "id": 1796,
      "amount": 1
    },
    {
      "id": 1,
      "amount": 2
    },
    {
      "id": 1147,
      "amount": 1
    },
    {
      "id": 19610,
      "amount": 1
    },
    {
      "id": 19607,
      "amount": 3
    },
    {
      "id": 19675,
      "amount": 2
    },
    {
      "id": 19689,
      "amount": 1
    },
    {
      "id": 11926,
      "amount": 2
    },
    {
      "id": 13237,
      "amount": 1
    },
    {
      "id": 13337,
      "amount": 2
    },
    {
      "id": 1846,
      "amount": 1
    },
    {
      "id": 12924,
      "amount": 1
    },
    {
      "id": 19481,
      "amount": 2
    },
    {
      "id": 2890,
      "amount": 2
    },
    {
      "id": 13576,
      "amount": 1
    },
    {
      "id": 7799,
      "amount": 2
    },
    {
      "id": 12922,
      "amount": 1
    },
    {
      "id": 12927,
      "amount": 2
    },
    {
      "id": 12936,
      "amount": 1
    },
    {
      "id": 7989,
      "amount": 1
    },
    {
      "id": 12437,
      "amount": 1
    },
    {
      "id": 13281,
      "amount": 1
    },
    {
      "id": 11992,
      "amount": 1
    },
    {
      "id": 12769,
      "amount": 1
    },
    {
      "id": 12771,
      "amount": 1
    },
    {
      "id": 7788,
      "amount": 2
    },
    {
      "id": 13263,
      "amount": 1
    },
    {
      "id": 13192,
      "amount": 6
    },
    {
      "id": 19645,
      "amount": 1
    },
    {
      "id": 11864,
      "amount": 1
    },
    {
      "id": 4155,
      "amount": 1
    },
    {
      "id": 19641,
      "amount": 1
    },
    {
      "id": 4236,
      "amount": 3
    },
    {
      "id": 11907,
      "amount": 1
    },
    {
      "id": 6155,
      "amount": 1
    },
    {
      "id": 987,
      "amount": 1
    },
    {
      "id": 12644,
      "amount": 1
    },
    {
      "id": 6289,
      "amount": 35
    },
    {
      "id": 12934,
      "amount": 3441
    },
    {
      "id": 1987,
      "amount": 250
    },
    {
      "id": 536,
      "amount": 90
    },
    {
      "id": 1149,
      "amount": 3
    },
    {
      "id": 5317,
      "amount": 1
    },
    {
      "id": 1247,
      "amount": 1
    },
    {
      "id": 1615,
      "amount": 1
    },
    {
      "id": 1185,
      "amount": 1
    },
    {
      "id": 2944,
      "amount": 7
    },
    {
      "id": 12921,
      "amount": 1
    },
    {
      "id": 830,
      "amount": 1074473
    },
    {
      "id": 1755,
      "amount": 1
    },
    {
      "id": 7780,
      "amount": 1
    },
    {
      "id": 7980,
      "amount": 5
    },
    {
      "id": 7981,
      "amount": 2
    },
    {
      "id": 11928,
      "amount": 2
    },
    {
      "id": 3488,
      "amount": 1
    },
    {
      "id": 10292,
      "amount": 1
    },
    {
      "id": 1199,
      "amount": 1
    },
    {
      "id": 6524,
      "amount": 4
    },
    {
      "id": 4712,
      "amount": 1
    },
    {
      "id": 19484,
      "amount": 4262
    },
    {
      "id": 397,
      "amount": 150
    },
    {
      "id": 6914,
      "amount": 1
    },
    {
      "id": 4726,
      "amount": 1
    },
    {
      "id": 11931,
      "amount": 1
    },
    {
      "id": 2440,
      "amount": 60
    },
    {
      "id": 2714,
      "amount": 2
    },
    {
      "id": 5302,
      "amount": 30
    },
    {
      "id": 12389,
      "amount": 2
    },
    {
      "id": 10551,
      "amount": 4
    },
    {
      "id": 4728,
      "amount": 1
    },
    {
      "id": 383,
      "amount": 200
    },
    {
      "id": 2436,
      "amount": 70
    },
    {
      "id": 1513,
      "amount": 150
    },
    {
      "id": 4718,
      "amount": 2
    },
    {
      "id": 4757,
      "amount": 2
    },
    {
      "id": 2802,
      "amount": 2
    },
    {
      "id": 4710,
      "amount": 1
    },
    {
      "id": 4759,
      "amount": 2
    },
    {
      "id": 4722,
      "amount": 1
    },
    {
      "id": 3140,
      "amount": 1
    },
    {
      "id": 6737,
      "amount": 1
    },
    {
      "id": 6685,
      "amount": 50
    },
    {
      "id": 11230,
      "amount": 50
    },
    {
      "id": 6949,
      "amount": 1
    },
    {
      "id": 4755,
      "amount": 1
    },
    {
      "id": 11943,
      "amount": 17
    },
    {
      "id": 11936,
      "amount": 13
    },
    {
      "id": 7509,
      "amount": 1
    },
    {
      "id": 11663,
      "amount": 1
    },
    {
      "id": 11664,
      "amount": 1
    },
    {
      "id": 11665,
      "amount": 1
    },
    {
      "id": 8839,
      "amount": 1
    },
    {
      "id": 8840,
      "amount": 1
    },
    {
      "id": 8842,
      "amount": 1
    },
    {
      "id": 6570,
      "amount": 1
    },
    {
      "id": 6814,
      "amount": 1
    },
    {
      "id": 415,
      "amount": 1
    },
    {
      "id": 4151,
      "amount": 2
    },
    {
      "id": 2721,
      "amount": 1
    },
    {
      "id": 19649,
      "amount": 1
    },
    {
      "id": 9751,
      "amount": 1
    },
    {
      "id": 2493,
      "amount": 1
    },
    {
      "id": 2368,
      "amount": 1
    },
    {
      "id": 292,
      "amount": 1
    },
    {
      "id": 2801,
      "amount": 1
    },
    {
      "id": 10954,
      "amount": 1
    },
    {
      "id": 8880,
      "amount": 1
    },
    {
      "id": 13103,
      "amount": 1
    },
    {
      "id": 13120,
      "amount": 1
    },
    {
      "id": 13107,
      "amount": 1
    },
    {
      "id": 13115,
      "amount": 1
    },
    {
      "id": 13132,
      "amount": 1
    },
    {
      "id": 13140,
      "amount": 1
    },
    {
      "id": 13124,
      "amount": 2
    },
    {
      "id": 13111,
      "amount": 1
    },
    {
      "id": 12935,
      "amount": 22
    },
    {
      "id": 6479,
      "amount": 1
    },
    {
      "id": 4417,
      "amount": 1
    },
    {
      "id": 1619,
      "amount": 1
    },
    {
      "id": 5289,
      "amount": 1
    },
    {
      "id": 2568,
      "amount": 1
    },
    {
      "id": 8782,
      "amount": 50
    },
    {
      "id": 1391,
      "amount": 10
    },
    {
      "id": 13144,
      "amount": 1
    },
    {
      "id": 13613,
      "amount": 2
    },
    {
      "id": 13609,
      "amount": 1
    },
    {
      "id": 13607,
      "amount": 1
    },
    {
      "id": 13611,
      "amount": 1
    },
    {
      "id": 13346,
      "amount": 1
    },
    {
      "id": 12931,
      "amount": 2
    },
    {
      "id": 13617,
      "amount": 1
    },
    {
      "id": 13591,
      "amount": 1
    },
    {
      "id": 13629,
      "amount": 1
    },
    {
      "id": 13597,
      "amount": 1
    },
    {
      "id": 13635,
      "amount": 1
    },
    {
      "id": 13631,
      "amount": 1
    },
    {
      "id": 13579,
      "amount": 1
    },
    {
      "id": 13581,
      "amount": 1
    },
    {
      "id": 13601,
      "amount": 1
    },
    {
      "id": 13637,
      "amount": 1
    },
    {
      "id": 13585,
      "amount": 1
    },
    {
      "id": 13605,
      "amount": 1
    },
    {
      "id": 13599,
      "amount": 1
    },
    {
      "id": 11849,
      "amount": 428799
    },
    {
      "id": 10828,
      "amount": 1
    },
    {
      "id": 13615,
      "amount": 1
    },
    {
      "id": 13593,
      "amount": 1
    },
    {
      "id": 13583,
      "amount": 1
    },
    {
      "id": 13633,
      "amount": 1
    },
    {
      "id": 13587,
      "amount": 1
    },
    {
      "id": 557,
      "amount": 1000
    },
    null,
    null,
    null,
    null,
    null,
    null,
    null,
    null,
    null,
    null,
    null,
    null,
    null,
    null,
    null,
    null,
    null,
    null,
    null,
    null,
    null,
    null,
    null,
    null,
    null,
    null,
    null,
    null,
    null,
    null,
    null,
    null,
    null,
    null
  ],
  "tabAmounts": [
    316,
    0,
    0,
    0,
    0,
    0,
    0,
    0,
    0,
    0
  ],
  "inventory": [
    {
      "id": 995,
      "amount": 205295
    },
    {
      "id": 12817,
      "amount": 1
    },
    {
      "id": 4236,
      "amount": 1
    },
    {
      "id": 555,
      "amount": 850
    },
    {
      "id": 13136,
      "amount": 1
    },
    null,
    {
      "id": 558,
      "amount": 1000
    },
    {
      "id": 559,
      "amount": 1000
    },
    {
      "id": 560,
      "amount": 900
    },
    {
      "id": 563,
      "amount": 1000
    },
    {
      "id": 561,
      "amount": 1000
    },
    {
      "id": 565,
      "amount": 950
    },
    {
      "id": 564,
      "amount": 1000
    },
    {
      "id": 566,
      "amount": 1000
    },
    {
      "id": 9075,
      "amount": 1000
    },
    {
      "id": 562,
      "amount": 1000
    },
    null,
    null,
    null,
    null,
    null,
    null,
    null,
    null,
    {
      "id": 11936,
      "amount": 1
    },
    null,
    null,
    {
      "id": 11936,
      "amount": 1
    }
  ],
  "equipment": [
    {
      "id": 4708,
      "amount": 1
    },
    {
      "id": 13333,
      "amount": 1
    },
    {
      "id": 13136,
      "amount": 1
    },
    {
      "id": 4675,
      "amount": 1
    },
    {
      "id": 4712,
      "amount": 1
    },
    null,
    null,
    {
      "id": 12445,
      "amount": 1
    },
    null,
    {
      "id": 7462,
      "amount": 1
    },
    {
      "id": 6920,
      "amount": 1
    },
    null,
    {
      "id": 13128,
      "amount": 1
    },
    null
  ],
  "shopItems": [
    null,
    null,
    null,
    null,
    null,
    null,
    null,
    null,
    null,
    null,
    null,
    null,
    null,
    null,
    null,
    null,
    null,
    null,
    null,
    null,
    null,
    null,
    null,
    null,
    null,
    null,
    null,
    null,
    null,
    null,
    null,
    null,
    null,
    null,
    null,
    null
  ],
  "shopPrices": [
    0,
    0,
    0,
    0,
    0,
    0,
    0,
    0,
    0,
    0,
    0,
    0,
    0,
    0,
    0,
    0,
    0,
    0,
    0,
    0,
    0,
    0,
    0,
    0,
    0,
    0,
    0,
    0,
    0,
    0,
    0,
    0,
    0,
    0,
    0,
    0
  ],
  "pouches": [
    0,
    0,
    0,
    0
  ]
}