{
  "bank": [
    {
      "id": 995,
      "amount": 23967048
    },
    {
      "id": 12934,
      "amount": 4625
    },
    {
      "id": 6529,
      "amount": 2877
    },
    {
      "id": 2434,
      "amount": 67
    },
    {
      "id": 397,
      "amount": 732
    },
    {
      "id": 385,
      "amount": 273
    },
    {
      "id": 557,
      "amount": 112
    },
    {
      "id": 560,
      "amount": 5072
    },
    {
      "id": 11849,
      "amount": 36
    },
    {
      "id": 12938,
      "amount": 8
    },
    {
      "id": 2444,
      "amount": 64
    },
    {
      "id": 2446,
      "amount": 83
    },
    {
      "id": 2363,
      "amount": 24
    },
    {
      "id": 1846,
      "amount": 2
    },
    {
      "id": 1845,
      "amount": 2
    },
    {
      "id": 3144,
      "amount": 7
    },
    {
      "id": 2550,
      "amount": 8
    },
    {
      "id": 1844,
      "amount": 2
    },
    {
      "id": 10324,
      "amount": 2
    },
    {
      "id": 9185,
      "amount": 2
    },
    {
      "id": 9144,
      "amount": 23
    },
    {
      "id": 1540,
      "amount": 2
    },
    {
      "id": 7936,
      "amount": 842
    },
    {
      "id": 952,
      "amount": 2
    },
    {
      "id": 1095,
      "amount": 1
    },
    {
      "id": 561,
      "amount": 12
    },
    {
      "id": 3843,
      "amount": 4
    },
    {
      "id": 7460,
      "amount": 5
    },
    {
      "id": 7458,
      "amount": 3
    },
    {
      "id": 5520,
      "amount": 1
    },
    {
      "id": 1129,
      "amount": 2
    },
    {
      "id": 1448,
      "amount": 1
    },
    {
      "id": 3105,
      "amount": 5
    },
    {
      "id": 229,
      "amount": 43
    },
    {
      "id": 1631,
      "amount": 2
    },
    {
      "id": 440,
      "amount": 1
    },
    {
      "id": 12701,
      "amount": 2
    },
    {
      "id": 6328,
      "amount": 2
    },
    {
      "id": 3838,
      "amount": 1
    },
    {
      "id": 10499,
      "amount": 4
    },
    {
      "id": 1,
      "amount": 1
    },
    {
      "id": 11230,
      "amount": 239
    },
    {
      "id": 255,
      "amount": 1
    },
    {
      "id": 3839,
      "amount": 2
    },
    {
      "id": 12610,
      "amount": 1
    },
    {
      "id": 430,
      "amount": 4
    },
    {
      "id": 12275,
      "amount": 1
    },
    {
      "id": 8780,
      "amount": 1
    },
    {
      "id": 7399,
      "amount": 3
    },
    {
      "id": 2890,
      "amount": 2
    },
    {
      "id": 2493,
      "amount": 1
    },
    {
      "id": 562,
      "amount": 1024
    },
    {
      "id": 1513,
      "amount": 821
    },
    {
      "id": 12699,
      "amount": 1
    },
    {
      "id": 1731,
      "amount": 2
    },
    {
      "id": 1623,
      "amount": 3
    },
    {
      "id": 453,
      "amount": 195
    },
    {
      "id": 1249,
      "amount": 4
    },
    {
      "id": 3755,
      "amount": 2
    },
    {
      "id": 1702,
      "amount": 1
    },
    {
      "id": 554,
      "amount": 685
    },
    {
      "id": 558,
      "amount": 94
    },
    {
      "id": 1135,
      "amount": 4
    },
    {
      "id": 249,
      "amount": 1
    },
    {
      "id": 12445,
      "amount": 2
    },
    {
      "id": 12375,
      "amount": 1
    },
    {
      "id": 175,
      "amount": 1
    },
    {
      "id": 179,
      "amount": 1
    },
    {
      "id": 3030,
      "amount": 1
    },
    {
      "id": 12345,
      "amount": 1
    },
    {
      "id": 10418,
      "amount": 1
    },
    {
      "id": 139,
      "amount": 10
    },
    {
      "id": 1061,
      "amount": 1
    },
    {
      "id": 2497,
      "amount": 1
    },
    {
      "id": 2361,
      "amount": 7
    },
    {
      "id": 2671,
      "amount": 1
    },
    {
      "id": 3841,
      "amount": 2
    },
    {
      "id": 1381,
      "amount": 1
    },
    {
      "id": 4587,
      "amount": 2
    },
    {
      "id": 9748,
      "amount": 1
    },
    {
      "id": 565,
      "amount": 717
    },
    {
      "id": 1615,
      "amount": 2
    },
    {
      "id": 6920,
      "amount": 1
    },
    {
      "id": 1963,
      "amount": 1
    },
    {
      "id": 946,
      "amount": 5
    },
    {
      "id": 141,
      "amount": 6
    },
    {
      "id": 52,
      "amount": 135
    },
    {
      "id": 1357,
      "amount": 1
    },
    {
      "id": 12339,
      "amount": 1
    },
    {
      "id": 12524,
      "amount": 1
    },
    {
      "id": 259,
      "amount": 1
    },
    {
      "id": 556,
      "amount": 28
    },
    {
      "id": 563,
      "amount": 1628
    },
    {
      "id": 143,
      "amount": 13
    },
    {
      "id": 383,
      "amount": 100
    },
    {
      "id": 9193,
      "amount": 55
    },
    {
      "id": 1779,
      "amount": 1493
    },
    {
      "id": 173,
      "amount": 7
    },
    {
      "id": 555,
      "amount": 70
    },
    {
      "id": 566,
      "amount": 823
    },
    {
      "id": 9075,
      "amount": 10
    },
    {
      "id": 171,
      "amount": 4
    },
    {
      "id": 6522,
      "amount": 610
    },
    {
      "id": 66,
      "amount": 310
    },
    {
      "id": 11936,
      "amount": 450
    },
    {
      "id": 451,
      "amount": 15
    },
    {
      "id": 3024,
      "amount": 76
    },
    {
      "id": 592,
      "amount": 2
    },
    {
      "id": 1704,
      "amount": 1
    },
    {
      "id": 1712,
      "amount": 4
    },
    {
      "id": 4718,
      "amount": 1
    },
    {
      "id": 884,
      "amount": 227
    },
    {
      "id": 5302,
      "amount": 10
    },
    {
      "id": 12612,
      "amount": 2
    },
    {
      "id": 1708,
      "amount": 1
    },
    {
      "id": 3138,
      "amount": 100
    },
    {
      "id": 1783,
      "amount": 100
    },
    {
      "id": 245,
      "amount": 120
    },
    {
      "id": 888,
      "amount": 500
    },
    {
      "id": 2481,
      "amount": 1
    },
    {
      "id": 6924,
      "amount": 1
    },
    {
      "id": 10454,
      "amount": 1
    },
    {
      "id": 857,
      "amount": 1
    },
    {
      "id": 10952,
      "amount": 3
    },
    {
      "id": 1643,
      "amount": 1
    },
    {
      "id": 987,
      "amount": 6
    },
    {
      "id": 10547,
      "amount": 3
    },
    {
      "id": 10552,
      "amount": 2
    },
    {
      "id": 4214,
      "amount": 1
    },
    {
      "id": 10549,
      "amount": 3
    },
    {
      "id": 10561,
      "amount": 2
    },
    {
      "id": 10534,
      "amount": 1
    },
    {
      "id": 12449,
      "amount": 1
    },
    {
      "id": 19484,
      "amount": 1
    },
    {
      "id": 12746,
      "amount": 28
    },
    {
      "id": 6914,
      "amount": 1
    },
    {
      "id": 2722,
      "amount": 1
    },
    {
      "id": 12317,
      "amount": 1
    },
    {
      "id": 4720,
      "amount": 1
    },
    {
      "id": 2663,
      "amount": 1
    },
    {
      "id": 2659,
      "amount": 1
    },
    {
      "id": 9674,
      "amount": 1
    },
    {
      "id": 9676,
      "amount": 1
    },
    {
      "id": 6570,
      "amount": 1
    },
    {
      "id": 11840,
      "amount": 1
    },
    {
      "id": 12608,
      "amount": 1
    },
    {
      "id": 6685,
      "amount": 1
    },
    {
      "id": 12697,
      "amount": 1
    },
    {
      "id": 10828,
      "amount": 1
    },
    {
      "id": 10550,
      "amount": 1
    },
    {
      "id": 10555,
      "amount": 1
    },
    {
      "id": 10553,
      "amount": 2
    },
    {
      "id": 1440,
      "amount": 1
    },
    {
      "id": 4012,
      "amount": 3
    },
    {
      "id": 7980,
      "amount": 1
    },
    {
      "id": 12453,
      "amount": 1
    },
    {
      "id": 6034,
      "amount": 100
    },
    {
      "id": 442,
      "amount": 213
    },
    {
      "id": 2680,
      "amount": 2
    },
    {
      "id": 1607,
      "amount": 1
    },
    {
      "id": 11260,
      "amount": 20
    },
    {
      "id": 10010,
      "amount": 1
    },
    {
      "id": 559,
      "amount": 28
    },
    {
      "id": 5295,
      "amount": 1
    },
    {
      "id": 5287,
      "amount": 1
    },
    {
      "id": 892,
      "amount": 468
    },
    {
      "id": 11959,
      "amount": 250
    },
    {
      "id": 10034,
      "amount": 84
    },
    {
      "id": 861,
      "amount": 1
    },
    {
      "id": 1755,
      "amount": 1
    },
    {
      "id": 1215,
      "amount": 2
    },
    {
      "id": 3049,
      "amount": 15
    },
    {
      "id": 1619,
      "amount": 57
    },
    {
      "id": 989,
      "amount": 3
    },
    {
      "id": 1391,
      "amount": 16
    },
    {
      "id": 9245,
      "amount": 62
    },
    {
      "id": 169,
      "amount": 2
    },
    {
      "id": 3028,
      "amount": 1
    },
    {
      "id": 1347,
      "amount": 1
    },
    {
      "id": 2347,
      "amount": 5
    },
    {
      "id": 863,
      "amount": 405
    },
    {
      "id": 6794,
      "amount": 9
    },
    {
      "id": 2007,
      "amount": 2
    },
    {
      "id": 1275,
      "amount": 1
    },
    {
      "id": 864,
      "amount": 195
    },
    {
      "id": 1359,
      "amount": 1
    },
    {
      "id": 12748,
      "amount": 1
    },
    {
      "id": 2,
      "amount": 250
    },
    {
      "id": 1201,
      "amount": 1
    },
    {
      "id": 1617,
      "amount": 10
    },
    {
      "id": 6693,
      "amount": 75
    },
    {
      "id": 225,
      "amount": 100
    },
    {
      "id": 1749,
      "amount": 75
    },
    {
      "id": 830,
      "amount": 2011
    },
    {
      "id": 2440,
      "amount": 20
    },
    {
      "id": 8842,
      "amount": 1
    },
    {
      "id": 13072,
      "amount": 1
    },
    {
      "id": 13073,
      "amount": 1
    },
    {
      "id": 11664,
      "amount": 1
    },
    {
      "id": 1149,
      "amount": 1
    },
    {
      "id": 12771,
      "amount": 2
    },
    {
      "id": 12769,
      "amount": 1
    },
    {
      "id": 7979,
      "amount": 3
    },
    {
      "id": 4745,
      "amount": 1
    },
    {
      "id": 4133,
      "amount": 1
    },
    {
      "id": 13245,
      "amount": 1
    },
    {
      "id": 7158,
      "amount": 2
    },
    {
      "id": 12932,
      "amount": 1
    },
    {
      "id": 13275,
      "amount": 1
    },
    {
      "id": 13276,
      "amount": 1
    },
    null,
    null,
    null,
    null,
    null,
    null,
    null,
    null,
    null,
    null,
    null,
    null,
    null,
    null,
    null,
    null,
    null,
    null,
    null,
    null,
    null,
    null,
    null,
    null,
    null,
    null,
    null,
    null,
    null,
    null,
    null,
    null,
    null,
    null,
    null,
    null,
    null,
    null,
    null,
    null,
    null,
    null,
    null,
    null,
    null,
    null,
    null,
    null,
    null,
    null,
    null,
    null,
    null,
    null,
    null,
    null,
    null,
    null,
    null,
    null,
    null,
    null,
    null,
    null,
    null,
    null,
    null,
    null,
    null,
    null,
    null,
    null,
    null,
    null,
    null,
    null,
    null,
    null,
    null,
    null,
    null,
    null,
    null,
    null,
    null,
    null,
    null,
    null,
    null,
    null,
    null,
    null,
    null,
    null,
    null,
    null,
    null,
    null,
    null,
    null,
    null,
    null,
    null,
    null,
    null,
    null,
    null,
    null,
    null,
    null,
    null,
    null,
    null,
    null,
    null,
    null,
    null,
    null,
    null,
    null,
    null,
    null,
    null,
    null,
    null,
    null,
    null,
    null,
    null,
    null,
    null,
    null,
    null,
    null,
    null,
    null,
    null,
    null,
    null,
    null
  ],
  "tabAmounts": [
    200,
    5,
    5,
    0,
    0,
    0,
    0,
    0,
    0,
    0
  ],
  "inventory": [
    {
      "id": 19481,
      "amount": 1
    },
    {
      "id": 171,
      "amount": 1
    },
    {
      "id": 2444,
      "amount": 1
    },
    {
      "id": 175,
      "amount": 1
    },
    {
      "id": 385,
      "amount": 1
    },
    {
      "id": 385,
      "amount": 1
    },
    {
      "id": 385,
      "amount": 1
    },
    null,
    {
      "id": 385,
      "amount": 1
    },
    {
      "id": 385,
      "amount": 1
    },
    {
      "id": 385,
      "amount": 1
    },
    {
      "id": 385,
      "amount": 1
    },
    {
      "id": 385,
      "amount": 1
    },
    {
      "id": 385,
      "amount": 1
    },
    null,
    null,
    null,
    null,
    null,
    null,
    null,
    null,
    {
      "id": 397,
      "amount": 1
    },
    {
      "id": 397,
      "amount": 1
    },
    {
      "id": 397,
      "amount": 1
    },
    {
      "id": 397,
      "amount": 1
    },
    {
      "id": 397,
      "amount": 1
    },
    {
      "id": 397,
      "amount": 1
    }
  ],
  "equipment": [
    {
      "id": 10828,
      "amount": 1
    },
    {
      "id": 10499,
      "amount": 1
    },
    {
      "id": 6585,
      "amount": 1
    },
    {
      "id": 12926,
      "amount": 1
    },
    {
      "id": 2503,
      "amount": 1
    },
    null,
    null,
    {
      "id": 2497,
      "amount": 1
    },
    null,
    {
      "id": 13103,
      "amount": 1
    },
    {
      "id": 6328,
      "amount": 1
    },
    null,
    {
      "id": 2572,
      "amount": 1
    },
    {
      "id": 830,
      "amount": 497
    }
  ],
  "shopItems": [
    null,
    null,
    null,
    null,
    null,
    null,
    null,
    null,
    null,
    null,
    null,
    null,
    null,
    null,
    null,
    null,
    null,
    null,
    null,
    null,
    null,
    null,
    null,
    null,
    null,
    null,
    null,
    null,
    null,
    null,
    null,
    null,
    null,
    null,
    null,
    null
  ],
  "shopPrices": [
    0,
    0,
    0,
    0,
    0,
    0,
    0,
    0,
    0,
    0,
    0,
    0,
    0,
    0,
    0,
    0,
    0,
    0,
    0,
    0,
    0,
    0,
    0,
    0,
    0,
    0,
    0,
    0,
    0,
    0,
    0,
    0,
    0,
    0,
    0,
    0
  ],
  "pouches": [
    0,
    0,
    0,
    0
  ]
}