{
  "bank": [
    {
      "id": 884,
      "amount": 250
    },
    {
      "id": 892,
      "amount": 100
    },
    {
      "id": 554,
      "amount": 300
    },
    {
      "id": 558,
      "amount": 100
    },
    {
      "id": 562,
      "amount": 100
    },
    {
      "id": 5302,
      "amount": 10
    },
    {
      "id": 952,
      "amount": 4
    },
    {
      "id": 10828,
      "amount": 1
    },
    {
      "id": 861,
      "amount": 1
    },
    {
      "id": 4722,
      "amount": 1
    },
    {
      "id": 6685,
      "amount": 10
    },
    {
      "id": 2436,
      "amount": 10
    },
    {
      "id": 12695,
      "amount": 5
    },
    {
      "id": 4712,
      "amount": 1
    },
    {
      "id": 1079,
      "amount": 1
    },
    {
      "id": 12612,
      "amount": 2
    },
    {
      "id": 4757,
      "amount": 1
    },
    {
      "id": 1,
      "amount": 1
    },
    {
      "id": 10551,
      "amount": 1
    },
    {
      "id": 16,
      "amount": 1
    },
    {
      "id": 430,
      "amount": 2
    },
    {
      "id": 1359,
      "amount": 2
    },
    {
      "id": 1267,
      "amount": 1
    },
    {
      "id": 1275,
      "amount": 2
    },
    {
      "id": 13439,
      "amount": 350
    },
    {
      "id": 11934,
      "amount": 391
    },
    {
      "id": 395,
      "amount": 391
    },
    {
      "id": 383,
      "amount": 718
    },
    {
      "id": 11849,
      "amount": 31
    },
    {
      "id": 5331,
      "amount": 2
    },
    {
      "id": 5343,
      "amount": 2
    },
    {
      "id": 5341,
      "amount": 2
    },
    {
      "id": 3140,
      "amount": 1
    },
    {
      "id": 1349,
      "amount": 1
    },
    {
      "id": 1333,
      "amount": 1
    },
    {
      "id": 1755,
      "amount": 2
    },
    {
      "id": 2347,
      "amount": 2
    },
    {
      "id": 946,
      "amount": 2
    },
    {
      "id": 1540,
      "amount": 2
    },
    {
      "id": 227,
      "amount": 500
    },
    {
      "id": 4155,
      "amount": 1
    },
    {
      "id": 444,
      "amount": 67
    },
    {
      "id": 453,
      "amount": 8
    },
    {
      "id": 4708,
      "amount": 1
    },
    {
      "id": 10896,
      "amount": 1
    },
    {
      "id": 1710,
      "amount": 1
    },
    {
      "id": 1381,
      "amount": 1
    },
    {
      "id": 11897,
      "amount": 1
    },
    {
      "id": 11896,
      "amount": 1
    },
    {
      "id": 1609,
      "amount": 32
    },
    {
      "id": 2357,
      "amount": 104
    },
    {
      "id": 590,
      "amount": 2
    },
    {
      "id": 995,
      "amount": 6260177
    },
    {
      "id": 841,
      "amount": 1
    },
    {
      "id": 1321,
      "amount": 1
    },
    {
      "id": 11860,
      "amount": 1
    },
    {
      "id": 5325,
      "amount": 2
    },
    {
      "id": 233,
      "amount": 2
    },
    {
      "id": 985,
      "amount": 1
    },
    {
      "id": 2679,
      "amount": 1
    },
    {
      "id": 2366,
      "amount": 1
    },
    {
      "id": 11852,
      "amount": 1
    },
    {
      "id": 11854,
      "amount": 1
    },
    {
      "id": 11856,
      "amount": 1
    },
    {
      "id": 11850,
      "amount": 1
    },
    {
      "id": 3101,
      "amount": 1
    },
    {
      "id": 3387,
      "amount": 1
    },
    {
      "id": 1163,
      "amount": 1
    },
    {
      "id": 12610,
      "amount": 2
    },
    {
      "id": 6328,
      "amount": 1
    },
    {
      "id": 3391,
      "amount": 1
    },
    {
      "id": 1702,
      "amount": 1
    },
    null,
    null,
    null,
    null,
    null,
    null,
    null,
    null,
    null,
    null,
    null,
    null,
    null,
    null,
    null,
    null,
    null,
    null,
    null,
    null,
    null,
    null,
    null,
    null,
    null,
    null,
    null,
    null,
    null,
    null,
    null,
    null,
    null,
    null,
    null,
    null,
    null,
    null,
    null,
    null,
    null,
    null,
    null,
    null,
    null,
    null,
    null,
    null,
    null,
    null,
    null,
    null,
    null,
    null,
    null,
    null,
    null,
    null,
    null,
    null,
    null,
    null,
    null,
    null,
    null,
    null,
    null,
    null,
    null,
    null,
    null,
    null,
    null,
    null,
    null,
    null,
    null,
    null,
    null,
    null,
    null,
    null,
    null,
    null,
    null,
    null,
    null,
    null,
    null,
    null,
    null,
    null,
    null,
    null,
    null,
    null,
    null,
    null,
    null,
    null,
    null,
    null,
    null,
    null,
    null,
    null,
    null,
    null,
    null,
    null,
    null,
    null,
    null,
    null,
    null,
    null,
    null,
    null,
    null,
    null,
    null,
    null,
    null,
    null,
    null,
    null,
    null,
    null,
    null,
    null,
    null,
    null,
    null,
    null,
    null,
    null,
    null,
    null,
    null,
    null,
    null,
    null,
    null,
    null,
    null,
    null,
    null,
    null,
    null,
    null,
    null,
    null,
    null,
    null,
    null,
    null,
    null,
    null,
    null,
    null,
    null,
    null,
    null,
    null,
    null,
    null,
    null,
    null,
    null,
    null,
    null,
    null,
    null,
    null,
    null,
    null,
    null,
    null,
    null,
    null,
    null,
    null,
    null,
    null,
    null,
    null,
    null,
    null,
    null,
    null,
    null,
    null,
    null,
    null,
    null,
    null,
    null,
    null,
    null,
    null,
    null,
    null,
    null,
    null,
    null,
    null,
    null,
    null,
    null,
    null,
    null,
    null,
    null,
    null,
    null,
    null,
    null,
    null,
    null,
    null,
    null,
    null,
    null,
    null,
    null,
    null,
    null,
    null,
    null,
    null,
    null,
    null,
    null,
    null,
    null,
    null,
    null,
    null,
    null,
    null,
    null,
    null,
    null,
    null,
    null,
    null,
    null,
    null,
    null,
    null,
    null,
    null,
    null,
    null,
    null,
    null,
    null,
    null,
    null,
    null,
    null,
    null,
    null,
    null,
    null,
    null,
    null,
    null,
    null,
    null,
    null,
    null,
    null,
    null,
    null,
    null,
    null,
    null
  ],
  "tabAmounts": [
    72,
    0,
    0,
    0,
    0,
    0,
    0,
    0,
    0,
    0
  ],
  "inventory": [
    {
      "id": 4726,
      "amount": 1
    },
    {
      "id": 989,
      "amount": 1
    },
    {
      "id": 989,
      "amount": 1
    },
    {
      "id": 989,
      "amount": 1
    },
    {
      "id": 989,
      "amount": 1
    },
    null,
    null,
    null,
    null,
    null,
    null,
    null,
    null,
    null,
    null,
    null,
    null,
    null,
    null,
    null,
    null,
    null,
    null,
    null,
    null,
    null,
    null,
    null
  ],
  "equipment": [
    {
      "id": 4724,
      "amount": 1
    },
    {
      "id": 10499,
      "amount": 1
    },
    {
      "id": 6585,
      "amount": 1
    },
    {
      "id": 4587,
      "amount": 1
    },
    {
      "id": 4728,
      "amount": 1
    },
    {
      "id": 12829,
      "amount": 1
    },
    null,
    {
      "id": 4730,
      "amount": 1
    },
    null,
    {
      "id": 11858,
      "amount": 1
    },
    {
      "id": 4131,
      "amount": 1
    },
    null,
    null,
    null
  ],
  "shopItems": [
    null,
    null,
    null,
    null,
    null,
    null,
    null,
    null,
    null,
    null,
    null,
    null,
    null,
    null,
    null,
    null,
    null,
    null,
    null,
    null,
    null,
    null,
    null,
    null,
    null,
    null,
    null,
    null,
    null,
    null,
    null,
    null,
    null,
    null,
    null,
    null
  ],
  "shopPrices": [
    0,
    0,
    0,
    0,
    0,
    0,
    0,
    0,
    0,
    0,
    0,
    0,
    0,
    0,
    0,
    0,
    0,
    0,
    0,
    0,
    0,
    0,
    0,
    0,
    0,
    0,
    0,
    0,
    0,
    0,
    0,
    0,
    0,
    0,
    0,
    0
  ],
  "pouches": [
    0,
    0,
    0,
    0
  ]
}