{
  "bank": [
    {
      "id": 995,
      "amount": 25034043
    },
    {
      "id": 12934,
      "amount": 799
    },
    {
      "id": 10952,
      "amount": 6
    },
    {
      "id": 292,
      "amount": 1
    },
    {
      "id": 11665,
      "amount": 1
    },
    {
      "id": 11663,
      "amount": 1
    },
    {
      "id": 560,
      "amount": 502
    },
    {
      "id": 554,
      "amount": 151
    },
    {
      "id": 13334,
      "amount": 1
    },
    {
      "id": 13332,
      "amount": 1
    },
    {
      "id": 13336,
      "amount": 1
    },
    {
      "id": 13338,
      "amount": 1
    },
    {
      "id": 11664,
      "amount": 1
    },
    {
      "id": 8842,
      "amount": 1
    },
    {
      "id": 555,
      "amount": 1
    },
    {
      "id": 564,
      "amount": 267
    },
    {
      "id": 13333,
      "amount": 1
    },
    {
      "id": 13331,
      "amount": 1
    },
    {
      "id": 13335,
      "amount": 1
    },
    {
      "id": 13337,
      "amount": 1
    },
    {
      "id": 12938,
      "amount": 1
    },
    {
      "id": 4151,
      "amount": 1
    },
    {
      "id": 565,
      "amount": 1
    },
    {
      "id": 557,
      "amount": 1
    },
    {
      "id": 12807,
      "amount": 1
    },
    {
      "id": 12806,
      "amount": 1
    },
    {
      "id": 7462,
      "amount": 6
    },
    {
      "id": 13330,
      "amount": 1
    },
    {
      "id": 4214,
      "amount": 1
    },
    {
      "id": 8839,
      "amount": 1
    },
    {
      "id": 8840,
      "amount": 1
    },
    {
      "id": 10499,
      "amount": 1
    },
    {
      "id": 19649,
      "amount": 1
    },
    {
      "id": 6328,
      "amount": 2
    },
    {
      "id": 4728,
      "amount": 1
    },
    {
      "id": 2497,
      "amount": 1
    },
    {
      "id": 9185,
      "amount": 1
    },
    {
      "id": 1712,
      "amount": 1
    },
    {
      "id": 7980,
      "amount": 3
    },
    {
      "id": 7979,
      "amount": 2
    },
    {
      "id": 7981,
      "amount": 2
    },
    {
      "id": 12534,
      "amount": 1
    },
    {
      "id": 12532,
      "amount": 2
    },
    {
      "id": 6529,
      "amount": 23590
    },
    {
      "id": 985,
      "amount": 8
    },
    {
      "id": 830,
      "amount": 275
    },
    {
      "id": 13229,
      "amount": 1
    },
    {
      "id": 13233,
      "amount": 1
    },
    {
      "id": 10887,
      "amount": 2
    },
    {
      "id": 3216,
      "amount": 2
    },
    {
      "id": 11928,
      "amount": 1
    },
    {
      "id": 11818,
      "amount": 2
    },
    {
      "id": 11820,
      "amount": 1
    },
    {
      "id": 9193,
      "amount": 70
    },
    {
      "id": 5302,
      "amount": 10
    },
    {
      "id": 5295,
      "amount": 9
    },
    {
      "id": 5290,
      "amount": 6
    },
    {
      "id": 5289,
      "amount": 4
    },
    {
      "id": 5316,
      "amount": 3
    },
    {
      "id": 5288,
      "amount": 1
    },
    {
      "id": 464,
      "amount": 1
    },
    {
      "id": 451,
      "amount": 1
    },
    {
      "id": 449,
      "amount": 1
    },
    {
      "id": 442,
      "amount": 1
    },
    {
      "id": 453,
      "amount": 355
    },
    {
      "id": 229,
      "amount": 163
    },
    {
      "id": 2361,
      "amount": 334
    },
    {
      "id": 2363,
      "amount": 14
    },
    {
      "id": 11934,
      "amount": 1
    },
    {
      "id": 1513,
      "amount": 731
    },
    {
      "id": 1515,
      "amount": 1
    },
    {
      "id": 11943,
      "amount": 1
    },
    {
      "id": 536,
      "amount": 61
    },
    {
      "id": 6289,
      "amount": 71
    },
    {
      "id": 1779,
      "amount": 965
    },
    {
      "id": 5974,
      "amount": 1
    },
    {
      "id": 2,
      "amount": 1
    },
    {
      "id": 7936,
      "amount": 2501
    },
    {
      "id": 5514,
      "amount": 1
    },
    {
      "id": 5512,
      "amount": 1
    },
    {
      "id": 5510,
      "amount": 1
    },
    {
      "id": 5509,
      "amount": 1
    },
    {
      "id": 1755,
      "amount": 1
    },
    {
      "id": 952,
      "amount": 2
    },
    {
      "id": 1623,
      "amount": 2
    },
    {
      "id": 10561,
      "amount": 3
    },
    {
      "id": 10540,
      "amount": 5
    },
    {
      "id": 9244,
      "amount": 41
    },
    {
      "id": 19484,
      "amount": 233
    },
    {
      "id": 3024,
      "amount": 66
    },
    {
      "id": 3026,
      "amount": 3
    },
    {
      "id": 3028,
      "amount": 2
    },
    {
      "id": 3030,
      "amount": 3
    },
    {
      "id": 6685,
      "amount": 11
    },
    {
      "id": 6687,
      "amount": 1
    },
    {
      "id": 6689,
      "amount": 1
    },
    {
      "id": 6691,
      "amount": 1
    },
    {
      "id": 2444,
      "amount": 49
    },
    {
      "id": 169,
      "amount": 2
    },
    {
      "id": 171,
      "amount": 1
    },
    {
      "id": 173,
      "amount": 1
    },
    {
      "id": 2434,
      "amount": 8
    },
    {
      "id": 139,
      "amount": 4
    },
    {
      "id": 141,
      "amount": 2
    },
    {
      "id": 143,
      "amount": 2
    },
    {
      "id": 12695,
      "amount": 23
    },
    {
      "id": 12697,
      "amount": 1
    },
    {
      "id": 12699,
      "amount": 1
    },
    {
      "id": 12701,
      "amount": 2
    },
    {
      "id": 2440,
      "amount": 1
    },
    {
      "id": 187,
      "amount": 1
    },
    {
      "id": 13441,
      "amount": 93
    },
    {
      "id": 11936,
      "amount": 335
    },
    {
      "id": 397,
      "amount": 873
    },
    {
      "id": 7946,
      "amount": 1
    },
    {
      "id": 383,
      "amount": 100
    },
    {
      "id": 385,
      "amount": 1
    },
    {
      "id": 11850,
      "amount": 1
    },
    {
      "id": 11854,
      "amount": 1
    },
    {
      "id": 11856,
      "amount": 1
    },
    {
      "id": 11852,
      "amount": 1
    },
    {
      "id": 11858,
      "amount": 1
    },
    {
      "id": 10548,
      "amount": 1
    },
    {
      "id": 12319,
      "amount": 1
    },
    {
      "id": 12428,
      "amount": 1
    },
    {
      "id": 19691,
      "amount": 1
    },
    {
      "id": 1731,
      "amount": 1
    },
    {
      "id": 1643,
      "amount": 1
    },
    {
      "id": 1347,
      "amount": 2
    },
    {
      "id": 2890,
      "amount": 1
    },
    {
      "id": 2493,
      "amount": 1
    },
    {
      "id": 12650,
      "amount": 1
    },
    {
      "id": 11023,
      "amount": 1
    },
    {
      "id": 13322,
      "amount": 2
    },
    {
      "id": 13247,
      "amount": 1
    },
    {
      "id": 12377,
      "amount": 1
    },
    {
      "id": 13177,
      "amount": 1
    },
    {
      "id": 563,
      "amount": 400
    },
    null,
    null,
    null,
    null,
    null,
    null,
    null,
    null,
    null,
    null,
    null,
    null,
    null,
    null,
    null,
    null,
    null,
    null,
    null,
    null,
    null,
    null,
    null,
    null,
    null,
    null,
    null,
    null,
    null,
    null,
    null,
    null,
    null,
    null,
    null,
    null,
    null,
    null,
    null,
    null,
    null,
    null,
    null,
    null,
    null,
    null,
    null,
    null,
    null,
    null,
    null,
    null,
    null,
    null,
    null,
    null,
    null,
    null,
    null,
    null,
    null,
    null,
    null,
    null,
    null,
    null,
    null,
    null,
    null,
    null,
    null,
    null,
    null,
    null,
    null,
    null,
    null,
    null,
    null,
    null,
    null,
    null,
    null,
    null,
    null,
    null,
    null,
    null,
    null,
    null,
    null,
    null,
    null,
    null,
    null,
    null,
    null,
    null,
    null,
    null,
    null,
    null,
    null,
    null,
    null,
    null,
    null,
    null,
    null,
    null,
    null,
    null,
    null,
    null,
    null,
    null,
    null,
    null,
    null,
    null,
    null,
    null,
    null,
    null,
    null,
    null,
    null,
    null,
    null,
    null,
    null,
    null,
    null,
    null,
    null,
    null,
    null,
    null,
    null,
    null,
    null,
    null,
    null,
    null,
    null,
    null,
    null,
    null,
    null,
    null,
    null,
    null,
    null,
    null,
    null,
    null,
    null,
    null,
    null,
    null,
    null,
    null,
    null,
    null,
    null,
    null,
    null,
    null,
    null,
    null,
    null,
    null,
    null,
    null,
    null,
    null,
    null,
    null,
    null,
    null,
    null,
    null,
    null,
    null,
    null,
    null,
    null,
    null,
    null,
    null,
    null,
    null,
    null,
    null,
    null,
    null,
    null,
    null,
    null,
    null,
    null,
    null,
    null,
    null,
    null,
    null,
    null,
    null,
    null,
    null,
    null,
    null
  ],
  "tabAmounts": [
    32,
    6,
    15,
    36,
    28,
    14,
    6,
    1,
    0,
    0
  ],
  "inventory": [
    null,
    {
      "id": 13092,
      "amount": 1
    },
    null,
    null,
    null,
    null,
    {
      "id": 2362,
      "amount": 5
    },
    null,
    null,
    null,
    null,
    null,
    null,
    null,
    null,
    null,
    null,
    null,
    null,
    null,
    null,
    null,
    null,
    null,
    null,
    null,
    null,
    null
  ],
  "equipment": [
    {
      "id": 10548,
      "amount": 1
    },
    {
      "id": 13329,
      "amount": 1
    },
    {
      "id": 6585,
      "amount": 1
    },
    {
      "id": 4151,
      "amount": 1
    },
    {
      "id": 10551,
      "amount": 1
    },
    {
      "id": 11283,
      "amount": 1
    },
    null,
    {
      "id": 4722,
      "amount": 1
    },
    null,
    {
      "id": 7462,
      "amount": 1
    },
    {
      "id": 11840,
      "amount": 1
    },
    null,
    {
      "id": 2572,
      "amount": 1
    },
    null
  ],
  "shopItems": [
    null,
    null,
    null,
    null,
    null,
    null,
    null,
    null,
    null,
    null,
    null,
    null,
    null,
    null,
    null,
    null,
    null,
    null,
    null,
    null,
    null,
    null,
    null,
    null,
    null,
    null,
    null,
    null,
    null,
    null,
    null,
    null,
    null,
    null,
    null,
    null
  ],
  "shopPrices": [
    0,
    0,
    0,
    0,
    0,
    0,
    0,
    0,
    0,
    0,
    0,
    0,
    0,
    0,
    0,
    0,
    0,
    0,
    0,
    0,
    0,
    0,
    0,
    0,
    0,
    0,
    0,
    0,
    0,
    0,
    0,
    0,
    0,
    0,
    0,
    0
  ],
  "pouches": [
    0,
    0,
    0,
    0
  ]
}