{
  "bank": [
    {
      "id": 1333,
      "amount": 1
    },
    {
      "id": 4587,
      "amount": 1
    },
    {
      "id": 1381,
      "amount": 1
    },
    {
      "id": 554,
      "amount": 1884
    },
    {
      "id": 558,
      "amount": 100
    },
    {
      "id": 562,
      "amount": 1057
    },
    {
      "id": 1712,
      "amount": 2
    },
    {
      "id": 7946,
      "amount": 64
    },
    {
      "id": 12695,
      "amount": 5
    },
    {
      "id": 2682,
      "amount": 3
    },
    {
      "id": 1,
      "amount": 1
    },
    {
      "id": 13012,
      "amount": 1
    },
    {
      "id": 1077,
      "amount": 1
    },
    {
      "id": 1125,
      "amount": 1
    },
    {
      "id": 1165,
      "amount": 1
    },
    {
      "id": 13222,
      "amount": 1
    },
    {
      "id": 11664,
      "amount": 2
    },
    {
      "id": 6055,
      "amount": 10
    },
    {
      "id": 995,
      "amount": 1663378236
    },
    {
      "id": 2722,
      "amount": 23
    },
    {
      "id": 11933,
      "amount": 1
    },
    {
      "id": 6585,
      "amount": 9
    },
    {
      "id": 12926,
      "amount": 6
    },
    {
      "id": 892,
      "amount": 44075
    },
    {
      "id": 10879,
      "amount": 1
    },
    {
      "id": 13239,
      "amount": 3
    },
    {
      "id": 7462,
      "amount": 5
    },
    {
      "id": 9769,
      "amount": 1
    },
    {
      "id": 10499,
      "amount": 4
    },
    {
      "id": 13281,
      "amount": 2
    },
    {
      "id": 6581,
      "amount": 2
    },
    {
      "id": 8842,
      "amount": 7
    },
    {
      "id": 6920,
      "amount": 6
    },
    {
      "id": 2572,
      "amount": 7
    },
    {
      "id": 12524,
      "amount": 1
    },
    {
      "id": 19481,
      "amount": 1
    },
    {
      "id": 830,
      "amount": 109709
    },
    {
      "id": 1313,
      "amount": 1
    },
    {
      "id": 1511,
      "amount": 1
    },
    {
      "id": 882,
      "amount": 437
    },
    {
      "id": 311,
      "amount": 1
    },
    {
      "id": 1359,
      "amount": 1
    },
    {
      "id": 6814,
      "amount": 1
    },
    {
      "id": 3024,
      "amount": 21
    },
    {
      "id": 11828,
      "amount": 3
    },
    {
      "id": 13280,
      "amount": 1
    },
    {
      "id": 11830,
      "amount": 2
    },
    {
      "id": 3030,
      "amount": 2
    },
    {
      "id": 6685,
      "amount": 10
    },
    {
      "id": 6687,
      "amount": 2
    },
    {
      "id": 2444,
      "amount": 3
    },
    {
      "id": 173,
      "amount": 2
    },
    {
      "id": 3028,
      "amount": 1
    },
    {
      "id": 13441,
      "amount": 17
    },
    {
      "id": 6328,
      "amount": 2
    },
    {
      "id": 2497,
      "amount": 1
    },
    {
      "id": 12498,
      "amount": 1
    },
    {
      "id": 11936,
      "amount": 12
    },
    {
      "id": 2434,
      "amount": 5012
    },
    {
      "id": 560,
      "amount": 4332
    },
    {
      "id": 565,
      "amount": 1352
    },
    {
      "id": 139,
      "amount": 2
    },
    {
      "id": 3481,
      "amount": 1
    },
    {
      "id": 11283,
      "amount": 4
    },
    {
      "id": 4712,
      "amount": 4
    },
    {
      "id": 4714,
      "amount": 4
    },
    {
      "id": 12931,
      "amount": 3
    },
    {
      "id": 9244,
      "amount": 12
    },
    {
      "id": 564,
      "amount": 549
    },
    {
      "id": 4151,
      "amount": 1
    },
    {
      "id": 6570,
      "amount": 3
    },
    {
      "id": 11834,
      "amount": 2
    },
    {
      "id": 526,
      "amount": 101
    },
    {
      "id": 13334,
      "amount": 1
    },
    {
      "id": 12904,
      "amount": 1
    },
    {
      "id": 4980,
      "amount": 1
    },
    {
      "id": 13333,
      "amount": 1
    },
    {
      "id": 1343,
      "amount": 1
    },
    {
      "id": 11832,
      "amount": 2
    },
    {
      "id": 3026,
      "amount": 3
    },
    {
      "id": 3755,
      "amount": 1
    },
    {
      "id": 12899,
      "amount": 2
    },
    {
      "id": 4950,
      "amount": 1
    },
    {
      "id": 4753,
      "amount": 1
    },
    {
      "id": 7936,
      "amount": 1800
    },
    {
      "id": 12006,
      "amount": 2
    },
    {
      "id": 9761,
      "amount": 1
    },
    {
      "id": 9760,
      "amount": 1
    },
    {
      "id": 12612,
      "amount": 2
    },
    {
      "id": 12927,
      "amount": 2
    },
    {
      "id": 12924,
      "amount": 1
    },
    {
      "id": 7979,
      "amount": 1
    },
    {
      "id": 12954,
      "amount": 1
    },
    {
      "id": 1042,
      "amount": 1
    },
    {
      "id": 9790,
      "amount": 1
    },
    {
      "id": 6633,
      "amount": 1
    },
    {
      "id": 2414,
      "amount": 1
    },
    {
      "id": 6914,
      "amount": 1
    },
    {
      "id": 6889,
      "amount": 1
    },
    {
      "id": 169,
      "amount": 1
    },
    {
      "id": 11771,
      "amount": 1
    },
    {
      "id": 555,
      "amount": 2927
    },
    {
      "id": 563,
      "amount": 45
    },
    {
      "id": 1283,
      "amount": 1
    },
    {
      "id": 45,
      "amount": 5
    },
    {
      "id": 385,
      "amount": 13
    },
    {
      "id": 19553,
      "amount": 2
    },
    {
      "id": 19484,
      "amount": 97000
    },
    {
      "id": 3841,
      "amount": 1
    },
    {
      "id": 2914,
      "amount": 1
    },
    {
      "id": 1135,
      "amount": 3
    },
    {
      "id": 10442,
      "amount": 1
    },
    {
      "id": 1050,
      "amount": 1
    },
    {
      "id": 1982,
      "amount": 1
    },
    {
      "id": 395,
      "amount": 101
    },
    {
      "id": 1057,
      "amount": 1
    },
    {
      "id": 13329,
      "amount": 1
    },
    {
      "id": 6908,
      "amount": 3
    },
    {
      "id": 1079,
      "amount": 4
    },
    {
      "id": 3839,
      "amount": 2
    },
    {
      "id": 171,
      "amount": 1
    },
    {
      "id": 12875,
      "amount": 1
    },
    {
      "id": 3101,
      "amount": 1
    },
    {
      "id": 3749,
      "amount": 2
    },
    {
      "id": 10952,
      "amount": 3
    },
    {
      "id": 1093,
      "amount": 1
    },
    {
      "id": 1201,
      "amount": 1
    },
    {
      "id": 3387,
      "amount": 1
    },
    {
      "id": 3122,
      "amount": 1
    },
    {
      "id": 6912,
      "amount": 1
    },
    {
      "id": 12447,
      "amount": 2
    },
    {
      "id": 2366,
      "amount": 1
    },
    {
      "id": 3385,
      "amount": 1
    },
    {
      "id": 12453,
      "amount": 1
    },
    {
      "id": 7460,
      "amount": 1
    },
    {
      "id": 6571,
      "amount": 2
    },
    {
      "id": 12610,
      "amount": 1
    },
    {
      "id": 3105,
      "amount": 1
    },
    {
      "id": 841,
      "amount": 1
    },
    {
      "id": 4211,
      "amount": 2
    },
    {
      "id": 884,
      "amount": 247
    },
    {
      "id": 2361,
      "amount": 200
    },
    {
      "id": 13275,
      "amount": 2
    },
    {
      "id": 8850,
      "amount": 1
    },
    {
      "id": 4214,
      "amount": 1
    },
    {
      "id": 2363,
      "amount": 200
    },
    {
      "id": 4121,
      "amount": 1
    },
    {
      "id": 1901,
      "amount": 1
    },
    {
      "id": 3485,
      "amount": 1
    },
    {
      "id": 2803,
      "amount": 1
    },
    {
      "id": 11943,
      "amount": 100
    },
    {
      "id": 536,
      "amount": 100
    },
    {
      "id": 532,
      "amount": 100
    },
    {
      "id": 1621,
      "amount": 100
    },
    {
      "id": 1619,
      "amount": 100
    },
    {
      "id": 1617,
      "amount": 100
    },
    {
      "id": 1631,
      "amount": 100
    },
    {
      "id": 1623,
      "amount": 100
    },
    {
      "id": 4087,
      "amount": 1
    },
    {
      "id": 11930,
      "amount": 1
    },
    {
      "id": 11928,
      "amount": 1
    },
    {
      "id": 8839,
      "amount": 1
    },
    {
      "id": 12530,
      "amount": 1
    },
    {
      "id": 11840,
      "amount": 1
    },
    {
      "id": 11901,
      "amount": 1
    },
    {
      "id": 451,
      "amount": 15
    },
    {
      "id": 4225,
      "amount": 1
    },
    {
      "id": 4755,
      "amount": 1
    },
    {
      "id": 3140,
      "amount": 1
    },
    {
      "id": 317,
      "amount": 100
    },
    {
      "id": 331,
      "amount": 100
    },
    {
      "id": 377,
      "amount": 100
    },
    {
      "id": 371,
      "amount": 100
    },
    {
      "id": 383,
      "amount": 100
    },
    {
      "id": 11934,
      "amount": 100
    },
    {
      "id": 1046,
      "amount": 1
    },
    {
      "id": 13337,
      "amount": 1
    },
    {
      "id": 13108,
      "amount": 1
    },
    {
      "id": 10348,
      "amount": 1
    },
    {
      "id": 10346,
      "amount": 1
    },
    {
      "id": 13188,
      "amount": 1
    },
    {
      "id": 11908,
      "amount": 1
    },
    {
      "id": 4585,
      "amount": 1
    },
    {
      "id": 4732,
      "amount": 1
    },
    {
      "id": 1513,
      "amount": 1
    },
    {
      "id": 1055,
      "amount": 1
    },
    {
      "id": 13331,
      "amount": 1
    },
    {
      "id": 13271,
      "amount": 1
    },
    {
      "id": 10386,
      "amount": 1
    },
    {
      "id": 10388,
      "amount": 1
    },
    {
      "id": 13235,
      "amount": 1
    },
    {
      "id": 13265,
      "amount": 2
    },
    {
      "id": 773,
      "amount": 4
    },
    null,
    null,
    null,
    null,
    null,
    null,
    null,
    null,
    null,
    null,
    null,
    null,
    null,
    null,
    null,
    null,
    null,
    null,
    null,
    null,
    null,
    null,
    null,
    null,
    null,
    null,
    null,
    null,
    null,
    null,
    null,
    null,
    null,
    null,
    null,
    null,
    null,
    null,
    null,
    null,
    null,
    null,
    null,
    null,
    null,
    null,
    null,
    null,
    null,
    null,
    null,
    null,
    null,
    null,
    null,
    null,
    null,
    null,
    null,
    null,
    null,
    null,
    null,
    null,
    null,
    null,
    null,
    null,
    null,
    null,
    null,
    null,
    null,
    null,
    null,
    null,
    null,
    null,
    null,
    null,
    null,
    null,
    null,
    null,
    null,
    null,
    null,
    null,
    null,
    null,
    null,
    null,
    null,
    null,
    null,
    null,
    null,
    null,
    null,
    null,
    null,
    null,
    null,
    null,
    null,
    null,
    null,
    null,
    null,
    null,
    null,
    null,
    null,
    null,
    null,
    null,
    null,
    null,
    null,
    null,
    null,
    null,
    null,
    null,
    null,
    null,
    null,
    null,
    null,
    null,
    null,
    null,
    null,
    null,
    null,
    null,
    null,
    null,
    null,
    null,
    null,
    null,
    null,
    null,
    null,
    null,
    null,
    null,
    null,
    null,
    null,
    null,
    null,
    null,
    null,
    null,
    null
  ],
  "tabAmounts": [
    191,
    2,
    0,
    0,
    0,
    0,
    0,
    0,
    0,
    0
  ],
  "inventory": [
    {
      "id": 2434,
      "amount": 1
    },
    {
      "id": 19481,
      "amount": 1
    },
    {
      "id": 2362,
      "amount": 2
    },
    {
      "id": 2434,
      "amount": 1
    },
    {
      "id": 13073,
      "amount": 1
    },
    {
      "id": 1702,
      "amount": 1
    },
    {
      "id": 11836,
      "amount": 1
    },
    {
      "id": 8840,
      "amount": 1
    },
    {
      "id": 8839,
      "amount": 1
    },
    {
      "id": 11664,
      "amount": 1
    },
    {
      "id": 11840,
      "amount": 1
    },
    {
      "id": 13237,
      "amount": 1
    },
    null,
    null,
    null,
    null,
    null,
    null,
    null,
    null,
    null,
    null,
    null,
    null,
    null,
    null,
    null,
    null
  ],
  "equipment": [
    {
      "id": 1040,
      "amount": 1
    },
    {
      "id": 10499,
      "amount": 1
    },
    {
      "id": 6585,
      "amount": 1
    },
    {
      "id": 19481,
      "amount": 1
    },
    {
      "id": 2916,
      "amount": 1
    },
    null,
    null,
    {
      "id": 2918,
      "amount": 1
    },
    null,
    {
      "id": 8842,
      "amount": 1
    },
    null,
    null,
    {
      "id": 11771,
      "amount": 1
    },
    {
      "id": 19484,
      "amount": 301
    }
  ],
  "shopItems": [
    null,
    null,
    null,
    null,
    null,
    null,
    null,
    null,
    null,
    null,
    null,
    null,
    null,
    null,
    null,
    null,
    null,
    null,
    null,
    null,
    null,
    null,
    null,
    null,
    null,
    null,
    null,
    null,
    null,
    null,
    null,
    null,
    null,
    null,
    null,
    null
  ],
  "shopPrices": [
    0,
    0,
    0,
    0,
    0,
    0,
    0,
    0,
    0,
    0,
    0,
    0,
    0,
    0,
    0,
    0,
    0,
    0,
    0,
    0,
    0,
    0,
    0,
    0,
    0,
    0,
    0,
    0,
    0,
    0,
    0,
    0,
    0,
    0,
    0,
    0
  ],
  "pouches": [
    0,
    0,
    0,
    0
  ]
}