{
  "bank": [
    {
      "id": 10346,
      "amount": 2147483645
    },
    {
      "id": 10348,
      "amount": 2147483645
    },
    {
      "id": 12426,
      "amount": 2147483645
    },
    {
      "id": 12424,
      "amount": 2147483646
    },
    {
      "id": 12817,
      "amount": 2146999998
    },
    {
      "id": 995,
      "amount": 2147000000
    },
    {
      "id": 12695,
      "amount": 100000001
    },
    {
      "id": 12954,
      "amount": 1
    },
    {
      "id": 11663,
      "amount": 1
    },
    {
      "id": 12816,
      "amount": 1
    },
    {
      "id": 13333,
      "amount": 1
    },
    {
      "id": 13441,
      "amount": 99999980
    },
    {
      "id": 12697,
      "amount": 1
    },
    {
      "id": 600,
      "amount": 2
    },
    {
      "id": 748,
      "amount": 2
    },
    {
      "id": 11665,
      "amount": 1
    },
    {
      "id": 11824,
      "amount": 1
    },
    {
      "id": 13239,
      "amount": 1
    },
    {
      "id": 1371,
      "amount": 1
    },
    {
      "id": 4236,
      "amount": 21
    },
    {
      "id": 19553,
      "amount": 1
    },
    {
      "id": 8305,
      "amount": 1
    },
    {
      "id": 4278,
      "amount": 10
    },
    {
      "id": 11664,
      "amount": 1
    },
    {
      "id": 13337,
      "amount": 1
    },
    {
      "id": 13073,
      "amount": 1
    },
    {
      "id": 8842,
      "amount": 1
    },
    {
      "id": 11771,
      "amount": 1
    },
    {
      "id": 13072,
      "amount": 1
    },
    {
      "id": 13237,
      "amount": 1
    },
    {
      "id": 12939,
      "amount": 1
    },
    null,
    null,
    null,
    null,
    null,
    null,
    null,
    null,
    null,
    null,
    null,
    null,
    null,
    null,
    null,
    null,
    null,
    null,
    null,
    null,
    null,
    null,
    null,
    null,
    null,
    null,
    null,
    null,
    null,
    null,
    null,
    null,
    null,
    null,
    null,
    null,
    null,
    null,
    null,
    null,
    null,
    null,
    null,
    null,
    null,
    null,
    null,
    null,
    null,
    null,
    null,
    null,
    null,
    null,
    null,
    null,
    null,
    null,
    null,
    null,
    null,
    null,
    null,
    null,
    null,
    null,
    null,
    null,
    null,
    null,
    null,
    null,
    null,
    null,
    null,
    null,
    null,
    null,
    null,
    null,
    null,
    null,
    null,
    null,
    null,
    null,
    null,
    null,
    null,
    null,
    null,
    null,
    null,
    null,
    null,
    null,
    null,
    null,
    null,
    null,
    null,
    null,
    null,
    null,
    null,
    null,
    null,
    null,
    null,
    null,
    null,
    null,
    null,
    null,
    null,
    null,
    null,
    null,
    null,
    null,
    null,
    null,
    null,
    null,
    null,
    null,
    null,
    null,
    null,
    null,
    null,
    null,
    null,
    null,
    null,
    null,
    null,
    null,
    null,
    null,
    null,
    null,
    null,
    null,
    null,
    null,
    null,
    null,
    null,
    null,
    null,
    null,
    null,
    null,
    null,
    null,
    null,
    null,
    null,
    null,
    null,
    null,
    null,
    null,
    null,
    null,
    null,
    null,
    null,
    null,
    null,
    null,
    null,
    null,
    null,
    null,
    null,
    null,
    null,
    null,
    null,
    null,
    null,
    null,
    null,
    null,
    null,
    null,
    null,
    null,
    null,
    null,
    null,
    null,
    null,
    null,
    null,
    null,
    null,
    null,
    null,
    null,
    null,
    null,
    null,
    null,
    null,
    null,
    null,
    null,
    null,
    null,
    null,
    null,
    null,
    null,
    null,
    null,
    null,
    null,
    null,
    null,
    null,
    null,
    null,
    null,
    null,
    null,
    null,
    null,
    null,
    null,
    null,
    null,
    null,
    null,
    null,
    null,
    null,
    null,
    null,
    null,
    null,
    null,
    null,
    null,
    null,
    null,
    null,
    null,
    null,
    null,
    null,
    null,
    null,
    null,
    null,
    null,
    null,
    null,
    null,
    null,
    null,
    null,
    null,
    null,
    null,
    null,
    null,
    null,
    null,
    null,
    null,
    null,
    null,
    null,
    null,
    null,
    null,
    null,
    null,
    null,
    null,
    null,
    null,
    null,
    null,
    null,
    null,
    null,
    null,
    null,
    null,
    null,
    null,
    null,
    null,
    null,
    null,
    null,
    null,
    null,
    null,
    null,
    null,
    null,
    null,
    null,
    null,
    null,
    null,
    null,
    null,
    null,
    null,
    null,
    null,
    null,
    null
  ],
  "tabAmounts": [
    31,
    0,
    0,
    0,
    0,
    0,
    0,
    0,
    0,
    0
  ],
  "inventory": [
    {
      "id": 13225,
      "amount": 1
    },
    {
      "id": 600,
      "amount": 1
    },
    null,
    null,
    null,
    null,
    null,
    null,
    null,
    null,
    null,
    null,
    null,
    null,
    null,
    null,
    null,
    null,
    null,
    null,
    null,
    null,
    null,
    null,
    null,
    null,
    null,
    null
  ],
  "equipment": [
    {
      "id": 12639,
      "amount": 1
    },
    {
      "id": 13280,
      "amount": 1
    },
    {
      "id": 19547,
      "amount": 1
    },
    null,
    null,
    null,
    null,
    null,
    null,
    {
      "id": 7462,
      "amount": 1
    },
    {
      "id": 2577,
      "amount": 1
    },
    null,
    {
      "id": 11773,
      "amount": 1
    },
    null
  ],
  "shopItems": [
    null,
    null,
    null,
    null,
    null,
    null,
    null,
    null,
    null,
    null,
    null,
    null,
    null,
    null,
    null,
    null,
    null,
    null,
    null,
    null,
    null,
    null,
    null,
    null,
    null,
    null,
    null,
    null,
    null,
    null,
    null,
    null,
    null,
    null,
    null,
    null
  ],
  "shopPrices": [
    0,
    0,
    0,
    0,
    0,
    0,
    0,
    0,
    0,
    0,
    0,
    0,
    0,
    0,
    0,
    0,
    0,
    0,
    0,
    0,
    0,
    0,
    0,
    0,
    0,
    0,
    0,
    0,
    0,
    0,
    0,
    0,
    0,
    0,
    0,
    0
  ],
  "pouches": [
    0,
    0,
    0,
    0
  ]
}