{
  "bank": [
    {
      "id": 995,
      "amount": 762836
    },
    {
      "id": 4726,
      "amount": 1
    },
    {
      "id": 4587,
      "amount": 2
    },
    {
      "id": 1381,
      "amount": 1
    },
    {
      "id": 554,
      "amount": 300
    },
    {
      "id": 558,
      "amount": 100
    },
    {
      "id": 562,
      "amount": 100
    },
    {
      "id": 1093,
      "amount": 1
    },
    {
      "id": 1844,
      "amount": 1
    },
    {
      "id": 7946,
      "amount": 46
    },
    {
      "id": 12695,
      "amount": 5
    },
    {
      "id": 1321,
      "amount": 1
    },
    {
      "id": 1333,
      "amount": 1
    },
    {
      "id": 1846,
      "amount": 1
    },
    {
      "id": 1845,
      "amount": 1
    },
    {
      "id": 884,
      "amount": 118
    },
    {
      "id": 7338,
      "amount": 1
    },
    {
      "id": 1373,
      "amount": 1
    },
    {
      "id": 3841,
      "amount": 2
    },
    {
      "id": 841,
      "amount": 1
    },
    {
      "id": 7344,
      "amount": 1
    },
    {
      "id": 1247,
      "amount": 1
    },
    {
      "id": 861,
      "amount": 1
    },
    {
      "id": 1615,
      "amount": 1
    },
    {
      "id": 12449,
      "amount": 1
    },
    {
      "id": 2503,
      "amount": 1
    },
    {
      "id": 12421,
      "amount": 1
    },
    {
      "id": 12420,
      "amount": 1
    },
    {
      "id": 526,
      "amount": 1
    },
    {
      "id": 12447,
      "amount": 2
    },
    {
      "id": 10952,
      "amount": 2
    },
    {
      "id": 12610,
      "amount": 1
    },
    {
      "id": 2497,
      "amount": 1
    },
    {
      "id": 11849,
      "amount": 9
    },
    {
      "id": 5520,
      "amount": 1
    },
    {
      "id": 3393,
      "amount": 1
    },
    {
      "id": 807,
      "amount": 910
    },
    {
      "id": 6912,
      "amount": 1
    },
    {
      "id": 892,
      "amount": 61
    },
    {
      "id": 1079,
      "amount": 1
    },
    {
      "id": 987,
      "amount": 3
    },
    {
      "id": 6324,
      "amount": 1
    },
    {
      "id": 1135,
      "amount": 1
    },
    {
      "id": 12455,
      "amount": 1
    },
    {
      "id": 12419,
      "amount": 1
    },
    {
      "id": 6330,
      "amount": 1
    },
    {
      "id": 2368,
      "amount": 1
    },
    {
      "id": 2366,
      "amount": 1
    },
    null,
    null,
    null,
    null,
    null,
    null,
    null,
    null,
    null,
    null,
    null,
    null,
    null,
    null,
    null,
    null,
    null,
    null,
    null,
    null,
    null,
    null,
    null,
    null,
    null,
    null,
    null,
    null,
    null,
    null,
    null,
    null,
    null,
    null,
    null,
    null,
    null,
    null,
    null,
    null,
    null,
    null,
    null,
    null,
    null,
    null,
    null,
    null,
    null,
    null,
    null,
    null,
    null,
    null,
    null,
    null,
    null,
    null,
    null,
    null,
    null,
    null,
    null,
    null,
    null,
    null,
    null,
    null,
    null,
    null,
    null,
    null,
    null,
    null,
    null,
    null,
    null,
    null,
    null,
    null,
    null,
    null,
    null,
    null,
    null,
    null,
    null,
    null,
    null,
    null,
    null,
    null,
    null,
    null,
    null,
    null,
    null,
    null,
    null,
    null,
    null,
    null,
    null,
    null,
    null,
    null,
    null,
    null,
    null,
    null,
    null,
    null,
    null,
    null,
    null,
    null,
    null,
    null,
    null,
    null,
    null,
    null,
    null,
    null,
    null,
    null,
    null,
    null,
    null,
    null,
    null,
    null,
    null,
    null,
    null,
    null,
    null,
    null,
    null,
    null,
    null,
    null,
    null,
    null,
    null,
    null,
    null,
    null,
    null,
    null,
    null,
    null,
    null,
    null,
    null,
    null,
    null,
    null,
    null,
    null,
    null,
    null,
    null,
    null,
    null,
    null,
    null,
    null,
    null,
    null,
    null,
    null,
    null,
    null,
    null,
    null,
    null,
    null,
    null,
    null,
    null,
    null,
    null,
    null,
    null,
    null,
    null,
    null,
    null,
    null,
    null,
    null,
    null,
    null,
    null,
    null,
    null,
    null,
    null,
    null,
    null,
    null,
    null,
    null,
    null,
    null,
    null,
    null,
    null,
    null,
    null,
    null,
    null,
    null,
    null,
    null,
    null,
    null,
    null,
    null,
    null,
    null,
    null,
    null,
    null,
    null,
    null,
    null,
    null,
    null,
    null,
    null,
    null,
    null,
    null,
    null,
    null,
    null,
    null,
    null,
    null,
    null,
    null,
    null,
    null,
    null,
    null,
    null,
    null,
    null,
    null,
    null,
    null,
    null,
    null,
    null,
    null,
    null,
    null,
    null,
    null,
    null,
    null,
    null,
    null,
    null,
    null,
    null,
    null,
    null,
    null,
    null,
    null,
    null,
    null,
    null,
    null,
    null,
    null,
    null,
    null,
    null,
    null,
    null,
    null,
    null,
    null,
    null,
    null,
    null,
    null,
    null,
    null,
    null,
    null,
    null,
    null,
    null,
    null,
    null,
    null,
    null
  ],
  "tabAmounts": [
    48,
    0,
    0,
    0,
    0,
    0,
    0,
    0,
    0,
    0
  ],
  "inventory": [
    {
      "id": 1,
      "amount": 1
    },
    {
      "id": 8778,
      "amount": 1
    },
    {
      "id": 1093,
      "amount": 1
    },
    {
      "id": 1163,
      "amount": 1
    },
    {
      "id": 1201,
      "amount": 1
    },
    {
      "id": 952,
      "amount": 1
    },
    {
      "id": 9183,
      "amount": 1
    },
    {
      "id": 2649,
      "amount": 1
    },
    {
      "id": 6199,
      "amount": 1
    },
    null,
    null,
    null,
    null,
    null,
    null,
    null,
    null,
    null,
    null,
    null,
    null,
    null,
    null,
    null,
    null,
    null,
    null,
    null
  ],
  "equipment": [
    {
      "id": 12457,
      "amount": 1
    },
    {
      "id": 10499,
      "amount": 1
    },
    {
      "id": 1712,
      "amount": 1
    },
    {
      "id": 9185,
      "amount": 1
    },
    {
      "id": 12458,
      "amount": 1
    },
    {
      "id": 3839,
      "amount": 1
    },
    null,
    {
      "id": 12459,
      "amount": 1
    },
    null,
    {
      "id": 2491,
      "amount": 1
    },
    {
      "id": 6328,
      "amount": 1
    },
    null,
    null,
    {
      "id": 9142,
      "amount": 468
    }
  ],
  "shopItems": [
    null,
    null,
    null,
    null,
    null,
    null,
    null,
    null,
    null,
    null,
    null,
    null,
    null,
    null,
    null,
    null,
    null,
    null,
    null,
    null,
    null,
    null,
    null,
    null,
    null,
    null,
    null,
    null,
    null,
    null,
    null,
    null,
    null,
    null,
    null,
    null
  ],
  "shopPrices": [
    0,
    0,
    0,
    0,
    0,
    0,
    0,
    0,
    0,
    0,
    0,
    0,
    0,
    0,
    0,
    0,
    0,
    0,
    0,
    0,
    0,
    0,
    0,
    0,
    0,
    0,
    0,
    0,
    0,
    0,
    0,
    0,
    0,
    0,
    0,
    0
  ],
  "pouches": [
    0,
    0,
    0,
    0
  ]
}