{
  "bank": [
    {
      "id": 995,
      "amount": 8648072
    },
    {
      "id": 1319,
      "amount": 1
    },
    {
      "id": 453,
      "amount": 118
    },
    {
      "id": 447,
      "amount": 109
    },
    {
      "id": 2347,
      "amount": 1
    },
    {
      "id": 1275,
      "amount": 1
    },
    {
      "id": 2436,
      "amount": 7
    },
    {
      "id": 2440,
      "amount": 7
    },
    {
      "id": 2491,
      "amount": 1
    },
    {
      "id": 987,
      "amount": 6
    },
    {
      "id": 2497,
      "amount": 1
    },
    {
      "id": 2503,
      "amount": 1
    },
    {
      "id": 12455,
      "amount": 1
    },
    {
      "id": 3749,
      "amount": 1
    },
    {
      "id": 1185,
      "amount": 2
    },
    {
      "id": 1113,
      "amount": 2
    },
    {
      "id": 1135,
      "amount": 1
    },
    {
      "id": 1149,
      "amount": 1
    },
    {
      "id": 147,
      "amount": 1
    },
    {
      "id": 159,
      "amount": 1
    },
    {
      "id": 1515,
      "amount": 20
    },
    {
      "id": 1359,
      "amount": 1
    },
    {
      "id": 590,
      "amount": 1
    },
    {
      "id": 1079,
      "amount": 2
    },
    {
      "id": 10390,
      "amount": 1
    },
    {
      "id": 2890,
      "amount": 1
    },
    {
      "id": 1347,
      "amount": 2
    },
    {
      "id": 2493,
      "amount": 1
    },
    {
      "id": 385,
      "amount": 11
    },
    {
      "id": 145,
      "amount": 1
    },
    {
      "id": 157,
      "amount": 1
    },
    {
      "id": 12301,
      "amount": 1
    },
    {
      "id": 1215,
      "amount": 9
    },
    {
      "id": 2568,
      "amount": 12
    },
    {
      "id": 993,
      "amount": 2
    },
    {
      "id": 1731,
      "amount": 9
    },
    {
      "id": 139,
      "amount": 114
    },
    {
      "id": 5937,
      "amount": 8
    },
    {
      "id": 1747,
      "amount": 25
    },
    {
      "id": 2675,
      "amount": 1
    },
    {
      "id": 4095,
      "amount": 1
    },
    {
      "id": 1201,
      "amount": 2
    },
    {
      "id": 1183,
      "amount": 1
    },
    {
      "id": 859,
      "amount": 1
    },
    {
      "id": 1333,
      "amount": 1
    },
    {
      "id": 4097,
      "amount": 1
    },
    {
      "id": 11260,
      "amount": 15
    },
    {
      "id": 10010,
      "amount": 1
    },
    {
      "id": 10828,
      "amount": 1
    },
    {
      "id": 10499,
      "amount": 1
    },
    {
      "id": 1710,
      "amount": 1
    },
    {
      "id": 4587,
      "amount": 1
    },
    {
      "id": 1127,
      "amount": 1
    },
    {
      "id": 2659,
      "amount": 1
    },
    {
      "id": 7460,
      "amount": 1
    },
    {
      "id": 3105,
      "amount": 1
    },
    {
      "id": 127,
      "amount": 31
    },
    {
      "id": 3049,
      "amount": 117
    },
    {
      "id": 5343,
      "amount": 1
    },
    {
      "id": 301,
      "amount": 1
    },
    {
      "id": 315,
      "amount": 23
    },
    {
      "id": 333,
      "amount": 23
    },
    {
      "id": 329,
      "amount": 7
    },
    {
      "id": 379,
      "amount": 358
    },
    {
      "id": 952,
      "amount": 1
    },
    {
      "id": 5341,
      "amount": 1
    },
    {
      "id": 227,
      "amount": 101
    },
    {
      "id": 3026,
      "amount": 158
    },
    {
      "id": 1055,
      "amount": 1
    },
    {
      "id": 12934,
      "amount": 8818
    },
    null,
    null,
    null,
    null,
    null,
    null,
    null,
    null,
    null,
    null,
    null,
    null,
    null,
    null,
    null,
    null,
    null,
    null,
    null,
    null,
    null,
    null,
    null,
    null,
    null,
    null,
    null,
    null,
    null,
    null,
    null,
    null,
    null,
    null,
    null,
    null,
    null,
    null,
    null,
    null,
    null,
    null,
    null,
    null,
    null,
    null,
    null,
    null,
    null,
    null,
    null,
    null,
    null,
    null,
    null,
    null,
    null,
    null,
    null,
    null,
    null,
    null,
    null,
    null,
    null,
    null,
    null,
    null,
    null,
    null,
    null,
    null,
    null,
    null,
    null,
    null,
    null,
    null,
    null,
    null,
    null,
    null,
    null,
    null,
    null,
    null,
    null,
    null,
    null,
    null,
    null,
    null,
    null,
    null,
    null,
    null,
    null,
    null,
    null,
    null,
    null,
    null,
    null,
    null,
    null,
    null,
    null,
    null,
    null,
    null,
    null,
    null,
    null,
    null,
    null,
    null,
    null,
    null,
    null,
    null,
    null,
    null,
    null,
    null,
    null,
    null,
    null,
    null,
    null,
    null,
    null,
    null,
    null,
    null,
    null,
    null,
    null,
    null,
    null,
    null,
    null,
    null,
    null,
    null,
    null,
    null,
    null,
    null,
    null,
    null,
    null,
    null,
    null,
    null,
    null,
    null,
    null,
    null,
    null,
    null,
    null,
    null,
    null,
    null,
    null,
    null,
    null,
    null,
    null,
    null,
    null,
    null,
    null,
    null,
    null,
    null,
    null,
    null,
    null,
    null,
    null,
    null,
    null,
    null,
    null,
    null,
    null,
    null,
    null,
    null,
    null,
    null,
    null,
    null,
    null,
    null,
    null,
    null,
    null,
    null,
    null,
    null,
    null,
    null,
    null,
    null,
    null,
    null,
    null,
    null,
    null,
    null,
    null,
    null,
    null,
    null,
    null,
    null,
    null,
    null,
    null,
    null,
    null,
    null,
    null,
    null,
    null,
    null,
    null,
    null,
    null,
    null,
    null,
    null,
    null,
    null,
    null,
    null,
    null,
    null,
    null,
    null,
    null,
    null,
    null,
    null,
    null,
    null,
    null,
    null,
    null,
    null,
    null,
    null,
    null,
    null,
    null,
    null,
    null,
    null,
    null,
    null,
    null,
    null,
    null,
    null,
    null,
    null,
    null,
    null,
    null,
    null,
    null,
    null,
    null,
    null,
    null,
    null,
    null,
    null
  ],
  "tabAmounts": [
    70,
    0,
    0,
    0,
    0,
    0,
    0,
    0,
    0,
    0
  ],
  "inventory": [
    {
      "id": 11849,
      "amount": 3
    },
    null,
    null,
    null,
    null,
    null,
    null,
    null,
    null,
    null,
    null,
    null,
    null,
    null,
    null,
    null,
    null,
    null,
    null,
    null,
    null,
    null,
    null,
    null,
    null,
    null,
    null,
    null
  ],
  "equipment": [
    null,
    {
      "id": 11852,
      "amount": 1
    },
    null,
    null,
    {
      "id": 11854,
      "amount": 1
    },
    null,
    null,
    {
      "id": 11856,
      "amount": 1
    },
    null,
    null,
    null,
    null,
    null,
    null
  ],
  "shopItems": [
    null,
    null,
    null,
    null,
    null,
    null,
    null,
    null,
    null,
    null,
    null,
    null,
    null,
    null,
    null,
    null,
    null,
    null,
    null,
    null,
    null,
    null,
    null,
    null,
    null,
    null,
    null,
    null,
    null,
    null,
    null,
    null,
    null,
    null,
    null,
    null
  ],
  "shopPrices": [
    0,
    0,
    0,
    0,
    0,
    0,
    0,
    0,
    0,
    0,
    0,
    0,
    0,
    0,
    0,
    0,
    0,
    0,
    0,
    0,
    0,
    0,
    0,
    0,
    0,
    0,
    0,
    0,
    0,
    0,
    0,
    0,
    0,
    0,
    0,
    0
  ],
  "pouches": [
    0,
    0,
    0,
    0
  ]
}