{
  "bank": [
    {
      "id": 1779,
      "amount": 1011
    },
    {
      "id": 7936,
      "amount": 1500
    },
    {
      "id": 536,
      "amount": 60
    },
    {
      "id": 563,
      "amount": 400
    },
    {
      "id": 12938,
      "amount": 23
    },
    {
      "id": 12934,
      "amount": 744
    },
    {
      "id": 2361,
      "amount": 25
    },
    {
      "id": 2366,
      "amount": 1
    },
    {
      "id": 995,
      "amount": 2049074
    },
    {
      "id": 2434,
      "amount": 221
    },
    {
      "id": 385,
      "amount": 19
    },
    {
      "id": 139,
      "amount": 5
    },
    {
      "id": 141,
      "amount": 8
    },
    {
      "id": 169,
      "amount": 5
    },
    {
      "id": 143,
      "amount": 5
    },
    {
      "id": 171,
      "amount": 4
    },
    {
      "id": 3144,
      "amount": 48
    },
    {
      "id": 2444,
      "amount": 10
    },
    {
      "id": 2550,
      "amount": 44
    },
    {
      "id": 7946,
      "amount": 56
    },
    {
      "id": 173,
      "amount": 1
    },
    {
      "id": 3024,
      "amount": 1
    },
    {
      "id": 1333,
      "amount": 1
    },
    {
      "id": 4109,
      "amount": 1
    },
    {
      "id": 1381,
      "amount": 1
    },
    {
      "id": 4113,
      "amount": 1
    },
    {
      "id": 3105,
      "amount": 1
    },
    {
      "id": 4117,
      "amount": 1
    },
    {
      "id": 841,
      "amount": 1
    },
    {
      "id": 884,
      "amount": 220
    },
    {
      "id": 1540,
      "amount": 1
    },
    {
      "id": 1215,
      "amount": 1
    },
    {
      "id": 4155,
      "amount": 1
    },
    {
      "id": 10828,
      "amount": 1
    },
    {
      "id": 4587,
      "amount": 1
    },
    {
      "id": 1127,
      "amount": 1
    },
    {
      "id": 1079,
      "amount": 1
    },
    {
      "id": 7460,
      "amount": 1
    },
    {
      "id": 6814,
      "amount": 3
    },
    {
      "id": 8007,
      "amount": 99
    },
    {
      "id": 892,
      "amount": 1056
    },
    {
      "id": 165,
      "amount": 1
    },
    {
      "id": 2442,
      "amount": 22
    },
    {
      "id": 12695,
      "amount": 5
    },
    {
      "id": 167,
      "amount": 2
    },
    {
      "id": 163,
      "amount": 6
    },
    {
      "id": 229,
      "amount": 2
    },
    {
      "id": 1,
      "amount": 1
    },
    {
      "id": 562,
      "amount": 570
    },
    {
      "id": 2682,
      "amount": 1
    },
    {
      "id": 558,
      "amount": 96
    },
    {
      "id": 554,
      "amount": 304
    },
    {
      "id": 2807,
      "amount": 1
    },
    {
      "id": 861,
      "amount": 1
    },
    {
      "id": 9143,
      "amount": 992
    },
    {
      "id": 3749,
      "amount": 1
    },
    {
      "id": 10499,
      "amount": 1
    },
    {
      "id": 1712,
      "amount": 1
    },
    {
      "id": 9185,
      "amount": 1
    },
    {
      "id": 2503,
      "amount": 1
    },
    {
      "id": 1201,
      "amount": 1
    },
    {
      "id": 2497,
      "amount": 1
    },
    {
      "id": 2491,
      "amount": 1
    },
    {
      "id": 6328,
      "amount": 1
    },
    {
      "id": 3393,
      "amount": 1
    },
    {
      "id": 6908,
      "amount": 1
    },
    null,
    null,
    null,
    null,
    null,
    null,
    null,
    null,
    null,
    null,
    null,
    null,
    null,
    null,
    null,
    null,
    null,
    null,
    null,
    null,
    null,
    null,
    null,
    null,
    null,
    null,
    null,
    null,
    null,
    null,
    null,
    null,
    null,
    null,
    null,
    null,
    null,
    null,
    null,
    null,
    null,
    null,
    null,
    null,
    null,
    null,
    null,
    null,
    null,
    null,
    null,
    null,
    null,
    null,
    null,
    null,
    null,
    null,
    null,
    null,
    null,
    null,
    null,
    null,
    null,
    null,
    null,
    null,
    null,
    null,
    null,
    null,
    null,
    null,
    null,
    null,
    null,
    null,
    null,
    null,
    null,
    null,
    null,
    null,
    null,
    null,
    null,
    null,
    null,
    null,
    null,
    null,
    null,
    null,
    null,
    null,
    null,
    null,
    null,
    null,
    null,
    null,
    null,
    null,
    null,
    null,
    null,
    null,
    null,
    null,
    null,
    null,
    null,
    null,
    null,
    null,
    null,
    null,
    null,
    null,
    null,
    null,
    null,
    null,
    null,
    null,
    null,
    null,
    null,
    null,
    null,
    null,
    null,
    null,
    null,
    null,
    null,
    null,
    null,
    null,
    null,
    null,
    null,
    null,
    null,
    null,
    null,
    null,
    null,
    null,
    null,
    null,
    null,
    null,
    null,
    null,
    null,
    null,
    null,
    null,
    null,
    null,
    null,
    null,
    null,
    null,
    null,
    null,
    null,
    null,
    null,
    null,
    null,
    null,
    null,
    null,
    null,
    null,
    null,
    null,
    null,
    null,
    null,
    null,
    null,
    null,
    null,
    null,
    null,
    null,
    null,
    null,
    null,
    null,
    null,
    null,
    null,
    null,
    null,
    null,
    null,
    null,
    null,
    null,
    null,
    null,
    null,
    null,
    null,
    null,
    null,
    null,
    null,
    null,
    null,
    null,
    null,
    null,
    null,
    null,
    null,
    null,
    null,
    null,
    null,
    null,
    null,
    null,
    null,
    null,
    null,
    null,
    null,
    null,
    null,
    null,
    null,
    null,
    null,
    null,
    null,
    null,
    null,
    null,
    null,
    null,
    null,
    null,
    null,
    null,
    null,
    null,
    null,
    null,
    null,
    null,
    null,
    null,
    null,
    null,
    null,
    null,
    null,
    null,
    null,
    null,
    null,
    null,
    null,
    null,
    null,
    null,
    null,
    null,
    null,
    null,
    null,
    null,
    null,
    null,
    null,
    null,
    null,
    null
  ],
  "tabAmounts": [
    66,
    0,
    1,
    0,
    0,
    0,
    0,
    0,
    0,
    0
  ],
  "inventory": [
    null,
    null,
    null,
    null,
    null,
    null,
    null,
    null,
    null,
    null,
    null,
    null,
    null,
    null,
    null,
    null,
    null,
    null,
    null,
    null,
    null,
    null,
    null,
    null,
    null,
    null,
    null,
    null
  ],
  "equipment": [
    null,
    null,
    null,
    null,
    null,
    null,
    null,
    null,
    null,
    null,
    null,
    null,
    null,
    null
  ],
  "shopItems": [
    null,
    null,
    null,
    null,
    null,
    null,
    null,
    null,
    null,
    null,
    null,
    null,
    null,
    null,
    null,
    null,
    null,
    null,
    null,
    null,
    null,
    null,
    null,
    null,
    null,
    null,
    null,
    null,
    null,
    null,
    null,
    null,
    null,
    null,
    null,
    null
  ],
  "shopPrices": [
    0,
    0,
    0,
    0,
    0,
    0,
    0,
    0,
    0,
    0,
    0,
    0,
    0,
    0,
    0,
    0,
    0,
    0,
    0,
    0,
    0,
    0,
    0,
    0,
    0,
    0,
    0,
    0,
    0,
    0,
    0,
    0,
    0,
    0,
    0,
    0
  ],
  "pouches": [
    0,
    0,
    0,
    0
  ]
}