{
  "bank": [
    {
      "id": 315,
      "amount": 5
    },
    {
      "id": 1925,
      "amount": 1
    },
    {
      "id": 1931,
      "amount": 1
    },
    {
      "id": 2309,
      "amount": 1
    },
    {
      "id": 556,
      "amount": 25
    },
    {
      "id": 558,
      "amount": 15
    },
    {
      "id": 555,
      "amount": 6
    },
    {
      "id": 557,
      "amount": 4
    },
    {
      "id": 559,
      "amount": 2
    },
    {
      "id": 590,
      "amount": 2
    },
    {
      "id": 1351,
      "amount": 3
    },
    {
      "id": 1359,
      "amount": 1
    },
    {
      "id": 1265,
      "amount": 3
    },
    {
      "id": 1755,
      "amount": 2
    },
    {
      "id": 2347,
      "amount": 2
    },
    {
      "id": 946,
      "amount": 2
    },
    {
      "id": 952,
      "amount": 6
    },
    {
      "id": 10010,
      "amount": 2
    },
    {
      "id": 303,
      "amount": 2
    },
    {
      "id": 301,
      "amount": 2
    },
    {
      "id": 311,
      "amount": 2
    },
    {
      "id": 305,
      "amount": 1
    },
    {
      "id": 227,
      "amount": 100
    },
    null,
    null,
    null,
    null,
    null,
    null,
    null,
    null,
    null,
    null,
    null,
    null,
    null,
    null,
    null,
    null,
    null,
    null,
    null,
    null,
    null,
    null,
    null,
    null,
    null,
    null,
    null,
    null,
    null,
    null,
    null,
    null,
    null,
    null,
    null,
    null,
    null,
    null,
    null,
    null,
    null,
    null,
    null,
    null,
    null,
    null,
    null,
    null,
    null,
    null,
    null,
    null,
    null,
    null,
    null,
    null,
    null,
    null,
    null,
    null,
    null,
    null,
    null,
    null,
    null,
    null,
    null,
    null,
    null,
    null,
    null,
    null,
    null,
    null,
    null,
    null,
    null,
    null,
    null,
    null,
    null,
    null,
    null,
    null,
    null,
    null,
    null,
    null,
    null,
    null,
    null,
    null,
    null,
    null,
    null,
    null,
    null,
    null,
    null,
    null,
    null,
    null,
    null,
    null,
    null,
    null,
    null,
    null,
    null,
    null,
    null,
    null,
    null,
    null,
    null,
    null,
    null,
    null,
    null,
    null,
    null,
    null,
    null,
    null,
    null,
    null,
    null,
    null,
    null,
    null,
    null,
    null,
    null,
    null,
    null,
    null,
    null,
    null,
    null,
    null,
    null,
    null,
    null,
    null,
    null,
    null,
    null,
    null,
    null,
    null,
    null,
    null,
    null,
    null,
    null,
    null,
    null,
    null,
    null,
    null,
    null,
    null,
    null,
    null,
    null,
    null,
    null,
    null,
    null,
    null,
    null,
    null,
    null,
    null,
    null,
    null,
    null,
    null,
    null,
    null,
    null,
    null,
    null,
    null,
    null,
    null,
    null,
    null,
    null,
    null,
    null,
    null,
    null,
    null,
    null,
    null,
    null,
    null,
    null,
    null,
    null,
    null,
    null,
    null,
    null,
    null,
    null,
    null,
    null,
    null,
    null,
    null,
    null,
    null,
    null,
    null,
    null,
    null,
    null,
    null,
    null,
    null,
    null,
    null,
    null,
    null,
    null,
    null,
    null,
    null,
    null,
    null,
    null,
    null,
    null,
    null,
    null,
    null,
    null,
    null,
    null,
    null,
    null,
    null,
    null,
    null,
    null,
    null,
    null,
    null,
    null,
    null,
    null,
    null,
    null,
    null,
    null,
    null,
    null,
    null,
    null,
    null,
    null,
    null,
    null,
    null,
    null,
    null,
    null,
    null,
    null,
    null,
    null,
    null,
    null,
    null,
    null,
    null,
    null,
    null,
    null,
    null,
    null,
    null,
    null,
    null,
    null,
    null,
    null,
    null,
    null,
    null,
    null,
    null,
    null,
    null,
    null,
    null,
    null,
    null,
    null,
    null,
    null,
    null,
    null,
    null,
    null,
    null,
    null,
    null,
    null,
    null,
    null,
    null,
    null,
    null,
    null,
    null,
    null,
    null,
    null,
    null,
    null,
    null,
    null,
    null,
    null
  ],
  "tabAmounts": [
    9,
    14,
    0,
    0,
    0,
    0,
    0,
    0,
    0,
    0
  ],
  "inventory": [
    {
      "id": 1205,
      "amount": 1
    },
    {
      "id": 1277,
      "amount": 1
    },
    {
      "id": 1327,
      "amount": 1
    },
    {
      "id": 1373,
      "amount": 1
    },
    {
      "id": 1171,
      "amount": 1
    },
    {
      "id": 995,
      "amount": 11166
    },
    {
      "id": 892,
      "amount": 42
    },
    {
      "id": 1617,
      "amount": 1
    },
    {
      "id": 1149,
      "amount": 1
    },
    {
      "id": 985,
      "amount": 1
    },
    {
      "id": 1623,
      "amount": 1
    },
    {
      "id": 1623,
      "amount": 1
    },
    {
      "id": 1623,
      "amount": 1
    },
    {
      "id": 561,
      "amount": 67
    },
    {
      "id": 1452,
      "amount": 1
    },
    {
      "id": 985,
      "amount": 1
    },
    {
      "id": 1615,
      "amount": 1
    },
    {
      "id": 2366,
      "amount": 1
    },
    {
      "id": 1267,
      "amount": 1
    },
    {
      "id": 1623,
      "amount": 1
    },
    {
      "id": 6524,
      "amount": 1
    },
    {
      "id": 1623,
      "amount": 1
    },
    {
      "id": 315,
      "amount": 1
    },
    {
      "id": 315,
      "amount": 1
    },
    {
      "id": 315,
      "amount": 1
    },
    {
      "id": 315,
      "amount": 1
    },
    {
      "id": 315,
      "amount": 1
    },
    {
      "id": 315,
      "amount": 1
    }
  ],
  "equipment": [
    {
      "id": 12810,
      "amount": 1
    },
    null,
    null,
    {
      "id": 841,
      "amount": 1
    },
    {
      "id": 12811,
      "amount": 1
    },
    null,
    null,
    {
      "id": 12812,
      "amount": 1
    },
    null,
    null,
    null,
    null,
    null,
    {
      "id": 882,
      "amount": 1630
    }
  ],
  "shopItems": [
    null,
    null,
    null,
    null,
    null,
    null,
    null,
    null,
    null,
    null,
    null,
    null,
    null,
    null,
    null,
    null,
    null,
    null,
    null,
    null,
    null,
    null,
    null,
    null,
    null,
    null,
    null,
    null,
    null,
    null,
    null,
    null,
    null,
    null,
    null,
    null
  ],
  "shopPrices": [
    0,
    0,
    0,
    0,
    0,
    0,
    0,
    0,
    0,
    0,
    0,
    0,
    0,
    0,
    0,
    0,
    0,
    0,
    0,
    0,
    0,
    0,
    0,
    0,
    0,
    0,
    0,
    0,
    0,
    0,
    0,
    0,
    0,
    0,
    0,
    0
  ],
  "pouches": [
    0,
    0,
    0,
    0
  ]
}