{
  "bank": [
    {
      "id": 995,
      "amount": 10444
    },
    {
      "id": 11849,
      "amount": 1
    },
    {
      "id": 1,
      "amount": 1
    },
    {
      "id": 884,
      "amount": 250
    },
    {
      "id": 442,
      "amount": 100
    },
    {
      "id": 536,
      "amount": 38
    },
    {
      "id": 10010,
      "amount": 1
    },
    {
      "id": 11260,
      "amount": 8
    },
    {
      "id": 1733,
      "amount": 2
    },
    {
      "id": 1779,
      "amount": 28
    },
    {
      "id": 1059,
      "amount": 7
    },
    {
      "id": 1734,
      "amount": 3
    },
    {
      "id": 987,
      "amount": 1
    },
    {
      "id": 1755,
      "amount": 1
    },
    {
      "id": 1846,
      "amount": 1
    },
    {
      "id": 1333,
      "amount": 1
    },
    {
      "id": 4587,
      "amount": 1
    },
    {
      "id": 1844,
      "amount": 1
    },
    {
      "id": 1845,
      "amount": 1
    },
    {
      "id": 2444,
      "amount": 2
    },
    {
      "id": 12695,
      "amount": 5
    },
    {
      "id": 143,
      "amount": 2
    },
    {
      "id": 379,
      "amount": 30
    },
    {
      "id": 7946,
      "amount": 60
    },
    {
      "id": 1381,
      "amount": 1
    },
    {
      "id": 7936,
      "amount": 39
    },
    {
      "id": 554,
      "amount": 300
    },
    {
      "id": 562,
      "amount": 100
    },
    {
      "id": 558,
      "amount": 100
    },
    {
      "id": 4155,
      "amount": 2
    },
    {
      "id": 1540,
      "amount": 2
    },
    {
      "id": 385,
      "amount": 200
    },
    {
      "id": 1712,
      "amount": 1
    },
    {
      "id": 1747,
      "amount": 2
    },
    {
      "id": 11943,
      "amount": 2
    },
    {
      "id": 11992,
      "amount": 1
    },
    {
      "id": 1426,
      "amount": 1
    },
    {
      "id": 1367,
      "amount": 1
    },
    {
      "id": 952,
      "amount": 5
    },
    {
      "id": 3749,
      "amount": 1
    },
    {
      "id": 861,
      "amount": 1
    },
    {
      "id": 892,
      "amount": 425
    },
    {
      "id": 10499,
      "amount": 1
    },
    {
      "id": 9185,
      "amount": 1
    },
    {
      "id": 2503,
      "amount": 1
    },
    {
      "id": 2497,
      "amount": 1
    },
    {
      "id": 2491,
      "amount": 1
    },
    {
      "id": 6328,
      "amount": 1
    },
    {
      "id": 9144,
      "amount": 118
    },
    {
      "id": 3144,
      "amount": 3
    },
    {
      "id": 1107,
      "amount": 1
    },
    {
      "id": 2434,
      "amount": 10
    },
    {
      "id": 169,
      "amount": 2
    },
    {
      "id": 171,
      "amount": 1
    },
    null,
    null,
    null,
    null,
    null,
    null,
    null,
    null,
    null,
    null,
    null,
    null,
    null,
    null,
    null,
    null,
    null,
    null,
    null,
    null,
    null,
    null,
    null,
    null,
    null,
    null,
    null,
    null,
    null,
    null,
    null,
    null,
    null,
    null,
    null,
    null,
    null,
    null,
    null,
    null,
    null,
    null,
    null,
    null,
    null,
    null,
    null,
    null,
    null,
    null,
    null,
    null,
    null,
    null,
    null,
    null,
    null,
    null,
    null,
    null,
    null,
    null,
    null,
    null,
    null,
    null,
    null,
    null,
    null,
    null,
    null,
    null,
    null,
    null,
    null,
    null,
    null,
    null,
    null,
    null,
    null,
    null,
    null,
    null,
    null,
    null,
    null,
    null,
    null,
    null,
    null,
    null,
    null,
    null,
    null,
    null,
    null,
    null,
    null,
    null,
    null,
    null,
    null,
    null,
    null,
    null,
    null,
    null,
    null,
    null,
    null,
    null,
    null,
    null,
    null,
    null,
    null,
    null,
    null,
    null,
    null,
    null,
    null,
    null,
    null,
    null,
    null,
    null,
    null,
    null,
    null,
    null,
    null,
    null,
    null,
    null,
    null,
    null,
    null,
    null,
    null,
    null,
    null,
    null,
    null,
    null,
    null,
    null,
    null,
    null,
    null,
    null,
    null,
    null,
    null,
    null,
    null,
    null,
    null,
    null,
    null,
    null,
    null,
    null,
    null,
    null,
    null,
    null,
    null,
    null,
    null,
    null,
    null,
    null,
    null,
    null,
    null,
    null,
    null,
    null,
    null,
    null,
    null,
    null,
    null,
    null,
    null,
    null,
    null,
    null,
    null,
    null,
    null,
    null,
    null,
    null,
    null,
    null,
    null,
    null,
    null,
    null,
    null,
    null,
    null,
    null,
    null,
    null,
    null,
    null,
    null,
    null,
    null,
    null,
    null,
    null,
    null,
    null,
    null,
    null,
    null,
    null,
    null,
    null,
    null,
    null,
    null,
    null,
    null,
    null,
    null,
    null,
    null,
    null,
    null,
    null,
    null,
    null,
    null,
    null,
    null,
    null,
    null,
    null,
    null,
    null,
    null,
    null,
    null,
    null,
    null,
    null,
    null,
    null,
    null,
    null,
    null,
    null,
    null,
    null,
    null,
    null,
    null,
    null,
    null,
    null,
    null,
    null,
    null,
    null,
    null,
    null,
    null,
    null,
    null,
    null,
    null,
    null,
    null,
    null,
    null,
    null,
    null,
    null,
    null,
    null,
    null,
    null,
    null,
    null,
    null,
    null,
    null,
    null,
    null,
    null
  ],
  "tabAmounts": [
    54,
    0,
    0,
    0,
    0,
    0,
    0,
    0,
    0,
    0
  ],
  "inventory": [
    {
      "id": 995,
      "amount": 12242
    },
    null,
    {
      "id": 11260,
      "amount": 1
    },
    {
      "id": 11260,
      "amount": 1
    },
    {
      "id": 11260,
      "amount": 1
    },
    {
      "id": 11260,
      "amount": 1
    },
    {
      "id": 11260,
      "amount": 1
    },
    {
      "id": 11260,
      "amount": 1
    },
    {
      "id": 11260,
      "amount": 1
    },
    {
      "id": 11260,
      "amount": 1
    },
    {
      "id": 11260,
      "amount": 1
    },
    {
      "id": 11260,
      "amount": 1
    },
    {
      "id": 11260,
      "amount": 1
    },
    {
      "id": 11260,
      "amount": 1
    },
    {
      "id": 11260,
      "amount": 1
    },
    {
      "id": 11260,
      "amount": 1
    },
    {
      "id": 11260,
      "amount": 1
    },
    {
      "id": 11260,
      "amount": 1
    },
    {
      "id": 11260,
      "amount": 1
    },
    {
      "id": 11260,
      "amount": 1
    },
    {
      "id": 11260,
      "amount": 1
    },
    {
      "id": 11260,
      "amount": 1
    },
    {
      "id": 11260,
      "amount": 1
    },
    {
      "id": 11260,
      "amount": 1
    },
    {
      "id": 11260,
      "amount": 1
    },
    null,
    null,
    null
  ],
  "equipment": [
    null,
    null,
    null,
    {
      "id": 10010,
      "amount": 1
    },
    null,
    null,
    null,
    null,
    null,
    null,
    null,
    null,
    null,
    null
  ],
  "shopItems": [
    null,
    null,
    null,
    null,
    null,
    null,
    null,
    null,
    null,
    null,
    null,
    null,
    null,
    null,
    null,
    null,
    null,
    null,
    null,
    null,
    null,
    null,
    null,
    null,
    null,
    null,
    null,
    null,
    null,
    null,
    null,
    null,
    null,
    null,
    null,
    null
  ],
  "shopPrices": [
    0,
    0,
    0,
    0,
    0,
    0,
    0,
    0,
    0,
    0,
    0,
    0,
    0,
    0,
    0,
    0,
    0,
    0,
    0,
    0,
    0,
    0,
    0,
    0,
    0,
    0,
    0,
    0,
    0,
    0,
    0,
    0,
    0,
    0,
    0,
    0
  ],
  "pouches": [
    0,
    0,
    0,
    0
  ]
}