{
  "bank": [
    {
      "id": 1321,
      "amount": 1
    },
    {
      "id": 1333,
      "amount": 17
    },
    {
      "id": 385,
      "amount": 1013
    },
    {
      "id": 841,
      "amount": 1
    },
    {
      "id": 861,
      "amount": 17
    },
    {
      "id": 884,
      "amount": 250
    },
    {
      "id": 892,
      "amount": 100
    },
    {
      "id": 1381,
      "amount": 1
    },
    {
      "id": 554,
      "amount": 300
    },
    {
      "id": 558,
      "amount": 201
    },
    {
      "id": 562,
      "amount": 101
    },
    {
      "id": 952,
      "amount": 1
    },
    {
      "id": 1163,
      "amount": 13
    },
    {
      "id": 2550,
      "amount": 1
    },
    {
      "id": 1712,
      "amount": 2
    },
    {
      "id": 7946,
      "amount": 100
    },
    {
      "id": 12695,
      "amount": 205
    },
    {
      "id": 2682,
      "amount": 2
    },
    {
      "id": 1,
      "amount": 1
    },
    {
      "id": 1846,
      "amount": 1
    },
    {
      "id": 1844,
      "amount": 1
    },
    {
      "id": 1845,
      "amount": 1
    },
    {
      "id": 1201,
      "amount": 14
    },
    {
      "id": 12004,
      "amount": 1
    },
    {
      "id": 4587,
      "amount": 1
    },
    {
      "id": 383,
      "amount": 200
    },
    {
      "id": 10828,
      "amount": 1
    },
    {
      "id": 12938,
      "amount": 50
    },
    {
      "id": 5302,
      "amount": 20
    },
    {
      "id": 2442,
      "amount": 30
    },
    {
      "id": 1127,
      "amount": 27
    },
    {
      "id": 2436,
      "amount": 60
    },
    {
      "id": 7460,
      "amount": 1
    },
    {
      "id": 1513,
      "amount": 150
    },
    {
      "id": 1079,
      "amount": 14
    },
    {
      "id": 4759,
      "amount": 2
    },
    {
      "id": 4732,
      "amount": 2
    },
    {
      "id": 451,
      "amount": 90
    },
    {
      "id": 7980,
      "amount": 3
    },
    {
      "id": 11936,
      "amount": 97
    },
    {
      "id": 2440,
      "amount": 20
    },
    {
      "id": 7981,
      "amount": 2
    },
    {
      "id": 4708,
      "amount": 2
    },
    {
      "id": 4757,
      "amount": 1
    },
    {
      "id": 4585,
      "amount": 3
    },
    {
      "id": 4730,
      "amount": 2
    },
    {
      "id": 7462,
      "amount": 11
    },
    {
      "id": 7340,
      "amount": 2
    },
    {
      "id": 12361,
      "amount": 1
    },
    {
      "id": 1161,
      "amount": 5
    },
    {
      "id": 1345,
      "amount": 4
    },
    {
      "id": 7346,
      "amount": 3
    },
    {
      "id": 1331,
      "amount": 3
    },
    {
      "id": 1692,
      "amount": 2
    },
    {
      "id": 10320,
      "amount": 1
    },
    {
      "id": 1297,
      "amount": 3
    },
    {
      "id": 1217,
      "amount": 2
    },
    {
      "id": 4747,
      "amount": 1
    },
    {
      "id": 2647,
      "amount": 3
    },
    {
      "id": 1093,
      "amount": 23
    },
    {
      "id": 2434,
      "amount": 75
    },
    {
      "id": 1149,
      "amount": 4
    },
    {
      "id": 7979,
      "amount": 6
    },
    {
      "id": 4751,
      "amount": 1
    },
    {
      "id": 1371,
      "amount": 2
    },
    {
      "id": 12496,
      "amount": 5
    },
    {
      "id": 4087,
      "amount": 2
    },
    {
      "id": 4724,
      "amount": 2
    },
    {
      "id": 397,
      "amount": 50
    },
    {
      "id": 292,
      "amount": 2
    },
    {
      "id": 4236,
      "amount": 1
    },
    {
      "id": 748,
      "amount": 1
    },
    {
      "id": 317,
      "amount": 100
    },
    {
      "id": 11663,
      "amount": 1
    },
    {
      "id": 331,
      "amount": 100
    },
    {
      "id": 377,
      "amount": 100
    },
    {
      "id": 371,
      "amount": 100
    },
    {
      "id": 395,
      "amount": 100
    },
    {
      "id": 11934,
      "amount": 100
    },
    {
      "id": 4716,
      "amount": 1
    },
    {
      "id": 8842,
      "amount": 1
    },
    {
      "id": 12309,
      "amount": 1
    },
    {
      "id": 13275,
      "amount": 1
    },
    {
      "id": 4070,
      "amount": 1
    },
    {
      "id": 2722,
      "amount": 10
    },
    {
      "id": 7783,
      "amount": 3
    },
    {
      "id": 2577,
      "amount": 1
    },
    {
      "id": 2803,
      "amount": 1
    },
    {
      "id": 7795,
      "amount": 2
    },
    {
      "id": 12608,
      "amount": 1
    },
    {
      "id": 12598,
      "amount": 1
    },
    {
      "id": 3486,
      "amount": 2
    },
    {
      "id": 3488,
      "amount": 8
    },
    {
      "id": 6920,
      "amount": 1
    },
    {
      "id": 1187,
      "amount": 1
    },
    {
      "id": 11889,
      "amount": 1
    },
    {
      "id": 6570,
      "amount": 1
    },
    {
      "id": 13281,
      "amount": 1
    },
    {
      "id": 859,
      "amount": 22
    },
    {
      "id": 11943,
      "amount": 54
    },
    {
      "id": 7798,
      "amount": 6
    },
    {
      "id": 7786,
      "amount": 4
    },
    {
      "id": 4755,
      "amount": 1
    },
    {
      "id": 7789,
      "amount": 1
    },
    {
      "id": 3024,
      "amount": 30
    },
    {
      "id": 207,
      "amount": 100
    },
    {
      "id": 19695,
      "amount": 1
    },
    {
      "id": 1301,
      "amount": 3
    },
    {
      "id": 1442,
      "amount": 1
    },
    {
      "id": 3836,
      "amount": 1
    },
    {
      "id": 1478,
      "amount": 1
    },
    {
      "id": 1135,
      "amount": 5
    },
    {
      "id": 3483,
      "amount": 2
    },
    {
      "id": 6922,
      "amount": 1
    },
    {
      "id": 4131,
      "amount": 1
    },
    {
      "id": 11665,
      "amount": 1
    },
    {
      "id": 10551,
      "amount": 4
    },
    {
      "id": 6524,
      "amount": 3
    },
    {
      "id": 4734,
      "amount": 1
    },
    {
      "id": 4736,
      "amount": 1
    },
    {
      "id": 7142,
      "amount": 1
    },
    {
      "id": 13092,
      "amount": 1
    },
    {
      "id": 19529,
      "amount": 1
    },
    {
      "id": 2944,
      "amount": 2
    },
    {
      "id": 12530,
      "amount": 4
    },
    {
      "id": 6685,
      "amount": 20
    },
    {
      "id": 4749,
      "amount": 2
    },
    {
      "id": 11230,
      "amount": 100
    },
    {
      "id": 4718,
      "amount": 1
    },
    {
      "id": 7332,
      "amount": 3
    },
    {
      "id": 329,
      "amount": 3
    },
    {
      "id": 1151,
      "amount": 1
    },
    {
      "id": 3828,
      "amount": 1
    },
    {
      "id": 2631,
      "amount": 1
    },
    {
      "id": 12253,
      "amount": 1
    },
    {
      "id": 564,
      "amount": 713
    },
    {
      "id": 7344,
      "amount": 1
    },
    {
      "id": 1361,
      "amount": 2
    },
    {
      "id": 849,
      "amount": 3
    },
    {
      "id": 1462,
      "amount": 3
    },
    {
      "id": 10410,
      "amount": 2
    },
    {
      "id": 1283,
      "amount": 4
    },
    {
      "id": 1694,
      "amount": 2
    },
    {
      "id": 1454,
      "amount": 2
    },
    {
      "id": 1698,
      "amount": 1
    },
    {
      "id": 995,
      "amount": 66143
    },
    {
      "id": 7338,
      "amount": 2
    },
    {
      "id": 1131,
      "amount": 2
    },
    {
      "id": 12239,
      "amount": 1
    },
    {
      "id": 10308,
      "amount": 1
    },
    {
      "id": 10306,
      "amount": 1
    },
    {
      "id": 1327,
      "amount": 2
    },
    {
      "id": 1341,
      "amount": 2
    },
    {
      "id": 560,
      "amount": 494
    },
    {
      "id": 1440,
      "amount": 1
    },
    {
      "id": 1448,
      "amount": 1
    },
    {
      "id": 1077,
      "amount": 1
    },
    {
      "id": 1269,
      "amount": 1
    },
    {
      "id": 1444,
      "amount": 1
    },
    {
      "id": 1167,
      "amount": 1
    },
    {
      "id": 12265,
      "amount": 2
    },
    {
      "id": 1452,
      "amount": 3
    },
    {
      "id": 2675,
      "amount": 4
    },
    {
      "id": 10292,
      "amount": 10
    },
    {
      "id": 7348,
      "amount": 4
    },
    {
      "id": 1199,
      "amount": 2
    },
    {
      "id": 7400,
      "amount": 7
    },
    {
      "id": 7321,
      "amount": 2
    },
    {
      "id": 1147,
      "amount": 12
    },
    {
      "id": 7360,
      "amount": 6
    },
    {
      "id": 12512,
      "amount": 5
    },
    {
      "id": 1303,
      "amount": 21
    },
    {
      "id": 12518,
      "amount": 7
    },
    {
      "id": 379,
      "amount": 19
    },
    {
      "id": 2503,
      "amount": 14
    },
    {
      "id": 2497,
      "amount": 9
    },
    {
      "id": 2655,
      "amount": 4
    },
    {
      "id": 1125,
      "amount": 1
    },
    {
      "id": 7354,
      "amount": 10
    },
    {
      "id": 1357,
      "amount": 1
    },
    {
      "id": 12305,
      "amount": 2
    },
    {
      "id": 2491,
      "amount": 16
    },
    {
      "id": 1099,
      "amount": 6
    },
    {
      "id": 1432,
      "amount": 16
    },
    {
      "id": 1373,
      "amount": 16
    },
    {
      "id": 2657,
      "amount": 5
    },
    {
      "id": 2623,
      "amount": 2
    },
    {
      "id": 10290,
      "amount": 8
    },
    {
      "id": 1113,
      "amount": 14
    },
    {
      "id": 12504,
      "amount": 4
    },
    {
      "id": 12359,
      "amount": 1
    },
    {
      "id": 7382,
      "amount": 4
    },
    {
      "id": 1317,
      "amount": 6
    },
    {
      "id": 10418,
      "amount": 2
    },
    {
      "id": 10376,
      "amount": 4
    },
    {
      "id": 10474,
      "amount": 2
    },
    {
      "id": 7399,
      "amount": 8
    },
    {
      "id": 12267,
      "amount": 1
    },
    {
      "id": 8778,
      "amount": 1
    },
    {
      "id": 12500,
      "amount": 4
    },
    {
      "id": 7374,
      "amount": 3
    },
    {
      "id": 1319,
      "amount": 13
    },
    {
      "id": 1289,
      "amount": 12
    },
    {
      "id": 1123,
      "amount": 3
    },
    {
      "id": 10372,
      "amount": 4
    },
    {
      "id": 12524,
      "amount": 4
    },
    {
      "id": 12325,
      "amount": 3
    },
    {
      "id": 1213,
      "amount": 13
    },
    {
      "id": 10286,
      "amount": 12
    },
    {
      "id": 1359,
      "amount": 20
    },
    {
      "id": 1438,
      "amount": 1
    },
    {
      "id": 3831,
      "amount": 1
    },
    {
      "id": 2669,
      "amount": 6
    },
    {
      "id": 12379,
      "amount": 1
    },
    {
      "id": 2649,
      "amount": 2
    },
    {
      "id": 12275,
      "amount": 3
    },
    {
      "id": 7334,
      "amount": 1
    },
    {
      "id": 857,
      "amount": 1
    },
    {
      "id": 1347,
      "amount": 22
    },
    {
      "id": 1185,
      "amount": 13
    },
    {
      "id": 10380,
      "amount": 2
    },
    {
      "id": 12307,
      "amount": 2
    },
    {
      "id": 1073,
      "amount": 4
    },
    {
      "id": 1107,
      "amount": 2
    },
    {
      "id": 7327,
      "amount": 2
    },
    {
      "id": 8780,
      "amount": 1
    },
    {
      "id": 12506,
      "amount": 6
    },
    {
      "id": 10280,
      "amount": 1
    },
    {
      "id": 12195,
      "amount": 1
    },
    {
      "id": 12321,
      "amount": 2
    },
    {
      "id": 10304,
      "amount": 3
    },
    {
      "id": 10386,
      "amount": 2
    },
    {
      "id": 10294,
      "amount": 11
    },
    {
      "id": 12522,
      "amount": 4
    },
    {
      "id": 1426,
      "amount": 2
    },
    {
      "id": 7342,
      "amount": 9
    },
    {
      "id": 3474,
      "amount": 1
    },
    {
      "id": 2617,
      "amount": 1
    },
    {
      "id": 3479,
      "amount": 4
    },
    {
      "id": 10470,
      "amount": 2
    },
    {
      "id": 1095,
      "amount": 1
    },
    {
      "id": 1271,
      "amount": 2
    },
    {
      "id": 2667,
      "amount": 4
    },
    {
      "id": 2619,
      "amount": 1
    },
    {
      "id": 1111,
      "amount": 2
    },
    {
      "id": 10444,
      "amount": 4
    },
    {
      "id": 7352,
      "amount": 3
    },
    {
      "id": 12199,
      "amount": 1
    },
    {
      "id": 2661,
      "amount": 5
    },
    {
      "id": 373,
      "amount": 3
    },
    {
      "id": 1696,
      "amount": 2
    },
    {
      "id": 12508,
      "amount": 4
    },
    {
      "id": 2665,
      "amount": 7
    },
    {
      "id": 7384,
      "amount": 4
    },
    {
      "id": 12387,
      "amount": 1
    },
    {
      "id": 1287,
      "amount": 3
    },
    {
      "id": 3480,
      "amount": 6
    },
    {
      "id": 12301,
      "amount": 2
    },
    {
      "id": 2639,
      "amount": 4
    },
    {
      "id": 10298,
      "amount": 3
    },
    {
      "id": 2659,
      "amount": 8
    },
    {
      "id": 7376,
      "amount": 4
    },
    {
      "id": 7336,
      "amount": 4
    },
    {
      "id": 1430,
      "amount": 2
    },
    {
      "id": 7319,
      "amount": 1
    },
    {
      "id": 7392,
      "amount": 1
    },
    {
      "id": 12277,
      "amount": 2
    },
    {
      "id": 2671,
      "amount": 1
    },
    {
      "id": 10288,
      "amount": 5
    },
    {
      "id": 12532,
      "amount": 1
    },
    {
      "id": 1211,
      "amount": 2
    },
    {
      "id": 12323,
      "amount": 3
    },
    {
      "id": 2641,
      "amount": 2
    },
    {
      "id": 12494,
      "amount": 2
    },
    {
      "id": 12520,
      "amount": 4
    },
    {
      "id": 10432,
      "amount": 1
    },
    {
      "id": 7398,
      "amount": 5
    },
    {
      "id": 10384,
      "amount": 3
    },
    {
      "id": 12255,
      "amount": 1
    },
    {
      "id": 10414,
      "amount": 1
    },
    {
      "id": 10440,
      "amount": 2
    },
    {
      "id": 2673,
      "amount": 4
    },
    {
      "id": 12502,
      "amount": 2
    },
    {
      "id": 2607,
      "amount": 2
    },
    {
      "id": 2621,
      "amount": 2
    },
    {
      "id": 1700,
      "amount": 1
    },
    {
      "id": 10314,
      "amount": 1
    },
    {
      "id": 10382,
      "amount": 2
    },
    {
      "id": 2637,
      "amount": 1
    },
    {
      "id": 2663,
      "amount": 3
    },
    {
      "id": 10390,
      "amount": 2
    },
    {
      "id": 12283,
      "amount": 1
    },
    {
      "id": 3477,
      "amount": 3
    },
    {
      "id": 12343,
      "amount": 2
    },
    {
      "id": 12516,
      "amount": 3
    },
    {
      "id": 12299,
      "amount": 1
    },
    {
      "id": 10442,
      "amount": 2
    },
    {
      "id": 3478,
      "amount": 6
    },
    {
      "id": 8840,
      "amount": 1
    },
    {
      "id": 11664,
      "amount": 1
    },
    {
      "id": 8839,
      "amount": 1
    },
    {
      "id": 12538,
      "amount": 4
    },
    {
      "id": 2601,
      "amount": 1
    },
    {
      "id": 561,
      "amount": 3
    },
    {
      "id": 4823,
      "amount": 8
    },
    {
      "id": 1393,
      "amount": 2
    },
    {
      "id": 12263,
      "amount": 2
    },
    {
      "id": 12291,
      "amount": 1
    },
    {
      "id": 557,
      "amount": 43
    },
    {
      "id": 10448,
      "amount": 1
    },
    {
      "id": 1183,
      "amount": 2
    },
    {
      "id": 12201,
      "amount": 2
    },
    {
      "id": 19689,
      "amount": 1
    },
    {
      "id": 12197,
      "amount": 1
    },
    {
      "id": 12492,
      "amount": 2
    },
    {
      "id": 12257,
      "amount": 1
    },
    {
      "id": 12526,
      "amount": 1
    },
    {
      "id": 10468,
      "amount": 1
    },
    {
      "id": 10388,
      "amount": 2
    },
    {
      "id": 10466,
      "amount": 1
    },
    {
      "id": 1165,
      "amount": 1
    },
    {
      "id": 10374,
      "amount": 1
    },
    {
      "id": 10302,
      "amount": 1
    },
    {
      "id": 10368,
      "amount": 2
    },
    {
      "id": 2653,
      "amount": 2
    },
    {
      "id": 10472,
      "amount": 2
    },
    {
      "id": 12311,
      "amount": 1
    },
    {
      "id": 2579,
      "amount": 1
    },
    {
      "id": 2643,
      "amount": 3
    },
    {
      "id": 10378,
      "amount": 1
    },
    {
      "id": 10296,
      "amount": 2
    },
    {
      "id": 7325,
      "amount": 1
    },
    {
      "id": 12534,
      "amount": 3
    },
    {
      "id": 13280,
      "amount": 1
    },
    {
      "id": 12934,
      "amount": 2145712534
    },
    null,
    null,
    null,
    null,
    null,
    null,
    null,
    null,
    null,
    null,
    null,
    null,
    null,
    null,
    null
  ],
  "tabAmounts": [
    335,
    0,
    0,
    0,
    0,
    0,
    0,
    0,
    0,
    0
  ],
  "inventory": [
    null,
    null,
    null,
    null,
    null,
    null,
    null,
    null,
    null,
    null,
    null,
    null,
    null,
    null,
    null,
    null,
    null,
    null,
    null,
    null,
    null,
    null,
    null,
    null,
    null,
    null,
    null,
    null
  ],
  "equipment": [
    {
      "id": 12417,
      "amount": 1
    },
    {
      "id": 13222,
      "amount": 1
    },
    {
      "id": 1499,
      "amount": 1
    },
    {
      "id": 19481,
      "amount": 1
    },
    {
      "id": 12414,
      "amount": 1
    },
    null,
    null,
    {
      "id": 12415,
      "amount": 1
    },
    null,
    {
      "id": 1580,
      "amount": 1
    },
    {
      "id": 3105,
      "amount": 1
    },
    null,
    {
      "id": 10872,
      "amount": 1
    },
    {
      "id": 19484,
      "amount": 1000
    }
  ],
  "shopItems": [
    null,
    null,
    null,
    null,
    null,
    null,
    null,
    null,
    null,
    null,
    null,
    null,
    null,
    null,
    null,
    null,
    null,
    null,
    null,
    null,
    null,
    null,
    null,
    null,
    null,
    null,
    null,
    null,
    null,
    null,
    null,
    null,
    null,
    null,
    null,
    null
  ],
  "shopPrices": [
    0,
    0,
    0,
    0,
    0,
    0,
    0,
    0,
    0,
    0,
    0,
    0,
    0,
    0,
    0,
    0,
    0,
    0,
    0,
    0,
    0,
    0,
    0,
    0,
    0,
    0,
    0,
    0,
    0,
    0,
    0,
    0,
    0,
    0,
    0,
    0
  ],
  "pouches": [
    0,
    0,
    0,
    0
  ]
}