{
  "bank": [
    {
      "id": 590,
      "amount": 1
    },
    {
      "id": 315,
      "amount": 13
    },
    {
      "id": 559,
      "amount": 470
    },
    {
      "id": 1171,
      "amount": 1
    },
    {
      "id": 2355,
      "amount": 3
    },
    {
      "id": 133,
      "amount": 3
    },
    {
      "id": 946,
      "amount": 4
    },
    {
      "id": 1607,
      "amount": 23
    },
    {
      "id": 1755,
      "amount": 2
    },
    {
      "id": 563,
      "amount": 4018
    },
    {
      "id": 566,
      "amount": 22
    },
    {
      "id": 3144,
      "amount": 4
    },
    {
      "id": 4097,
      "amount": 4
    },
    {
      "id": 5299,
      "amount": 2
    },
    {
      "id": 565,
      "amount": 611
    },
    {
      "id": 269,
      "amount": 2
    },
    {
      "id": 2359,
      "amount": 1
    },
    {
      "id": 1777,
      "amount": 1
    },
    {
      "id": 5313,
      "amount": 1
    },
    {
      "id": 805,
      "amount": 500
    },
    {
      "id": 892,
      "amount": 560
    },
    {
      "id": 9341,
      "amount": 46
    },
    {
      "id": 1700,
      "amount": 1
    },
    {
      "id": 4093,
      "amount": 1
    },
    {
      "id": 1277,
      "amount": 1
    },
    {
      "id": 2366,
      "amount": 2
    },
    {
      "id": 560,
      "amount": 1001
    },
    {
      "id": 7936,
      "amount": 3893
    },
    {
      "id": 1452,
      "amount": 2
    },
    {
      "id": 592,
      "amount": 6372
    },
    {
      "id": 526,
      "amount": 31
    },
    {
      "id": 12811,
      "amount": 1
    },
    {
      "id": 12810,
      "amount": 1
    },
    {
      "id": 10952,
      "amount": 2
    },
    {
      "id": 12299,
      "amount": 1
    },
    {
      "id": 562,
      "amount": 1651
    },
    {
      "id": 301,
      "amount": 1
    },
    {
      "id": 257,
      "amount": 7
    },
    {
      "id": 13092,
      "amount": 1
    },
    {
      "id": 809,
      "amount": 63
    },
    {
      "id": 12812,
      "amount": 1
    },
    {
      "id": 11849,
      "amount": 4
    },
    {
      "id": 11212,
      "amount": 103
    },
    {
      "id": 993,
      "amount": 1
    },
    {
      "id": 2509,
      "amount": 316
    },
    {
      "id": 1734,
      "amount": 12
    },
    {
      "id": 361,
      "amount": 77
    },
    {
      "id": 7376,
      "amount": 1
    },
    {
      "id": 373,
      "amount": 37
    },
    {
      "id": 371,
      "amount": 16
    },
    {
      "id": 7946,
      "amount": 81
    },
    {
      "id": 10420,
      "amount": 1
    },
    {
      "id": 12303,
      "amount": 1
    },
    {
      "id": 229,
      "amount": 116
    },
    {
      "id": 12453,
      "amount": 1
    },
    {
      "id": 2491,
      "amount": 2
    },
    {
      "id": 6914,
      "amount": 1
    },
    {
      "id": 11936,
      "amount": 21
    },
    {
      "id": 5520,
      "amount": 1
    },
    {
      "id": 11232,
      "amount": 27
    },
    {
      "id": 7218,
      "amount": 11
    },
    {
      "id": 1747,
      "amount": 10
    },
    {
      "id": 10010,
      "amount": 1
    },
    {
      "id": 658,
      "amount": 1
    },
    {
      "id": 12313,
      "amount": 1
    },
    {
      "id": 3753,
      "amount": 2
    },
    {
      "id": 952,
      "amount": 3
    },
    {
      "id": 9758,
      "amount": 1
    },
    {
      "id": 9757,
      "amount": 1
    },
    {
      "id": 10499,
      "amount": 1
    },
    {
      "id": 3843,
      "amount": 2
    },
    {
      "id": 2368,
      "amount": 3
    },
    {
      "id": 2347,
      "amount": 1
    },
    {
      "id": 1267,
      "amount": 1
    },
    {
      "id": 556,
      "amount": 627
    },
    {
      "id": 558,
      "amount": 884
    },
    {
      "id": 383,
      "amount": 552
    },
    {
      "id": 11934,
      "amount": 10
    },
    {
      "id": 1982,
      "amount": 3
    },
    {
      "id": 1387,
      "amount": 1
    },
    {
      "id": 6529,
      "amount": 16064
    },
    {
      "id": 12375,
      "amount": 1
    },
    {
      "id": 143,
      "amount": 32
    },
    {
      "id": 12455,
      "amount": 1
    },
    {
      "id": 7979,
      "amount": 1
    },
    {
      "id": 7382,
      "amount": 1
    },
    {
      "id": 10396,
      "amount": 1
    },
    {
      "id": 5290,
      "amount": 2
    },
    {
      "id": 359,
      "amount": 1
    },
    {
      "id": 311,
      "amount": 1
    },
    {
      "id": 12771,
      "amount": 1
    },
    {
      "id": 303,
      "amount": 1
    },
    {
      "id": 10551,
      "amount": 2
    },
    {
      "id": 2890,
      "amount": 2
    },
    {
      "id": 7374,
      "amount": 1
    },
    {
      "id": 10298,
      "amount": 1
    },
    {
      "id": 12610,
      "amount": 1
    },
    {
      "id": 3755,
      "amount": 1
    },
    {
      "id": 2446,
      "amount": 1
    },
    {
      "id": 179,
      "amount": 1
    },
    {
      "id": 3839,
      "amount": 1
    },
    {
      "id": 12502,
      "amount": 1
    },
    {
      "id": 1511,
      "amount": 1
    },
    {
      "id": 52,
      "amount": 405
    },
    {
      "id": 1521,
      "amount": 1
    },
    {
      "id": 54,
      "amount": 27
    },
    {
      "id": 1517,
      "amount": 39
    },
    {
      "id": 1515,
      "amount": 38
    },
    {
      "id": 12524,
      "amount": 1
    },
    {
      "id": 1359,
      "amount": 2
    },
    {
      "id": 2503,
      "amount": 1
    },
    {
      "id": 3028,
      "amount": 1
    },
    {
      "id": 6685,
      "amount": 40
    },
    {
      "id": 5316,
      "amount": 2
    },
    {
      "id": 4740,
      "amount": 530
    },
    {
      "id": 6330,
      "amount": 2
    },
    {
      "id": 6735,
      "amount": 1
    },
    {
      "id": 1273,
      "amount": 1
    },
    {
      "id": 555,
      "amount": 896
    },
    {
      "id": 1759,
      "amount": 1
    },
    {
      "id": 554,
      "amount": 590
    },
    {
      "id": 557,
      "amount": 568
    },
    {
      "id": 139,
      "amount": 11
    },
    {
      "id": 141,
      "amount": 9
    },
    {
      "id": 830,
      "amount": 370
    },
    {
      "id": 2434,
      "amount": 484
    },
    {
      "id": 1621,
      "amount": 1
    },
    {
      "id": 3749,
      "amount": 2
    },
    {
      "id": 1619,
      "amount": 7
    },
    {
      "id": 5289,
      "amount": 3
    },
    {
      "id": 2361,
      "amount": 25
    },
    {
      "id": 6916,
      "amount": 1
    },
    {
      "id": 451,
      "amount": 25
    },
    {
      "id": 1844,
      "amount": 1
    },
    {
      "id": 1845,
      "amount": 1
    },
    {
      "id": 1846,
      "amount": 1
    },
    {
      "id": 561,
      "amount": 134
    },
    {
      "id": 1347,
      "amount": 2
    },
    {
      "id": 9183,
      "amount": 1
    },
    {
      "id": 1391,
      "amount": 10
    },
    {
      "id": 1623,
      "amount": 31
    },
    {
      "id": 1099,
      "amount": 3
    },
    {
      "id": 532,
      "amount": 1294
    },
    {
      "id": 950,
      "amount": 5
    },
    {
      "id": 5288,
      "amount": 4
    },
    {
      "id": 12451,
      "amount": 2
    },
    {
      "id": 12447,
      "amount": 1
    },
    {
      "id": 1213,
      "amount": 1
    },
    {
      "id": 1617,
      "amount": 3
    },
    {
      "id": 4736,
      "amount": 1
    },
    {
      "id": 4728,
      "amount": 1
    },
    {
      "id": 4708,
      "amount": 1
    },
    {
      "id": 4724,
      "amount": 3
    },
    {
      "id": 7462,
      "amount": 6
    },
    {
      "id": 3385,
      "amount": 2
    },
    {
      "id": 7460,
      "amount": 1
    },
    {
      "id": 1779,
      "amount": 2385
    },
    {
      "id": 987,
      "amount": 7
    },
    {
      "id": 1462,
      "amount": 2
    },
    {
      "id": 10828,
      "amount": 2
    },
    {
      "id": 1249,
      "amount": 1
    },
    {
      "id": 7360,
      "amount": 1
    },
    {
      "id": 2657,
      "amount": 1
    },
    {
      "id": 2442,
      "amount": 10
    },
    {
      "id": 536,
      "amount": 258
    },
    {
      "id": 2550,
      "amount": 1
    },
    {
      "id": 1631,
      "amount": 10
    },
    {
      "id": 811,
      "amount": 1500
    },
    {
      "id": 9244,
      "amount": 601
    },
    {
      "id": 11260,
      "amount": 1
    },
    {
      "id": 171,
      "amount": 5
    },
    {
      "id": 169,
      "amount": 3
    },
    {
      "id": 1615,
      "amount": 1
    },
    {
      "id": 3841,
      "amount": 1
    },
    {
      "id": 4720,
      "amount": 1
    },
    {
      "id": 2682,
      "amount": 4
    },
    {
      "id": 2680,
      "amount": 3
    },
    {
      "id": 2444,
      "amount": 91
    },
    {
      "id": 564,
      "amount": 3
    },
    {
      "id": 12746,
      "amount": 1
    },
    {
      "id": 1373,
      "amount": 1
    },
    {
      "id": 2493,
      "amount": 1
    },
    {
      "id": 1163,
      "amount": 1
    },
    {
      "id": 1079,
      "amount": 1
    },
    {
      "id": 861,
      "amount": 1
    },
    {
      "id": 4214,
      "amount": 1
    },
    {
      "id": 886,
      "amount": 150
    },
    {
      "id": 11169,
      "amount": 1
    },
    {
      "id": 430,
      "amount": 1
    },
    {
      "id": 1127,
      "amount": 1
    },
    {
      "id": 3393,
      "amount": 1
    },
    {
      "id": 3387,
      "amount": 1
    },
    {
      "id": 292,
      "amount": 1
    },
    {
      "id": 11943,
      "amount": 23
    },
    {
      "id": 4095,
      "amount": 1
    },
    {
      "id": 2639,
      "amount": 1
    },
    {
      "id": 995,
      "amount": 68943882
    },
    {
      "id": 173,
      "amount": 2
    },
    {
      "id": 4207,
      "amount": 1
    },
    {
      "id": 12938,
      "amount": 6
    },
    {
      "id": 1625,
      "amount": 87
    },
    {
      "id": 5341,
      "amount": 1
    },
    {
      "id": 5343,
      "amount": 1
    },
    {
      "id": 5325,
      "amount": 1
    },
    {
      "id": 5331,
      "amount": 1
    },
    {
      "id": 1275,
      "amount": 1
    },
    {
      "id": 11230,
      "amount": 10
    },
    {
      "id": 12934,
      "amount": 1
    },
    {
      "id": 385,
      "amount": 218
    },
    {
      "id": 9193,
      "amount": 145
    },
    {
      "id": 1513,
      "amount": 1
    },
    {
      "id": 12695,
      "amount": 1
    },
    {
      "id": 6573,
      "amount": 1
    },
    {
      "id": 13441,
      "amount": 315
    },
    null,
    null,
    null,
    null,
    null,
    null,
    null,
    null,
    null,
    null,
    null,
    null,
    null,
    null,
    null,
    null,
    null,
    null,
    null,
    null,
    null,
    null,
    null,
    null,
    null,
    null,
    null,
    null,
    null,
    null,
    null,
    null,
    null,
    null,
    null,
    null,
    null,
    null,
    null,
    null,
    null,
    null,
    null,
    null,
    null,
    null,
    null,
    null,
    null,
    null,
    null,
    null,
    null,
    null,
    null,
    null,
    null,
    null,
    null,
    null,
    null,
    null,
    null,
    null,
    null,
    null,
    null,
    null,
    null,
    null,
    null,
    null,
    null,
    null,
    null,
    null,
    null,
    null,
    null,
    null,
    null,
    null,
    null,
    null,
    null,
    null,
    null,
    null,
    null,
    null,
    null,
    null,
    null,
    null,
    null,
    null,
    null,
    null,
    null,
    null,
    null,
    null,
    null,
    null,
    null,
    null,
    null,
    null,
    null,
    null,
    null,
    null,
    null,
    null,
    null,
    null,
    null,
    null,
    null,
    null,
    null,
    null,
    null,
    null,
    null,
    null,
    null,
    null,
    null,
    null,
    null,
    null,
    null,
    null,
    null,
    null
  ],
  "tabAmounts": [
    207,
    3,
    4,
    0,
    0,
    0,
    0,
    0,
    0,
    0
  ],
  "inventory": [
    null,
    null,
    null,
    null,
    null,
    null,
    null,
    null,
    null,
    null,
    null,
    null,
    null,
    null,
    null,
    null,
    null,
    null,
    null,
    null,
    null,
    null,
    null,
    null,
    null,
    null,
    null,
    null
  ],
  "equipment": [
    {
      "id": 11664,
      "amount": 1
    },
    {
      "id": 10499,
      "amount": 1
    },
    null,
    null,
    {
      "id": 8839,
      "amount": 1
    },
    null,
    null,
    {
      "id": 8840,
      "amount": 1
    },
    null,
    {
      "id": 8842,
      "amount": 1
    },
    null,
    null,
    {
      "id": 2572,
      "amount": 1
    },
    null
  ],
  "shopItems": [
    null,
    null,
    null,
    null,
    null,
    null,
    null,
    null,
    null,
    null,
    null,
    null,
    null,
    null,
    null,
    null,
    null,
    null,
    null,
    null,
    null,
    null,
    null,
    null,
    null,
    null,
    null,
    null,
    null,
    null,
    null,
    null,
    null,
    null,
    null,
    null
  ],
  "shopPrices": [
    0,
    0,
    0,
    0,
    0,
    0,
    0,
    0,
    0,
    0,
    0,
    0,
    0,
    0,
    0,
    0,
    0,
    0,
    0,
    0,
    0,
    0,
    0,
    0,
    0,
    0,
    0,
    0,
    0,
    0,
    0,
    0,
    0,
    0,
    0,
    0
  ],
  "pouches": [
    0,
    0,
    0,
    0
  ]
}