{
  "bank": [
    {
      "id": 995,
      "amount": 252463
    },
    {
      "id": 1321,
      "amount": 1
    },
    {
      "id": 1333,
      "amount": 3
    },
    {
      "id": 4587,
      "amount": 1
    },
    {
      "id": 841,
      "amount": 1
    },
    {
      "id": 861,
      "amount": 7
    },
    {
      "id": 884,
      "amount": 250
    },
    {
      "id": 892,
      "amount": 100
    },
    {
      "id": 1381,
      "amount": 1
    },
    {
      "id": 554,
      "amount": 300
    },
    {
      "id": 558,
      "amount": 100
    },
    {
      "id": 562,
      "amount": 100
    },
    {
      "id": 1844,
      "amount": 1
    },
    {
      "id": 1845,
      "amount": 1
    },
    {
      "id": 1846,
      "amount": 1
    },
    {
      "id": 1712,
      "amount": 1
    },
    {
      "id": 7946,
      "amount": 100
    },
    {
      "id": 12695,
      "amount": 5
    },
    {
      "id": 2682,
      "amount": 1
    },
    {
      "id": 1,
      "amount": 29
    },
    {
      "id": 2675,
      "amount": 2
    },
    {
      "id": 2623,
      "amount": 1
    },
    {
      "id": 2643,
      "amount": 2
    },
    {
      "id": 12516,
      "amount": 1
    },
    {
      "id": 12257,
      "amount": 2
    },
    {
      "id": 12269,
      "amount": 1
    },
    {
      "id": 12428,
      "amount": 1
    },
    {
      "id": 2663,
      "amount": 1
    },
    {
      "id": 12445,
      "amount": 1
    },
    {
      "id": 2631,
      "amount": 2
    },
    {
      "id": 2653,
      "amount": 1
    },
    {
      "id": 10394,
      "amount": 2
    },
    {
      "id": 12361,
      "amount": 1
    },
    {
      "id": 12453,
      "amount": 4
    },
    {
      "id": 10428,
      "amount": 1
    },
    {
      "id": 2669,
      "amount": 4
    },
    {
      "id": 12317,
      "amount": 1
    },
    {
      "id": 3835,
      "amount": 1
    },
    {
      "id": 9736,
      "amount": 360
    },
    {
      "id": 8780,
      "amount": 201
    },
    {
      "id": 7944,
      "amount": 400
    },
    {
      "id": 444,
      "amount": 400
    },
    {
      "id": 8778,
      "amount": 120
    },
    {
      "id": 1779,
      "amount": 3431
    },
    {
      "id": 7979,
      "amount": 1
    },
    {
      "id": 7981,
      "amount": 3
    },
    {
      "id": 2366,
      "amount": 2
    },
    {
      "id": 7400,
      "amount": 2
    },
    {
      "id": 7384,
      "amount": 3
    },
    {
      "id": 12323,
      "amount": 2
    },
    {
      "id": 7336,
      "amount": 3
    },
    {
      "id": 10286,
      "amount": 9
    },
    {
      "id": 2665,
      "amount": 2
    },
    {
      "id": 7358,
      "amount": 1
    },
    {
      "id": 7354,
      "amount": 3
    },
    {
      "id": 1317,
      "amount": 1
    },
    {
      "id": 10290,
      "amount": 4
    },
    {
      "id": 379,
      "amount": 6
    },
    {
      "id": 1073,
      "amount": 1
    },
    {
      "id": 7382,
      "amount": 1
    },
    {
      "id": 2649,
      "amount": 2
    },
    {
      "id": 1359,
      "amount": 4
    },
    {
      "id": 10372,
      "amount": 1
    },
    {
      "id": 10374,
      "amount": 2
    },
    {
      "id": 3480,
      "amount": 4
    },
    {
      "id": 3479,
      "amount": 1
    },
    {
      "id": 859,
      "amount": 2
    },
    {
      "id": 2491,
      "amount": 5
    },
    {
      "id": 1331,
      "amount": 2
    },
    {
      "id": 1147,
      "amount": 3
    },
    {
      "id": 1099,
      "amount": 1
    },
    {
      "id": 1079,
      "amount": 4
    },
    {
      "id": 1319,
      "amount": 3
    },
    {
      "id": 10390,
      "amount": 3
    },
    {
      "id": 4823,
      "amount": 1
    },
    {
      "id": 1127,
      "amount": 4
    },
    {
      "id": 1452,
      "amount": 1
    },
    {
      "id": 10368,
      "amount": 1
    },
    {
      "id": 1201,
      "amount": 5
    },
    {
      "id": 12530,
      "amount": 3
    },
    {
      "id": 385,
      "amount": 2
    },
    {
      "id": 1430,
      "amount": 2
    },
    {
      "id": 2503,
      "amount": 5
    },
    {
      "id": 12508,
      "amount": 1
    },
    {
      "id": 1163,
      "amount": 3
    },
    {
      "id": 2639,
      "amount": 3
    },
    {
      "id": 7376,
      "amount": 3
    },
    {
      "id": 1373,
      "amount": 4
    },
    {
      "id": 10422,
      "amount": 1
    },
    {
      "id": 7374,
      "amount": 4
    },
    {
      "id": 3477,
      "amount": 1
    },
    {
      "id": 2581,
      "amount": 1
    },
    {
      "id": 12299,
      "amount": 1
    },
    {
      "id": 2671,
      "amount": 3
    },
    {
      "id": 10336,
      "amount": 1
    },
    {
      "id": 1289,
      "amount": 3
    },
    {
      "id": 1185,
      "amount": 3
    },
    {
      "id": 10384,
      "amount": 1
    },
    {
      "id": 7319,
      "amount": 1
    },
    {
      "id": 12520,
      "amount": 2
    },
    {
      "id": 9183,
      "amount": 1
    },
    {
      "id": 7348,
      "amount": 1
    },
    {
      "id": 12528,
      "amount": 3
    },
    {
      "id": 2497,
      "amount": 2
    },
    {
      "id": 1213,
      "amount": 2
    },
    {
      "id": 1345,
      "amount": 1
    },
    {
      "id": 2659,
      "amount": 2
    },
    {
      "id": 1123,
      "amount": 1
    },
    {
      "id": 10376,
      "amount": 1
    },
    {
      "id": 1271,
      "amount": 2
    },
    {
      "id": 1347,
      "amount": 3
    },
    {
      "id": 7360,
      "amount": 2
    },
    {
      "id": 1357,
      "amount": 1
    },
    {
      "id": 2655,
      "amount": 3
    },
    {
      "id": 12319,
      "amount": 1
    },
    {
      "id": 3478,
      "amount": 1
    },
    {
      "id": 10380,
      "amount": 2
    },
    {
      "id": 12496,
      "amount": 2
    },
    {
      "id": 1303,
      "amount": 3
    },
    {
      "id": 2667,
      "amount": 1
    },
    {
      "id": 1093,
      "amount": 5
    },
    {
      "id": 10450,
      "amount": 1
    },
    {
      "id": 12387,
      "amount": 1
    },
    {
      "id": 12494,
      "amount": 1
    },
    {
      "id": 1161,
      "amount": 1
    },
    {
      "id": 373,
      "amount": 1
    },
    {
      "id": 7342,
      "amount": 2
    },
    {
      "id": 10314,
      "amount": 1
    },
    {
      "id": 1113,
      "amount": 3
    },
    {
      "id": 7399,
      "amount": 2
    },
    {
      "id": 12321,
      "amount": 1
    },
    {
      "id": 2615,
      "amount": 1
    },
    {
      "id": 10294,
      "amount": 1
    },
    {
      "id": 1301,
      "amount": 1
    },
    {
      "id": 12281,
      "amount": 1
    },
    {
      "id": 7398,
      "amount": 1
    },
    {
      "id": 10382,
      "amount": 1
    },
    {
      "id": 10308,
      "amount": 1
    },
    {
      "id": 12275,
      "amount": 1
    },
    {
      "id": 12534,
      "amount": 1
    },
    {
      "id": 12524,
      "amount": 1
    },
    {
      "id": 1448,
      "amount": 1
    },
    {
      "id": 2641,
      "amount": 2
    },
    {
      "id": 12510,
      "amount": 1
    },
    {
      "id": 1432,
      "amount": 1
    },
    {
      "id": 7327,
      "amount": 1
    },
    {
      "id": 12263,
      "amount": 1
    },
    {
      "id": 3486,
      "amount": 1
    },
    {
      "id": 857,
      "amount": 1
    },
    {
      "id": 12512,
      "amount": 1
    },
    {
      "id": 12197,
      "amount": 1
    },
    {
      "id": 1393,
      "amount": 1
    },
    {
      "id": 2661,
      "amount": 1
    },
    {
      "id": 7573,
      "amount": 28
    },
    {
      "id": 7574,
      "amount": 1
    },
    {
      "id": 2550,
      "amount": 1
    },
    {
      "id": 3389,
      "amount": 1
    },
    {
      "id": 12522,
      "amount": 1
    },
    {
      "id": 12829,
      "amount": 1
    },
    {
      "id": 19695,
      "amount": 1
    },
    {
      "id": 10446,
      "amount": 1
    },
    {
      "id": 11933,
      "amount": 1
    },
    {
      "id": 13233,
      "amount": 1
    },
    null,
    null,
    null,
    null,
    null,
    null,
    null,
    null,
    null,
    null,
    null,
    null,
    null,
    null,
    null,
    null,
    null,
    null,
    null,
    null,
    null,
    null,
    null,
    null,
    null,
    null,
    null,
    null,
    null,
    null,
    null,
    null,
    null,
    null,
    null,
    null,
    null,
    null,
    null,
    null,
    null,
    null,
    null,
    null,
    null,
    null,
    null,
    null,
    null,
    null,
    null,
    null,
    null,
    null,
    null,
    null,
    null,
    null,
    null,
    null,
    null,
    null,
    null,
    null,
    null,
    null,
    null,
    null,
    null,
    null,
    null,
    null,
    null,
    null,
    null,
    null,
    null,
    null,
    null,
    null,
    null,
    null,
    null,
    null,
    null,
    null,
    null,
    null,
    null,
    null,
    null,
    null,
    null,
    null,
    null,
    null,
    null,
    null,
    null,
    null,
    null,
    null,
    null,
    null,
    null,
    null,
    null,
    null,
    null,
    null,
    null,
    null,
    null,
    null,
    null,
    null,
    null,
    null,
    null,
    null,
    null,
    null,
    null,
    null,
    null,
    null,
    null,
    null,
    null,
    null,
    null,
    null,
    null,
    null,
    null,
    null,
    null,
    null,
    null,
    null,
    null,
    null,
    null,
    null,
    null,
    null,
    null,
    null,
    null,
    null,
    null,
    null,
    null,
    null,
    null,
    null,
    null,
    null,
    null,
    null,
    null,
    null,
    null,
    null,
    null,
    null,
    null,
    null,
    null,
    null,
    null,
    null,
    null,
    null,
    null,
    null,
    null,
    null,
    null,
    null,
    null,
    null,
    null,
    null,
    null,
    null,
    null
  ],
  "tabAmounts": [
    163,
    0,
    0,
    0,
    0,
    0,
    0,
    0,
    0,
    0
  ],
  "inventory": [
    {
      "id": 995,
      "amount": 7000000
    },
    {
      "id": 19481,
      "amount": 1
    },
    null,
    null,
    null,
    null,
    null,
    null,
    null,
    null,
    null,
    null,
    null,
    null,
    null,
    null,
    null,
    null,
    null,
    null,
    null,
    null,
    null,
    null,
    null,
    null,
    null,
    null
  ],
  "equipment": [
    null,
    null,
    null,
    null,
    null,
    null,
    null,
    null,
    null,
    null,
    null,
    null,
    null,
    null
  ],
  "shopItems": [
    null,
    null,
    null,
    null,
    null,
    null,
    null,
    null,
    null,
    null,
    null,
    null,
    null,
    null,
    null,
    null,
    null,
    null,
    null,
    null,
    null,
    null,
    null,
    null,
    null,
    null,
    null,
    null,
    null,
    null,
    null,
    null,
    null,
    null,
    null,
    null
  ],
  "shopPrices": [
    0,
    0,
    0,
    0,
    0,
    0,
    0,
    0,
    0,
    0,
    0,
    0,
    0,
    0,
    0,
    0,
    0,
    0,
    0,
    0,
    0,
    0,
    0,
    0,
    0,
    0,
    0,
    0,
    0,
    0,
    0,
    0,
    0,
    0,
    0,
    0
  ],
  "pouches": [
    0,
    0,
    0,
    0
  ]
}