{
  "bank": [
    {
      "id": 841,
      "amount": 1
    },
    {
      "id": 861,
      "amount": 1
    },
    {
      "id": 1381,
      "amount": 2
    },
    {
      "id": 558,
      "amount": 2080
    },
    {
      "id": 1440,
      "amount": 1
    },
    {
      "id": 1217,
      "amount": 1
    },
    {
      "id": 1623,
      "amount": 7
    },
    {
      "id": 229,
      "amount": 39
    },
    {
      "id": 886,
      "amount": 150
    },
    {
      "id": 11849,
      "amount": 4
    },
    {
      "id": 1731,
      "amount": 3
    },
    {
      "id": 9674,
      "amount": 2
    },
    {
      "id": 9676,
      "amount": 2
    },
    {
      "id": 1844,
      "amount": 1
    },
    {
      "id": 1845,
      "amount": 1
    },
    {
      "id": 882,
      "amount": 240
    },
    {
      "id": 2503,
      "amount": 3
    },
    {
      "id": 10499,
      "amount": 4
    },
    {
      "id": 557,
      "amount": 2225
    },
    {
      "id": 559,
      "amount": 2150
    },
    {
      "id": 5520,
      "amount": 1
    },
    {
      "id": 1846,
      "amount": 1
    },
    {
      "id": 1099,
      "amount": 4
    },
    {
      "id": 3839,
      "amount": 6
    },
    {
      "id": 1426,
      "amount": 1
    },
    {
      "id": 3105,
      "amount": 2
    },
    {
      "id": 6908,
      "amount": 1
    },
    {
      "id": 12608,
      "amount": 5
    },
    {
      "id": 829,
      "amount": 9
    },
    {
      "id": 554,
      "amount": 2432
    },
    {
      "id": 556,
      "amount": 1367
    },
    {
      "id": 1478,
      "amount": 2
    },
    {
      "id": 3393,
      "amount": 2
    },
    {
      "id": 2487,
      "amount": 1
    },
    {
      "id": 2499,
      "amount": 1
    },
    {
      "id": 1432,
      "amount": 1
    },
    {
      "id": 301,
      "amount": 1
    },
    {
      "id": 303,
      "amount": 1
    },
    {
      "id": 1734,
      "amount": 7
    },
    {
      "id": 2347,
      "amount": 1
    },
    {
      "id": 1267,
      "amount": 1
    },
    {
      "id": 7458,
      "amount": 6
    },
    {
      "id": 7460,
      "amount": 4
    },
    {
      "id": 6322,
      "amount": 4
    },
    {
      "id": 6328,
      "amount": 4
    },
    {
      "id": 3387,
      "amount": 5
    },
    {
      "id": 1619,
      "amount": 1
    },
    {
      "id": 2497,
      "amount": 3
    },
    {
      "id": 2491,
      "amount": 2
    },
    {
      "id": 9185,
      "amount": 5
    },
    {
      "id": 952,
      "amount": 3
    },
    {
      "id": 3389,
      "amount": 2
    },
    {
      "id": 11260,
      "amount": 2
    },
    {
      "id": 10010,
      "amount": 1
    },
    {
      "id": 3843,
      "amount": 2
    },
    {
      "id": 12007,
      "amount": 1
    },
    {
      "id": 1135,
      "amount": 3
    },
    {
      "id": 3122,
      "amount": 4
    },
    {
      "id": 3101,
      "amount": 1
    },
    {
      "id": 6330,
      "amount": 2
    },
    {
      "id": 2550,
      "amount": 2
    },
    {
      "id": 10887,
      "amount": 1
    },
    {
      "id": 12612,
      "amount": 2
    },
    {
      "id": 10136,
      "amount": 5
    },
    {
      "id": 379,
      "amount": 8
    },
    {
      "id": 4097,
      "amount": 1
    },
    {
      "id": 10952,
      "amount": 1
    },
    {
      "id": 3757,
      "amount": 1
    },
    {
      "id": 6912,
      "amount": 1
    },
    {
      "id": 1615,
      "amount": 1
    },
    {
      "id": 1540,
      "amount": 1
    },
    {
      "id": 2454,
      "amount": 2
    },
    {
      "id": 12610,
      "amount": 3
    },
    {
      "id": 1617,
      "amount": 1
    },
    {
      "id": 859,
      "amount": 2
    },
    {
      "id": 1452,
      "amount": 1
    },
    {
      "id": 1643,
      "amount": 1
    },
    {
      "id": 6324,
      "amount": 2
    },
    {
      "id": 3391,
      "amount": 1
    },
    {
      "id": 1708,
      "amount": 1
    },
    {
      "id": 563,
      "amount": 266
    },
    {
      "id": 3829,
      "amount": 1
    },
    {
      "id": 139,
      "amount": 3
    },
    {
      "id": 7936,
      "amount": 757
    },
    {
      "id": 4587,
      "amount": 2
    },
    {
      "id": 1,
      "amount": 1
    },
    {
      "id": 2434,
      "amount": 25
    },
    {
      "id": 1113,
      "amount": 1
    },
    {
      "id": 12769,
      "amount": 1
    },
    {
      "id": 1093,
      "amount": 2
    },
    {
      "id": 9144,
      "amount": 918
    },
    {
      "id": 4675,
      "amount": 1
    },
    {
      "id": 3753,
      "amount": 1
    },
    {
      "id": 6918,
      "amount": 1
    },
    {
      "id": 9763,
      "amount": 1
    },
    {
      "id": 6914,
      "amount": 1
    },
    {
      "id": 4091,
      "amount": 1
    },
    {
      "id": 6924,
      "amount": 1
    },
    {
      "id": 6922,
      "amount": 1
    },
    {
      "id": 6920,
      "amount": 1
    },
    {
      "id": 555,
      "amount": 739
    },
    {
      "id": 565,
      "amount": 1474
    },
    {
      "id": 560,
      "amount": 985
    },
    {
      "id": 141,
      "amount": 1
    },
    {
      "id": 995,
      "amount": 13048933
    },
    {
      "id": 4131,
      "amount": 2
    },
    {
      "id": 2446,
      "amount": 5
    },
    {
      "id": 3755,
      "amount": 2
    },
    {
      "id": 3841,
      "amount": 2
    },
    {
      "id": 175,
      "amount": 1
    },
    {
      "id": 10828,
      "amount": 3
    },
    {
      "id": 2368,
      "amount": 1
    },
    {
      "id": 12746,
      "amount": 1
    },
    {
      "id": 1215,
      "amount": 1
    },
    {
      "id": 13277,
      "amount": 1
    },
    {
      "id": 2579,
      "amount": 1
    },
    {
      "id": 6326,
      "amount": 1
    },
    {
      "id": 12305,
      "amount": 1
    },
    {
      "id": 9751,
      "amount": 1
    },
    {
      "id": 6585,
      "amount": 1
    },
    {
      "id": 12774,
      "amount": 1
    },
    {
      "id": 4757,
      "amount": 1
    },
    {
      "id": 4730,
      "amount": 1
    },
    {
      "id": 2572,
      "amount": 1
    },
    {
      "id": 4740,
      "amount": 455
    },
    {
      "id": 532,
      "amount": 435
    },
    {
      "id": 12453,
      "amount": 5
    },
    {
      "id": 12455,
      "amount": 3
    },
    {
      "id": 12269,
      "amount": 1
    },
    {
      "id": 12299,
      "amount": 1
    },
    {
      "id": 10308,
      "amount": 1
    },
    {
      "id": 12283,
      "amount": 1
    },
    {
      "id": 430,
      "amount": 4
    },
    {
      "id": 12522,
      "amount": 1
    },
    {
      "id": 12449,
      "amount": 1
    },
    {
      "id": 12451,
      "amount": 4
    },
    {
      "id": 10452,
      "amount": 1
    },
    {
      "id": 7338,
      "amount": 2
    },
    {
      "id": 10312,
      "amount": 1
    },
    {
      "id": 7354,
      "amount": 1
    },
    {
      "id": 3481,
      "amount": 2
    },
    {
      "id": 2593,
      "amount": 1
    },
    {
      "id": 12445,
      "amount": 1
    },
    {
      "id": 12447,
      "amount": 4
    },
    {
      "id": 12197,
      "amount": 1
    },
    {
      "id": 7334,
      "amount": 1
    },
    {
      "id": 10300,
      "amount": 2
    },
    {
      "id": 12243,
      "amount": 1
    },
    {
      "id": 12359,
      "amount": 2
    },
    {
      "id": 12375,
      "amount": 1
    },
    {
      "id": 12361,
      "amount": 1
    },
    {
      "id": 2669,
      "amount": 1
    },
    {
      "id": 2661,
      "amount": 1
    },
    {
      "id": 7332,
      "amount": 1
    },
    {
      "id": 10372,
      "amount": 1
    },
    {
      "id": 12241,
      "amount": 1
    },
    {
      "id": 12520,
      "amount": 1
    },
    {
      "id": 10424,
      "amount": 1
    },
    {
      "id": 2631,
      "amount": 1
    },
    {
      "id": 10364,
      "amount": 1
    },
    {
      "id": 12319,
      "amount": 1
    },
    {
      "id": 1347,
      "amount": 1
    },
    {
      "id": 2493,
      "amount": 1
    },
    {
      "id": 2890,
      "amount": 4
    },
    {
      "id": 1061,
      "amount": 1
    },
    {
      "id": 1307,
      "amount": 1
    },
    {
      "id": 12934,
      "amount": 1468
    },
    {
      "id": 1391,
      "amount": 14
    },
    {
      "id": 9193,
      "amount": 19
    },
    {
      "id": 1373,
      "amount": 1
    },
    {
      "id": 1621,
      "amount": 1
    },
    {
      "id": 536,
      "amount": 5
    },
    {
      "id": 5974,
      "amount": 40
    },
    {
      "id": 1779,
      "amount": 541
    },
    {
      "id": 12938,
      "amount": 18
    },
    {
      "id": 3030,
      "amount": 6
    },
    {
      "id": 171,
      "amount": 1
    },
    {
      "id": 6691,
      "amount": 6
    },
    {
      "id": 173,
      "amount": 3
    },
    {
      "id": 143,
      "amount": 2
    },
    {
      "id": 9769,
      "amount": 1
    },
    {
      "id": 9770,
      "amount": 1
    },
    {
      "id": 9764,
      "amount": 1
    },
    {
      "id": 9752,
      "amount": 1
    },
    {
      "id": 9754,
      "amount": 1
    },
    {
      "id": 9755,
      "amount": 1
    },
    {
      "id": 9748,
      "amount": 1
    },
    {
      "id": 9749,
      "amount": 1
    },
    {
      "id": 13276,
      "amount": 1
    },
    {
      "id": 385,
      "amount": 249
    },
    {
      "id": 6685,
      "amount": 7
    },
    {
      "id": 3024,
      "amount": 27
    },
    {
      "id": 2444,
      "amount": 56
    },
    null,
    null,
    null,
    null,
    null,
    null,
    null,
    null,
    null,
    null,
    null,
    null,
    null,
    null,
    null,
    null,
    null,
    null,
    null,
    null,
    null,
    null,
    null,
    null,
    null,
    null,
    null,
    null,
    null,
    null,
    null,
    null,
    null,
    null,
    null,
    null,
    null,
    null,
    null,
    null,
    null,
    null,
    null,
    null,
    null,
    null,
    null,
    null,
    null,
    null,
    null,
    null,
    null,
    null,
    null,
    null,
    null,
    null,
    null,
    null,
    null,
    null,
    null,
    null,
    null,
    null,
    null,
    null,
    null,
    null,
    null,
    null,
    null,
    null,
    null,
    null,
    null,
    null,
    null,
    null,
    null,
    null,
    null,
    null,
    null,
    null,
    null,
    null,
    null,
    null,
    null,
    null,
    null,
    null,
    null,
    null,
    null,
    null,
    null,
    null,
    null,
    null,
    null,
    null,
    null,
    null,
    null,
    null,
    null,
    null,
    null,
    null,
    null,
    null,
    null,
    null,
    null,
    null,
    null,
    null,
    null,
    null,
    null,
    null,
    null,
    null,
    null,
    null,
    null,
    null,
    null,
    null,
    null,
    null,
    null,
    null,
    null,
    null,
    null,
    null,
    null,
    null,
    null,
    null,
    null,
    null,
    null,
    null,
    null,
    null,
    null,
    null,
    null,
    null,
    null,
    null,
    null
  ],
  "tabAmounts": [
    124,
    2,
    35,
    5,
    9,
    5,
    8,
    5,
    0,
    0
  ],
  "inventory": [
    null,
    null,
    null,
    null,
    null,
    null,
    null,
    null,
    null,
    null,
    null,
    null,
    null,
    null,
    null,
    null,
    null,
    null,
    null,
    null,
    null,
    null,
    null,
    null,
    null,
    null,
    null,
    null
  ],
  "equipment": [
    null,
    null,
    null,
    null,
    null,
    null,
    null,
    null,
    null,
    null,
    null,
    null,
    null,
    null
  ],
  "shopItems": [
    null,
    null,
    null,
    null,
    null,
    null,
    null,
    null,
    null,
    null,
    null,
    null,
    null,
    null,
    null,
    null,
    null,
    null,
    null,
    null,
    null,
    null,
    null,
    null,
    null,
    null,
    null,
    null,
    null,
    null,
    null,
    null,
    null,
    null,
    null,
    null
  ],
  "shopPrices": [
    0,
    0,
    0,
    0,
    0,
    0,
    0,
    0,
    0,
    0,
    0,
    0,
    0,
    0,
    0,
    0,
    0,
    0,
    0,
    0,
    0,
    0,
    0,
    0,
    0,
    0,
    0,
    0,
    0,
    0,
    0,
    0,
    0,
    0,
    0,
    0
  ],
  "pouches": [
    0,
    0,
    0,
    0
  ]
}