{
  "bank": [
    {
      "id": 1321,
      "amount": 1
    },
    {
      "id": 841,
      "amount": 1
    },
    {
      "id": 861,
      "amount": 2
    },
    {
      "id": 884,
      "amount": 505
    },
    {
      "id": 892,
      "amount": 220
    },
    {
      "id": 1381,
      "amount": 1
    },
    {
      "id": 554,
      "amount": 720
    },
    {
      "id": 558,
      "amount": 100
    },
    {
      "id": 562,
      "amount": 100
    },
    {
      "id": 1844,
      "amount": 1
    },
    {
      "id": 1845,
      "amount": 1
    },
    {
      "id": 1846,
      "amount": 1
    },
    {
      "id": 1438,
      "amount": 1
    },
    {
      "id": 952,
      "amount": 3
    },
    {
      "id": 1733,
      "amount": 1
    },
    {
      "id": 1734,
      "amount": 1
    },
    {
      "id": 12695,
      "amount": 97
    },
    {
      "id": 6328,
      "amount": 3
    },
    {
      "id": 4131,
      "amount": 1
    },
    {
      "id": 1755,
      "amount": 3
    },
    {
      "id": 863,
      "amount": 95
    },
    {
      "id": 1135,
      "amount": 13
    },
    {
      "id": 3478,
      "amount": 1
    },
    {
      "id": 2359,
      "amount": 14
    },
    {
      "id": 985,
      "amount": 3
    },
    {
      "id": 1065,
      "amount": 12
    },
    {
      "id": 1099,
      "amount": 14
    },
    {
      "id": 811,
      "amount": 14
    },
    {
      "id": 171,
      "amount": 6
    },
    {
      "id": 229,
      "amount": 23
    },
    {
      "id": 7936,
      "amount": 1968
    },
    {
      "id": 6912,
      "amount": 1
    },
    {
      "id": 3391,
      "amount": 4
    },
    {
      "id": 143,
      "amount": 6
    },
    {
      "id": 11942,
      "amount": 2
    },
    {
      "id": 2647,
      "amount": 1
    },
    {
      "id": 12213,
      "amount": 1
    },
    {
      "id": 1129,
      "amount": 1
    },
    {
      "id": 557,
      "amount": 479
    },
    {
      "id": 9183,
      "amount": 1
    },
    {
      "id": 1161,
      "amount": 1
    },
    {
      "id": 1111,
      "amount": 1
    },
    {
      "id": 12203,
      "amount": 1
    },
    {
      "id": 10436,
      "amount": 1
    },
    {
      "id": 10282,
      "amount": 1
    },
    {
      "id": 7358,
      "amount": 1
    },
    {
      "id": 1249,
      "amount": 1
    },
    {
      "id": 9185,
      "amount": 4
    },
    {
      "id": 1513,
      "amount": 405
    },
    {
      "id": 1798,
      "amount": 1
    },
    {
      "id": 4732,
      "amount": 2
    },
    {
      "id": 830,
      "amount": 152
    },
    {
      "id": 1779,
      "amount": 3940
    },
    {
      "id": 559,
      "amount": 977
    },
    {
      "id": 556,
      "amount": 1083
    },
    {
      "id": 141,
      "amount": 4
    },
    {
      "id": 6289,
      "amount": 70
    },
    {
      "id": 4012,
      "amount": 1
    },
    {
      "id": 3749,
      "amount": 3
    },
    {
      "id": 12612,
      "amount": 1
    },
    {
      "id": 6330,
      "amount": 1
    },
    {
      "id": 3387,
      "amount": 2
    },
    {
      "id": 560,
      "amount": 307
    },
    {
      "id": 1452,
      "amount": 1
    },
    {
      "id": 9193,
      "amount": 47
    },
    {
      "id": 11230,
      "amount": 5609
    },
    {
      "id": 2442,
      "amount": 10
    },
    {
      "id": 3841,
      "amount": 3
    },
    {
      "id": 565,
      "amount": 60
    },
    {
      "id": 1747,
      "amount": 20
    },
    {
      "id": 1515,
      "amount": 150
    },
    {
      "id": 1540,
      "amount": 1
    },
    {
      "id": 10828,
      "amount": 3
    },
    {
      "id": 1355,
      "amount": 2
    },
    {
      "id": 1097,
      "amount": 1
    },
    {
      "id": 3755,
      "amount": 2
    },
    {
      "id": 1478,
      "amount": 1
    },
    {
      "id": 3393,
      "amount": 1
    },
    {
      "id": 12453,
      "amount": 1
    },
    {
      "id": 12748,
      "amount": 2
    },
    {
      "id": 886,
      "amount": 150
    },
    {
      "id": 1725,
      "amount": 1
    },
    {
      "id": 532,
      "amount": 3
    },
    {
      "id": 1247,
      "amount": 1
    },
    {
      "id": 12375,
      "amount": 2
    },
    {
      "id": 3385,
      "amount": 2
    },
    {
      "id": 12455,
      "amount": 1
    },
    {
      "id": 1113,
      "amount": 2
    },
    {
      "id": 13263,
      "amount": 1
    },
    {
      "id": 3105,
      "amount": 1
    },
    {
      "id": 6908,
      "amount": 1
    },
    {
      "id": 7460,
      "amount": 1
    },
    {
      "id": 12934,
      "amount": 7558
    },
    {
      "id": 3140,
      "amount": 1
    },
    {
      "id": 1201,
      "amount": 2
    },
    {
      "id": 1147,
      "amount": 12
    },
    {
      "id": 3122,
      "amount": 1
    },
    {
      "id": 592,
      "amount": 2
    },
    {
      "id": 1163,
      "amount": 6
    },
    {
      "id": 12528,
      "amount": 1
    },
    {
      "id": 430,
      "amount": 1
    },
    {
      "id": 12746,
      "amount": 1
    },
    {
      "id": 6326,
      "amount": 1
    },
    {
      "id": 1426,
      "amount": 1
    },
    {
      "id": 7356,
      "amount": 2
    },
    {
      "id": 1179,
      "amount": 1
    },
    {
      "id": 10466,
      "amount": 1
    },
    {
      "id": 1165,
      "amount": 1
    },
    {
      "id": 7338,
      "amount": 1
    },
    {
      "id": 1167,
      "amount": 1
    },
    {
      "id": 1269,
      "amount": 1
    },
    {
      "id": 379,
      "amount": 9
    },
    {
      "id": 7979,
      "amount": 2
    },
    {
      "id": 11929,
      "amount": 1
    },
    {
      "id": 7399,
      "amount": 1
    },
    {
      "id": 2487,
      "amount": 1
    },
    {
      "id": 2499,
      "amount": 1
    },
    {
      "id": 2639,
      "amount": 1
    },
    {
      "id": 1357,
      "amount": 1
    },
    {
      "id": 1079,
      "amount": 1
    },
    {
      "id": 1347,
      "amount": 2
    },
    {
      "id": 1731,
      "amount": 1
    },
    {
      "id": 4133,
      "amount": 1
    },
    {
      "id": 6812,
      "amount": 32
    },
    {
      "id": 1359,
      "amount": 1
    },
    {
      "id": 567,
      "amount": 75
    },
    {
      "id": 2361,
      "amount": 21
    },
    {
      "id": 9143,
      "amount": 507
    },
    {
      "id": 1371,
      "amount": 1
    },
    {
      "id": 10925,
      "amount": 2
    },
    {
      "id": 205,
      "amount": 1
    },
    {
      "id": 1319,
      "amount": 3
    },
    {
      "id": 1883,
      "amount": 5
    },
    {
      "id": 139,
      "amount": 1
    },
    {
      "id": 566,
      "amount": 60
    },
    {
      "id": 199,
      "amount": 1
    },
    {
      "id": 201,
      "amount": 1
    },
    {
      "id": 4697,
      "amount": 426
    },
    {
      "id": 2485,
      "amount": 1
    },
    {
      "id": 1213,
      "amount": 2
    },
    {
      "id": 526,
      "amount": 1
    },
    {
      "id": 1965,
      "amount": 1
    },
    {
      "id": 868,
      "amount": 50
    },
    {
      "id": 9770,
      "amount": 1
    },
    {
      "id": 9769,
      "amount": 1
    },
    {
      "id": 9758,
      "amount": 1
    },
    {
      "id": 9757,
      "amount": 1
    },
    {
      "id": 1737,
      "amount": 10
    },
    {
      "id": 1735,
      "amount": 1
    },
    {
      "id": 11260,
      "amount": 25
    },
    {
      "id": 995,
      "amount": 18865494
    },
    {
      "id": 361,
      "amount": 3
    },
    {
      "id": 3144,
      "amount": 2
    },
    {
      "id": 7178,
      "amount": 2
    },
    {
      "id": 1777,
      "amount": 2
    },
    {
      "id": 1539,
      "amount": 5
    },
    {
      "id": 453,
      "amount": 1
    },
    {
      "id": 2293,
      "amount": 1
    },
    {
      "id": 561,
      "amount": 1172
    },
    {
      "id": 1759,
      "amount": 3
    },
    {
      "id": 1761,
      "amount": 1
    },
    {
      "id": 2347,
      "amount": 1
    },
    {
      "id": 1743,
      "amount": 1
    },
    {
      "id": 946,
      "amount": 1
    },
    {
      "id": 4087,
      "amount": 1
    },
    {
      "id": 4585,
      "amount": 1
    },
    {
      "id": 6809,
      "amount": 1
    },
    {
      "id": 1987,
      "amount": 500
    },
    {
      "id": 12451,
      "amount": 1
    },
    {
      "id": 5974,
      "amount": 50
    },
    {
      "id": 12447,
      "amount": 1
    },
    {
      "id": 3101,
      "amount": 1
    },
    {
      "id": 3839,
      "amount": 1
    },
    {
      "id": 3485,
      "amount": 1
    },
    {
      "id": 1333,
      "amount": 1
    },
    {
      "id": 1185,
      "amount": 1
    },
    {
      "id": 10551,
      "amount": 1
    },
    {
      "id": 6585,
      "amount": 2
    },
    {
      "id": 2503,
      "amount": 1
    },
    {
      "id": 10499,
      "amount": 1
    },
    {
      "id": 9144,
      "amount": 507
    },
    {
      "id": 2497,
      "amount": 3
    },
    {
      "id": 173,
      "amount": 1
    },
    {
      "id": 10010,
      "amount": 1
    },
    {
      "id": 10454,
      "amount": 1
    },
    {
      "id": 2491,
      "amount": 1
    },
    {
      "id": 1187,
      "amount": 1
    },
    {
      "id": 12381,
      "amount": 1
    },
    {
      "id": 3474,
      "amount": 1
    },
    {
      "id": 2723,
      "amount": 1
    },
    {
      "id": 4716,
      "amount": 1
    },
    {
      "id": 4720,
      "amount": 2
    },
    {
      "id": 4722,
      "amount": 1
    },
    {
      "id": 4718,
      "amount": 2
    },
    {
      "id": 2368,
      "amount": 1
    },
    {
      "id": 2366,
      "amount": 1
    },
    {
      "id": 1,
      "amount": 3
    },
    {
      "id": 1093,
      "amount": 1
    },
    {
      "id": 2890,
      "amount": 1
    },
    {
      "id": 2493,
      "amount": 1
    },
    {
      "id": 11849,
      "amount": 1
    },
    {
      "id": 1985,
      "amount": 1
    },
    {
      "id": 13092,
      "amount": 3
    },
    {
      "id": 247,
      "amount": 1
    },
    {
      "id": 4726,
      "amount": 1
    },
    {
      "id": 19610,
      "amount": 1
    },
    {
      "id": 6889,
      "amount": 1
    },
    {
      "id": 11840,
      "amount": 1
    },
    {
      "id": 10952,
      "amount": 1
    },
    {
      "id": 19484,
      "amount": 437
    },
    {
      "id": 12927,
      "amount": 1
    },
    {
      "id": 19481,
      "amount": 1
    },
    {
      "id": 13173,
      "amount": 1
    },
    {
      "id": 12445,
      "amount": 1
    },
    {
      "id": 10316,
      "amount": 1
    },
    {
      "id": 10392,
      "amount": 1
    },
    {
      "id": 1367,
      "amount": 1
    },
    {
      "id": 2550,
      "amount": 95
    },
    {
      "id": 385,
      "amount": 1433
    },
    {
      "id": 3204,
      "amount": 1
    },
    {
      "id": 563,
      "amount": 205
    },
    {
      "id": 12938,
      "amount": 32
    },
    {
      "id": 1621,
      "amount": 21
    },
    {
      "id": 1619,
      "amount": 501
    },
    {
      "id": 1607,
      "amount": 104
    },
    {
      "id": 1605,
      "amount": 79
    },
    null,
    null,
    null,
    null,
    null,
    null,
    null,
    null,
    null,
    null,
    null,
    null,
    null,
    null,
    null,
    null,
    null,
    null,
    null,
    null,
    null,
    null,
    null,
    null,
    null,
    null,
    null,
    null,
    null,
    null,
    null,
    null,
    null,
    null,
    null,
    null,
    null,
    null,
    null,
    null,
    null,
    null,
    null,
    null,
    null,
    null,
    null,
    null,
    null,
    null,
    null,
    null,
    null,
    null,
    null,
    null,
    null,
    null,
    null,
    null,
    null,
    null,
    null,
    null,
    null,
    null,
    null,
    null,
    null,
    null,
    null,
    null,
    null,
    null,
    null,
    null,
    null,
    null,
    null,
    null,
    null,
    null,
    null,
    null,
    null,
    null,
    null,
    null,
    null,
    null,
    null,
    null,
    null,
    null,
    null,
    null,
    null,
    null,
    null,
    null,
    null,
    null,
    null,
    null,
    null,
    null,
    null,
    null,
    null,
    null,
    null,
    null,
    null,
    null,
    null,
    null,
    null,
    null,
    null,
    null,
    null,
    null,
    null,
    null
  ],
  "tabAmounts": [
    213,
    4,
    5,
    4,
    0,
    0,
    0,
    0,
    0,
    0
  ],
  "inventory": [
    {
      "id": 19484,
      "amount": 500
    },
    {
      "id": 4732,
      "amount": 1
    },
    {
      "id": 4585,
      "amount": 1
    },
    {
      "id": 7462,
      "amount": 1
    },
    {
      "id": 4087,
      "amount": 1
    },
    {
      "id": 4087,
      "amount": 1
    },
    {
      "id": 384,
      "amount": 100
    },
    {
      "id": 2443,
      "amount": 10
    },
    {
      "id": 4710,
      "amount": 1
    },
    {
      "id": 1514,
      "amount": 50
    },
    {
      "id": 2437,
      "amount": 10
    },
    {
      "id": 7462,
      "amount": 1
    },
    {
      "id": 4722,
      "amount": 1
    },
    {
      "id": 452,
      "amount": 15
    },
    {
      "id": 4087,
      "amount": 1
    },
    {
      "id": 4722,
      "amount": 1
    },
    {
      "id": 13326,
      "amount": 1
    },
    {
      "id": 6199,
      "amount": 1
    },
    {
      "id": 6199,
      "amount": 1
    },
    {
      "id": 6199,
      "amount": 1
    },
    {
      "id": 6199,
      "amount": 1
    },
    {
      "id": 6199,
      "amount": 1
    },
    {
      "id": 6199,
      "amount": 1
    },
    {
      "id": 6199,
      "amount": 1
    },
    {
      "id": 6199,
      "amount": 1
    },
    {
      "id": 6199,
      "amount": 1
    },
    {
      "id": 6199,
      "amount": 1
    },
    {
      "id": 6199,
      "amount": 1
    }
  ],
  "equipment": [
    null,
    null,
    null,
    null,
    null,
    null,
    null,
    null,
    null,
    null,
    null,
    null,
    null,
    null
  ],
  "shopItems": [
    null,
    null,
    null,
    null,
    null,
    null,
    null,
    null,
    null,
    null,
    null,
    null,
    null,
    null,
    null,
    null,
    null,
    null,
    null,
    null,
    null,
    null,
    null,
    null,
    null,
    null,
    null,
    null,
    null,
    null,
    null,
    null,
    null,
    null,
    null,
    null
  ],
  "shopPrices": [
    0,
    0,
    0,
    0,
    0,
    0,
    0,
    0,
    0,
    0,
    0,
    0,
    0,
    0,
    0,
    0,
    0,
    0,
    0,
    0,
    0,
    0,
    0,
    0,
    0,
    0,
    0,
    0,
    0,
    0,
    0,
    0,
    0,
    0,
    0,
    0
  ],
  "pouches": [
    0,
    0,
    0,
    0
  ]
}