{
  "bank": [
    {
      "id": 1333,
      "amount": 2
    },
    {
      "id": 892,
      "amount": 142
    },
    {
      "id": 1381,
      "amount": 1
    },
    {
      "id": 554,
      "amount": 2897
    },
    {
      "id": 558,
      "amount": 100
    },
    {
      "id": 562,
      "amount": 155
    },
    {
      "id": 7946,
      "amount": 44
    },
    {
      "id": 12695,
      "amount": 5
    },
    {
      "id": 1,
      "amount": 1
    },
    {
      "id": 1249,
      "amount": 1
    },
    {
      "id": 1623,
      "amount": 5
    },
    {
      "id": 407,
      "amount": 2
    },
    {
      "id": 886,
      "amount": 150
    },
    {
      "id": 1099,
      "amount": 2
    },
    {
      "id": 1135,
      "amount": 1
    },
    {
      "id": 1065,
      "amount": 1
    },
    {
      "id": 1327,
      "amount": 2
    },
    {
      "id": 1846,
      "amount": 1
    },
    {
      "id": 861,
      "amount": 1
    },
    {
      "id": 841,
      "amount": 1
    },
    {
      "id": 884,
      "amount": 477
    },
    {
      "id": 1845,
      "amount": 1
    },
    {
      "id": 1844,
      "amount": 1
    },
    {
      "id": 830,
      "amount": 5
    },
    {
      "id": 1621,
      "amount": 2
    },
    {
      "id": 565,
      "amount": 15
    },
    {
      "id": 563,
      "amount": 51
    },
    {
      "id": 2366,
      "amount": 2
    },
    {
      "id": 253,
      "amount": 1
    },
    {
      "id": 442,
      "amount": 200
    },
    {
      "id": 985,
      "amount": 7
    },
    {
      "id": 259,
      "amount": 1
    },
    {
      "id": 556,
      "amount": 3
    },
    {
      "id": 313,
      "amount": 15
    },
    {
      "id": 6920,
      "amount": 1
    },
    {
      "id": 829,
      "amount": 20
    },
    {
      "id": 3122,
      "amount": 2
    },
    {
      "id": 12453,
      "amount": 1
    },
    {
      "id": 1749,
      "amount": 39
    },
    {
      "id": 3389,
      "amount": 2
    },
    {
      "id": 11849,
      "amount": 5
    },
    {
      "id": 1462,
      "amount": 2
    },
    {
      "id": 3204,
      "amount": 1
    },
    {
      "id": 3101,
      "amount": 8
    },
    {
      "id": 2452,
      "amount": 3
    },
    {
      "id": 159,
      "amount": 1
    },
    {
      "id": 2550,
      "amount": 4
    },
    {
      "id": 4155,
      "amount": 1
    },
    {
      "id": 12449,
      "amount": 1
    },
    {
      "id": 1702,
      "amount": 1
    },
    {
      "id": 3385,
      "amount": 1
    },
    {
      "id": 807,
      "amount": 811
    },
    {
      "id": 1540,
      "amount": 1
    },
    {
      "id": 4740,
      "amount": 60
    },
    {
      "id": 2434,
      "amount": 10
    },
    {
      "id": 995,
      "amount": 124182
    },
    {
      "id": 1201,
      "amount": 1
    },
    {
      "id": 9676,
      "amount": 1
    },
    {
      "id": 1321,
      "amount": 1
    },
    {
      "id": 882,
      "amount": 468
    },
    {
      "id": 12223,
      "amount": 1
    },
    {
      "id": 4823,
      "amount": 7
    },
    {
      "id": 1073,
      "amount": 1
    },
    {
      "id": 10302,
      "amount": 1
    },
    {
      "id": 12361,
      "amount": 1
    },
    {
      "id": 3391,
      "amount": 1
    },
    {
      "id": 4131,
      "amount": 2
    },
    {
      "id": 115,
      "amount": 1
    },
    {
      "id": 859,
      "amount": 1
    },
    {
      "id": 10952,
      "amount": 1
    },
    {
      "id": 6326,
      "amount": 1
    },
    {
      "id": 3755,
      "amount": 1
    },
    {
      "id": 1393,
      "amount": 1
    },
    {
      "id": 9674,
      "amount": 1
    },
    {
      "id": 1079,
      "amount": 1
    },
    {
      "id": 2682,
      "amount": 1
    },
    {
      "id": 4587,
      "amount": 1
    },
    {
      "id": 952,
      "amount": 1
    },
    null,
    null,
    null,
    null,
    null,
    null,
    null,
    null,
    null,
    null,
    null,
    null,
    null,
    null,
    null,
    null,
    null,
    null,
    null,
    null,
    null,
    null,
    null,
    null,
    null,
    null,
    null,
    null,
    null,
    null,
    null,
    null,
    null,
    null,
    null,
    null,
    null,
    null,
    null,
    null,
    null,
    null,
    null,
    null,
    null,
    null,
    null,
    null,
    null,
    null,
    null,
    null,
    null,
    null,
    null,
    null,
    null,
    null,
    null,
    null,
    null,
    null,
    null,
    null,
    null,
    null,
    null,
    null,
    null,
    null,
    null,
    null,
    null,
    null,
    null,
    null,
    null,
    null,
    null,
    null,
    null,
    null,
    null,
    null,
    null,
    null,
    null,
    null,
    null,
    null,
    null,
    null,
    null,
    null,
    null,
    null,
    null,
    null,
    null,
    null,
    null,
    null,
    null,
    null,
    null,
    null,
    null,
    null,
    null,
    null,
    null,
    null,
    null,
    null,
    null,
    null,
    null,
    null,
    null,
    null,
    null,
    null,
    null,
    null,
    null,
    null,
    null,
    null,
    null,
    null,
    null,
    null,
    null,
    null,
    null,
    null,
    null,
    null,
    null,
    null,
    null,
    null,
    null,
    null,
    null,
    null,
    null,
    null,
    null,
    null,
    null,
    null,
    null,
    null,
    null,
    null,
    null,
    null,
    null,
    null,
    null,
    null,
    null,
    null,
    null,
    null,
    null,
    null,
    null,
    null,
    null,
    null,
    null,
    null,
    null,
    null,
    null,
    null,
    null,
    null,
    null,
    null,
    null,
    null,
    null,
    null,
    null,
    null,
    null,
    null,
    null,
    null,
    null,
    null,
    null,
    null,
    null,
    null,
    null,
    null,
    null,
    null,
    null,
    null,
    null,
    null,
    null,
    null,
    null,
    null,
    null,
    null,
    null,
    null,
    null,
    null,
    null,
    null,
    null,
    null,
    null,
    null,
    null,
    null,
    null,
    null,
    null,
    null,
    null,
    null,
    null,
    null,
    null,
    null,
    null,
    null,
    null,
    null,
    null,
    null,
    null,
    null,
    null,
    null,
    null,
    null,
    null,
    null,
    null,
    null,
    null,
    null,
    null,
    null,
    null,
    null,
    null,
    null,
    null,
    null,
    null,
    null,
    null,
    null,
    null,
    null,
    null,
    null,
    null,
    null,
    null,
    null
  ],
  "tabAmounts": [
    78,
    0,
    0,
    0,
    0,
    0,
    0,
    0,
    0,
    0
  ],
  "inventory": [
    null,
    null,
    {
      "id": 7946,
      "amount": 1
    },
    {
      "id": 7946,
      "amount": 1
    },
    null,
    null,
    {
      "id": 3122,
      "amount": 1
    },
    {
      "id": 868,
      "amount": 7
    },
    null,
    null,
    null,
    null,
    null,
    null,
    null,
    null,
    null,
    null,
    null,
    null,
    null,
    null,
    null,
    null,
    null,
    null,
    null,
    null
  ],
  "equipment": [
    {
      "id": 10828,
      "amount": 1
    },
    {
      "id": 10499,
      "amount": 1
    },
    {
      "id": 1712,
      "amount": 1
    },
    {
      "id": 868,
      "amount": 323
    },
    {
      "id": 2503,
      "amount": 1
    },
    null,
    null,
    {
      "id": 2497,
      "amount": 1
    },
    null,
    {
      "id": 2491,
      "amount": 1
    },
    {
      "id": 6328,
      "amount": 1
    },
    null,
    null,
    null
  ],
  "shopItems": [
    null,
    null,
    null,
    null,
    null,
    null,
    null,
    null,
    null,
    null,
    null,
    null,
    null,
    null,
    null,
    null,
    null,
    null,
    null,
    null,
    null,
    null,
    null,
    null,
    null,
    null,
    null,
    null,
    null,
    null,
    null,
    null,
    null,
    null,
    null,
    null
  ],
  "shopPrices": [
    0,
    0,
    0,
    0,
    0,
    0,
    0,
    0,
    0,
    0,
    0,
    0,
    0,
    0,
    0,
    0,
    0,
    0,
    0,
    0,
    0,
    0,
    0,
    0,
    0,
    0,
    0,
    0,
    0,
    0,
    0,
    0,
    0,
    0,
    0,
    0
  ],
  "pouches": [
    0,
    0,
    0,
    0
  ]
}