{
  "bank": [
    {
      "id": 1381,
      "amount": 1
    },
    {
      "id": 2682,
      "amount": 4
    },
    {
      "id": 1,
      "amount": 1
    },
    {
      "id": 1333,
      "amount": 2
    },
    {
      "id": 829,
      "amount": 20
    },
    {
      "id": 1844,
      "amount": 1
    },
    {
      "id": 1845,
      "amount": 1
    },
    {
      "id": 11849,
      "amount": 3
    },
    {
      "id": 1846,
      "amount": 1
    },
    {
      "id": 3393,
      "amount": 4
    },
    {
      "id": 1201,
      "amount": 4
    },
    {
      "id": 1185,
      "amount": 1
    },
    {
      "id": 987,
      "amount": 1
    },
    {
      "id": 6910,
      "amount": 2
    },
    {
      "id": 6908,
      "amount": 3
    },
    {
      "id": 229,
      "amount": 20
    },
    {
      "id": 1275,
      "amount": 6
    },
    {
      "id": 1113,
      "amount": 5
    },
    {
      "id": 8844,
      "amount": 2
    },
    {
      "id": 1079,
      "amount": 1
    },
    {
      "id": 3385,
      "amount": 3
    },
    {
      "id": 4155,
      "amount": 1
    },
    {
      "id": 3839,
      "amount": 5
    },
    {
      "id": 385,
      "amount": 26
    },
    {
      "id": 7946,
      "amount": 697
    },
    {
      "id": 8846,
      "amount": 1
    },
    {
      "id": 8845,
      "amount": 1
    },
    {
      "id": 8847,
      "amount": 1
    },
    {
      "id": 8849,
      "amount": 1
    },
    {
      "id": 8848,
      "amount": 1
    },
    {
      "id": 2366,
      "amount": 4
    },
    {
      "id": 6330,
      "amount": 4
    },
    {
      "id": 6322,
      "amount": 2
    },
    {
      "id": 884,
      "amount": 243
    },
    {
      "id": 1731,
      "amount": 3
    },
    {
      "id": 1149,
      "amount": 3
    },
    {
      "id": 3841,
      "amount": 5
    },
    {
      "id": 6326,
      "amount": 3
    },
    {
      "id": 10977,
      "amount": 1
    },
    {
      "id": 859,
      "amount": 2
    },
    {
      "id": 1099,
      "amount": 5
    },
    {
      "id": 1478,
      "amount": 2
    },
    {
      "id": 2550,
      "amount": 2
    },
    {
      "id": 6912,
      "amount": 1
    },
    {
      "id": 1331,
      "amount": 2
    },
    {
      "id": 1615,
      "amount": 5
    },
    {
      "id": 1249,
      "amount": 4
    },
    {
      "id": 3101,
      "amount": 2
    },
    {
      "id": 6324,
      "amount": 2
    },
    {
      "id": 3391,
      "amount": 6
    },
    {
      "id": 7459,
      "amount": 2
    },
    {
      "id": 3389,
      "amount": 3
    },
    {
      "id": 1135,
      "amount": 5
    },
    {
      "id": 2434,
      "amount": 4
    },
    {
      "id": 8851,
      "amount": 30
    },
    {
      "id": 8850,
      "amount": 1
    },
    {
      "id": 1197,
      "amount": 1
    },
    {
      "id": 6529,
      "amount": 16064
    },
    {
      "id": 4087,
      "amount": 1
    },
    {
      "id": 6729,
      "amount": 67
    },
    {
      "id": 3757,
      "amount": 1
    },
    {
      "id": 11118,
      "amount": 2
    },
    {
      "id": 2353,
      "amount": 26
    },
    {
      "id": 447,
      "amount": 25
    },
    {
      "id": 1093,
      "amount": 4
    },
    {
      "id": 3843,
      "amount": 2
    },
    {
      "id": 1127,
      "amount": 2
    },
    {
      "id": 2570,
      "amount": 1
    },
    {
      "id": 1513,
      "amount": 50
    },
    {
      "id": 5520,
      "amount": 8
    },
    {
      "id": 4131,
      "amount": 3
    },
    {
      "id": 12771,
      "amount": 1
    },
    {
      "id": 4153,
      "amount": 1
    },
    {
      "id": 558,
      "amount": 1094
    },
    {
      "id": 560,
      "amount": 829
    },
    {
      "id": 562,
      "amount": 935
    },
    {
      "id": 6523,
      "amount": 1
    },
    {
      "id": 3387,
      "amount": 2
    },
    {
      "id": 554,
      "amount": 595
    },
    {
      "id": 565,
      "amount": 918
    },
    {
      "id": 556,
      "amount": 93
    },
    {
      "id": 1387,
      "amount": 1
    },
    {
      "id": 1215,
      "amount": 1
    },
    {
      "id": 526,
      "amount": 1
    },
    {
      "id": 995,
      "amount": 11460278
    },
    {
      "id": 13277,
      "amount": 1
    },
    {
      "id": 7979,
      "amount": 1
    },
    {
      "id": 2499,
      "amount": 1
    },
    {
      "id": 2487,
      "amount": 1
    },
    {
      "id": 2657,
      "amount": 1
    },
    {
      "id": 1303,
      "amount": 1
    },
    {
      "id": 1147,
      "amount": 1
    },
    {
      "id": 7348,
      "amount": 1
    },
    {
      "id": 7360,
      "amount": 1
    },
    {
      "id": 1319,
      "amount": 2
    },
    {
      "id": 10376,
      "amount": 2
    },
    {
      "id": 10292,
      "amount": 1
    },
    {
      "id": 1213,
      "amount": 1
    },
    {
      "id": 2673,
      "amount": 1
    },
    {
      "id": 1347,
      "amount": 2
    },
    {
      "id": 7336,
      "amount": 1
    },
    {
      "id": 7400,
      "amount": 1
    },
    {
      "id": 857,
      "amount": 1
    },
    {
      "id": 2647,
      "amount": 1
    },
    {
      "id": 2659,
      "amount": 1
    },
    {
      "id": 1373,
      "amount": 1
    },
    {
      "id": 12345,
      "amount": 1
    },
    {
      "id": 2603,
      "amount": 1
    },
    {
      "id": 2493,
      "amount": 1
    },
    {
      "id": 7376,
      "amount": 1
    },
    {
      "id": 7986,
      "amount": 1
    },
    {
      "id": 1702,
      "amount": 1
    },
    {
      "id": 139,
      "amount": 2
    },
    {
      "id": 2491,
      "amount": 1
    },
    {
      "id": 555,
      "amount": 1000
    },
    {
      "id": 557,
      "amount": 1000
    },
    {
      "id": 563,
      "amount": 1000
    },
    {
      "id": 559,
      "amount": 1000
    },
    {
      "id": 561,
      "amount": 1000
    },
    {
      "id": 9075,
      "amount": 1000
    },
    {
      "id": 564,
      "amount": 1000
    },
    {
      "id": 566,
      "amount": 1000
    },
    {
      "id": 12697,
      "amount": 1
    },
    {
      "id": 3755,
      "amount": 1
    },
    {
      "id": 12899,
      "amount": 1
    },
    {
      "id": 4091,
      "amount": 1
    },
    {
      "id": 4093,
      "amount": 1
    },
    {
      "id": 12769,
      "amount": 1
    },
    {
      "id": 10388,
      "amount": 1
    },
    {
      "id": 4097,
      "amount": 1
    },
    {
      "id": 6328,
      "amount": 3
    },
    {
      "id": 841,
      "amount": 1
    },
    {
      "id": 10499,
      "amount": 2
    },
    {
      "id": 1540,
      "amount": 1
    },
    {
      "id": 9185,
      "amount": 2
    },
    {
      "id": 3749,
      "amount": 1
    },
    {
      "id": 861,
      "amount": 1
    },
    {
      "id": 2503,
      "amount": 1
    },
    {
      "id": 2497,
      "amount": 1
    },
    {
      "id": 1321,
      "amount": 1
    },
    {
      "id": 3105,
      "amount": 3
    },
    {
      "id": 4587,
      "amount": 2
    },
    {
      "id": 2890,
      "amount": 2
    },
    {
      "id": 3122,
      "amount": 1
    },
    {
      "id": 7458,
      "amount": 1
    },
    {
      "id": 9143,
      "amount": 257
    },
    {
      "id": 4089,
      "amount": 1
    },
    {
      "id": 985,
      "amount": 1
    },
    {
      "id": 7936,
      "amount": 1840
    },
    {
      "id": 12934,
      "amount": 434
    },
    {
      "id": 892,
      "amount": 211
    },
    null,
    null,
    null,
    null,
    null,
    null,
    null,
    null,
    null,
    null,
    null,
    null,
    null,
    null,
    null,
    null,
    null,
    null,
    null,
    null,
    null,
    null,
    null,
    null,
    null,
    null,
    null,
    null,
    null,
    null,
    null,
    null,
    null,
    null,
    null,
    null,
    null,
    null,
    null,
    null,
    null,
    null,
    null,
    null,
    null,
    null,
    null,
    null,
    null,
    null,
    null,
    null,
    null,
    null,
    null,
    null,
    null,
    null,
    null,
    null,
    null,
    null,
    null,
    null,
    null,
    null,
    null,
    null,
    null,
    null,
    null,
    null,
    null,
    null,
    null,
    null,
    null,
    null,
    null,
    null,
    null,
    null,
    null,
    null,
    null,
    null,
    null,
    null,
    null,
    null,
    null,
    null,
    null,
    null,
    null,
    null,
    null,
    null,
    null,
    null,
    null,
    null,
    null,
    null,
    null,
    null,
    null,
    null,
    null,
    null,
    null,
    null,
    null,
    null,
    null,
    null,
    null,
    null,
    null,
    null,
    null,
    null,
    null,
    null,
    null,
    null,
    null,
    null,
    null,
    null,
    null,
    null,
    null,
    null,
    null,
    null,
    null,
    null,
    null,
    null,
    null,
    null,
    null,
    null,
    null,
    null,
    null,
    null,
    null,
    null,
    null,
    null,
    null,
    null,
    null,
    null,
    null,
    null,
    null,
    null,
    null,
    null,
    null,
    null,
    null,
    null,
    null,
    null,
    null,
    null,
    null,
    null,
    null,
    null,
    null,
    null,
    null,
    null,
    null,
    null,
    null,
    null,
    null,
    null,
    null,
    null,
    null,
    null,
    null,
    null,
    null,
    null,
    null,
    null,
    null,
    null,
    null,
    null,
    null
  ],
  "tabAmounts": [
    114,
    16,
    9,
    8,
    4,
    0,
    0,
    0,
    0,
    0
  ],
  "inventory": [
    {
      "id": 139,
      "amount": 1
    },
    {
      "id": 2434,
      "amount": 1
    },
    {
      "id": 2434,
      "amount": 1
    },
    {
      "id": 2434,
      "amount": 1
    },
    {
      "id": 2434,
      "amount": 1
    },
    {
      "id": 2434,
      "amount": 1
    },
    {
      "id": 2434,
      "amount": 1
    },
    {
      "id": 385,
      "amount": 1
    },
    {
      "id": 385,
      "amount": 1
    },
    {
      "id": 385,
      "amount": 1
    },
    {
      "id": 385,
      "amount": 1
    },
    {
      "id": 385,
      "amount": 1
    },
    {
      "id": 385,
      "amount": 1
    },
    {
      "id": 385,
      "amount": 1
    },
    {
      "id": 385,
      "amount": 1
    },
    {
      "id": 385,
      "amount": 1
    },
    {
      "id": 385,
      "amount": 1
    },
    {
      "id": 385,
      "amount": 1
    },
    {
      "id": 385,
      "amount": 1
    },
    {
      "id": 385,
      "amount": 1
    },
    {
      "id": 385,
      "amount": 1
    },
    {
      "id": 385,
      "amount": 1
    },
    {
      "id": 556,
      "amount": 75
    },
    {
      "id": 558,
      "amount": 75
    },
    {
      "id": 952,
      "amount": 1
    },
    {
      "id": 561,
      "amount": 500
    },
    {
      "id": 4740,
      "amount": 5
    },
    {
      "id": 533,
      "amount": 150
    }
  ],
  "equipment": [
    {
      "id": 10828,
      "amount": 1
    },
    {
      "id": 6570,
      "amount": 1
    },
    {
      "id": 1712,
      "amount": 1
    },
    {
      "id": 12773,
      "amount": 1
    },
    {
      "id": 10551,
      "amount": 1
    },
    {
      "id": 12954,
      "amount": 1
    },
    null,
    {
      "id": 4087,
      "amount": 1
    },
    null,
    {
      "id": 7462,
      "amount": 1
    },
    null,
    null,
    {
      "id": 11772,
      "amount": 1
    },
    null
  ],
  "shopItems": [
    null,
    null,
    null,
    null,
    null,
    null,
    null,
    null,
    null,
    null,
    null,
    null,
    null,
    null,
    null,
    null,
    null,
    null,
    null,
    null,
    null,
    null,
    null,
    null,
    null,
    null,
    null,
    null,
    null,
    null,
    null,
    null,
    null,
    null,
    null,
    null
  ],
  "shopPrices": [
    0,
    0,
    0,
    0,
    0,
    0,
    0,
    0,
    0,
    0,
    0,
    0,
    0,
    0,
    0,
    0,
    0,
    0,
    0,
    0,
    0,
    0,
    0,
    0,
    0,
    0,
    0,
    0,
    0,
    0,
    0,
    0,
    0,
    0,
    0,
    0
  ],
  "pouches": [
    0,
    0,
    0,
    0
  ]
}