{
  "bank": [
    {
      "id": 13320,
      "amount": 1
    },
    {
      "id": 13322,
      "amount": 2
    },
    {
      "id": 13321,
      "amount": 1
    },
    {
      "id": 10952,
      "amount": 5
    },
    {
      "id": 12811,
      "amount": 1
    },
    {
      "id": 12812,
      "amount": 1
    },
    {
      "id": 12810,
      "amount": 1
    },
    {
      "id": 7509,
      "amount": 2
    },
    {
      "id": 10550,
      "amount": 2
    },
    {
      "id": 10552,
      "amount": 2
    },
    {
      "id": 10549,
      "amount": 3
    },
    {
      "id": 10547,
      "amount": 3
    },
    {
      "id": 10561,
      "amount": 1
    },
    {
      "id": 13249,
      "amount": 7
    },
    {
      "id": 10553,
      "amount": 1
    },
    {
      "id": 2413,
      "amount": 1
    },
    {
      "id": 12516,
      "amount": 1
    },
    {
      "id": 13332,
      "amount": 1
    },
    {
      "id": 245,
      "amount": 7
    },
    {
      "id": 247,
      "amount": 378
    },
    {
      "id": 227,
      "amount": 827
    },
    {
      "id": 6693,
      "amount": 2
    },
    {
      "id": 231,
      "amount": 7
    },
    {
      "id": 5316,
      "amount": 16
    },
    {
      "id": 952,
      "amount": 3
    },
    {
      "id": 223,
      "amount": 22
    },
    {
      "id": 5296,
      "amount": 9
    },
    {
      "id": 5300,
      "amount": 12
    },
    {
      "id": 233,
      "amount": 1
    },
    {
      "id": 5343,
      "amount": 1
    },
    {
      "id": 5341,
      "amount": 1
    },
    {
      "id": 5325,
      "amount": 1
    },
    {
      "id": 3000,
      "amount": 36
    },
    {
      "id": 1779,
      "amount": 3570
    },
    {
      "id": 9143,
      "amount": 1489
    },
    {
      "id": 11273,
      "amount": 44
    },
    {
      "id": 2493,
      "amount": 3
    },
    {
      "id": 1347,
      "amount": 2
    },
    {
      "id": 2890,
      "amount": 5
    },
    {
      "id": 12361,
      "amount": 1
    },
    {
      "id": 2641,
      "amount": 1
    },
    {
      "id": 12231,
      "amount": 1
    },
    {
      "id": 12496,
      "amount": 1
    },
    {
      "id": 7376,
      "amount": 1
    },
    {
      "id": 12453,
      "amount": 2
    },
    {
      "id": 8845,
      "amount": 1
    },
    {
      "id": 8847,
      "amount": 1
    },
    {
      "id": 8846,
      "amount": 1
    },
    {
      "id": 8848,
      "amount": 1
    },
    {
      "id": 8849,
      "amount": 1
    },
    {
      "id": 7114,
      "amount": 1
    },
    {
      "id": 10300,
      "amount": 1
    },
    {
      "id": 3480,
      "amount": 2
    },
    {
      "id": 4012,
      "amount": 29
    },
    {
      "id": 9803,
      "amount": 1
    },
    {
      "id": 9809,
      "amount": 1
    },
    {
      "id": 12610,
      "amount": 2
    },
    {
      "id": 9760,
      "amount": 1
    },
    {
      "id": 10368,
      "amount": 1
    },
    {
      "id": 8850,
      "amount": 1
    },
    {
      "id": 3385,
      "amount": 3
    },
    {
      "id": 12195,
      "amount": 1
    },
    {
      "id": 3749,
      "amount": 4
    },
    {
      "id": 9781,
      "amount": 1
    },
    {
      "id": 9784,
      "amount": 1
    },
    {
      "id": 9808,
      "amount": 1
    },
    {
      "id": 9778,
      "amount": 1
    },
    {
      "id": 9805,
      "amount": 1
    },
    {
      "id": 9802,
      "amount": 1
    },
    {
      "id": 9772,
      "amount": 1
    },
    {
      "id": 9811,
      "amount": 1
    },
    {
      "id": 9787,
      "amount": 1
    },
    {
      "id": 9949,
      "amount": 1
    },
    {
      "id": 1724,
      "amount": 2
    },
    {
      "id": 9672,
      "amount": 1
    },
    {
      "id": 7360,
      "amount": 1
    },
    {
      "id": 12377,
      "amount": 1
    },
    {
      "id": 10470,
      "amount": 2
    },
    {
      "id": 2675,
      "amount": 1
    },
    {
      "id": 2657,
      "amount": 2
    },
    {
      "id": 2669,
      "amount": 1
    },
    {
      "id": 2671,
      "amount": 1
    },
    {
      "id": 2591,
      "amount": 1
    },
    {
      "id": 2663,
      "amount": 1
    },
    {
      "id": 13277,
      "amount": 2
    },
    {
      "id": 12936,
      "amount": 1
    },
    {
      "id": 8840,
      "amount": 1
    },
    {
      "id": 8839,
      "amount": 1
    },
    {
      "id": 11665,
      "amount": 1
    },
    {
      "id": 2595,
      "amount": 1
    },
    {
      "id": 13233,
      "amount": 1
    },
    {
      "id": 383,
      "amount": 1
    },
    {
      "id": 1733,
      "amount": 501
    },
    {
      "id": 13439,
      "amount": 10
    },
    {
      "id": 1603,
      "amount": 1
    },
    {
      "id": 534,
      "amount": 130
    },
    {
      "id": 1605,
      "amount": 1
    },
    {
      "id": 1615,
      "amount": 1
    },
    {
      "id": 2357,
      "amount": 1
    },
    {
      "id": 1592,
      "amount": 46
    },
    {
      "id": 1595,
      "amount": 12
    },
    {
      "id": 1597,
      "amount": 5
    },
    {
      "id": 946,
      "amount": 2
    },
    {
      "id": 1735,
      "amount": 1
    },
    {
      "id": 1755,
      "amount": 7
    },
    {
      "id": 1623,
      "amount": 1
    },
    {
      "id": 1631,
      "amount": 1
    },
    {
      "id": 1619,
      "amount": 2
    },
    {
      "id": 10010,
      "amount": 2
    },
    {
      "id": 11934,
      "amount": 1
    },
    {
      "id": 1645,
      "amount": 3
    },
    {
      "id": 1621,
      "amount": 1
    },
    {
      "id": 11260,
      "amount": 13
    },
    {
      "id": 1275,
      "amount": 6
    },
    {
      "id": 1359,
      "amount": 12
    },
    {
      "id": 1617,
      "amount": 1
    },
    {
      "id": 1523,
      "amount": 1
    },
    {
      "id": 1734,
      "amount": 1094
    },
    {
      "id": 1607,
      "amount": 1
    },
    {
      "id": 1777,
      "amount": 152
    },
    {
      "id": 590,
      "amount": 1
    },
    {
      "id": 11849,
      "amount": 17
    },
    {
      "id": 301,
      "amount": 1
    },
    {
      "id": 9465,
      "amount": 2
    },
    {
      "id": 379,
      "amount": 1
    },
    {
      "id": 311,
      "amount": 2
    },
    {
      "id": 536,
      "amount": 1
    },
    {
      "id": 2347,
      "amount": 3
    },
    {
      "id": 11943,
      "amount": 1
    },
    {
      "id": 1515,
      "amount": 1
    },
    {
      "id": 11940,
      "amount": 1113
    },
    {
      "id": 5974,
      "amount": 1
    },
    {
      "id": 3216,
      "amount": 1
    },
    {
      "id": 401,
      "amount": 120
    },
    {
      "id": 2361,
      "amount": 1
    },
    {
      "id": 7856,
      "amount": 2
    },
    {
      "id": 453,
      "amount": 21
    },
    {
      "id": 2363,
      "amount": 1
    },
    {
      "id": 1601,
      "amount": 1
    },
    {
      "id": 1513,
      "amount": 1
    },
    {
      "id": 563,
      "amount": 4250
    },
    {
      "id": 7936,
      "amount": 10582
    },
    {
      "id": 566,
      "amount": 1058
    },
    {
      "id": 565,
      "amount": 6669
    },
    {
      "id": 554,
      "amount": 892
    },
    {
      "id": 556,
      "amount": 10808
    },
    {
      "id": 557,
      "amount": 390
    },
    {
      "id": 562,
      "amount": 1457
    },
    {
      "id": 561,
      "amount": 683
    },
    {
      "id": 560,
      "amount": 8545
    },
    {
      "id": 555,
      "amount": 6941
    },
    {
      "id": 564,
      "amount": 1081
    },
    {
      "id": 4697,
      "amount": 360
    },
    {
      "id": 1393,
      "amount": 2
    },
    {
      "id": 3839,
      "amount": 4
    },
    {
      "id": 12612,
      "amount": 5
    },
    {
      "id": 12449,
      "amount": 5
    },
    {
      "id": 12445,
      "amount": 5
    },
    {
      "id": 12455,
      "amount": 8
    },
    {
      "id": 12447,
      "amount": 10
    },
    {
      "id": 12451,
      "amount": 5
    },
    {
      "id": 4710,
      "amount": 3
    },
    {
      "id": 3841,
      "amount": 9
    },
    {
      "id": 12259,
      "amount": 1
    },
    {
      "id": 12608,
      "amount": 7
    },
    {
      "id": 4675,
      "amount": 1
    },
    {
      "id": 5514,
      "amount": 2
    },
    {
      "id": 5509,
      "amount": 1
    },
    {
      "id": 4708,
      "amount": 1
    },
    {
      "id": 5512,
      "amount": 1
    },
    {
      "id": 5510,
      "amount": 1
    },
    {
      "id": 1383,
      "amount": 9
    },
    {
      "id": 7399,
      "amount": 1
    },
    {
      "id": 7398,
      "amount": 1
    },
    {
      "id": 1395,
      "amount": 1
    },
    {
      "id": 3393,
      "amount": 2
    },
    {
      "id": 4155,
      "amount": 2
    },
    {
      "id": 592,
      "amount": 17668
    },
    {
      "id": 1643,
      "amount": 10
    },
    {
      "id": 1731,
      "amount": 3
    },
    {
      "id": 2570,
      "amount": 16
    },
    {
      "id": 993,
      "amount": 10
    },
    {
      "id": 1637,
      "amount": 10
    },
    {
      "id": 1700,
      "amount": 14
    },
    {
      "id": 8844,
      "amount": 1
    },
    {
      "id": 13276,
      "amount": 1
    },
    {
      "id": 430,
      "amount": 3
    },
    {
      "id": 544,
      "amount": 1
    },
    {
      "id": 542,
      "amount": 4
    },
    {
      "id": 8851,
      "amount": 55
    },
    {
      "id": 11928,
      "amount": 1
    },
    {
      "id": 2366,
      "amount": 3
    },
    {
      "id": 11942,
      "amount": 1
    },
    {
      "id": 12321,
      "amount": 1
    },
    {
      "id": 12323,
      "amount": 1
    },
    {
      "id": 12522,
      "amount": 1
    },
    {
      "id": 9793,
      "amount": 1
    },
    {
      "id": 12934,
      "amount": 22711
    },
    {
      "id": 292,
      "amount": 1
    },
    {
      "id": 11126,
      "amount": 8
    },
    {
      "id": 6687,
      "amount": 1
    },
    {
      "id": 2454,
      "amount": 76
    },
    {
      "id": 3028,
      "amount": 2
    },
    {
      "id": 3030,
      "amount": 1
    },
    {
      "id": 2297,
      "amount": 10
    },
    {
      "id": 12697,
      "amount": 12
    },
    {
      "id": 397,
      "amount": 373
    },
    {
      "id": 171,
      "amount": 12
    },
    {
      "id": 169,
      "amount": 188
    },
    {
      "id": 143,
      "amount": 7
    },
    {
      "id": 2550,
      "amount": 3
    },
    {
      "id": 3026,
      "amount": 4
    },
    {
      "id": 373,
      "amount": 1
    },
    {
      "id": 361,
      "amount": 141
    },
    {
      "id": 141,
      "amount": 2
    },
    {
      "id": 2434,
      "amount": 3
    },
    {
      "id": 2313,
      "amount": 40
    },
    {
      "id": 12701,
      "amount": 15
    },
    {
      "id": 3010,
      "amount": 26
    },
    {
      "id": 13441,
      "amount": 1
    },
    {
      "id": 7218,
      "amount": 15
    },
    {
      "id": 139,
      "amount": 2
    },
    {
      "id": 3144,
      "amount": 1
    },
    {
      "id": 3024,
      "amount": 6
    },
    {
      "id": 12695,
      "amount": 1
    },
    {
      "id": 229,
      "amount": 237
    },
    {
      "id": 6685,
      "amount": 29
    },
    {
      "id": 5937,
      "amount": 52
    },
    {
      "id": 2456,
      "amount": 2
    },
    {
      "id": 2458,
      "amount": 4
    },
    {
      "id": 11936,
      "amount": 34
    },
    {
      "id": 2440,
      "amount": 10
    },
    {
      "id": 2436,
      "amount": 40
    },
    {
      "id": 173,
      "amount": 16
    },
    {
      "id": 385,
      "amount": 1
    },
    {
      "id": 6689,
      "amount": 3
    },
    {
      "id": 12699,
      "amount": 7
    },
    {
      "id": 2442,
      "amount": 20
    },
    {
      "id": 2444,
      "amount": 20
    },
    {
      "id": 6691,
      "amount": 4
    },
    {
      "id": 10499,
      "amount": 9
    },
    {
      "id": 6328,
      "amount": 6
    },
    {
      "id": 2503,
      "amount": 8
    },
    {
      "id": 2497,
      "amount": 8
    },
    {
      "id": 4734,
      "amount": 2
    },
    {
      "id": 861,
      "amount": 13
    },
    {
      "id": 892,
      "amount": 962
    },
    {
      "id": 3843,
      "amount": 4
    },
    {
      "id": 4740,
      "amount": 39
    },
    {
      "id": 19484,
      "amount": 1359
    },
    {
      "id": 11230,
      "amount": 1
    },
    {
      "id": 11959,
      "amount": 5
    },
    {
      "id": 10034,
      "amount": 5
    },
    {
      "id": 13338,
      "amount": 1
    },
    {
      "id": 7460,
      "amount": 7
    },
    {
      "id": 4716,
      "amount": 2
    },
    {
      "id": 1215,
      "amount": 7
    },
    {
      "id": 4587,
      "amount": 2
    },
    {
      "id": 4753,
      "amount": 2
    },
    {
      "id": 4720,
      "amount": 2
    },
    {
      "id": 3105,
      "amount": 3
    },
    {
      "id": 1702,
      "amount": 2
    },
    {
      "id": 3204,
      "amount": 3
    },
    {
      "id": 12375,
      "amount": 4
    },
    {
      "id": 1704,
      "amount": 2
    },
    {
      "id": 2572,
      "amount": 4
    },
    {
      "id": 7462,
      "amount": 6
    },
    {
      "id": 9185,
      "amount": 7
    },
    {
      "id": 10551,
      "amount": 7
    },
    {
      "id": 4726,
      "amount": 1
    },
    {
      "id": 3753,
      "amount": 5
    },
    {
      "id": 2661,
      "amount": 1
    },
    {
      "id": 10382,
      "amount": 1
    },
    {
      "id": 11852,
      "amount": 1
    },
    {
      "id": 11860,
      "amount": 1
    },
    {
      "id": 11858,
      "amount": 1
    },
    {
      "id": 11850,
      "amount": 1
    },
    {
      "id": 11854,
      "amount": 1
    },
    {
      "id": 11856,
      "amount": 1
    },
    {
      "id": 13330,
      "amount": 1
    },
    {
      "id": 6529,
      "amount": 16064
    },
    {
      "id": 4131,
      "amount": 2
    },
    {
      "id": 13331,
      "amount": 1
    },
    {
      "id": 19645,
      "amount": 1
    },
    {
      "id": 10548,
      "amount": 1
    },
    {
      "id": 10555,
      "amount": 1
    },
    {
      "id": 12954,
      "amount": 1
    },
    {
      "id": 13337,
      "amount": 1
    },
    {
      "id": 11664,
      "amount": 1
    },
    {
      "id": 4214,
      "amount": 1
    },
    {
      "id": 12257,
      "amount": 1
    },
    {
      "id": 8842,
      "amount": 1
    },
    {
      "id": 3829,
      "amount": 1
    },
    {
      "id": 12245,
      "amount": 1
    },
    {
      "id": 12271,
      "amount": 1
    },
    {
      "id": 12255,
      "amount": 1
    },
    null,
    null,
    null,
    null,
    null,
    null,
    null,
    null,
    null,
    null,
    null,
    null,
    null,
    null,
    null,
    null,
    null,
    null,
    null,
    null,
    null,
    null,
    null,
    null,
    null,
    null,
    null,
    null,
    null,
    null,
    null,
    null,
    null,
    null,
    null,
    null,
    null,
    null,
    null,
    null,
    null,
    null,
    null,
    null,
    null,
    null,
    null,
    null,
    null,
    null,
    null,
    null,
    null,
    null
  ],
  "tabAmounts": [
    18,
    17,
    56,
    49,
    36,
    24,
    40,
    14,
    42,
    0
  ],
  "inventory": [
    {
      "id": 13321,
      "amount": 1
    },
    null,
    null,
    null,
    null,
    null,
    null,
    {
      "id": 19649,
      "amount": 1
    },
    null,
    null,
    null,
    null,
    null,
    null,
    null,
    null,
    null,
    null,
    null,
    null,
    null,
    null,
    null,
    null,
    null,
    null,
    null,
    null
  ],
  "equipment": [
    {
      "id": 13281,
      "amount": 1
    },
    {
      "id": 13329,
      "amount": 1
    },
    null,
    {
      "id": 12375,
      "amount": 1
    },
    {
      "id": 12393,
      "amount": 1
    },
    null,
    null,
    {
      "id": 12395,
      "amount": 1
    },
    null,
    {
      "id": 7462,
      "amount": 1
    },
    null,
    null,
    null,
    null
  ],
  "shopItems": [
    null,
    null,
    null,
    null,
    null,
    null,
    null,
    null,
    null,
    null,
    null,
    null,
    null,
    null,
    null,
    null,
    null,
    null,
    null,
    null,
    null,
    null,
    null,
    null,
    null,
    null,
    null,
    null,
    null,
    null,
    null,
    null,
    null,
    null,
    null,
    null
  ],
  "shopPrices": [
    0,
    0,
    0,
    0,
    0,
    0,
    0,
    0,
    0,
    0,
    0,
    0,
    0,
    0,
    0,
    0,
    0,
    0,
    0,
    0,
    0,
    0,
    0,
    0,
    0,
    0,
    0,
    0,
    0,
    0,
    0,
    0,
    0,
    0,
    0,
    0
  ],
  "pouches": [
    3,
    0,
    0,
    1
  ]
}