{
  "bank": [
    {
      "id": 995,
      "amount": 1265937
    },
    {
      "id": 12695,
      "amount": 5
    },
    {
      "id": 229,
      "amount": 5
    },
    {
      "id": 7946,
      "amount": 21
    },
    {
      "id": 373,
      "amount": 430
    },
    {
      "id": 2550,
      "amount": 11
    },
    {
      "id": 453,
      "amount": 300
    },
    {
      "id": 383,
      "amount": 200
    },
    {
      "id": 2434,
      "amount": 4
    },
    {
      "id": 143,
      "amount": 1
    },
    {
      "id": 1779,
      "amount": 969
    },
    {
      "id": 563,
      "amount": 1045
    },
    {
      "id": 1513,
      "amount": 1
    },
    {
      "id": 8782,
      "amount": 50
    },
    {
      "id": 6289,
      "amount": 1
    },
    {
      "id": 9193,
      "amount": 24
    },
    {
      "id": 5974,
      "amount": 1
    },
    {
      "id": 5288,
      "amount": 2
    },
    {
      "id": 1615,
      "amount": 1
    },
    {
      "id": 2682,
      "amount": 2
    },
    {
      "id": 10316,
      "amount": 1
    },
    {
      "id": 12610,
      "amount": 1
    },
    {
      "id": 1623,
      "amount": 2
    },
    {
      "id": 1393,
      "amount": 1
    },
    {
      "id": 6685,
      "amount": 1
    },
    {
      "id": 3841,
      "amount": 1
    },
    {
      "id": 952,
      "amount": 1
    },
    {
      "id": 1301,
      "amount": 1
    },
    {
      "id": 1113,
      "amount": 1
    },
    {
      "id": 1135,
      "amount": 1
    },
    {
      "id": 1430,
      "amount": 1
    },
    {
      "id": 10320,
      "amount": 1
    },
    {
      "id": 1123,
      "amount": 1
    },
    {
      "id": 171,
      "amount": 3
    },
    {
      "id": 139,
      "amount": 4
    },
    {
      "id": 169,
      "amount": 3
    },
    {
      "id": 12451,
      "amount": 1
    },
    {
      "id": 6731,
      "amount": 1
    },
    {
      "id": 6914,
      "amount": 1
    },
    {
      "id": 10298,
      "amount": 1
    },
    {
      "id": 10318,
      "amount": 1
    },
    {
      "id": 12795,
      "amount": 2
    },
    {
      "id": 4716,
      "amount": 1
    },
    {
      "id": 11932,
      "amount": 2
    },
    {
      "id": 11933,
      "amount": 1
    },
    {
      "id": 10499,
      "amount": 2
    },
    {
      "id": 3385,
      "amount": 1
    },
    {
      "id": 892,
      "amount": 100
    },
    {
      "id": 12447,
      "amount": 1
    },
    {
      "id": 12453,
      "amount": 1
    },
    {
      "id": 12375,
      "amount": 1
    },
    {
      "id": 12938,
      "amount": 2
    },
    {
      "id": 2581,
      "amount": 1
    },
    {
      "id": 2503,
      "amount": 1
    },
    {
      "id": 2497,
      "amount": 1
    },
    {
      "id": 2491,
      "amount": 1
    },
    {
      "id": 6328,
      "amount": 1
    },
    {
      "id": 3839,
      "amount": 1
    },
    {
      "id": 315,
      "amount": 24
    },
    {
      "id": 301,
      "amount": 1
    },
    {
      "id": 311,
      "amount": 1
    },
    null,
    null,
    null,
    null,
    null,
    null,
    null,
    null,
    null,
    null,
    null,
    null,
    null,
    null,
    null,
    null,
    null,
    null,
    null,
    null,
    null,
    null,
    null,
    null,
    null,
    null,
    null,
    null,
    null,
    null,
    null,
    null,
    null,
    null,
    null,
    null,
    null,
    null,
    null,
    null,
    null,
    null,
    null,
    null,
    null,
    null,
    null,
    null,
    null,
    null,
    null,
    null,
    null,
    null,
    null,
    null,
    null,
    null,
    null,
    null,
    null,
    null,
    null,
    null,
    null,
    null,
    null,
    null,
    null,
    null,
    null,
    null,
    null,
    null,
    null,
    null,
    null,
    null,
    null,
    null,
    null,
    null,
    null,
    null,
    null,
    null,
    null,
    null,
    null,
    null,
    null,
    null,
    null,
    null,
    null,
    null,
    null,
    null,
    null,
    null,
    null,
    null,
    null,
    null,
    null,
    null,
    null,
    null,
    null,
    null,
    null,
    null,
    null,
    null,
    null,
    null,
    null,
    null,
    null,
    null,
    null,
    null,
    null,
    null,
    null,
    null,
    null,
    null,
    null,
    null,
    null,
    null,
    null,
    null,
    null,
    null,
    null,
    null,
    null,
    null,
    null,
    null,
    null,
    null,
    null,
    null,
    null,
    null,
    null,
    null,
    null,
    null,
    null,
    null,
    null,
    null,
    null,
    null,
    null,
    null,
    null,
    null,
    null,
    null,
    null,
    null,
    null,
    null,
    null,
    null,
    null,
    null,
    null,
    null,
    null,
    null,
    null,
    null,
    null,
    null,
    null,
    null,
    null,
    null,
    null,
    null,
    null,
    null,
    null,
    null,
    null,
    null,
    null,
    null,
    null,
    null,
    null,
    null,
    null,
    null,
    null,
    null,
    null,
    null,
    null,
    null,
    null,
    null,
    null,
    null,
    null,
    null,
    null,
    null,
    null,
    null,
    null,
    null,
    null,
    null,
    null,
    null,
    null,
    null,
    null,
    null,
    null,
    null,
    null,
    null,
    null,
    null,
    null,
    null,
    null,
    null,
    null,
    null,
    null,
    null,
    null,
    null,
    null,
    null,
    null,
    null,
    null,
    null,
    null,
    null,
    null,
    null,
    null,
    null,
    null,
    null,
    null,
    null,
    null,
    null,
    null,
    null,
    null,
    null,
    null,
    null,
    null,
    null,
    null,
    null,
    null,
    null,
    null,
    null,
    null,
    null,
    null,
    null,
    null,
    null,
    null,
    null,
    null,
    null,
    null,
    null,
    null,
    null,
    null
  ],
  "tabAmounts": [
    61,
    0,
    0,
    0,
    0,
    0,
    0,
    0,
    0,
    0
  ],
  "inventory": [
    {
      "id": 303,
      "amount": 1
    },
    {
      "id": 319,
      "amount": 1
    },
    {
      "id": 319,
      "amount": 1
    },
    {
      "id": 319,
      "amount": 1
    },
    {
      "id": 315,
      "amount": 1
    },
    {
      "id": 319,
      "amount": 1
    },
    {
      "id": 315,
      "amount": 1
    },
    {
      "id": 315,
      "amount": 1
    },
    {
      "id": 315,
      "amount": 1
    },
    {
      "id": 315,
      "amount": 1
    },
    {
      "id": 319,
      "amount": 1
    },
    {
      "id": 319,
      "amount": 1
    },
    {
      "id": 315,
      "amount": 1
    },
    {
      "id": 319,
      "amount": 1
    },
    {
      "id": 319,
      "amount": 1
    },
    {
      "id": 315,
      "amount": 1
    },
    {
      "id": 315,
      "amount": 1
    },
    {
      "id": 315,
      "amount": 1
    },
    {
      "id": 315,
      "amount": 1
    },
    {
      "id": 319,
      "amount": 1
    },
    {
      "id": 315,
      "amount": 1
    },
    {
      "id": 319,
      "amount": 1
    },
    {
      "id": 315,
      "amount": 1
    },
    {
      "id": 319,
      "amount": 1
    },
    {
      "id": 319,
      "amount": 1
    },
    {
      "id": 319,
      "amount": 1
    },
    null,
    {
      "id": 995,
      "amount": 40334
    }
  ],
  "equipment": [
    null,
    null,
    null,
    null,
    null,
    null,
    null,
    null,
    null,
    null,
    null,
    null,
    null,
    null
  ],
  "shopItems": [
    null,
    null,
    null,
    null,
    null,
    null,
    null,
    null,
    null,
    null,
    null,
    null,
    null,
    null,
    null,
    null,
    null,
    null,
    null,
    null,
    null,
    null,
    null,
    null,
    null,
    null,
    null,
    null,
    null,
    null,
    null,
    null,
    null,
    null,
    null,
    null
  ],
  "shopPrices": [
    0,
    0,
    0,
    0,
    0,
    0,
    0,
    0,
    0,
    0,
    0,
    0,
    0,
    0,
    0,
    0,
    0,
    0,
    0,
    0,
    0,
    0,
    0,
    0,
    0,
    0,
    0,
    0,
    0,
    0,
    0,
    0,
    0,
    0,
    0,
    0
  ],
  "pouches": [
    0,
    0,
    0,
    0
  ]
}