{
  "bank": [
    {
      "id": 995,
      "amount": 2314033
    },
    {
      "id": 841,
      "amount": 1
    },
    {
      "id": 1247,
      "amount": 2
    },
    {
      "id": 892,
      "amount": 89
    },
    {
      "id": 884,
      "amount": 748
    },
    {
      "id": 1,
      "amount": 1
    },
    {
      "id": 1621,
      "amount": 6
    },
    {
      "id": 1617,
      "amount": 1
    },
    {
      "id": 952,
      "amount": 1
    },
    {
      "id": 882,
      "amount": 490
    },
    {
      "id": 2446,
      "amount": 5
    },
    {
      "id": 2550,
      "amount": 12
    },
    {
      "id": 6328,
      "amount": 4
    },
    {
      "id": 10828,
      "amount": 1
    },
    {
      "id": 12612,
      "amount": 2
    },
    {
      "id": 1452,
      "amount": 5
    },
    {
      "id": 561,
      "amount": 268
    },
    {
      "id": 9144,
      "amount": 1
    },
    {
      "id": 1615,
      "amount": 5
    },
    {
      "id": 3026,
      "amount": 1
    },
    {
      "id": 4012,
      "amount": 1
    },
    {
      "id": 1631,
      "amount": 3
    },
    {
      "id": 1619,
      "amount": 5
    },
    {
      "id": 556,
      "amount": 500
    },
    {
      "id": 442,
      "amount": 201
    },
    {
      "id": 562,
      "amount": 751
    },
    {
      "id": 560,
      "amount": 1
    },
    {
      "id": 1123,
      "amount": 1
    },
    {
      "id": 1161,
      "amount": 1
    },
    {
      "id": 1073,
      "amount": 1
    },
    {
      "id": 1163,
      "amount": 1
    },
    {
      "id": 12512,
      "amount": 1
    },
    {
      "id": 7936,
      "amount": 1
    },
    {
      "id": 12375,
      "amount": 2
    },
    {
      "id": 1478,
      "amount": 1
    },
    {
      "id": 1059,
      "amount": 5
    },
    {
      "id": 1129,
      "amount": 30
    },
    {
      "id": 1741,
      "amount": 173
    },
    {
      "id": 1095,
      "amount": 2
    },
    {
      "id": 1733,
      "amount": 1
    },
    {
      "id": 1734,
      "amount": 283
    },
    {
      "id": 4278,
      "amount": 3
    },
    {
      "id": 1321,
      "amount": 1
    },
    {
      "id": 6326,
      "amount": 1
    },
    {
      "id": 12934,
      "amount": 1
    },
    {
      "id": 451,
      "amount": 1
    },
    {
      "id": 1779,
      "amount": 1496
    },
    {
      "id": 6289,
      "amount": 141
    },
    {
      "id": 5290,
      "amount": 6
    },
    {
      "id": 536,
      "amount": 491
    },
    {
      "id": 453,
      "amount": 600
    },
    {
      "id": 3204,
      "amount": 1
    },
    {
      "id": 2366,
      "amount": 5
    },
    {
      "id": 5289,
      "amount": 1
    },
    {
      "id": 5316,
      "amount": 1
    },
    {
      "id": 987,
      "amount": 13
    },
    {
      "id": 830,
      "amount": 1291
    },
    {
      "id": 1513,
      "amount": 649
    },
    {
      "id": 563,
      "amount": 892
    },
    {
      "id": 2803,
      "amount": 2
    },
    {
      "id": 1987,
      "amount": 251
    },
    {
      "id": 5974,
      "amount": 41
    },
    {
      "id": 9193,
      "amount": 36
    },
    {
      "id": 1391,
      "amount": 50
    },
    {
      "id": 4695,
      "amount": 200
    },
    {
      "id": 4091,
      "amount": 1
    },
    {
      "id": 401,
      "amount": 1
    },
    {
      "id": 4225,
      "amount": 1
    },
    {
      "id": 4214,
      "amount": 1
    },
    {
      "id": 4587,
      "amount": 1
    },
    {
      "id": 11230,
      "amount": 1305
    },
    {
      "id": 10952,
      "amount": 5
    },
    {
      "id": 6733,
      "amount": 1
    },
    {
      "id": 12610,
      "amount": 1
    },
    {
      "id": 10499,
      "amount": 3
    },
    {
      "id": 7460,
      "amount": 1
    },
    {
      "id": 19484,
      "amount": 12
    },
    {
      "id": 8844,
      "amount": 1
    },
    {
      "id": 385,
      "amount": 876
    },
    {
      "id": 373,
      "amount": 183
    },
    {
      "id": 13441,
      "amount": 31
    },
    {
      "id": 7946,
      "amount": 37
    },
    {
      "id": 3144,
      "amount": 18
    },
    {
      "id": 2440,
      "amount": 38
    },
    {
      "id": 2436,
      "amount": 28
    },
    {
      "id": 2442,
      "amount": 28
    },
    {
      "id": 145,
      "amount": 1
    },
    {
      "id": 163,
      "amount": 1
    },
    {
      "id": 157,
      "amount": 1
    },
    {
      "id": 2434,
      "amount": 60
    },
    {
      "id": 139,
      "amount": 4
    },
    {
      "id": 141,
      "amount": 10
    },
    {
      "id": 143,
      "amount": 13
    },
    {
      "id": 2444,
      "amount": 22
    },
    {
      "id": 12695,
      "amount": 73
    },
    {
      "id": 229,
      "amount": 23
    },
    {
      "id": 10925,
      "amount": 2
    },
    {
      "id": 6685,
      "amount": 10
    },
    {
      "id": 173,
      "amount": 17
    },
    {
      "id": 171,
      "amount": 10
    },
    {
      "id": 1403,
      "amount": 1
    },
    {
      "id": 555,
      "amount": 400
    },
    {
      "id": 1623,
      "amount": 1
    },
    {
      "id": 10548,
      "amount": 1
    },
    {
      "id": 2675,
      "amount": 1
    },
    {
      "id": 10378,
      "amount": 1
    },
    {
      "id": 2655,
      "amount": 1
    },
    {
      "id": 2497,
      "amount": 1
    },
    {
      "id": 1091,
      "amount": 1
    },
    {
      "id": 1710,
      "amount": 2
    },
    {
      "id": 12532,
      "amount": 2
    },
    {
      "id": 1185,
      "amount": 1
    },
    {
      "id": 1347,
      "amount": 2
    },
    {
      "id": 1755,
      "amount": 1
    },
    {
      "id": 12524,
      "amount": 1
    },
    {
      "id": 397,
      "amount": 50
    },
    {
      "id": 6573,
      "amount": 1
    },
    {
      "id": 11943,
      "amount": 67
    },
    {
      "id": 592,
      "amount": 276
    },
    {
      "id": 2368,
      "amount": 3
    },
    {
      "id": 169,
      "amount": 1
    },
    {
      "id": 6912,
      "amount": 1
    },
    {
      "id": 3753,
      "amount": 1
    },
    {
      "id": 1731,
      "amount": 1
    },
    {
      "id": 2493,
      "amount": 1
    },
    {
      "id": 1643,
      "amount": 1
    },
    {
      "id": 2890,
      "amount": 2
    },
    {
      "id": 1702,
      "amount": 1
    },
    {
      "id": 1149,
      "amount": 1
    },
    {
      "id": 12414,
      "amount": 1
    },
    {
      "id": 10896,
      "amount": 1
    },
    {
      "id": 10591,
      "amount": 2
    },
    {
      "id": 383,
      "amount": 100
    },
    {
      "id": 8782,
      "amount": 50
    },
    {
      "id": 6571,
      "amount": 1
    },
    {
      "id": 12938,
      "amount": 43
    },
    {
      "id": 2509,
      "amount": 13
    },
    {
      "id": 12931,
      "amount": 1
    },
    {
      "id": 4585,
      "amount": 1
    },
    {
      "id": 10551,
      "amount": 1
    },
    {
      "id": 11283,
      "amount": 1
    },
    {
      "id": 7462,
      "amount": 1
    },
    {
      "id": 12699,
      "amount": 1
    },
    {
      "id": 4151,
      "amount": 1
    },
    {
      "id": 6570,
      "amount": 1
    },
    {
      "id": 292,
      "amount": 1
    },
    {
      "id": 13092,
      "amount": 1
    },
    {
      "id": 11665,
      "amount": 1
    },
    null,
    null,
    null,
    null,
    null,
    null,
    null,
    null,
    null,
    null,
    null,
    null,
    null,
    null,
    null,
    null,
    null,
    null,
    null,
    null,
    null,
    null,
    null,
    null,
    null,
    null,
    null,
    null,
    null,
    null,
    null,
    null,
    null,
    null,
    null,
    null,
    null,
    null,
    null,
    null,
    null,
    null,
    null,
    null,
    null,
    null,
    null,
    null,
    null,
    null,
    null,
    null,
    null,
    null,
    null,
    null,
    null,
    null,
    null,
    null,
    null,
    null,
    null,
    null,
    null,
    null,
    null,
    null,
    null,
    null,
    null,
    null,
    null,
    null,
    null,
    null,
    null,
    null,
    null,
    null,
    null,
    null,
    null,
    null,
    null,
    null,
    null,
    null,
    null,
    null,
    null,
    null,
    null,
    null,
    null,
    null,
    null,
    null,
    null,
    null,
    null,
    null,
    null,
    null,
    null,
    null,
    null,
    null,
    null,
    null,
    null,
    null,
    null,
    null,
    null,
    null,
    null,
    null,
    null,
    null,
    null,
    null,
    null,
    null,
    null,
    null,
    null,
    null,
    null,
    null,
    null,
    null,
    null,
    null,
    null,
    null,
    null,
    null,
    null,
    null,
    null,
    null,
    null,
    null,
    null,
    null,
    null,
    null,
    null,
    null,
    null,
    null,
    null,
    null,
    null,
    null,
    null,
    null,
    null,
    null,
    null,
    null,
    null,
    null,
    null,
    null,
    null,
    null,
    null,
    null,
    null,
    null,
    null,
    null,
    null,
    null,
    null,
    null,
    null,
    null,
    null,
    null,
    null,
    null,
    null,
    null,
    null,
    null,
    null,
    null,
    null,
    null,
    null,
    null,
    null,
    null,
    null,
    null,
    null,
    null,
    null,
    null
  ],
  "tabAmounts": [
    148,
    0,
    0,
    0,
    0,
    0,
    0,
    0,
    0,
    0
  ],
  "inventory": [
    null,
    null,
    null,
    null,
    null,
    null,
    null,
    null,
    null,
    null,
    null,
    null,
    null,
    null,
    null,
    null,
    null,
    null,
    null,
    null,
    null,
    null,
    null,
    null,
    null,
    null,
    null,
    null
  ],
  "equipment": [
    {
      "id": 11664,
      "amount": 1
    },
    {
      "id": 10499,
      "amount": 1
    },
    {
      "id": 6585,
      "amount": 1
    },
    {
      "id": 12926,
      "amount": 1
    },
    {
      "id": 8839,
      "amount": 1
    },
    null,
    null,
    {
      "id": 8840,
      "amount": 1
    },
    null,
    {
      "id": 8842,
      "amount": 1
    },
    {
      "id": 6328,
      "amount": 1
    },
    null,
    {
      "id": 2572,
      "amount": 1
    },
    null
  ],
  "shopItems": [
    null,
    null,
    null,
    null,
    null,
    null,
    null,
    null,
    null,
    null,
    null,
    null,
    null,
    null,
    null,
    null,
    null,
    null,
    null,
    null,
    null,
    null,
    null,
    null,
    null,
    null,
    null,
    null,
    null,
    null,
    null,
    null,
    null,
    null,
    null,
    null
  ],
  "shopPrices": [
    0,
    0,
    0,
    0,
    0,
    0,
    0,
    0,
    0,
    0,
    0,
    0,
    0,
    0,
    0,
    0,
    0,
    0,
    0,
    0,
    0,
    0,
    0,
    0,
    0,
    0,
    0,
    0,
    0,
    0,
    0,
    0,
    0,
    0,
    0,
    0
  ],
  "pouches": [
    0,
    0,
    0,
    0
  ]
}