{
  "bank": [
    {
      "id": 1321,
      "amount": 1
    },
    {
      "id": 1333,
      "amount": 1
    },
    {
      "id": 861,
      "amount": 1
    },
    {
      "id": 884,
      "amount": 250
    },
    {
      "id": 892,
      "amount": 100
    },
    {
      "id": 1381,
      "amount": 1
    },
    {
      "id": 554,
      "amount": 358
    },
    {
      "id": 558,
      "amount": 93
    },
    {
      "id": 562,
      "amount": 90
    },
    {
      "id": 882,
      "amount": 439
    },
    {
      "id": 7946,
      "amount": 74
    },
    {
      "id": 1,
      "amount": 1
    },
    {
      "id": 1135,
      "amount": 1
    },
    {
      "id": 10952,
      "amount": 1
    },
    {
      "id": 841,
      "amount": 1
    },
    {
      "id": 1846,
      "amount": 1
    },
    {
      "id": 1844,
      "amount": 1
    },
    {
      "id": 1845,
      "amount": 1
    },
    {
      "id": 1319,
      "amount": 1
    },
    {
      "id": 12445,
      "amount": 1
    },
    {
      "id": 1121,
      "amount": 1
    },
    {
      "id": 1197,
      "amount": 1
    },
    {
      "id": 1159,
      "amount": 1
    },
    {
      "id": 1071,
      "amount": 1
    },
    {
      "id": 1379,
      "amount": 1
    },
    {
      "id": 3122,
      "amount": 1
    },
    {
      "id": 12449,
      "amount": 1
    },
    {
      "id": 9185,
      "amount": 1
    },
    {
      "id": 1623,
      "amount": 15
    },
    {
      "id": 229,
      "amount": 14
    },
    {
      "id": 4155,
      "amount": 1
    },
    {
      "id": 9752,
      "amount": 1
    },
    {
      "id": 6529,
      "amount": 19729
    },
    {
      "id": 592,
      "amount": 1
    },
    {
      "id": 3024,
      "amount": 18
    },
    {
      "id": 6522,
      "amount": 18
    },
    {
      "id": 560,
      "amount": 7
    },
    {
      "id": 7936,
      "amount": 42
    },
    {
      "id": 12746,
      "amount": 1
    },
    {
      "id": 985,
      "amount": 2
    },
    {
      "id": 1615,
      "amount": 1
    },
    {
      "id": 1127,
      "amount": 1
    },
    {
      "id": 1621,
      "amount": 2
    },
    {
      "id": 1741,
      "amount": 174
    },
    {
      "id": 1759,
      "amount": 20
    },
    {
      "id": 3030,
      "amount": 2
    },
    {
      "id": 1733,
      "amount": 1
    },
    {
      "id": 1059,
      "amount": 7
    },
    {
      "id": 1734,
      "amount": 474
    },
    {
      "id": 1167,
      "amount": 1
    },
    {
      "id": 1129,
      "amount": 18
    },
    {
      "id": 1613,
      "amount": 13
    },
    {
      "id": 1601,
      "amount": 1
    },
    {
      "id": 1755,
      "amount": 1
    },
    {
      "id": 2436,
      "amount": 10
    },
    {
      "id": 2440,
      "amount": 12
    },
    {
      "id": 3835,
      "amount": 1
    },
    {
      "id": 3827,
      "amount": 1
    },
    {
      "id": 12247,
      "amount": 1
    },
    {
      "id": 1217,
      "amount": 1
    },
    {
      "id": 1089,
      "amount": 1
    },
    {
      "id": 8007,
      "amount": 8
    },
    {
      "id": 952,
      "amount": 1
    },
    {
      "id": 1452,
      "amount": 1
    },
    null,
    null,
    null,
    null,
    null,
    null,
    null,
    null,
    null,
    null,
    null,
    null,
    null,
    null,
    null,
    null,
    null,
    null,
    null,
    null,
    null,
    null,
    null,
    null,
    null,
    null,
    null,
    null,
    null,
    null,
    null,
    null,
    null,
    null,
    null,
    null,
    null,
    null,
    null,
    null,
    null,
    null,
    null,
    null,
    null,
    null,
    null,
    null,
    null,
    null,
    null,
    null,
    null,
    null,
    null,
    null,
    null,
    null,
    null,
    null,
    null,
    null,
    null,
    null,
    null,
    null,
    null,
    null,
    null,
    null,
    null,
    null,
    null,
    null,
    null,
    null,
    null,
    null,
    null,
    null,
    null,
    null,
    null,
    null,
    null,
    null,
    null,
    null,
    null,
    null,
    null,
    null,
    null,
    null,
    null,
    null,
    null,
    null,
    null,
    null,
    null,
    null,
    null,
    null,
    null,
    null,
    null,
    null,
    null,
    null,
    null,
    null,
    null,
    null,
    null,
    null,
    null,
    null,
    null,
    null,
    null,
    null,
    null,
    null,
    null,
    null,
    null,
    null,
    null,
    null,
    null,
    null,
    null,
    null,
    null,
    null,
    null,
    null,
    null,
    null,
    null,
    null,
    null,
    null,
    null,
    null,
    null,
    null,
    null,
    null,
    null,
    null,
    null,
    null,
    null,
    null,
    null,
    null,
    null,
    null,
    null,
    null,
    null,
    null,
    null,
    null,
    null,
    null,
    null,
    null,
    null,
    null,
    null,
    null,
    null,
    null,
    null,
    null,
    null,
    null,
    null,
    null,
    null,
    null,
    null,
    null,
    null,
    null,
    null,
    null,
    null,
    null,
    null,
    null,
    null,
    null,
    null,
    null,
    null,
    null,
    null,
    null,
    null,
    null,
    null,
    null,
    null,
    null,
    null,
    null,
    null,
    null,
    null,
    null,
    null,
    null,
    null,
    null,
    null,
    null,
    null,
    null,
    null,
    null,
    null,
    null,
    null,
    null,
    null,
    null,
    null,
    null,
    null,
    null,
    null,
    null,
    null,
    null,
    null,
    null,
    null,
    null,
    null,
    null,
    null,
    null,
    null,
    null,
    null,
    null,
    null,
    null,
    null,
    null,
    null,
    null,
    null,
    null,
    null,
    null,
    null,
    null,
    null,
    null,
    null,
    null,
    null,
    null,
    null,
    null,
    null,
    null,
    null,
    null,
    null,
    null,
    null,
    null,
    null,
    null,
    null,
    null,
    null,
    null,
    null,
    null
  ],
  "tabAmounts": [
    64,
    0,
    0,
    0,
    0,
    0,
    0,
    0,
    0,
    0
  ],
  "inventory": [
    {
      "id": 430,
      "amount": 1
    },
    {
      "id": 995,
      "amount": 3094964
    },
    {
      "id": 12699,
      "amount": 1
    },
    {
      "id": 229,
      "amount": 1
    },
    {
      "id": 3028,
      "amount": 1
    },
    {
      "id": 3028,
      "amount": 1
    },
    {
      "id": 3028,
      "amount": 1
    },
    {
      "id": 3024,
      "amount": 1
    },
    {
      "id": 3024,
      "amount": 1
    },
    {
      "id": 3024,
      "amount": 1
    },
    {
      "id": 3024,
      "amount": 1
    },
    {
      "id": 3024,
      "amount": 1
    },
    {
      "id": 3024,
      "amount": 1
    },
    {
      "id": 3024,
      "amount": 1
    },
    {
      "id": 3024,
      "amount": 1
    },
    {
      "id": 3024,
      "amount": 1
    },
    {
      "id": 1185,
      "amount": 1
    },
    {
      "id": 7458,
      "amount": 1
    },
    {
      "id": 2366,
      "amount": 1
    },
    {
      "id": 12455,
      "amount": 1
    },
    {
      "id": 3122,
      "amount": 1
    },
    {
      "id": 987,
      "amount": 1
    },
    {
      "id": 6322,
      "amount": 1
    },
    {
      "id": 1201,
      "amount": 1
    },
    {
      "id": 1079,
      "amount": 1
    },
    {
      "id": 3101,
      "amount": 1
    },
    null,
    null
  ],
  "equipment": [
    {
      "id": 10828,
      "amount": 1
    },
    {
      "id": 9750,
      "amount": 1
    },
    {
      "id": 1712,
      "amount": 1
    },
    {
      "id": 4587,
      "amount": 1
    },
    {
      "id": 9674,
      "amount": 1
    },
    {
      "id": 6524,
      "amount": 1
    },
    null,
    {
      "id": 9676,
      "amount": 1
    },
    null,
    {
      "id": 7460,
      "amount": 1
    },
    {
      "id": 3105,
      "amount": 1
    },
    null,
    null,
    {
      "id": 882,
      "amount": 415
    }
  ],
  "shopItems": [
    null,
    null,
    null,
    null,
    null,
    null,
    null,
    null,
    null,
    null,
    null,
    null,
    null,
    null,
    null,
    null,
    null,
    null,
    null,
    null,
    null,
    null,
    null,
    null,
    null,
    null,
    null,
    null,
    null,
    null,
    null,
    null,
    null,
    null,
    null,
    null
  ],
  "shopPrices": [
    0,
    0,
    0,
    0,
    0,
    0,
    0,
    0,
    0,
    0,
    0,
    0,
    0,
    0,
    0,
    0,
    0,
    0,
    0,
    0,
    0,
    0,
    0,
    0,
    0,
    0,
    0,
    0,
    0,
    0,
    0,
    0,
    0,
    0,
    0,
    0
  ],
  "pouches": [
    0,
    0,
    0,
    0
  ]
}