{
  "bank": [
    {
      "id": 11849,
      "amount": 7
    },
    {
      "id": 1381,
      "amount": 1
    },
    {
      "id": 1163,
      "amount": 1
    },
    {
      "id": 1712,
      "amount": 1
    },
    {
      "id": 4587,
      "amount": 1
    },
    {
      "id": 1127,
      "amount": 1
    },
    {
      "id": 1201,
      "amount": 1
    },
    {
      "id": 1079,
      "amount": 1
    },
    {
      "id": 1621,
      "amount": 1
    },
    {
      "id": 255,
      "amount": 2
    },
    {
      "id": 2353,
      "amount": 2
    },
    {
      "id": 442,
      "amount": 100
    },
    {
      "id": 10977,
      "amount": 1
    },
    {
      "id": 253,
      "amount": 1
    },
    {
      "id": 565,
      "amount": 10
    },
    {
      "id": 830,
      "amount": 5
    },
    {
      "id": 1319,
      "amount": 1
    },
    {
      "id": 1353,
      "amount": 1
    },
    {
      "id": 1,
      "amount": 1
    },
    {
      "id": 1333,
      "amount": 1
    },
    {
      "id": 1267,
      "amount": 2
    },
    {
      "id": 1619,
      "amount": 1
    },
    {
      "id": 987,
      "amount": 1
    },
    {
      "id": 1454,
      "amount": 1
    },
    {
      "id": 1844,
      "amount": 1
    },
    {
      "id": 1845,
      "amount": 1
    },
    {
      "id": 1327,
      "amount": 2
    },
    {
      "id": 1321,
      "amount": 1
    },
    {
      "id": 407,
      "amount": 1
    },
    {
      "id": 1623,
      "amount": 3
    },
    {
      "id": 411,
      "amount": 2
    },
    {
      "id": 995,
      "amount": 52113
    },
    {
      "id": 841,
      "amount": 1
    },
    {
      "id": 861,
      "amount": 1
    },
    {
      "id": 554,
      "amount": 574
    },
    {
      "id": 558,
      "amount": 100
    },
    {
      "id": 562,
      "amount": 100
    },
    {
      "id": 7946,
      "amount": 57
    },
    {
      "id": 12695,
      "amount": 5
    },
    {
      "id": 952,
      "amount": 1
    },
    {
      "id": 10298,
      "amount": 1
    },
    {
      "id": 2591,
      "amount": 1
    },
    {
      "id": 1446,
      "amount": 1
    },
    {
      "id": 1317,
      "amount": 1
    },
    {
      "id": 1287,
      "amount": 1
    },
    {
      "id": 1345,
      "amount": 1
    },
    {
      "id": 10438,
      "amount": 1
    },
    {
      "id": 884,
      "amount": 250
    },
    {
      "id": 892,
      "amount": 100
    },
    {
      "id": 882,
      "amount": 841
    },
    {
      "id": 886,
      "amount": 150
    },
    null,
    null,
    null,
    null,
    null,
    null,
    null,
    null,
    null,
    null,
    null,
    null,
    null,
    null,
    null,
    null,
    null,
    null,
    null,
    null,
    null,
    null,
    null,
    null,
    null,
    null,
    null,
    null,
    null,
    null,
    null,
    null,
    null,
    null,
    null,
    null,
    null,
    null,
    null,
    null,
    null,
    null,
    null,
    null,
    null,
    null,
    null,
    null,
    null,
    null,
    null,
    null,
    null,
    null,
    null,
    null,
    null,
    null,
    null,
    null,
    null,
    null,
    null,
    null,
    null,
    null,
    null,
    null,
    null,
    null,
    null,
    null,
    null,
    null,
    null,
    null,
    null,
    null,
    null,
    null,
    null,
    null,
    null,
    null,
    null,
    null,
    null,
    null,
    null,
    null,
    null,
    null,
    null,
    null,
    null,
    null,
    null,
    null,
    null,
    null,
    null,
    null,
    null,
    null,
    null,
    null,
    null,
    null,
    null,
    null,
    null,
    null,
    null,
    null,
    null,
    null,
    null,
    null,
    null,
    null,
    null,
    null,
    null,
    null,
    null,
    null,
    null,
    null,
    null,
    null,
    null,
    null,
    null,
    null,
    null,
    null,
    null,
    null,
    null,
    null,
    null,
    null,
    null,
    null,
    null,
    null,
    null,
    null,
    null,
    null,
    null,
    null,
    null,
    null,
    null,
    null,
    null,
    null,
    null,
    null,
    null,
    null,
    null,
    null,
    null,
    null,
    null,
    null,
    null,
    null,
    null,
    null,
    null,
    null,
    null,
    null,
    null,
    null,
    null,
    null,
    null,
    null,
    null,
    null,
    null,
    null,
    null,
    null,
    null,
    null,
    null,
    null,
    null,
    null,
    null,
    null,
    null,
    null,
    null,
    null,
    null,
    null,
    null,
    null,
    null,
    null,
    null,
    null,
    null,
    null,
    null,
    null,
    null,
    null,
    null,
    null,
    null,
    null,
    null,
    null,
    null,
    null,
    null,
    null,
    null,
    null,
    null,
    null,
    null,
    null,
    null,
    null,
    null,
    null,
    null,
    null,
    null,
    null,
    null,
    null,
    null,
    null,
    null,
    null,
    null,
    null,
    null,
    null,
    null,
    null,
    null,
    null,
    null,
    null,
    null,
    null,
    null,
    null,
    null,
    null,
    null,
    null,
    null,
    null,
    null,
    null,
    null,
    null,
    null,
    null,
    null,
    null,
    null,
    null,
    null,
    null,
    null,
    null,
    null,
    null,
    null,
    null,
    null,
    null,
    null,
    null,
    null,
    null,
    null,
    null,
    null,
    null,
    null,
    null,
    null,
    null,
    null,
    null,
    null,
    null,
    null,
    null,
    null,
    null,
    null,
    null,
    null,
    null,
    null,
    null,
    null,
    null,
    null,
    null,
    null,
    null,
    null,
    null,
    null,
    null,
    null,
    null,
    null,
    null,
    null,
    null,
    null,
    null,
    null,
    null,
    null,
    null,
    null,
    null,
    null,
    null,
    null,
    null,
    null,
    null,
    null,
    null,
    null,
    null,
    null,
    null,
    null,
    null,
    null,
    null,
    null,
    null,
    null,
    null,
    null,
    null,
    null,
    null,
    null,
    null,
    null,
    null,
    null,
    null,
    null,
    null,
    null,
    null,
    null,
    null,
    null,
    null,
    null,
    null,
    null,
    null,
    null,
    null,
    null,
    null,
    null,
    null,
    null,
    null,
    null,
    null,
    null,
    null,
    null,
    null,
    null,
    null,
    null,
    null,
    null,
    null,
    null,
    null,
    null,
    null,
    null,
    null,
    null,
    null,
    null,
    null,
    null,
    null,
    null,
    null,
    null,
    null,
    null,
    null,
    null,
    null,
    null,
    null,
    null,
    null,
    null,
    null,
    null,
    null,
    null,
    null,
    null,
    null,
    null,
    null,
    null,
    null,
    null,
    null,
    null,
    null,
    null,
    null,
    null,
    null,
    null,
    null,
    null,
    null,
    null,
    null,
    null,
    null,
    null
  ],
  "inventory": [
    {
      "id": 4155,
      "amount": 1
    },
    {
      "id": 560,
      "amount": 322
    },
    {
      "id": 561,
      "amount": 67
    },
    {
      "id": 563,
      "amount": 45
    },
    {
      "id": 985,
      "amount": 1
    },
    {
      "id": 562,
      "amount": 322
    },
    {
      "id": 558,
      "amount": 1348
    },
    {
      "id": 555,
      "amount": 1247
    },
    {
      "id": 526,
      "amount": 1
    },
    {
      "id": 526,
      "amount": 1
    },
    {
      "id": 526,
      "amount": 1
    },
    {
      "id": 526,
      "amount": 1
    },
    {
      "id": 526,
      "amount": 1
    },
    {
      "id": 526,
      "amount": 1
    },
    null,
    {
      "id": 7946,
      "amount": 1
    },
    {
      "id": 7946,
      "amount": 1
    },
    {
      "id": 7946,
      "amount": 1
    },
    {
      "id": 7946,
      "amount": 1
    },
    {
      "id": 7946,
      "amount": 1
    },
    {
      "id": 7946,
      "amount": 1
    },
    {
      "id": 7946,
      "amount": 1
    },
    {
      "id": 995,
      "amount": 300
    },
    null,
    null,
    null,
    null,
    null
  ],
  "equipment": [
    {
      "id": 4089,
      "amount": 1
    },
    null,
    null,
    {
      "id": 4675,
      "amount": 1
    },
    {
      "id": 4091,
      "amount": 1
    },
    null,
    null,
    {
      "id": 4093,
      "amount": 1
    },
    null,
    null,
    {
      "id": 4097,
      "amount": 1
    },
    null,
    null,
    null
  ],
  "shopItems": [
    null,
    null,
    null,
    null,
    null,
    null,
    null,
    null,
    null,
    null,
    null,
    null,
    null,
    null,
    null,
    null,
    null,
    null,
    null,
    null,
    null,
    null,
    null,
    null,
    null,
    null,
    null,
    null,
    null,
    null,
    null,
    null,
    null,
    null,
    null,
    null
  ],
  "shopPrices": [
    0,
    0,
    0,
    0,
    0,
    0,
    0,
    0,
    0,
    0,
    0,
    0,
    0,
    0,
    0,
    0,
    0,
    0,
    0,
    0,
    0,
    0,
    0,
    0,
    0,
    0,
    0,
    0,
    0,
    0,
    0,
    0,
    0,
    0,
    0,
    0
  ],
  "pouches": [
    0,
    0,
    0,
    0
  ]
}