{
  "bank": [
    {
      "id": 6570,
      "amount": 1
    },
    {
      "id": 13274,
      "amount": 1
    },
    {
      "id": 11900,
      "amount": 1
    },
    {
      "id": 11840,
      "amount": 3
    },
    {
      "id": 12795,
      "amount": 3
    },
    {
      "id": 6735,
      "amount": 1
    },
    {
      "id": 19610,
      "amount": 1
    },
    {
      "id": 12829,
      "amount": 3
    },
    {
      "id": 11335,
      "amount": 2
    },
    {
      "id": 12877,
      "amount": 1
    },
    {
      "id": 3140,
      "amount": 2
    },
    {
      "id": 12528,
      "amount": 2
    },
    {
      "id": 4716,
      "amount": 2
    },
    {
      "id": 4708,
      "amount": 3
    },
    {
      "id": 4724,
      "amount": 3
    },
    {
      "id": 4745,
      "amount": 3
    },
    {
      "id": 6914,
      "amount": 9
    },
    {
      "id": 4720,
      "amount": 1
    },
    {
      "id": 4712,
      "amount": 1
    },
    {
      "id": 4585,
      "amount": 2
    },
    {
      "id": 11936,
      "amount": 100
    },
    {
      "id": 6524,
      "amount": 6
    },
    {
      "id": 4759,
      "amount": 2
    },
    {
      "id": 13182,
      "amount": 1
    },
    {
      "id": 608,
      "amount": 4
    },
    {
      "id": 4722,
      "amount": 1
    },
    {
      "id": 4714,
      "amount": 2
    },
    {
      "id": 4730,
      "amount": 1
    },
    {
      "id": 207,
      "amount": 150
    },
    {
      "id": 2440,
      "amount": 30
    },
    {
      "id": 7979,
      "amount": 1
    },
    {
      "id": 5302,
      "amount": 20
    },
    {
      "id": 11929,
      "amount": 1
    },
    {
      "id": 11943,
      "amount": 40
    },
    {
      "id": 4710,
      "amount": 2
    },
    {
      "id": 2442,
      "amount": 50
    },
    {
      "id": 4738,
      "amount": 1
    },
    {
      "id": 4747,
      "amount": 1
    },
    {
      "id": 19484,
      "amount": 2500
    },
    {
      "id": 1149,
      "amount": 2
    },
    {
      "id": 383,
      "amount": 50
    },
    {
      "id": 4757,
      "amount": 1
    },
    {
      "id": 11230,
      "amount": 150
    },
    {
      "id": 2434,
      "amount": 75
    },
    {
      "id": 4755,
      "amount": 1
    },
    {
      "id": 6731,
      "amount": 2
    },
    {
      "id": 989,
      "amount": 4
    },
    {
      "id": 2944,
      "amount": 3
    },
    {
      "id": 4087,
      "amount": 5
    },
    {
      "id": 7462,
      "amount": 2
    },
    {
      "id": 397,
      "amount": 2050
    },
    {
      "id": 7780,
      "amount": 4
    },
    {
      "id": 7798,
      "amount": 8
    },
    {
      "id": 7783,
      "amount": 10
    },
    {
      "id": 7789,
      "amount": 1
    },
    {
      "id": 7792,
      "amount": 4
    },
    {
      "id": 7786,
      "amount": 4
    },
    {
      "id": 1513,
      "amount": 100
    },
    {
      "id": 7980,
      "amount": 5
    },
    {
      "id": 7795,
      "amount": 3
    },
    {
      "id": 10551,
      "amount": 1
    },
    {
      "id": 19607,
      "amount": 1
    },
    {
      "id": 3024,
      "amount": 10
    },
    {
      "id": 451,
      "amount": 75
    },
    {
      "id": 2436,
      "amount": 20
    },
    {
      "id": 7981,
      "amount": 1
    },
    {
      "id": 13092,
      "amount": 1
    },
    {
      "id": 12530,
      "amount": 4
    },
    {
      "id": 1147,
      "amount": 10
    },
    {
      "id": 12259,
      "amount": 2
    },
    {
      "id": 1145,
      "amount": 5
    },
    {
      "id": 7376,
      "amount": 4
    },
    {
      "id": 7352,
      "amount": 1
    },
    {
      "id": 10298,
      "amount": 1
    },
    {
      "id": 7336,
      "amount": 5
    },
    {
      "id": 2621,
      "amount": 2
    },
    {
      "id": 1319,
      "amount": 11
    },
    {
      "id": 1163,
      "amount": 2
    },
    {
      "id": 12494,
      "amount": 3
    },
    {
      "id": 2503,
      "amount": 7
    },
    {
      "id": 1125,
      "amount": 1
    },
    {
      "id": 12522,
      "amount": 1
    },
    {
      "id": 1127,
      "amount": 9
    },
    {
      "id": 3481,
      "amount": 3
    },
    {
      "id": 2643,
      "amount": 1
    },
    {
      "id": 2655,
      "amount": 2
    },
    {
      "id": 12381,
      "amount": 2
    },
    {
      "id": 3479,
      "amount": 3
    },
    {
      "id": 2669,
      "amount": 2
    },
    {
      "id": 1123,
      "amount": 3
    },
    {
      "id": 1271,
      "amount": 2
    },
    {
      "id": 859,
      "amount": 4
    },
    {
      "id": 1432,
      "amount": 7
    },
    {
      "id": 1199,
      "amount": 2
    },
    {
      "id": 1093,
      "amount": 9
    },
    {
      "id": 2491,
      "amount": 5
    },
    {
      "id": 1303,
      "amount": 7
    },
    {
      "id": 1111,
      "amount": 2
    },
    {
      "id": 1357,
      "amount": 2
    },
    {
      "id": 10390,
      "amount": 2
    },
    {
      "id": 1135,
      "amount": 4
    },
    {
      "id": 1301,
      "amount": 2
    },
    {
      "id": 1345,
      "amount": 1
    },
    {
      "id": 7358,
      "amount": 2
    },
    {
      "id": 379,
      "amount": 9
    },
    {
      "id": 1430,
      "amount": 3
    },
    {
      "id": 10290,
      "amount": 2
    },
    {
      "id": 2649,
      "amount": 1
    },
    {
      "id": 1185,
      "amount": 9
    },
    {
      "id": 12532,
      "amount": 1
    },
    {
      "id": 7360,
      "amount": 2
    },
    {
      "id": 1201,
      "amount": 13
    },
    {
      "id": 385,
      "amount": 5
    },
    {
      "id": 2659,
      "amount": 3
    },
    {
      "id": 3480,
      "amount": 6
    },
    {
      "id": 12500,
      "amount": 2
    },
    {
      "id": 12275,
      "amount": 1
    },
    {
      "id": 7348,
      "amount": 6
    },
    {
      "id": 861,
      "amount": 9
    },
    {
      "id": 3486,
      "amount": 1
    },
    {
      "id": 10376,
      "amount": 1
    },
    {
      "id": 7382,
      "amount": 3
    },
    {
      "id": 10374,
      "amount": 1
    },
    {
      "id": 1213,
      "amount": 5
    },
    {
      "id": 3476,
      "amount": 2
    },
    {
      "id": 7354,
      "amount": 4
    },
    {
      "id": 2497,
      "amount": 7
    },
    {
      "id": 12269,
      "amount": 1
    },
    {
      "id": 12520,
      "amount": 1
    },
    {
      "id": 1289,
      "amount": 4
    },
    {
      "id": 12510,
      "amount": 2
    },
    {
      "id": 1287,
      "amount": 2
    },
    {
      "id": 1161,
      "amount": 3
    },
    {
      "id": 12325,
      "amount": 3
    },
    {
      "id": 1359,
      "amount": 8
    },
    {
      "id": 2645,
      "amount": 2
    },
    {
      "id": 2653,
      "amount": 3
    },
    {
      "id": 10386,
      "amount": 1
    },
    {
      "id": 1367,
      "amount": 1
    },
    {
      "id": 12201,
      "amount": 1
    },
    {
      "id": 10428,
      "amount": 1
    },
    {
      "id": 10368,
      "amount": 1
    },
    {
      "id": 7398,
      "amount": 1
    },
    {
      "id": 10344,
      "amount": 1
    },
    {
      "id": 10304,
      "amount": 2
    },
    {
      "id": 10410,
      "amount": 1
    },
    {
      "id": 10384,
      "amount": 1
    },
    {
      "id": 10474,
      "amount": 1
    },
    {
      "id": 12313,
      "amount": 1
    },
    {
      "id": 12518,
      "amount": 2
    },
    {
      "id": 8780,
      "amount": 1
    },
    {
      "id": 12534,
      "amount": 3
    },
    {
      "id": 1211,
      "amount": 3
    },
    {
      "id": 1113,
      "amount": 5
    },
    {
      "id": 10286,
      "amount": 4
    },
    {
      "id": 10302,
      "amount": 2
    },
    {
      "id": 12526,
      "amount": 3
    },
    {
      "id": 2623,
      "amount": 1
    },
    {
      "id": 10292,
      "amount": 3
    },
    {
      "id": 1333,
      "amount": 3
    },
    {
      "id": 2617,
      "amount": 1
    },
    {
      "id": 1373,
      "amount": 4
    },
    {
      "id": 12303,
      "amount": 1
    },
    {
      "id": 12299,
      "amount": 1
    },
    {
      "id": 2667,
      "amount": 1
    },
    {
      "id": 3488,
      "amount": 3
    },
    {
      "id": 12321,
      "amount": 1
    },
    {
      "id": 12504,
      "amount": 1
    },
    {
      "id": 2661,
      "amount": 2
    },
    {
      "id": 7321,
      "amount": 1
    },
    {
      "id": 10378,
      "amount": 3
    },
    {
      "id": 560,
      "amount": 77
    },
    {
      "id": 1347,
      "amount": 3
    },
    {
      "id": 1393,
      "amount": 1
    },
    {
      "id": 4823,
      "amount": 19
    },
    {
      "id": 10402,
      "amount": 1
    },
    {
      "id": 12524,
      "amount": 3
    },
    {
      "id": 373,
      "amount": 1
    },
    {
      "id": 7399,
      "amount": 2
    },
    {
      "id": 10294,
      "amount": 6
    },
    {
      "id": 10382,
      "amount": 2
    },
    {
      "id": 1183,
      "amount": 2
    },
    {
      "id": 333,
      "amount": 1
    },
    {
      "id": 2657,
      "amount": 1
    },
    {
      "id": 2675,
      "amount": 4
    },
    {
      "id": 1091,
      "amount": 1
    },
    {
      "id": 9183,
      "amount": 1
    },
    {
      "id": 2635,
      "amount": 1
    },
    {
      "id": 2579,
      "amount": 2
    },
    {
      "id": 10470,
      "amount": 1
    },
    {
      "id": 10312,
      "amount": 2
    },
    {
      "id": 3475,
      "amount": 1
    },
    {
      "id": 10300,
      "amount": 1
    },
    {
      "id": 1361,
      "amount": 1
    },
    {
      "id": 12516,
      "amount": 1
    },
    {
      "id": 562,
      "amount": 2
    },
    {
      "id": 10418,
      "amount": 1
    },
    {
      "id": 12305,
      "amount": 1
    },
    {
      "id": 10388,
      "amount": 1
    },
    {
      "id": 2665,
      "amount": 3
    },
    {
      "id": 1077,
      "amount": 1
    },
    {
      "id": 10370,
      "amount": 1
    },
    {
      "id": 3478,
      "amount": 3
    },
    {
      "id": 1331,
      "amount": 2
    },
    {
      "id": 857,
      "amount": 1
    },
    {
      "id": 2639,
      "amount": 1
    },
    {
      "id": 7332,
      "amount": 1
    },
    {
      "id": 7325,
      "amount": 1
    },
    {
      "id": 7374,
      "amount": 1
    },
    {
      "id": 2611,
      "amount": 1
    },
    {
      "id": 10288,
      "amount": 2
    },
    {
      "id": 2663,
      "amount": 2
    },
    {
      "id": 1129,
      "amount": 1
    },
    {
      "id": 12536,
      "amount": 1
    },
    {
      "id": 1079,
      "amount": 1
    },
    {
      "id": 2671,
      "amount": 1
    },
    {
      "id": 10440,
      "amount": 1
    },
    {
      "id": 12339,
      "amount": 1
    },
    {
      "id": 10400,
      "amount": 1
    },
    {
      "id": 12283,
      "amount": 1
    },
    {
      "id": 12301,
      "amount": 1
    },
    {
      "id": 1692,
      "amount": 1
    },
    {
      "id": 329,
      "amount": 1
    },
    {
      "id": 12323,
      "amount": 1
    },
    {
      "id": 12512,
      "amount": 1
    },
    {
      "id": 12389,
      "amount": 1
    },
    {
      "id": 12538,
      "amount": 1
    },
    {
      "id": 2802,
      "amount": 2
    },
    {
      "id": 2714,
      "amount": 4
    },
    null,
    null,
    null,
    null,
    null,
    null,
    null,
    null,
    null,
    null,
    null,
    null,
    null,
    null,
    null,
    null,
    null,
    null,
    null,
    null,
    null,
    null,
    null,
    null,
    null,
    null,
    null,
    null,
    null,
    null,
    null,
    null,
    null,
    null,
    null,
    null,
    null,
    null,
    null,
    null,
    null,
    null,
    null,
    null,
    null,
    null,
    null,
    null,
    null,
    null,
    null,
    null,
    null,
    null,
    null,
    null,
    null,
    null,
    null,
    null,
    null,
    null,
    null,
    null,
    null,
    null,
    null,
    null,
    null,
    null,
    null,
    null,
    null,
    null,
    null,
    null,
    null,
    null,
    null,
    null,
    null,
    null,
    null,
    null,
    null,
    null,
    null,
    null,
    null,
    null,
    null,
    null,
    null,
    null,
    null,
    null,
    null,
    null,
    null,
    null,
    null,
    null,
    null,
    null,
    null,
    null,
    null,
    null,
    null,
    null,
    null,
    null,
    null,
    null,
    null,
    null,
    null,
    null,
    null,
    null,
    null
  ],
  "tabAmounts": [
    12,
    59,
    156,
    1,
    1,
    0,
    0,
    0,
    0,
    0
  ],
  "inventory": [
    null,
    null,
    null,
    null,
    null,
    null,
    null,
    null,
    null,
    null,
    null,
    null,
    null,
    null,
    null,
    null,
    null,
    null,
    null,
    null,
    null,
    null,
    null,
    null,
    null,
    null,
    null,
    null
  ],
  "equipment": [
    {
      "id": 12399,
      "amount": 1
    },
    {
      "id": 13068,
      "amount": 1
    },
    null,
    {
      "id": 12424,
      "amount": 1
    },
    null,
    null,
    null,
    null,
    null,
    null,
    null,
    null,
    null,
    null
  ],
  "shopItems": [
    null,
    null,
    null,
    null,
    null,
    null,
    null,
    null,
    null,
    null,
    null,
    null,
    null,
    null,
    null,
    null,
    null,
    null,
    null,
    null,
    null,
    null,
    null,
    null,
    null,
    null,
    null,
    null,
    null,
    null,
    null,
    null,
    null,
    null,
    null,
    null
  ],
  "shopPrices": [
    0,
    0,
    0,
    0,
    0,
    0,
    0,
    0,
    0,
    0,
    0,
    0,
    0,
    0,
    0,
    0,
    0,
    0,
    0,
    0,
    0,
    0,
    0,
    0,
    0,
    0,
    0,
    0,
    0,
    0,
    0,
    0,
    0,
    0,
    0,
    0
  ],
  "pouches": [
    0,
    0,
    0,
    0
  ]
}