{
  "bank": [
    {
      "id": 1321,
      "amount": 1
    },
    {
      "id": 1333,
      "amount": 1
    },
    {
      "id": 4587,
      "amount": 1
    },
    {
      "id": 841,
      "amount": 1
    },
    {
      "id": 861,
      "amount": 1
    },
    {
      "id": 884,
      "amount": 250
    },
    {
      "id": 892,
      "amount": 100
    },
    {
      "id": 1381,
      "amount": 1
    },
    {
      "id": 554,
      "amount": 300
    },
    {
      "id": 558,
      "amount": 100
    },
    {
      "id": 562,
      "amount": 100
    },
    {
      "id": 7946,
      "amount": 100
    },
    {
      "id": 12695,
      "amount": 5
    },
    {
      "id": 1,
      "amount": 1
    },
    {
      "id": 2682,
      "amount": 1
    },
    {
      "id": 1305,
      "amount": 1
    },
    {
      "id": 526,
      "amount": 616
    },
    {
      "id": 10010,
      "amount": 1
    },
    {
      "id": 11238,
      "amount": 19
    },
    {
      "id": 11240,
      "amount": 10
    },
    {
      "id": 11242,
      "amount": 7
    },
    {
      "id": 11244,
      "amount": 11
    },
    {
      "id": 11246,
      "amount": 33
    },
    {
      "id": 11250,
      "amount": 26
    },
    {
      "id": 11252,
      "amount": 21
    },
    {
      "id": 11254,
      "amount": 8
    },
    {
      "id": 995,
      "amount": 2239364
    },
    null,
    null,
    null,
    null,
    null,
    null,
    null,
    null,
    null,
    null,
    null,
    null,
    null,
    null,
    null,
    null,
    null,
    null,
    null,
    null,
    null,
    null,
    null,
    null,
    null,
    null,
    null,
    null,
    null,
    null,
    null,
    null,
    null,
    null,
    null,
    null,
    null,
    null,
    null,
    null,
    null,
    null,
    null,
    null,
    null,
    null,
    null,
    null,
    null,
    null,
    null,
    null,
    null,
    null,
    null,
    null,
    null,
    null,
    null,
    null,
    null,
    null,
    null,
    null,
    null,
    null,
    null,
    null,
    null,
    null,
    null,
    null,
    null,
    null,
    null,
    null,
    null,
    null,
    null,
    null,
    null,
    null,
    null,
    null,
    null,
    null,
    null,
    null,
    null,
    null,
    null,
    null,
    null,
    null,
    null,
    null,
    null,
    null,
    null,
    null,
    null,
    null,
    null,
    null,
    null,
    null,
    null,
    null,
    null,
    null,
    null,
    null,
    null,
    null,
    null,
    null,
    null,
    null,
    null,
    null,
    null,
    null,
    null,
    null,
    null,
    null,
    null,
    null,
    null,
    null,
    null,
    null,
    null,
    null,
    null,
    null,
    null,
    null,
    null,
    null,
    null,
    null,
    null,
    null,
    null,
    null,
    null,
    null,
    null,
    null,
    null,
    null,
    null,
    null,
    null,
    null,
    null,
    null,
    null,
    null,
    null,
    null,
    null,
    null,
    null,
    null,
    null,
    null,
    null,
    null,
    null,
    null,
    null,
    null,
    null,
    null,
    null,
    null,
    null,
    null,
    null,
    null,
    null,
    null,
    null,
    null,
    null,
    null,
    null,
    null,
    null,
    null,
    null,
    null,
    null,
    null,
    null,
    null,
    null,
    null,
    null,
    null,
    null,
    null,
    null,
    null,
    null,
    null,
    null,
    null,
    null,
    null,
    null,
    null,
    null,
    null,
    null,
    null,
    null,
    null,
    null,
    null,
    null,
    null,
    null,
    null,
    null,
    null,
    null,
    null,
    null,
    null,
    null,
    null,
    null,
    null,
    null,
    null,
    null,
    null,
    null,
    null,
    null,
    null,
    null,
    null,
    null,
    null,
    null,
    null,
    null,
    null,
    null,
    null,
    null,
    null,
    null,
    null,
    null,
    null,
    null,
    null,
    null,
    null,
    null,
    null,
    null,
    null,
    null,
    null,
    null,
    null,
    null,
    null,
    null,
    null,
    null,
    null,
    null,
    null,
    null,
    null,
    null,
    null,
    null,
    null,
    null,
    null,
    null,
    null,
    null,
    null,
    null,
    null,
    null,
    null,
    null,
    null,
    null,
    null,
    null,
    null,
    null,
    null,
    null,
    null,
    null,
    null,
    null,
    null,
    null,
    null,
    null,
    null,
    null,
    null,
    null,
    null,
    null,
    null,
    null,
    null,
    null
  ],
  "tabAmounts": [
    17,
    9,
    1,
    0,
    0,
    0,
    0,
    0,
    0,
    0
  ],
  "inventory": [
    {
      "id": 11250,
      "amount": 1
    },
    {
      "id": 11254,
      "amount": 1
    },
    {
      "id": 11252,
      "amount": 1
    },
    null,
    {
      "id": 11260,
      "amount": 1
    },
    {
      "id": 11260,
      "amount": 1
    },
    {
      "id": 11260,
      "amount": 1
    },
    {
      "id": 11260,
      "amount": 1
    },
    {
      "id": 11260,
      "amount": 1
    },
    {
      "id": 11260,
      "amount": 1
    },
    {
      "id": 11260,
      "amount": 1
    },
    {
      "id": 11260,
      "amount": 1
    },
    {
      "id": 11260,
      "amount": 1
    },
    {
      "id": 11260,
      "amount": 1
    },
    {
      "id": 11260,
      "amount": 1
    },
    {
      "id": 11260,
      "amount": 1
    },
    {
      "id": 11260,
      "amount": 1
    },
    {
      "id": 11260,
      "amount": 1
    },
    {
      "id": 11260,
      "amount": 1
    },
    {
      "id": 11260,
      "amount": 1
    },
    {
      "id": 11260,
      "amount": 1
    },
    {
      "id": 11260,
      "amount": 1
    },
    {
      "id": 11260,
      "amount": 1
    },
    {
      "id": 11254,
      "amount": 1
    },
    null,
    null,
    null,
    null
  ],
  "equipment": [
    null,
    null,
    {
      "id": 1712,
      "amount": 1
    },
    {
      "id": 10010,
      "amount": 1
    },
    {
      "id": 1844,
      "amount": 1
    },
    null,
    null,
    {
      "id": 1845,
      "amount": 1
    },
    null,
    null,
    {
      "id": 1846,
      "amount": 1
    },
    null,
    null,
    null
  ],
  "shopItems": [
    null,
    null,
    null,
    null,
    null,
    null,
    null,
    null,
    null,
    null,
    null,
    null,
    null,
    null,
    null,
    null,
    null,
    null,
    null,
    null,
    null,
    null,
    null,
    null,
    null,
    null,
    null,
    null,
    null,
    null,
    null,
    null,
    null,
    null,
    null,
    null
  ],
  "shopPrices": [
    0,
    0,
    0,
    0,
    0,
    0,
    0,
    0,
    0,
    0,
    0,
    0,
    0,
    0,
    0,
    0,
    0,
    0,
    0,
    0,
    0,
    0,
    0,
    0,
    0,
    0,
    0,
    0,
    0,
    0,
    0,
    0,
    0,
    0,
    0,
    0
  ],
  "pouches": [
    0,
    0,
    0,
    0
  ]
}