{
  "bank": [
    {
      "id": 1351,
      "amount": 1
    },
    {
      "id": 590,
      "amount": 1
    },
    {
      "id": 303,
      "amount": 1
    },
    {
      "id": 1265,
      "amount": 1
    },
    {
      "id": 1925,
      "amount": 1
    },
    {
      "id": 1205,
      "amount": 1
    },
    {
      "id": 556,
      "amount": 152
    },
    {
      "id": 558,
      "amount": 56
    },
    {
      "id": 555,
      "amount": 156
    },
    {
      "id": 841,
      "amount": 1
    },
    {
      "id": 559,
      "amount": 114
    },
    {
      "id": 557,
      "amount": 10
    },
    {
      "id": 995,
      "amount": 259656
    },
    {
      "id": 882,
      "amount": 25
    },
    {
      "id": 1931,
      "amount": 1
    },
    {
      "id": 385,
      "amount": 2
    },
    {
      "id": 2293,
      "amount": 1
    },
    {
      "id": 1761,
      "amount": 1
    },
    {
      "id": 1743,
      "amount": 1
    },
    {
      "id": 2347,
      "amount": 1
    },
    {
      "id": 1733,
      "amount": 1
    },
    {
      "id": 562,
      "amount": 1
    },
    {
      "id": 7178,
      "amount": 3
    },
    {
      "id": 5535,
      "amount": 2
    },
    {
      "id": 1448,
      "amount": 1
    },
    {
      "id": 1442,
      "amount": 1
    },
    {
      "id": 563,
      "amount": 39
    },
    {
      "id": 1731,
      "amount": 10
    },
    {
      "id": 1347,
      "amount": 2
    },
    {
      "id": 2327,
      "amount": 1
    },
    {
      "id": 1747,
      "amount": 39
    },
    {
      "id": 5299,
      "amount": 3
    },
    {
      "id": 565,
      "amount": 21
    },
    {
      "id": 564,
      "amount": 4
    },
    {
      "id": 2570,
      "amount": 16
    },
    {
      "id": 2363,
      "amount": 6
    },
    {
      "id": 12810,
      "amount": 1
    },
    {
      "id": 6032,
      "amount": 6
    },
    {
      "id": 1513,
      "amount": 2
    },
    {
      "id": 3000,
      "amount": 2
    },
    {
      "id": 2568,
      "amount": 6
    },
    {
      "id": 4095,
      "amount": 1
    },
    {
      "id": 9194,
      "amount": 8
    },
    {
      "id": 9342,
      "amount": 10
    },
    {
      "id": 5300,
      "amount": 11
    },
    {
      "id": 1333,
      "amount": 3
    },
    {
      "id": 139,
      "amount": 12
    },
    {
      "id": 7936,
      "amount": 150
    },
    {
      "id": 1185,
      "amount": 3
    },
    {
      "id": 805,
      "amount": 150
    },
    {
      "id": 5297,
      "amount": 1
    },
    {
      "id": 5541,
      "amount": 1
    },
    {
      "id": 566,
      "amount": 22
    },
    {
      "id": 1601,
      "amount": 4
    },
    {
      "id": 6155,
      "amount": 6
    },
    {
      "id": 1700,
      "amount": 6
    },
    {
      "id": 892,
      "amount": 140
    },
    {
      "id": 3385,
      "amount": 1
    },
    {
      "id": 1215,
      "amount": 4
    },
    {
      "id": 1113,
      "amount": 1
    },
    {
      "id": 1704,
      "amount": 3
    },
    {
      "id": 12608,
      "amount": 1
    },
    {
      "id": 859,
      "amount": 1
    },
    {
      "id": 4093,
      "amount": 3
    },
    {
      "id": 3391,
      "amount": 1
    },
    {
      "id": 11230,
      "amount": 44
    },
    {
      "id": 985,
      "amount": 1
    },
    {
      "id": 9193,
      "amount": 53
    },
    {
      "id": 4587,
      "amount": 1
    },
    {
      "id": 1615,
      "amount": 2
    },
    {
      "id": 5547,
      "amount": 1
    },
    {
      "id": 5316,
      "amount": 2
    },
    {
      "id": 7218,
      "amount": 27
    },
    {
      "id": 11232,
      "amount": 12
    },
    {
      "id": 11237,
      "amount": 13
    },
    {
      "id": 9341,
      "amount": 8
    },
    {
      "id": 526,
      "amount": 15
    },
    {
      "id": 11260,
      "amount": 1
    },
    {
      "id": 993,
      "amount": 1
    },
    {
      "id": 946,
      "amount": 1
    },
    {
      "id": 12453,
      "amount": 1
    },
    {
      "id": 1171,
      "amount": 1
    },
    {
      "id": 6912,
      "amount": 1
    },
    {
      "id": 10010,
      "amount": 1
    },
    {
      "id": 3144,
      "amount": 2
    },
    {
      "id": 2678,
      "amount": 1
    },
    {
      "id": 1594,
      "amount": 1
    },
    {
      "id": 1373,
      "amount": 1
    },
    {
      "id": 11849,
      "amount": 3
    },
    {
      "id": 5294,
      "amount": 2
    },
    {
      "id": 5295,
      "amount": 1
    },
    {
      "id": 5286,
      "amount": 1
    },
    {
      "id": 5285,
      "amount": 1
    },
    {
      "id": 5104,
      "amount": 1
    },
    {
      "id": 6016,
      "amount": 2
    },
    {
      "id": 5304,
      "amount": 1
    },
    {
      "id": 5974,
      "amount": 2
    },
    {
      "id": 253,
      "amount": 8
    },
    {
      "id": 269,
      "amount": 2
    },
    {
      "id": 1605,
      "amount": 12
    },
    {
      "id": 4097,
      "amount": 7
    },
    null,
    null,
    null,
    null,
    null,
    null,
    null,
    null,
    null,
    null,
    null,
    null,
    null,
    null,
    null,
    null,
    null,
    null,
    null,
    null,
    null,
    null,
    null,
    null,
    null,
    null,
    null,
    null,
    null,
    null,
    null,
    null,
    null,
    null,
    null,
    null,
    null,
    null,
    null,
    null,
    null,
    null,
    null,
    null,
    null,
    null,
    null,
    null,
    null,
    null,
    null,
    null,
    null,
    null,
    null,
    null,
    null,
    null,
    null,
    null,
    null,
    null,
    null,
    null,
    null,
    null,
    null,
    null,
    null,
    null,
    null,
    null,
    null,
    null,
    null,
    null,
    null,
    null,
    null,
    null,
    null,
    null,
    null,
    null,
    null,
    null,
    null,
    null,
    null,
    null,
    null,
    null,
    null,
    null,
    null,
    null,
    null,
    null,
    null,
    null,
    null,
    null,
    null,
    null,
    null,
    null,
    null,
    null,
    null,
    null,
    null,
    null,
    null,
    null,
    null,
    null,
    null,
    null,
    null,
    null,
    null,
    null,
    null,
    null,
    null,
    null,
    null,
    null,
    null,
    null,
    null,
    null,
    null,
    null,
    null,
    null,
    null,
    null,
    null,
    null,
    null,
    null,
    null,
    null,
    null,
    null,
    null,
    null,
    null,
    null,
    null,
    null,
    null,
    null,
    null,
    null,
    null,
    null,
    null,
    null,
    null,
    null,
    null,
    null,
    null,
    null,
    null,
    null,
    null,
    null,
    null,
    null,
    null,
    null,
    null,
    null,
    null,
    null,
    null,
    null,
    null,
    null,
    null,
    null,
    null,
    null,
    null,
    null,
    null,
    null,
    null,
    null,
    null,
    null,
    null,
    null,
    null,
    null,
    null,
    null,
    null,
    null,
    null,
    null,
    null,
    null,
    null,
    null,
    null,
    null,
    null,
    null,
    null,
    null,
    null,
    null,
    null,
    null,
    null,
    null,
    null,
    null,
    null,
    null,
    null,
    null,
    null,
    null,
    null,
    null,
    null,
    null,
    null,
    null,
    null,
    null,
    null,
    null,
    null,
    null,
    null,
    null,
    null,
    null,
    null,
    null,
    null,
    null,
    null
  ],
  "tabAmounts": [
    89,
    10,
    2,
    0,
    0,
    0,
    0,
    0,
    0,
    0
  ],
  "inventory": [
    null,
    null,
    null,
    null,
    null,
    null,
    null,
    null,
    null,
    null,
    null,
    null,
    null,
    null,
    null,
    null,
    null,
    null,
    null,
    null,
    null,
    null,
    null,
    null,
    null,
    null,
    null,
    null
  ],
  "equipment": [
    {
      "id": 3753,
      "amount": 1
    },
    {
      "id": 10499,
      "amount": 1
    },
    {
      "id": 1704,
      "amount": 1
    },
    {
      "id": 4587,
      "amount": 1
    },
    {
      "id": 12811,
      "amount": 1
    },
    {
      "id": 12612,
      "amount": 1
    },
    null,
    {
      "id": 12812,
      "amount": 1
    },
    null,
    null,
    null,
    null,
    null,
    null
  ],
  "shopItems": [
    null,
    null,
    null,
    null,
    null,
    null,
    null,
    null,
    null,
    null,
    null,
    null,
    null,
    null,
    null,
    null,
    null,
    null,
    null,
    null,
    null,
    null,
    null,
    null,
    null,
    null,
    null,
    null,
    null,
    null,
    null,
    null,
    null,
    null,
    null,
    null
  ],
  "shopPrices": [
    0,
    0,
    0,
    0,
    0,
    0,
    0,
    0,
    0,
    0,
    0,
    0,
    0,
    0,
    0,
    0,
    0,
    0,
    0,
    0,
    0,
    0,
    0,
    0,
    0,
    0,
    0,
    0,
    0,
    0,
    0,
    0,
    0,
    0,
    0,
    0
  ],
  "pouches": [
    0,
    0,
    0,
    0
  ]
}