{
  "bank": [
    {
      "id": 995,
      "amount": 1070013
    },
    {
      "id": 861,
      "amount": 1
    },
    {
      "id": 892,
      "amount": 100
    },
    {
      "id": 1381,
      "amount": 1
    },
    {
      "id": 558,
      "amount": 100
    },
    {
      "id": 562,
      "amount": 100
    },
    {
      "id": 554,
      "amount": 300
    },
    {
      "id": 7946,
      "amount": 98
    },
    {
      "id": 12695,
      "amount": 5
    },
    {
      "id": 2682,
      "amount": 1
    },
    {
      "id": 1,
      "amount": 1
    },
    {
      "id": 3393,
      "amount": 2
    },
    {
      "id": 1731,
      "amount": 1
    },
    {
      "id": 859,
      "amount": 1
    },
    {
      "id": 6912,
      "amount": 2
    },
    {
      "id": 6322,
      "amount": 1
    },
    {
      "id": 6324,
      "amount": 1
    },
    {
      "id": 12608,
      "amount": 1
    },
    {
      "id": 1333,
      "amount": 1
    },
    {
      "id": 1155,
      "amount": 1
    },
    {
      "id": 1755,
      "amount": 1
    },
    {
      "id": 1844,
      "amount": 1
    },
    {
      "id": 1845,
      "amount": 1
    },
    {
      "id": 1117,
      "amount": 1
    },
    {
      "id": 1075,
      "amount": 1
    },
    {
      "id": 1189,
      "amount": 1
    },
    {
      "id": 1321,
      "amount": 1
    },
    {
      "id": 1327,
      "amount": 5
    },
    {
      "id": 1249,
      "amount": 1
    },
    {
      "id": 1067,
      "amount": 1
    },
    {
      "id": 1115,
      "amount": 1
    },
    {
      "id": 1153,
      "amount": 1
    },
    {
      "id": 1191,
      "amount": 1
    },
    {
      "id": 1247,
      "amount": 1
    },
    {
      "id": 9185,
      "amount": 1
    },
    {
      "id": 1099,
      "amount": 1
    },
    {
      "id": 12455,
      "amount": 1
    },
    {
      "id": 1201,
      "amount": 3
    },
    {
      "id": 1127,
      "amount": 3
    },
    {
      "id": 3755,
      "amount": 1
    },
    {
      "id": 1135,
      "amount": 1
    },
    {
      "id": 1712,
      "amount": 2
    },
    {
      "id": 2803,
      "amount": 1
    },
    {
      "id": 3839,
      "amount": 1
    },
    {
      "id": 3101,
      "amount": 1
    },
    {
      "id": 3385,
      "amount": 1
    },
    {
      "id": 1149,
      "amount": 1
    },
    {
      "id": 2550,
      "amount": 1
    },
    {
      "id": 987,
      "amount": 1
    },
    {
      "id": 886,
      "amount": 150
    },
    {
      "id": 9950,
      "amount": 1
    },
    {
      "id": 10308,
      "amount": 2
    },
    {
      "id": 169,
      "amount": 1
    },
    {
      "id": 9674,
      "amount": 1
    },
    {
      "id": 9676,
      "amount": 1
    },
    {
      "id": 1846,
      "amount": 1
    },
    {
      "id": 11849,
      "amount": 2
    },
    {
      "id": 303,
      "amount": 2
    },
    {
      "id": 315,
      "amount": 35
    },
    {
      "id": 319,
      "amount": 16
    },
    {
      "id": 1163,
      "amount": 1
    },
    {
      "id": 1977,
      "amount": 1
    },
    {
      "id": 385,
      "amount": 100
    },
    {
      "id": 2366,
      "amount": 2
    },
    {
      "id": 2368,
      "amount": 1
    },
    {
      "id": 7944,
      "amount": 1
    },
    {
      "id": 4587,
      "amount": 1
    },
    {
      "id": 1462,
      "amount": 2
    },
    {
      "id": 882,
      "amount": 359
    },
    {
      "id": 1265,
      "amount": 1
    },
    {
      "id": 884,
      "amount": 231
    },
    {
      "id": 10828,
      "amount": 1
    },
    {
      "id": 10499,
      "amount": 1
    },
    {
      "id": 841,
      "amount": 1
    },
    {
      "id": 1079,
      "amount": 1
    },
    {
      "id": 7460,
      "amount": 1
    },
    {
      "id": 3105,
      "amount": 1
    },
    {
      "id": 1393,
      "amount": 1
    },
    {
      "id": 9736,
      "amount": 110
    },
    {
      "id": 1267,
      "amount": 1
    },
    {
      "id": 301,
      "amount": 1
    },
    {
      "id": 4012,
      "amount": 4
    },
    null,
    null,
    null,
    null,
    null,
    null,
    null,
    null,
    null,
    null,
    null,
    null,
    null,
    null,
    null,
    null,
    null,
    null,
    null,
    null,
    null,
    null,
    null,
    null,
    null,
    null,
    null,
    null,
    null,
    null,
    null,
    null,
    null,
    null,
    null,
    null,
    null,
    null,
    null,
    null,
    null,
    null,
    null,
    null,
    null,
    null,
    null,
    null,
    null,
    null,
    null,
    null,
    null,
    null,
    null,
    null,
    null,
    null,
    null,
    null,
    null,
    null,
    null,
    null,
    null,
    null,
    null,
    null,
    null,
    null,
    null,
    null,
    null,
    null,
    null,
    null,
    null,
    null,
    null,
    null,
    null,
    null,
    null,
    null,
    null,
    null,
    null,
    null,
    null,
    null,
    null,
    null,
    null,
    null,
    null,
    null,
    null,
    null,
    null,
    null,
    null,
    null,
    null,
    null,
    null,
    null,
    null,
    null,
    null,
    null,
    null,
    null,
    null,
    null,
    null,
    null,
    null,
    null,
    null,
    null,
    null,
    null,
    null,
    null,
    null,
    null,
    null,
    null,
    null,
    null,
    null,
    null,
    null,
    null,
    null,
    null,
    null,
    null,
    null,
    null,
    null,
    null,
    null,
    null,
    null,
    null,
    null,
    null,
    null,
    null,
    null,
    null,
    null,
    null,
    null,
    null,
    null,
    null,
    null,
    null,
    null,
    null,
    null,
    null,
    null,
    null,
    null,
    null,
    null,
    null,
    null,
    null,
    null,
    null,
    null,
    null,
    null,
    null,
    null,
    null,
    null,
    null,
    null,
    null,
    null,
    null,
    null,
    null,
    null,
    null,
    null,
    null,
    null,
    null,
    null,
    null,
    null,
    null,
    null,
    null,
    null,
    null,
    null,
    null,
    null,
    null,
    null,
    null,
    null,
    null,
    null,
    null,
    null,
    null,
    null,
    null,
    null,
    null,
    null,
    null,
    null,
    null,
    null,
    null,
    null,
    null,
    null,
    null,
    null,
    null,
    null,
    null,
    null,
    null,
    null,
    null,
    null,
    null,
    null,
    null,
    null,
    null,
    null,
    null,
    null,
    null,
    null,
    null,
    null,
    null,
    null,
    null,
    null,
    null,
    null,
    null,
    null,
    null,
    null,
    null,
    null,
    null,
    null,
    null,
    null,
    null,
    null,
    null
  ],
  "tabAmounts": [
    82,
    0,
    0,
    0,
    0,
    0,
    0,
    0,
    0,
    0
  ],
  "inventory": [
    null,
    null,
    null,
    null,
    null,
    null,
    null,
    null,
    null,
    null,
    null,
    null,
    null,
    null,
    null,
    null,
    null,
    null,
    null,
    null,
    null,
    null,
    null,
    null,
    null,
    null,
    null,
    null
  ],
  "equipment": [
    null,
    null,
    null,
    null,
    null,
    null,
    null,
    null,
    null,
    null,
    null,
    null,
    null,
    null
  ],
  "shopItems": [
    null,
    null,
    null,
    null,
    null,
    null,
    null,
    null,
    null,
    null,
    null,
    null,
    null,
    null,
    null,
    null,
    null,
    null,
    null,
    null,
    null,
    null,
    null,
    null,
    null,
    null,
    null,
    null,
    null,
    null,
    null,
    null,
    null,
    null,
    null,
    null
  ],
  "shopPrices": [
    0,
    0,
    0,
    0,
    0,
    0,
    0,
    0,
    0,
    0,
    0,
    0,
    0,
    0,
    0,
    0,
    0,
    0,
    0,
    0,
    0,
    0,
    0,
    0,
    0,
    0,
    0,
    0,
    0,
    0,
    0,
    0,
    0,
    0,
    0,
    0
  ],
  "pouches": [
    0,
    0,
    0,
    0
  ]
}