{
  "bank": [
    {
      "id": 995,
      "amount": 243474084
    },
    {
      "id": 3024,
      "amount": 391
    },
    {
      "id": 11936,
      "amount": 270
    },
    {
      "id": 397,
      "amount": 197
    },
    {
      "id": 7946,
      "amount": 54
    },
    {
      "id": 2444,
      "amount": 70
    },
    {
      "id": 554,
      "amount": 300
    },
    {
      "id": 562,
      "amount": 100
    },
    {
      "id": 892,
      "amount": 435
    },
    {
      "id": 12695,
      "amount": 104
    },
    {
      "id": 1,
      "amount": 1
    },
    {
      "id": 861,
      "amount": 2
    },
    {
      "id": 1333,
      "amount": 1
    },
    {
      "id": 4155,
      "amount": 1
    },
    {
      "id": 10499,
      "amount": 1
    },
    {
      "id": 385,
      "amount": 150
    },
    {
      "id": 9244,
      "amount": 199
    },
    {
      "id": 13092,
      "amount": 3
    },
    {
      "id": 1321,
      "amount": 1
    },
    {
      "id": 1381,
      "amount": 1
    },
    {
      "id": 6735,
      "amount": 5
    },
    {
      "id": 7936,
      "amount": 119
    },
    {
      "id": 4587,
      "amount": 2
    },
    {
      "id": 1846,
      "amount": 1
    },
    {
      "id": 229,
      "amount": 4
    },
    {
      "id": 3026,
      "amount": 2
    },
    {
      "id": 565,
      "amount": 214
    },
    {
      "id": 1700,
      "amount": 1
    },
    {
      "id": 985,
      "amount": 2
    },
    {
      "id": 10952,
      "amount": 1
    },
    {
      "id": 12697,
      "amount": 1
    },
    {
      "id": 3028,
      "amount": 2
    },
    {
      "id": 536,
      "amount": 102
    },
    {
      "id": 2436,
      "amount": 20
    },
    {
      "id": 989,
      "amount": 3
    },
    {
      "id": 4747,
      "amount": 2
    },
    {
      "id": 1540,
      "amount": 1
    },
    {
      "id": 952,
      "amount": 1
    },
    {
      "id": 2572,
      "amount": 1
    },
    {
      "id": 292,
      "amount": 1
    },
    {
      "id": 4734,
      "amount": 3
    },
    {
      "id": 556,
      "amount": 163
    },
    {
      "id": 558,
      "amount": 97
    },
    {
      "id": 12006,
      "amount": 3
    },
    {
      "id": 4749,
      "amount": 1
    },
    {
      "id": 4751,
      "amount": 1
    },
    {
      "id": 11836,
      "amount": 1
    },
    {
      "id": 6570,
      "amount": 3
    },
    {
      "id": 6737,
      "amount": 5
    },
    {
      "id": 2722,
      "amount": 17
    },
    {
      "id": 7462,
      "amount": 1
    },
    {
      "id": 7142,
      "amount": 1
    },
    {
      "id": 12528,
      "amount": 3
    },
    {
      "id": 3486,
      "amount": 1
    },
    {
      "id": 12610,
      "amount": 1
    },
    {
      "id": 11286,
      "amount": 1
    },
    {
      "id": 4225,
      "amount": 1
    },
    {
      "id": 11933,
      "amount": 1
    },
    {
      "id": 12751,
      "amount": 1
    },
    {
      "id": 2579,
      "amount": 1
    },
    {
      "id": 4708,
      "amount": 3
    },
    {
      "id": 4712,
      "amount": 3
    },
    {
      "id": 4714,
      "amount": 2
    },
    {
      "id": 4710,
      "amount": 3
    },
    {
      "id": 6733,
      "amount": 3
    },
    {
      "id": 11335,
      "amount": 9
    },
    {
      "id": 3140,
      "amount": 6
    },
    {
      "id": 6731,
      "amount": 4
    },
    {
      "id": 13276,
      "amount": 7
    },
    {
      "id": 11840,
      "amount": 10
    },
    {
      "id": 12530,
      "amount": 2
    },
    {
      "id": 11832,
      "amount": 80
    },
    {
      "id": 11834,
      "amount": 79
    },
    {
      "id": 11828,
      "amount": 100
    },
    {
      "id": 11830,
      "amount": 100
    },
    {
      "id": 11849,
      "amount": 3045
    },
    {
      "id": 11865,
      "amount": 3
    },
    {
      "id": 11889,
      "amount": 100
    },
    {
      "id": 12795,
      "amount": 2
    },
    {
      "id": 12798,
      "amount": 1
    },
    {
      "id": 12899,
      "amount": 5
    },
    {
      "id": 12904,
      "amount": 5
    },
    {
      "id": 12926,
      "amount": 10
    },
    {
      "id": 13235,
      "amount": 10
    },
    {
      "id": 13237,
      "amount": 10
    },
    {
      "id": 13239,
      "amount": 9
    },
    {
      "id": 4151,
      "amount": 20
    },
    {
      "id": 5302,
      "amount": 10
    },
    {
      "id": 7979,
      "amount": 12
    },
    {
      "id": 6685,
      "amount": 10
    },
    {
      "id": 13277,
      "amount": 13
    },
    {
      "id": 13274,
      "amount": 5
    },
    {
      "id": 4722,
      "amount": 2
    },
    {
      "id": 13265,
      "amount": 3
    },
    {
      "id": 13275,
      "amount": 4
    },
    {
      "id": 11943,
      "amount": 110
    },
    {
      "id": 5608,
      "amount": 1
    },
    {
      "id": 4732,
      "amount": 3
    },
    {
      "id": 13319,
      "amount": 1
    },
    {
      "id": 13576,
      "amount": 10
    },
    {
      "id": 13120,
      "amount": 1
    },
    {
      "id": 13263,
      "amount": 1
    },
    {
      "id": 13222,
      "amount": 2
    },
    {
      "id": 1712,
      "amount": 1
    },
    {
      "id": 12931,
      "amount": 1
    },
    {
      "id": 13111,
      "amount": 1
    },
    {
      "id": 12934,
      "amount": 100984000
    },
    {
      "id": 12817,
      "amount": 79
    },
    {
      "id": 12821,
      "amount": 100
    },
    {
      "id": 12825,
      "amount": 100
    },
    {
      "id": 12807,
      "amount": 1
    },
    {
      "id": 12806,
      "amount": 1
    },
    {
      "id": 12797,
      "amount": 1
    },
    {
      "id": 12804,
      "amount": 1
    },
    {
      "id": 12846,
      "amount": 1
    },
    {
      "id": 13140,
      "amount": 1
    },
    {
      "id": 12856,
      "amount": 1
    },
    {
      "id": 6571,
      "amount": 3
    },
    {
      "id": 12927,
      "amount": 4
    },
    {
      "id": 12932,
      "amount": 2
    },
    {
      "id": 12924,
      "amount": 1
    },
    {
      "id": 13144,
      "amount": 1
    },
    {
      "id": 13115,
      "amount": 1
    },
    {
      "id": 13107,
      "amount": 1
    },
    {
      "id": 12855,
      "amount": 1
    },
    {
      "id": 13128,
      "amount": 1
    },
    {
      "id": 13136,
      "amount": 1
    },
    {
      "id": 303,
      "amount": 1
    },
    {
      "id": 19641,
      "amount": 1
    },
    {
      "id": 13581,
      "amount": 1
    },
    {
      "id": 13583,
      "amount": 1
    },
    {
      "id": 13585,
      "amount": 1
    },
    {
      "id": 13587,
      "amount": 1
    },
    {
      "id": 13132,
      "amount": 1
    },
    {
      "id": 323,
      "amount": 2
    },
    {
      "id": 1773,
      "amount": 5
    },
    {
      "id": 319,
      "amount": 1
    },
    {
      "id": 315,
      "amount": 1
    },
    {
      "id": 841,
      "amount": 1
    },
    {
      "id": 884,
      "amount": 200
    },
    {
      "id": 12816,
      "amount": 1
    },
    {
      "id": 11230,
      "amount": 99984000
    },
    {
      "id": 11802,
      "amount": 100
    },
    {
      "id": 11785,
      "amount": 100
    },
    {
      "id": 12002,
      "amount": 100
    },
    {
      "id": 12004,
      "amount": 107
    },
    {
      "id": 12007,
      "amount": 95
    },
    {
      "id": 12936,
      "amount": 101
    },
    {
      "id": 13589,
      "amount": 1
    },
    {
      "id": 526,
      "amount": 100
    },
    {
      "id": 12829,
      "amount": 6
    },
    {
      "id": 19607,
      "amount": 2
    },
    {
      "id": 532,
      "amount": 100
    },
    {
      "id": 11900,
      "amount": 1
    },
    {
      "id": 11901,
      "amount": 2
    },
    {
      "id": 4716,
      "amount": 3
    },
    {
      "id": 4720,
      "amount": 2
    },
    {
      "id": 4718,
      "amount": 1
    },
    {
      "id": 13322,
      "amount": 1
    },
    {
      "id": 13579,
      "amount": 1
    },
    {
      "id": 2434,
      "amount": 25
    },
    {
      "id": 10551,
      "amount": 1
    },
    {
      "id": 4736,
      "amount": 1
    },
    {
      "id": 4738,
      "amount": 2
    },
    {
      "id": 3481,
      "amount": 2
    },
    {
      "id": 2724,
      "amount": 13
    },
    {
      "id": 6920,
      "amount": 1
    },
    {
      "id": 2944,
      "amount": 4
    },
    {
      "id": 7981,
      "amount": 1
    },
    {
      "id": 4759,
      "amount": 2
    },
    {
      "id": 4724,
      "amount": 2
    },
    {
      "id": 19484,
      "amount": 500
    },
    {
      "id": 4726,
      "amount": 2
    },
    {
      "id": 4728,
      "amount": 3
    },
    {
      "id": 4753,
      "amount": 1
    },
    {
      "id": 4755,
      "amount": 2
    },
    {
      "id": 11928,
      "amount": 2
    },
    {
      "id": 12875,
      "amount": 1
    },
    {
      "id": 12881,
      "amount": 1
    },
    {
      "id": 11899,
      "amount": 1
    },
    {
      "id": 13441,
      "amount": 100000982
    },
    {
      "id": 1755,
      "amount": 1
    },
    {
      "id": 12791,
      "amount": 1
    },
    {
      "id": 13271,
      "amount": 1
    },
    {
      "id": 748,
      "amount": 1
    },
    {
      "id": 13116,
      "amount": 1
    },
    null,
    null,
    null,
    null,
    null,
    null,
    null,
    null,
    null,
    null,
    null,
    null,
    null,
    null,
    null,
    null,
    null,
    null,
    null,
    null,
    null,
    null,
    null,
    null,
    null,
    null,
    null,
    null,
    null,
    null,
    null,
    null,
    null,
    null,
    null,
    null,
    null,
    null,
    null,
    null,
    null,
    null,
    null,
    null,
    null,
    null,
    null,
    null,
    null,
    null,
    null,
    null,
    null,
    null,
    null,
    null,
    null,
    null,
    null,
    null,
    null,
    null,
    null,
    null,
    null,
    null,
    null,
    null,
    null,
    null,
    null,
    null,
    null,
    null,
    null,
    null,
    null,
    null,
    null,
    null,
    null,
    null,
    null,
    null,
    null,
    null,
    null,
    null,
    null,
    null,
    null,
    null,
    null,
    null,
    null,
    null,
    null,
    null,
    null,
    null,
    null,
    null,
    null,
    null,
    null,
    null,
    null,
    null,
    null,
    null,
    null,
    null,
    null,
    null,
    null,
    null,
    null,
    null,
    null,
    null,
    null,
    null,
    null,
    null,
    null,
    null,
    null,
    null,
    null,
    null,
    null,
    null,
    null,
    null,
    null,
    null,
    null,
    null,
    null,
    null,
    null,
    null,
    null,
    null,
    null,
    null,
    null,
    null,
    null,
    null,
    null,
    null,
    null,
    null,
    null,
    null,
    null,
    null,
    null,
    null,
    null,
    null,
    null,
    null
  ],
  "tabAmounts": [
    186,
    0,
    0,
    0,
    0,
    0,
    0,
    0,
    0,
    0
  ],
  "inventory": [
    null,
    null,
    null,
    null,
    null,
    null,
    null,
    null,
    null,
    null,
    null,
    null,
    null,
    null,
    null,
    null,
    null,
    null,
    null,
    null,
    null,
    null,
    null,
    null,
    null,
    null,
    null,
    null
  ],
  "equipment": [
    {
      "id": 19649,
      "amount": 1
    },
    {
      "id": 13124,
      "amount": 1
    },
    null,
    {
      "id": 12006,
      "amount": 1
    },
    {
      "id": 11832,
      "amount": 1
    },
    {
      "id": 12817,
      "amount": 1
    },
    null,
    {
      "id": 11834,
      "amount": 1
    },
    null,
    {
      "id": 1580,
      "amount": 1
    },
    {
      "id": 13239,
      "amount": 1
    },
    null,
    {
      "id": 10872,
      "amount": 1
    },
    null
  ],
  "shopItems": [
    null,
    null,
    null,
    null,
    null,
    null,
    null,
    null,
    null,
    null,
    null,
    null,
    null,
    null,
    null,
    null,
    null,
    null,
    null,
    null,
    null,
    null,
    null,
    null,
    null,
    null,
    null,
    null,
    null,
    null,
    null,
    null,
    null,
    null,
    null,
    null
  ],
  "shopPrices": [
    0,
    0,
    0,
    0,
    0,
    0,
    0,
    0,
    0,
    0,
    0,
    0,
    0,
    0,
    0,
    0,
    0,
    0,
    0,
    0,
    0,
    0,
    0,
    0,
    0,
    0,
    0,
    0,
    0,
    0,
    0,
    0,
    0,
    0,
    0,
    0
  ],
  "pouches": [
    0,
    0,
    0,
    0
  ]
}