{
  "bank": [
    {
      "id": 995,
      "amount": 88966
    },
    {
      "id": 303,
      "amount": 1
    },
    {
      "id": 315,
      "amount": 1
    },
    {
      "id": 1925,
      "amount": 1
    },
    {
      "id": 1931,
      "amount": 1
    },
    {
      "id": 2309,
      "amount": 1
    },
    {
      "id": 1265,
      "amount": 1
    },
    {
      "id": 1205,
      "amount": 1
    },
    {
      "id": 1277,
      "amount": 1
    },
    {
      "id": 841,
      "amount": 1
    },
    {
      "id": 882,
      "amount": 1129
    },
    {
      "id": 556,
      "amount": 55
    },
    {
      "id": 558,
      "amount": 65
    },
    {
      "id": 555,
      "amount": 36
    },
    {
      "id": 557,
      "amount": 132
    },
    {
      "id": 559,
      "amount": 30
    },
    {
      "id": 1267,
      "amount": 1
    },
    {
      "id": 12810,
      "amount": 1
    },
    {
      "id": 12811,
      "amount": 1
    },
    {
      "id": 1171,
      "amount": 1
    },
    {
      "id": 12812,
      "amount": 1
    },
    {
      "id": 7170,
      "amount": 1
    },
    {
      "id": 319,
      "amount": 1
    },
    {
      "id": 1755,
      "amount": 1
    },
    {
      "id": 1438,
      "amount": 2
    },
    {
      "id": 2007,
      "amount": 2
    },
    {
      "id": 1985,
      "amount": 1
    },
    {
      "id": 135,
      "amount": 1
    },
    {
      "id": 1353,
      "amount": 2
    },
    {
      "id": 5970,
      "amount": 1
    },
    {
      "id": 7178,
      "amount": 7
    },
    {
      "id": 1897,
      "amount": 1
    },
    {
      "id": 6032,
      "amount": 6
    },
    {
      "id": 566,
      "amount": 55
    },
    {
      "id": 1605,
      "amount": 4
    },
    {
      "id": 562,
      "amount": 16
    },
    {
      "id": 1733,
      "amount": 1
    },
    {
      "id": 1607,
      "amount": 1
    },
    {
      "id": 3144,
      "amount": 6
    },
    {
      "id": 385,
      "amount": 3
    },
    {
      "id": 1273,
      "amount": 2
    },
    {
      "id": 1440,
      "amount": 2
    },
    {
      "id": 8778,
      "amount": 2
    },
    {
      "id": 1883,
      "amount": 1
    },
    {
      "id": 447,
      "amount": 2
    },
    {
      "id": 564,
      "amount": 16
    },
    {
      "id": 231,
      "amount": 1
    },
    {
      "id": 2327,
      "amount": 2
    },
    {
      "id": 946,
      "amount": 1
    },
    {
      "id": 5294,
      "amount": 3
    },
    {
      "id": 6016,
      "amount": 3
    },
    {
      "id": 5104,
      "amount": 1
    },
    {
      "id": 7936,
      "amount": 50
    },
    {
      "id": 3000,
      "amount": 2
    },
    {
      "id": 5299,
      "amount": 2
    },
    {
      "id": 5313,
      "amount": 2
    },
    {
      "id": 5304,
      "amount": 1
    },
    {
      "id": 5974,
      "amount": 3
    },
    {
      "id": 5285,
      "amount": 2
    },
    {
      "id": 1513,
      "amount": 2
    },
    {
      "id": 1448,
      "amount": 1
    },
    {
      "id": 563,
      "amount": 71
    },
    {
      "id": 2363,
      "amount": 6
    },
    {
      "id": 1747,
      "amount": 16
    },
    {
      "id": 5100,
      "amount": 1
    },
    {
      "id": 2570,
      "amount": 4
    },
    {
      "id": 1731,
      "amount": 6
    },
    {
      "id": 1442,
      "amount": 1
    },
    {
      "id": 5286,
      "amount": 1
    },
    {
      "id": 5297,
      "amount": 3
    },
    {
      "id": 5281,
      "amount": 1
    },
    {
      "id": 269,
      "amount": 2
    },
    {
      "id": 1700,
      "amount": 3
    },
    {
      "id": 2568,
      "amount": 3
    },
    {
      "id": 1215,
      "amount": 5
    },
    {
      "id": 12451,
      "amount": 1
    },
    {
      "id": 9342,
      "amount": 10
    },
    {
      "id": 4097,
      "amount": 6
    },
    {
      "id": 4095,
      "amount": 1
    },
    {
      "id": 5937,
      "amount": 12
    },
    {
      "id": 3385,
      "amount": 5
    },
    {
      "id": 1333,
      "amount": 4
    },
    {
      "id": 9194,
      "amount": 12
    },
    {
      "id": 1113,
      "amount": 5
    },
    {
      "id": 1185,
      "amount": 1
    },
    {
      "id": 805,
      "amount": 100
    },
    {
      "id": 6155,
      "amount": 9
    },
    {
      "id": 139,
      "amount": 12
    },
    {
      "id": 1347,
      "amount": 4
    },
    {
      "id": 6313,
      "amount": 2
    },
    {
      "id": 3755,
      "amount": 1
    },
    {
      "id": 3391,
      "amount": 1
    },
    {
      "id": 5547,
      "amount": 2
    },
    {
      "id": 5316,
      "amount": 2
    },
    {
      "id": 9193,
      "amount": 8
    },
    {
      "id": 4093,
      "amount": 8
    },
    {
      "id": 526,
      "amount": 30
    },
    {
      "id": 11230,
      "amount": 42
    },
    {
      "id": 9341,
      "amount": 35
    },
    {
      "id": 7218,
      "amount": 18
    },
    {
      "id": 11212,
      "amount": 11
    },
    {
      "id": 5300,
      "amount": 2
    },
    {
      "id": 11232,
      "amount": 17
    },
    {
      "id": 1704,
      "amount": 2
    },
    {
      "id": 892,
      "amount": 280
    },
    {
      "id": 534,
      "amount": 1
    },
    {
      "id": 1615,
      "amount": 1
    },
    {
      "id": 11237,
      "amount": 12
    },
    {
      "id": 11260,
      "amount": 14
    },
    {
      "id": 10010,
      "amount": 1
    },
    {
      "id": 3393,
      "amount": 1
    },
    {
      "id": 1201,
      "amount": 2
    },
    {
      "id": 1163,
      "amount": 1
    },
    {
      "id": 442,
      "amount": 100
    },
    {
      "id": 1623,
      "amount": 2
    },
    {
      "id": 430,
      "amount": 1
    },
    {
      "id": 3749,
      "amount": 1
    },
    {
      "id": 379,
      "amount": 3
    },
    {
      "id": 10136,
      "amount": 10
    },
    {
      "id": 590,
      "amount": 1
    },
    {
      "id": 1351,
      "amount": 1
    },
    {
      "id": 11849,
      "amount": 1
    },
    {
      "id": 6322,
      "amount": 1
    },
    {
      "id": 9185,
      "amount": 1
    },
    {
      "id": 1149,
      "amount": 1
    },
    {
      "id": 4587,
      "amount": 1
    },
    {
      "id": 4131,
      "amount": 1
    },
    null,
    null,
    null,
    null,
    null,
    null,
    null,
    null,
    null,
    null,
    null,
    null,
    null,
    null,
    null,
    null,
    null,
    null,
    null,
    null,
    null,
    null,
    null,
    null,
    null,
    null,
    null,
    null,
    null,
    null,
    null,
    null,
    null,
    null,
    null,
    null,
    null,
    null,
    null,
    null,
    null,
    null,
    null,
    null,
    null,
    null,
    null,
    null,
    null,
    null,
    null,
    null,
    null,
    null,
    null,
    null,
    null,
    null,
    null,
    null,
    null,
    null,
    null,
    null,
    null,
    null,
    null,
    null,
    null,
    null,
    null,
    null,
    null,
    null,
    null,
    null,
    null,
    null,
    null,
    null,
    null,
    null,
    null,
    null,
    null,
    null,
    null,
    null,
    null,
    null,
    null,
    null,
    null,
    null,
    null,
    null,
    null,
    null,
    null,
    null,
    null,
    null,
    null,
    null,
    null,
    null,
    null,
    null,
    null,
    null,
    null,
    null,
    null,
    null,
    null,
    null,
    null,
    null,
    null,
    null,
    null,
    null,
    null,
    null,
    null,
    null,
    null,
    null,
    null,
    null,
    null,
    null,
    null,
    null,
    null,
    null,
    null,
    null,
    null,
    null,
    null,
    null,
    null,
    null,
    null,
    null,
    null,
    null,
    null,
    null,
    null,
    null,
    null,
    null,
    null,
    null,
    null,
    null,
    null,
    null,
    null,
    null,
    null,
    null,
    null,
    null,
    null,
    null,
    null,
    null,
    null,
    null,
    null,
    null,
    null,
    null,
    null,
    null,
    null,
    null,
    null,
    null,
    null,
    null,
    null,
    null,
    null,
    null,
    null,
    null,
    null,
    null,
    null,
    null,
    null,
    null,
    null,
    null,
    null,
    null,
    null,
    null,
    null,
    null,
    null,
    null,
    null,
    null,
    null,
    null,
    null,
    null,
    null,
    null,
    null,
    null,
    null,
    null,
    null,
    null,
    null,
    null,
    null
  ],
  "tabAmounts": [
    127,
    0,
    0,
    0,
    0,
    0,
    0,
    0,
    0,
    0
  ],
  "inventory": [
    {
      "id": 2801,
      "amount": 1
    },
    null,
    null,
    null,
    null,
    null,
    null,
    null,
    null,
    null,
    null,
    null,
    null,
    null,
    null,
    null,
    null,
    null,
    null,
    null,
    null,
    null,
    null,
    null,
    null,
    null,
    null,
    null
  ],
  "equipment": [
    null,
    null,
    null,
    null,
    null,
    null,
    null,
    null,
    null,
    null,
    null,
    null,
    null,
    null
  ],
  "shopItems": [
    null,
    null,
    null,
    null,
    null,
    null,
    null,
    null,
    null,
    null,
    null,
    null,
    null,
    null,
    null,
    null,
    null,
    null,
    null,
    null,
    null,
    null,
    null,
    null,
    null,
    null,
    null,
    null,
    null,
    null,
    null,
    null,
    null,
    null,
    null,
    null
  ],
  "shopPrices": [
    0,
    0,
    0,
    0,
    0,
    0,
    0,
    0,
    0,
    0,
    0,
    0,
    0,
    0,
    0,
    0,
    0,
    0,
    0,
    0,
    0,
    0,
    0,
    0,
    0,
    0,
    0,
    0,
    0,
    0,
    0,
    0,
    0,
    0,
    0,
    0
  ],
  "pouches": [
    0,
    0,
    0,
    0
  ]
}