{
  "bank": [
    {
      "id": 995,
      "amount": 239990
    },
    {
      "id": 1321,
      "amount": 1
    },
    {
      "id": 1333,
      "amount": 1
    },
    {
      "id": 4587,
      "amount": 1
    },
    {
      "id": 841,
      "amount": 1
    },
    {
      "id": 861,
      "amount": 1
    },
    {
      "id": 884,
      "amount": 250
    },
    {
      "id": 892,
      "amount": 100
    },
    {
      "id": 1381,
      "amount": 1
    },
    {
      "id": 554,
      "amount": 300
    },
    {
      "id": 558,
      "amount": 100
    },
    {
      "id": 562,
      "amount": 100
    },
    {
      "id": 1712,
      "amount": 1
    },
    {
      "id": 7946,
      "amount": 100
    },
    {
      "id": 12695,
      "amount": 5
    },
    {
      "id": 2682,
      "amount": 1
    },
    {
      "id": 1,
      "amount": 1
    },
    null,
    null,
    null,
    null,
    null,
    null,
    null,
    null,
    null,
    null,
    null,
    null,
    null,
    null,
    null,
    null,
    null,
    null,
    null,
    null,
    null,
    null,
    null,
    null,
    null,
    null,
    null,
    null,
    null,
    null,
    null,
    null,
    null,
    null,
    null,
    null,
    null,
    null,
    null,
    null,
    null,
    null,
    null,
    null,
    null,
    null,
    null,
    null,
    null,
    null,
    null,
    null,
    null,
    null,
    null,
    null,
    null,
    null,
    null,
    null,
    null,
    null,
    null,
    null,
    null,
    null,
    null,
    null,
    null,
    null,
    null,
    null,
    null,
    null,
    null,
    null,
    null,
    null,
    null,
    null,
    null,
    null,
    null,
    null,
    null,
    null,
    null,
    null,
    null,
    null,
    null,
    null,
    null,
    null,
    null,
    null,
    null,
    null,
    null,
    null,
    null,
    null,
    null,
    null,
    null,
    null,
    null,
    null,
    null,
    null,
    null,
    null,
    null,
    null,
    null,
    null,
    null,
    null,
    null,
    null,
    null,
    null,
    null,
    null,
    null,
    null,
    null,
    null,
    null,
    null,
    null,
    null,
    null,
    null,
    null,
    null,
    null,
    null,
    null,
    null,
    null,
    null,
    null,
    null,
    null,
    null,
    null,
    null,
    null,
    null,
    null,
    null,
    null,
    null,
    null,
    null,
    null,
    null,
    null,
    null,
    null,
    null,
    null,
    null,
    null,
    null,
    null,
    null,
    null,
    null,
    null,
    null,
    null,
    null,
    null,
    null,
    null,
    null,
    null,
    null,
    null,
    null,
    null,
    null,
    null,
    null,
    null,
    null,
    null,
    null,
    null,
    null,
    null,
    null,
    null,
    null,
    null,
    null,
    null,
    null,
    null,
    null,
    null,
    null,
    null,
    null,
    null,
    null,
    null,
    null,
    null,
    null,
    null,
    null,
    null,
    null,
    null,
    null,
    null,
    null,
    null,
    null,
    null,
    null,
    null,
    null,
    null,
    null,
    null,
    null,
    null,
    null,
    null,
    null,
    null,
    null,
    null,
    null,
    null,
    null,
    null,
    null,
    null,
    null,
    null,
    null,
    null,
    null,
    null,
    null,
    null,
    null,
    null,
    null,
    null,
    null,
    null,
    null,
    null,
    null,
    null,
    null,
    null,
    null,
    null,
    null,
    null,
    null,
    null,
    null,
    null,
    null,
    null,
    null,
    null,
    null,
    null,
    null,
    null,
    null,
    null,
    null,
    null,
    null,
    null,
    null,
    null,
    null,
    null,
    null,
    null,
    null,
    null,
    null,
    null,
    null,
    null,
    null,
    null,
    null,
    null,
    null,
    null,
    null,
    null,
    null,
    null,
    null,
    null,
    null,
    null,
    null,
    null,
    null,
    null,
    null,
    null,
    null,
    null,
    null,
    null,
    null,
    null,
    null,
    null,
    null,
    null,
    null,
    null,
    null,
    null,
    null,
    null
  ],
  "tabAmounts": [
    17,
    0,
    0,
    0,
    0,
    0,
    0,
    0,
    0,
    0
  ],
  "inventory": [
    {
      "id": 11849,
      "amount": 2
    },
    {
      "id": 70,
      "amount": 1
    },
    {
      "id": 995,
      "amount": 24179
    },
    {
      "id": 560,
      "amount": 294
    },
    {
      "id": 3026,
      "amount": 1
    },
    {
      "id": 9075,
      "amount": 288
    },
    {
      "id": 557,
      "amount": 270
    },
    {
      "id": 3024,
      "amount": 1
    },
    {
      "id": 3024,
      "amount": 1
    },
    {
      "id": 3144,
      "amount": 1
    },
    {
      "id": 3144,
      "amount": 1
    },
    {
      "id": 3144,
      "amount": 1
    },
    {
      "id": 3144,
      "amount": 1
    },
    {
      "id": 3144,
      "amount": 1
    },
    {
      "id": 3144,
      "amount": 1
    },
    {
      "id": 3144,
      "amount": 1
    },
    {
      "id": 4101,
      "amount": 1
    },
    {
      "id": 4103,
      "amount": 1
    },
    {
      "id": 1079,
      "amount": 1
    },
    {
      "id": 10828,
      "amount": 1
    },
    null,
    null,
    {
      "id": 3105,
      "amount": 1
    },
    null,
    null,
    null,
    null,
    null
  ],
  "equipment": [
    null,
    null,
    {
      "id": 1712,
      "amount": 1
    },
    null,
    {
      "id": 1844,
      "amount": 1
    },
    {
      "id": 3841,
      "amount": 1
    },
    null,
    {
      "id": 1845,
      "amount": 1
    },
    null,
    null,
    {
      "id": 1846,
      "amount": 1
    },
    null,
    null,
    null
  ],
  "shopItems": [
    null,
    null,
    null,
    null,
    null,
    null,
    null,
    null,
    null,
    null,
    null,
    null,
    null,
    null,
    null,
    null,
    null,
    null,
    null,
    null,
    null,
    null,
    null,
    null,
    null,
    null,
    null,
    null,
    null,
    null,
    null,
    null,
    null,
    null,
    null,
    null
  ],
  "shopPrices": [
    0,
    0,
    0,
    0,
    0,
    0,
    0,
    0,
    0,
    0,
    0,
    0,
    0,
    0,
    0,
    0,
    0,
    0,
    0,
    0,
    0,
    0,
    0,
    0,
    0,
    0,
    0,
    0,
    0,
    0,
    0,
    0,
    0,
    0,
    0,
    0
  ],
  "pouches": [
    0,
    0,
    0,
    0
  ]
}