{
  "bank": [
    {
      "id": 1351,
      "amount": 1
    },
    {
      "id": 590,
      "amount": 1
    },
    {
      "id": 303,
      "amount": 1
    },
    {
      "id": 559,
      "amount": 377
    },
    {
      "id": 10499,
      "amount": 2
    },
    {
      "id": 565,
      "amount": 587
    },
    {
      "id": 7936,
      "amount": 660
    },
    {
      "id": 566,
      "amount": 22
    },
    {
      "id": 1700,
      "amount": 8
    },
    {
      "id": 3391,
      "amount": 2
    },
    {
      "id": 3385,
      "amount": 1
    },
    {
      "id": 9342,
      "amount": 34
    },
    {
      "id": 892,
      "amount": 708
    },
    {
      "id": 5316,
      "amount": 1
    },
    {
      "id": 11212,
      "amount": 147
    },
    {
      "id": 11232,
      "amount": 121
    },
    {
      "id": 11237,
      "amount": 51
    },
    {
      "id": 4093,
      "amount": 3
    },
    {
      "id": 9193,
      "amount": 185
    },
    {
      "id": 9341,
      "amount": 97
    },
    {
      "id": 952,
      "amount": 3
    },
    {
      "id": 379,
      "amount": 203
    },
    {
      "id": 305,
      "amount": 1
    },
    {
      "id": 301,
      "amount": 1
    },
    {
      "id": 9752,
      "amount": 1
    },
    {
      "id": 1702,
      "amount": 1
    },
    {
      "id": 11849,
      "amount": 16
    },
    {
      "id": 3753,
      "amount": 1
    },
    {
      "id": 1201,
      "amount": 2
    },
    {
      "id": 3122,
      "amount": 2
    },
    {
      "id": 1777,
      "amount": 42
    },
    {
      "id": 2366,
      "amount": 3
    },
    {
      "id": 1733,
      "amount": 10
    },
    {
      "id": 1704,
      "amount": 1
    },
    {
      "id": 1734,
      "amount": 905
    },
    {
      "id": 863,
      "amount": 1348
    },
    {
      "id": 810,
      "amount": 48
    },
    {
      "id": 868,
      "amount": 161
    },
    {
      "id": 6922,
      "amount": 1
    },
    {
      "id": 3101,
      "amount": 1
    },
    {
      "id": 4587,
      "amount": 1
    },
    {
      "id": 1215,
      "amount": 1
    },
    {
      "id": 11230,
      "amount": 368
    },
    {
      "id": 1127,
      "amount": 2
    },
    {
      "id": 10828,
      "amount": 1
    },
    {
      "id": 3841,
      "amount": 1
    },
    {
      "id": 430,
      "amount": 1
    },
    {
      "id": 890,
      "amount": 1095
    },
    {
      "id": 9185,
      "amount": 1
    },
    {
      "id": 373,
      "amount": 4
    },
    {
      "id": 3755,
      "amount": 1
    },
    {
      "id": 2503,
      "amount": 2
    },
    {
      "id": 2497,
      "amount": 1
    },
    {
      "id": 4097,
      "amount": 1
    },
    {
      "id": 2491,
      "amount": 2
    },
    {
      "id": 3749,
      "amount": 1
    },
    {
      "id": 557,
      "amount": 208
    },
    {
      "id": 558,
      "amount": 189
    },
    {
      "id": 555,
      "amount": 1540
    },
    {
      "id": 4155,
      "amount": 1
    },
    {
      "id": 229,
      "amount": 127
    },
    {
      "id": 10952,
      "amount": 2
    },
    {
      "id": 2568,
      "amount": 1
    },
    {
      "id": 560,
      "amount": 968
    },
    {
      "id": 7979,
      "amount": 4
    },
    {
      "id": 866,
      "amount": 501
    },
    {
      "id": 10010,
      "amount": 1
    },
    {
      "id": 11260,
      "amount": 8
    },
    {
      "id": 9194,
      "amount": 36
    },
    {
      "id": 556,
      "amount": 492
    },
    {
      "id": 1359,
      "amount": 1
    },
    {
      "id": 385,
      "amount": 413
    },
    {
      "id": 7981,
      "amount": 1
    },
    {
      "id": 6912,
      "amount": 1
    },
    {
      "id": 7573,
      "amount": 1
    },
    {
      "id": 1403,
      "amount": 1
    },
    {
      "id": 562,
      "amount": 556
    },
    {
      "id": 563,
      "amount": 859
    },
    {
      "id": 4087,
      "amount": 4
    },
    {
      "id": 1267,
      "amount": 1
    },
    {
      "id": 6155,
      "amount": 18
    },
    {
      "id": 1275,
      "amount": 1
    },
    {
      "id": 4214,
      "amount": 1
    },
    {
      "id": 2347,
      "amount": 1
    },
    {
      "id": 12612,
      "amount": 1
    },
    {
      "id": 1631,
      "amount": 2
    },
    {
      "id": 564,
      "amount": 126
    },
    {
      "id": 13275,
      "amount": 1
    },
    {
      "id": 4695,
      "amount": 100
    },
    {
      "id": 1149,
      "amount": 1
    },
    {
      "id": 1540,
      "amount": 1
    },
    {
      "id": 11898,
      "amount": 1
    },
    {
      "id": 143,
      "amount": 2
    },
    {
      "id": 11929,
      "amount": 1
    },
    {
      "id": 4585,
      "amount": 1
    },
    {
      "id": 6916,
      "amount": 1
    },
    {
      "id": 12528,
      "amount": 1
    },
    {
      "id": 161,
      "amount": 1
    },
    {
      "id": 159,
      "amount": 1
    },
    {
      "id": 7980,
      "amount": 1
    },
    {
      "id": 2803,
      "amount": 1
    },
    {
      "id": 6685,
      "amount": 10
    },
    {
      "id": 987,
      "amount": 4
    },
    {
      "id": 3030,
      "amount": 1
    },
    {
      "id": 173,
      "amount": 1
    },
    {
      "id": 12773,
      "amount": 1
    },
    {
      "id": 12774,
      "amount": 1
    },
    {
      "id": 6529,
      "amount": 16064
    },
    {
      "id": 12697,
      "amount": 2
    },
    {
      "id": 1755,
      "amount": 1
    },
    {
      "id": 171,
      "amount": 1
    },
    {
      "id": 12608,
      "amount": 1
    },
    {
      "id": 8839,
      "amount": 1
    },
    {
      "id": 8840,
      "amount": 1
    },
    {
      "id": 11664,
      "amount": 1
    },
    {
      "id": 9750,
      "amount": 1
    },
    {
      "id": 8842,
      "amount": 1
    },
    {
      "id": 6328,
      "amount": 1
    },
    {
      "id": 554,
      "amount": 150
    },
    {
      "id": 867,
      "amount": 5018
    },
    {
      "id": 12701,
      "amount": 1
    },
    {
      "id": 561,
      "amount": 2276
    },
    {
      "id": 5512,
      "amount": 4
    },
    {
      "id": 5514,
      "amount": 1
    },
    {
      "id": 5510,
      "amount": 1
    },
    {
      "id": 5509,
      "amount": 1
    },
    {
      "id": 4740,
      "amount": 1705
    },
    {
      "id": 993,
      "amount": 1
    },
    {
      "id": 13092,
      "amount": 1
    },
    {
      "id": 13441,
      "amount": 104
    },
    {
      "id": 11936,
      "amount": 107
    },
    {
      "id": 397,
      "amount": 118
    },
    {
      "id": 4236,
      "amount": 1
    },
    {
      "id": 12931,
      "amount": 1
    },
    {
      "id": 12006,
      "amount": 1
    },
    {
      "id": 6570,
      "amount": 1
    },
    {
      "id": 4722,
      "amount": 1
    },
    {
      "id": 6571,
      "amount": 6
    },
    {
      "id": 12932,
      "amount": 5
    },
    {
      "id": 12927,
      "amount": 6
    },
    {
      "id": 12922,
      "amount": 2
    },
    {
      "id": 12936,
      "amount": 6
    },
    {
      "id": 12449,
      "amount": 2
    },
    {
      "id": 12445,
      "amount": 2
    },
    {
      "id": 12453,
      "amount": 1
    },
    {
      "id": 12451,
      "amount": 1
    },
    {
      "id": 12455,
      "amount": 1
    },
    {
      "id": 10380,
      "amount": 1
    },
    {
      "id": 12502,
      "amount": 1
    },
    {
      "id": 10422,
      "amount": 1
    },
    {
      "id": 7398,
      "amount": 1
    },
    {
      "id": 2645,
      "amount": 1
    },
    {
      "id": 2890,
      "amount": 2
    },
    {
      "id": 3488,
      "amount": 1
    },
    {
      "id": 2667,
      "amount": 1
    },
    {
      "id": 7344,
      "amount": 2
    },
    {
      "id": 7354,
      "amount": 1
    },
    {
      "id": 10290,
      "amount": 1
    },
    {
      "id": 10292,
      "amount": 1
    },
    {
      "id": 2671,
      "amount": 1
    },
    {
      "id": 7399,
      "amount": 1
    },
    {
      "id": 12247,
      "amount": 1
    },
    {
      "id": 10308,
      "amount": 1
    },
    {
      "id": 10318,
      "amount": 1
    },
    {
      "id": 7396,
      "amount": 1
    },
    {
      "id": 10458,
      "amount": 1
    },
    {
      "id": 10312,
      "amount": 1
    },
    {
      "id": 7350,
      "amount": 1
    },
    {
      "id": 7332,
      "amount": 1
    },
    {
      "id": 3832,
      "amount": 1
    },
    {
      "id": 7362,
      "amount": 1
    },
    {
      "id": 10376,
      "amount": 1
    },
    {
      "id": 10374,
      "amount": 1
    },
    {
      "id": 10444,
      "amount": 1
    },
    {
      "id": 10378,
      "amount": 1
    },
    {
      "id": 10286,
      "amount": 1
    },
    {
      "id": 7360,
      "amount": 1
    },
    {
      "id": 3485,
      "amount": 1
    },
    {
      "id": 10288,
      "amount": 1
    },
    {
      "id": 12285,
      "amount": 1
    },
    {
      "id": 2493,
      "amount": 1
    },
    {
      "id": 1347,
      "amount": 1
    },
    {
      "id": 12418,
      "amount": 1
    },
    {
      "id": 12414,
      "amount": 1
    },
    {
      "id": 3483,
      "amount": 1
    },
    {
      "id": 2363,
      "amount": 1
    },
    {
      "id": 1513,
      "amount": 500
    },
    {
      "id": 2723,
      "amount": 1
    },
    {
      "id": 12934,
      "amount": 7771
    },
    {
      "id": 12938,
      "amount": 112
    },
    {
      "id": 536,
      "amount": 63
    },
    {
      "id": 211,
      "amount": 109
    },
    {
      "id": 2485,
      "amount": 101
    },
    {
      "id": 227,
      "amount": 91
    },
    {
      "id": 121,
      "amount": 109
    },
    {
      "id": 175,
      "amount": 96
    },
    {
      "id": 115,
      "amount": 97
    },
    {
      "id": 9741,
      "amount": 107
    },
    {
      "id": 139,
      "amount": 106
    },
    {
      "id": 3026,
      "amount": 80
    },
    {
      "id": 12695,
      "amount": 63
    },
    {
      "id": 5343,
      "amount": 1
    },
    {
      "id": 5341,
      "amount": 1
    },
    {
      "id": 269,
      "amount": 20
    },
    {
      "id": 169,
      "amount": 110
    },
    {
      "id": 2440,
      "amount": 5
    },
    {
      "id": 2442,
      "amount": 7
    },
    {
      "id": 6687,
      "amount": 77
    },
    {
      "id": 3028,
      "amount": 2
    },
    {
      "id": 7114,
      "amount": 1
    },
    {
      "id": 12699,
      "amount": 1
    },
    {
      "id": 7462,
      "amount": 2
    },
    {
      "id": 4716,
      "amount": 1
    },
    {
      "id": 4720,
      "amount": 1
    },
    {
      "id": 4714,
      "amount": 1
    },
    {
      "id": 4710,
      "amount": 2
    },
    {
      "id": 4708,
      "amount": 1
    },
    {
      "id": 4712,
      "amount": 2
    },
    {
      "id": 4724,
      "amount": 1
    },
    {
      "id": 4753,
      "amount": 1
    },
    {
      "id": 4980,
      "amount": 1
    },
    {
      "id": 4757,
      "amount": 2
    },
    {
      "id": 4738,
      "amount": 1
    },
    {
      "id": 4734,
      "amount": 1
    },
    {
      "id": 10553,
      "amount": 1
    },
    {
      "id": 10551,
      "amount": 2
    },
    {
      "id": 10552,
      "amount": 1
    },
    {
      "id": 10555,
      "amount": 1
    },
    {
      "id": 10549,
      "amount": 1
    },
    {
      "id": 11126,
      "amount": 1
    },
    {
      "id": 4675,
      "amount": 1
    },
    {
      "id": 10547,
      "amount": 1
    },
    {
      "id": 10540,
      "amount": 3
    },
    {
      "id": 10561,
      "amount": 3
    },
    null,
    null,
    null,
    null,
    null,
    null,
    null,
    null,
    null,
    null,
    null,
    null,
    null,
    null,
    null,
    null,
    null,
    null,
    null,
    null,
    null,
    null,
    null,
    null,
    null,
    null,
    null,
    null,
    null,
    null,
    null,
    null,
    null,
    null,
    null,
    null,
    null,
    null,
    null,
    null,
    null,
    null,
    null,
    null,
    null,
    null,
    null,
    null,
    null,
    null,
    null,
    null,
    null,
    null,
    null,
    null,
    null,
    null,
    null,
    null,
    null,
    null,
    null,
    null,
    null,
    null,
    null,
    null,
    null,
    null,
    null,
    null,
    null,
    null,
    null,
    null,
    null,
    null,
    null,
    null,
    null,
    null,
    null,
    null,
    null,
    null,
    null,
    null,
    null,
    null,
    null,
    null,
    null,
    null,
    null,
    null,
    null,
    null,
    null,
    null,
    null,
    null,
    null,
    null,
    null,
    null,
    null,
    null,
    null,
    null,
    null,
    null,
    null,
    null,
    null,
    null
  ],
  "tabAmounts": [
    142,
    43,
    6,
    20,
    13,
    10,
    0,
    0,
    0,
    0
  ],
  "inventory": [
    {
      "id": 12934,
      "amount": 2145750000
    },
    {
      "id": 995,
      "amount": 9127719
    },
    {
      "id": 1755,
      "amount": 1
    },
    {
      "id": 13225,
      "amount": 1
    },
    {
      "id": 748,
      "amount": 1
    },
    {
      "id": 292,
      "amount": 1
    },
    {
      "id": 11230,
      "amount": 22
    },
    {
      "id": 11260,
      "amount": 1
    },
    null,
    {
      "id": 13198,
      "amount": 1
    },
    {
      "id": 13198,
      "amount": 1
    },
    {
      "id": 13198,
      "amount": 1
    },
    {
      "id": 13198,
      "amount": 1
    },
    {
      "id": 7142,
      "amount": 1
    },
    null,
    null,
    null,
    null,
    null,
    null,
    null,
    null,
    null,
    null,
    null,
    null,
    null,
    null
  ],
  "equipment": [
    {
      "id": 12399,
      "amount": 1
    },
    {
      "id": 13222,
      "amount": 1
    },
    null,
    {
      "id": 4236,
      "amount": 1
    },
    null,
    null,
    null,
    null,
    null,
    null,
    {
      "id": 13239,
      "amount": 1
    },
    null,
    null,
    {
      "id": 893,
      "amount": 10
    }
  ],
  "shopItems": [
    null,
    null,
    null,
    null,
    null,
    null,
    null,
    null,
    null,
    null,
    null,
    null,
    null,
    null,
    null,
    null,
    null,
    null,
    null,
    null,
    null,
    null,
    null,
    null,
    null,
    null,
    null,
    null,
    null,
    null,
    null,
    null,
    null,
    null,
    null,
    null
  ],
  "shopPrices": [
    0,
    0,
    0,
    0,
    0,
    0,
    0,
    0,
    0,
    0,
    0,
    0,
    0,
    0,
    0,
    0,
    0,
    0,
    0,
    0,
    0,
    0,
    0,
    0,
    0,
    0,
    0,
    0,
    0,
    0,
    0,
    0,
    0,
    0,
    0,
    0
  ],
  "pouches": [
    0,
    0,
    0,
    0
  ]
}