{
  "bank": [
    {
      "id": 7936,
      "amount": 3343
    },
    {
      "id": 556,
      "amount": 225
    },
    {
      "id": 554,
      "amount": 206
    },
    {
      "id": 555,
      "amount": 863
    },
    {
      "id": 557,
      "amount": 198
    },
    {
      "id": 558,
      "amount": 306
    },
    {
      "id": 559,
      "amount": 442
    },
    {
      "id": 563,
      "amount": 492
    },
    {
      "id": 560,
      "amount": 1167
    },
    {
      "id": 561,
      "amount": 288
    },
    {
      "id": 565,
      "amount": 646
    },
    {
      "id": 562,
      "amount": 385
    },
    {
      "id": 566,
      "amount": 72
    },
    {
      "id": 564,
      "amount": 16
    },
    {
      "id": 4694,
      "amount": 7
    },
    {
      "id": 3140,
      "amount": 1
    },
    {
      "id": 385,
      "amount": 399
    },
    {
      "id": 2550,
      "amount": 10
    },
    {
      "id": 1187,
      "amount": 3
    },
    {
      "id": 10828,
      "amount": 2
    },
    {
      "id": 3144,
      "amount": 2
    },
    {
      "id": 1704,
      "amount": 2
    },
    {
      "id": 6529,
      "amount": 16987
    },
    {
      "id": 4087,
      "amount": 3
    },
    {
      "id": 3755,
      "amount": 2
    },
    {
      "id": 3749,
      "amount": 1
    },
    {
      "id": 3843,
      "amount": 4
    },
    {
      "id": 12610,
      "amount": 3
    },
    {
      "id": 12608,
      "amount": 1
    },
    {
      "id": 12612,
      "amount": 3
    },
    {
      "id": 3841,
      "amount": 1
    },
    {
      "id": 4585,
      "amount": 2
    },
    {
      "id": 12769,
      "amount": 1
    },
    {
      "id": 11230,
      "amount": 70
    },
    {
      "id": 11936,
      "amount": 24
    },
    {
      "id": 10010,
      "amount": 1
    },
    {
      "id": 9755,
      "amount": 1
    },
    {
      "id": 9754,
      "amount": 1
    },
    {
      "id": 9770,
      "amount": 1
    },
    {
      "id": 9769,
      "amount": 1
    },
    {
      "id": 143,
      "amount": 17
    },
    {
      "id": 1761,
      "amount": 4
    },
    {
      "id": 1373,
      "amount": 1
    },
    {
      "id": 571,
      "amount": 1
    },
    {
      "id": 2011,
      "amount": 3
    },
    {
      "id": 9748,
      "amount": 1
    },
    {
      "id": 1513,
      "amount": 278
    },
    {
      "id": 892,
      "amount": 552
    },
    {
      "id": 1371,
      "amount": 1
    },
    {
      "id": 1393,
      "amount": 4
    },
    {
      "id": 532,
      "amount": 1200
    },
    {
      "id": 12377,
      "amount": 1
    },
    {
      "id": 1211,
      "amount": 2
    },
    {
      "id": 2361,
      "amount": 51
    },
    {
      "id": 9438,
      "amount": 1
    },
    {
      "id": 1247,
      "amount": 1
    },
    {
      "id": 1631,
      "amount": 11
    },
    {
      "id": 6809,
      "amount": 2
    },
    {
      "id": 1478,
      "amount": 2
    },
    {
      "id": 6568,
      "amount": 1
    },
    {
      "id": 7460,
      "amount": 3
    },
    {
      "id": 592,
      "amount": 1
    },
    {
      "id": 1397,
      "amount": 2
    },
    {
      "id": 1061,
      "amount": 1
    },
    {
      "id": 1059,
      "amount": 1
    },
    {
      "id": 1456,
      "amount": 1
    },
    {
      "id": 361,
      "amount": 45
    },
    {
      "id": 1269,
      "amount": 1
    },
    {
      "id": 12297,
      "amount": 1
    },
    {
      "id": 1901,
      "amount": 2
    },
    {
      "id": 163,
      "amount": 1
    },
    {
      "id": 888,
      "amount": 180
    },
    {
      "id": 6908,
      "amount": 1
    },
    {
      "id": 3105,
      "amount": 1
    },
    {
      "id": 1249,
      "amount": 2
    },
    {
      "id": 2366,
      "amount": 3
    },
    {
      "id": 7979,
      "amount": 2
    },
    {
      "id": 11849,
      "amount": 3
    },
    {
      "id": 946,
      "amount": 1
    },
    {
      "id": 863,
      "amount": 507
    },
    {
      "id": 3391,
      "amount": 7
    },
    {
      "id": 447,
      "amount": 3
    },
    {
      "id": 12934,
      "amount": 3368
    },
    {
      "id": 438,
      "amount": 1
    },
    {
      "id": 590,
      "amount": 1
    },
    {
      "id": 1755,
      "amount": 3
    },
    {
      "id": 7458,
      "amount": 5
    },
    {
      "id": 253,
      "amount": 1
    },
    {
      "id": 267,
      "amount": 1
    },
    {
      "id": 265,
      "amount": 1
    },
    {
      "id": 251,
      "amount": 1
    },
    {
      "id": 1077,
      "amount": 1
    },
    {
      "id": 1183,
      "amount": 1
    },
    {
      "id": 1301,
      "amount": 1
    },
    {
      "id": 9749,
      "amount": 1
    },
    {
      "id": 301,
      "amount": 1
    },
    {
      "id": 9751,
      "amount": 1
    },
    {
      "id": 139,
      "amount": 15
    },
    {
      "id": 2359,
      "amount": 6
    },
    {
      "id": 430,
      "amount": 4
    },
    {
      "id": 207,
      "amount": 7
    },
    {
      "id": 333,
      "amount": 2
    },
    {
      "id": 1444,
      "amount": 1
    },
    {
      "id": 5287,
      "amount": 1
    },
    {
      "id": 1347,
      "amount": 12
    },
    {
      "id": 2487,
      "amount": 1
    },
    {
      "id": 1891,
      "amount": 18
    },
    {
      "id": 985,
      "amount": 1
    },
    {
      "id": 3049,
      "amount": 2
    },
    {
      "id": 1540,
      "amount": 1
    },
    {
      "id": 2493,
      "amount": 4
    },
    {
      "id": 1462,
      "amount": 1
    },
    {
      "id": 1167,
      "amount": 1
    },
    {
      "id": 1289,
      "amount": 1
    },
    {
      "id": 2503,
      "amount": 1
    },
    {
      "id": 4823,
      "amount": 9
    },
    {
      "id": 311,
      "amount": 1
    },
    {
      "id": 5301,
      "amount": 2
    },
    {
      "id": 5280,
      "amount": 1
    },
    {
      "id": 1939,
      "amount": 270
    },
    {
      "id": 401,
      "amount": 60
    },
    {
      "id": 314,
      "amount": 1953
    },
    {
      "id": 6524,
      "amount": 1
    },
    {
      "id": 1127,
      "amount": 3
    },
    {
      "id": 1629,
      "amount": 1
    },
    {
      "id": 1734,
      "amount": 122
    },
    {
      "id": 444,
      "amount": 25
    },
    {
      "id": 2357,
      "amount": 23
    },
    {
      "id": 1597,
      "amount": 1
    },
    {
      "id": 4155,
      "amount": 1
    },
    {
      "id": 1607,
      "amount": 8
    },
    {
      "id": 1273,
      "amount": 1
    },
    {
      "id": 2309,
      "amount": 1
    },
    {
      "id": 6916,
      "amount": 1
    },
    {
      "id": 6924,
      "amount": 1
    },
    {
      "id": 4095,
      "amount": 1
    },
    {
      "id": 830,
      "amount": 10
    },
    {
      "id": 442,
      "amount": 100
    },
    {
      "id": 1963,
      "amount": 4
    },
    {
      "id": 5291,
      "amount": 10
    },
    {
      "id": 249,
      "amount": 34
    },
    {
      "id": 259,
      "amount": 13
    },
    {
      "id": 211,
      "amount": 15
    },
    {
      "id": 5298,
      "amount": 4
    },
    {
      "id": 5331,
      "amount": 1
    },
    {
      "id": 5325,
      "amount": 1
    },
    {
      "id": 5341,
      "amount": 1
    },
    {
      "id": 5343,
      "amount": 1
    },
    {
      "id": 373,
      "amount": 3
    },
    {
      "id": 11260,
      "amount": 22
    },
    {
      "id": 10499,
      "amount": 6
    },
    {
      "id": 1452,
      "amount": 1
    },
    {
      "id": 1095,
      "amount": 1
    },
    {
      "id": 10284,
      "amount": 1
    },
    {
      "id": 829,
      "amount": 100
    },
    {
      "id": 1458,
      "amount": 1
    },
    {
      "id": 987,
      "amount": 1
    },
    {
      "id": 4091,
      "amount": 1
    },
    {
      "id": 4153,
      "amount": 1
    },
    {
      "id": 4675,
      "amount": 1
    },
    {
      "id": 1985,
      "amount": 2
    },
    {
      "id": 1931,
      "amount": 1
    },
    {
      "id": 869,
      "amount": 1074
    },
    {
      "id": 2491,
      "amount": 1
    },
    {
      "id": 2497,
      "amount": 1
    },
    {
      "id": 10952,
      "amount": 5
    },
    {
      "id": 1982,
      "amount": 1
    },
    {
      "id": 329,
      "amount": 1
    },
    {
      "id": 3393,
      "amount": 3
    },
    {
      "id": 379,
      "amount": 5
    },
    {
      "id": 2363,
      "amount": 11
    },
    {
      "id": 1897,
      "amount": 1
    },
    {
      "id": 1129,
      "amount": 1
    },
    {
      "id": 1454,
      "amount": 1
    },
    {
      "id": 2347,
      "amount": 1
    },
    {
      "id": 6330,
      "amount": 5
    },
    {
      "id": 6324,
      "amount": 1
    },
    {
      "id": 12197,
      "amount": 1
    },
    {
      "id": 1430,
      "amount": 1
    },
    {
      "id": 9752,
      "amount": 1
    },
    {
      "id": 5974,
      "amount": 20
    },
    {
      "id": 1623,
      "amount": 1
    },
    {
      "id": 1331,
      "amount": 1
    },
    {
      "id": 12938,
      "amount": 6
    },
    {
      "id": 456,
      "amount": 1
    },
    {
      "id": 4151,
      "amount": 1
    },
    {
      "id": 2723,
      "amount": 1
    },
    {
      "id": 6585,
      "amount": 1
    },
    {
      "id": 1708,
      "amount": 1
    },
    {
      "id": 11664,
      "amount": 4
    },
    {
      "id": 4214,
      "amount": 2
    },
    {
      "id": 6731,
      "amount": 1
    },
    {
      "id": 2434,
      "amount": 6
    },
    {
      "id": 8842,
      "amount": 4
    },
    {
      "id": 8839,
      "amount": 4
    },
    {
      "id": 8840,
      "amount": 4
    },
    {
      "id": 13092,
      "amount": 1
    },
    {
      "id": 6570,
      "amount": 4
    },
    {
      "id": 11665,
      "amount": 4
    },
    {
      "id": 11840,
      "amount": 2
    },
    {
      "id": 11663,
      "amount": 3
    },
    {
      "id": 7462,
      "amount": 4
    },
    {
      "id": 3488,
      "amount": 1
    },
    {
      "id": 11929,
      "amount": 1
    },
    {
      "id": 1149,
      "amount": 2
    },
    {
      "id": 6920,
      "amount": 1
    },
    {
      "id": 2581,
      "amount": 1
    },
    {
      "id": 3486,
      "amount": 1
    },
    {
      "id": 1215,
      "amount": 5
    },
    {
      "id": 1700,
      "amount": 28
    },
    {
      "id": 2568,
      "amount": 21
    },
    {
      "id": 2570,
      "amount": 21
    },
    {
      "id": 1731,
      "amount": 17
    },
    {
      "id": 6313,
      "amount": 5
    },
    {
      "id": 1747,
      "amount": 1
    },
    {
      "id": 993,
      "amount": 2
    },
    {
      "id": 9185,
      "amount": 2
    },
    {
      "id": 1185,
      "amount": 15
    },
    {
      "id": 6912,
      "amount": 1
    },
    {
      "id": 1099,
      "amount": 7
    },
    {
      "id": 6322,
      "amount": 5
    },
    {
      "id": 6155,
      "amount": 27
    },
    {
      "id": 3385,
      "amount": 10
    },
    {
      "id": 9194,
      "amount": 28
    },
    {
      "id": 868,
      "amount": 1304
    },
    {
      "id": 805,
      "amount": 200
    },
    {
      "id": 5300,
      "amount": 12
    },
    {
      "id": 1333,
      "amount": 6
    },
    {
      "id": 1093,
      "amount": 2
    },
    {
      "id": 9341,
      "amount": 16
    },
    {
      "id": 12810,
      "amount": 1
    },
    {
      "id": 12811,
      "amount": 1
    },
    {
      "id": 12812,
      "amount": 1
    },
    {
      "id": 1615,
      "amount": 12
    },
    {
      "id": 4093,
      "amount": 3
    },
    {
      "id": 1135,
      "amount": 4
    },
    {
      "id": 3753,
      "amount": 2
    },
    {
      "id": 9144,
      "amount": 103
    },
    {
      "id": 4012,
      "amount": 2
    },
    {
      "id": 9193,
      "amount": 62
    },
    {
      "id": 4097,
      "amount": 16
    },
    {
      "id": 6326,
      "amount": 2
    },
    {
      "id": 1319,
      "amount": 1
    },
    {
      "id": 3101,
      "amount": 1
    },
    {
      "id": 9143,
      "amount": 144
    },
    {
      "id": 257,
      "amount": 116
    },
    {
      "id": 3122,
      "amount": 3
    },
    {
      "id": 2890,
      "amount": 6
    },
    {
      "id": 6328,
      "amount": 4
    },
    {
      "id": 1157,
      "amount": 1
    },
    {
      "id": 9342,
      "amount": 16
    },
    {
      "id": 1181,
      "amount": 1
    },
    {
      "id": 1351,
      "amount": 1
    },
    {
      "id": 307,
      "amount": 1
    },
    {
      "id": 11942,
      "amount": 3
    },
    {
      "id": 1079,
      "amount": 6
    },
    {
      "id": 7218,
      "amount": 59
    },
    {
      "id": 5316,
      "amount": 6
    },
    {
      "id": 11212,
      "amount": 36
    },
    {
      "id": 882,
      "amount": 331
    },
    {
      "id": 11232,
      "amount": 48
    },
    {
      "id": 11237,
      "amount": 14
    },
    {
      "id": 5547,
      "amount": 3
    },
    {
      "id": 451,
      "amount": 15
    },
    {
      "id": 4587,
      "amount": 6
    },
    {
      "id": 809,
      "amount": 305
    },
    {
      "id": 841,
      "amount": 1
    },
    {
      "id": 2349,
      "amount": 70
    },
    {
      "id": 12375,
      "amount": 1
    },
    {
      "id": 1131,
      "amount": 1
    },
    {
      "id": 1702,
      "amount": 4
    },
    {
      "id": 3389,
      "amount": 2
    },
    {
      "id": 13274,
      "amount": 1
    },
    {
      "id": 810,
      "amount": 16
    },
    {
      "id": 857,
      "amount": 1
    },
    {
      "id": 133,
      "amount": 3
    },
    {
      "id": 5937,
      "amount": 56
    },
    {
      "id": 2442,
      "amount": 9
    },
    {
      "id": 229,
      "amount": 6
    },
    {
      "id": 227,
      "amount": 198
    },
    {
      "id": 255,
      "amount": 1
    },
    {
      "id": 1975,
      "amount": 1
    },
    {
      "id": 5318,
      "amount": 1
    },
    {
      "id": 6055,
      "amount": 3
    },
    {
      "id": 115,
      "amount": 1
    },
    {
      "id": 121,
      "amount": 1
    },
    {
      "id": 12453,
      "amount": 4
    },
    {
      "id": 12455,
      "amount": 1
    },
    {
      "id": 10308,
      "amount": 1
    },
    {
      "id": 10312,
      "amount": 1
    },
    {
      "id": 10314,
      "amount": 1
    },
    {
      "id": 10298,
      "amount": 1
    },
    {
      "id": 2637,
      "amount": 1
    },
    {
      "id": 12295,
      "amount": 1
    },
    {
      "id": 12449,
      "amount": 2
    },
    {
      "id": 12451,
      "amount": 2
    },
    {
      "id": 10432,
      "amount": 1
    },
    {
      "id": 7346,
      "amount": 1
    },
    {
      "id": 7352,
      "amount": 1
    },
    {
      "id": 7334,
      "amount": 1
    },
    {
      "id": 7356,
      "amount": 1
    },
    {
      "id": 10396,
      "amount": 1
    },
    {
      "id": 12445,
      "amount": 4
    },
    {
      "id": 12447,
      "amount": 2
    },
    {
      "id": 10468,
      "amount": 1
    },
    {
      "id": 3475,
      "amount": 1
    },
    {
      "id": 12317,
      "amount": 1
    },
    {
      "id": 12205,
      "amount": 1
    },
    {
      "id": 10406,
      "amount": 1
    },
    {
      "id": 10416,
      "amount": 1
    },
    {
      "id": 12219,
      "amount": 1
    },
    {
      "id": 2631,
      "amount": 1
    },
    {
      "id": 10294,
      "amount": 1
    },
    {
      "id": 7398,
      "amount": 1
    },
    {
      "id": 2649,
      "amount": 1
    },
    {
      "id": 2633,
      "amount": 1
    },
    {
      "id": 7336,
      "amount": 1
    },
    {
      "id": 4740,
      "amount": 1770
    },
    {
      "id": 4738,
      "amount": 1
    },
    {
      "id": 4749,
      "amount": 1
    },
    {
      "id": 4726,
      "amount": 1
    },
    {
      "id": 4753,
      "amount": 1
    },
    {
      "id": 4757,
      "amount": 1
    },
    {
      "id": 4759,
      "amount": 1
    },
    {
      "id": 4755,
      "amount": 2
    },
    {
      "id": 995,
      "amount": 25659284
    },
    {
      "id": 1499,
      "amount": 1
    },
    {
      "id": 11896,
      "amount": 1
    },
    {
      "id": 12530,
      "amount": 1
    },
    {
      "id": 13237,
      "amount": 1
    },
    {
      "id": 11897,
      "amount": 1
    },
    {
      "id": 12391,
      "amount": 1
    },
    {
      "id": 3483,
      "amount": 2
    },
    {
      "id": 10551,
      "amount": 4
    },
    {
      "id": 10548,
      "amount": 2
    },
    {
      "id": 2722,
      "amount": 23
    },
    {
      "id": 1091,
      "amount": 1
    },
    {
      "id": 952,
      "amount": 1
    },
    {
      "id": 1426,
      "amount": 1
    },
    {
      "id": 12341,
      "amount": 1
    },
    null,
    null,
    null,
    null,
    null,
    null,
    null,
    null,
    null,
    null
  ],
  "tabAmounts": [
    208,
    67,
    11,
    0,
    31,
    8,
    15,
    0,
    0,
    0
  ],
  "inventory": [
    null,
    null,
    null,
    null,
    null,
    null,
    null,
    null,
    null,
    null,
    null,
    null,
    null,
    null,
    null,
    null,
    null,
    null,
    null,
    null,
    null,
    null,
    null,
    null,
    null,
    null,
    null,
    null
  ],
  "equipment": [
    {
      "id": 11847,
      "amount": 1
    },
    null,
    null,
    null,
    null,
    null,
    null,
    null,
    null,
    null,
    null,
    null,
    null,
    null
  ],
  "shopItems": [
    null,
    null,
    null,
    null,
    null,
    null,
    null,
    null,
    null,
    null,
    null,
    null,
    null,
    null,
    null,
    null,
    null,
    null,
    null,
    null,
    null,
    null,
    null,
    null,
    null,
    null,
    null,
    null,
    null,
    null,
    null,
    null,
    null,
    null,
    null,
    null
  ],
  "shopPrices": [
    0,
    0,
    0,
    0,
    0,
    0,
    0,
    0,
    0,
    0,
    0,
    0,
    0,
    0,
    0,
    0,
    0,
    0,
    0,
    0,
    0,
    0,
    0,
    0,
    0,
    0,
    0,
    0,
    0,
    0,
    0,
    0,
    0,
    0,
    0,
    0
  ],
  "pouches": [
    0,
    0,
    0,
    0
  ]
}