{
  "bank": [
    {
      "id": 1319,
      "amount": 5
    },
    {
      "id": 1213,
      "amount": 2
    },
    {
      "id": 1359,
      "amount": 3
    },
    {
      "id": 2497,
      "amount": 4
    },
    {
      "id": 1127,
      "amount": 7
    },
    {
      "id": 2675,
      "amount": 4
    },
    {
      "id": 2643,
      "amount": 2
    },
    {
      "id": 10288,
      "amount": 6
    },
    {
      "id": 2491,
      "amount": 10
    },
    {
      "id": 1201,
      "amount": 8
    },
    {
      "id": 12512,
      "amount": 1
    },
    {
      "id": 2651,
      "amount": 1
    },
    {
      "id": 7400,
      "amount": 2
    },
    {
      "id": 2665,
      "amount": 6
    },
    {
      "id": 1289,
      "amount": 8
    },
    {
      "id": 2661,
      "amount": 2
    },
    {
      "id": 1073,
      "amount": 1
    },
    {
      "id": 7354,
      "amount": 2
    },
    {
      "id": 3485,
      "amount": 4
    },
    {
      "id": 1347,
      "amount": 5
    },
    {
      "id": 2669,
      "amount": 5
    },
    {
      "id": 1099,
      "amount": 3
    },
    {
      "id": 2579,
      "amount": 1
    },
    {
      "id": 1371,
      "amount": 2
    },
    {
      "id": 1113,
      "amount": 5
    },
    {
      "id": 2673,
      "amount": 4
    },
    {
      "id": 7358,
      "amount": 2
    },
    {
      "id": 7348,
      "amount": 4
    },
    {
      "id": 385,
      "amount": 9
    },
    {
      "id": 12490,
      "amount": 1
    },
    {
      "id": 1303,
      "amount": 8
    },
    {
      "id": 561,
      "amount": 15
    },
    {
      "id": 2503,
      "amount": 7
    },
    {
      "id": 10372,
      "amount": 1
    },
    {
      "id": 1091,
      "amount": 1
    },
    {
      "id": 1183,
      "amount": 3
    },
    {
      "id": 1185,
      "amount": 5
    },
    {
      "id": 10384,
      "amount": 1
    },
    {
      "id": 10306,
      "amount": 1
    },
    {
      "id": 1301,
      "amount": 3
    },
    {
      "id": 10290,
      "amount": 6
    },
    {
      "id": 7360,
      "amount": 5
    },
    {
      "id": 10374,
      "amount": 2
    },
    {
      "id": 12506,
      "amount": 2
    },
    {
      "id": 1432,
      "amount": 8
    },
    {
      "id": 1147,
      "amount": 7
    },
    {
      "id": 12520,
      "amount": 1
    },
    {
      "id": 1287,
      "amount": 2
    },
    {
      "id": 1373,
      "amount": 7
    },
    {
      "id": 329,
      "amount": 1
    },
    {
      "id": 1426,
      "amount": 1
    },
    {
      "id": 10470,
      "amount": 1
    },
    {
      "id": 7399,
      "amount": 5
    },
    {
      "id": 859,
      "amount": 5
    },
    {
      "id": 2655,
      "amount": 3
    },
    {
      "id": 12522,
      "amount": 1
    },
    {
      "id": 1456,
      "amount": 1
    },
    {
      "id": 2659,
      "amount": 4
    },
    {
      "id": 12530,
      "amount": 2
    },
    {
      "id": 10292,
      "amount": 4
    },
    {
      "id": 7334,
      "amount": 1
    },
    {
      "id": 1333,
      "amount": 3
    },
    {
      "id": 10438,
      "amount": 1
    },
    {
      "id": 7356,
      "amount": 1
    },
    {
      "id": 1163,
      "amount": 5
    },
    {
      "id": 379,
      "amount": 6
    },
    {
      "id": 10440,
      "amount": 2
    },
    {
      "id": 2671,
      "amount": 2
    },
    {
      "id": 1145,
      "amount": 1
    },
    {
      "id": 10344,
      "amount": 2
    },
    {
      "id": 10390,
      "amount": 1
    },
    {
      "id": 1341,
      "amount": 1
    },
    {
      "id": 3478,
      "amount": 4
    },
    {
      "id": 12528,
      "amount": 3
    },
    {
      "id": 1446,
      "amount": 1
    },
    {
      "id": 2629,
      "amount": 1
    },
    {
      "id": 10388,
      "amount": 1
    },
    {
      "id": 7342,
      "amount": 4
    },
    {
      "id": 3475,
      "amount": 1
    },
    {
      "id": 12524,
      "amount": 2
    },
    {
      "id": 12518,
      "amount": 3
    },
    {
      "id": 2657,
      "amount": 1
    },
    {
      "id": 1345,
      "amount": 1
    },
    {
      "id": 10296,
      "amount": 1
    },
    {
      "id": 12381,
      "amount": 1
    },
    {
      "id": 2641,
      "amount": 1
    },
    {
      "id": 12301,
      "amount": 1
    },
    {
      "id": 12526,
      "amount": 1
    },
    {
      "id": 10286,
      "amount": 3
    },
    {
      "id": 2617,
      "amount": 3
    },
    {
      "id": 861,
      "amount": 6
    },
    {
      "id": 8780,
      "amount": 1
    },
    {
      "id": 12387,
      "amount": 2
    },
    {
      "id": 12321,
      "amount": 2
    },
    {
      "id": 10422,
      "amount": 1
    },
    {
      "id": 10304,
      "amount": 1
    },
    {
      "id": 3488,
      "amount": 4
    },
    {
      "id": 10380,
      "amount": 1
    },
    {
      "id": 2663,
      "amount": 3
    },
    {
      "id": 12323,
      "amount": 1
    },
    {
      "id": 12504,
      "amount": 1
    },
    {
      "id": 1079,
      "amount": 3
    },
    {
      "id": 1161,
      "amount": 3
    },
    {
      "id": 12492,
      "amount": 1
    },
    {
      "id": 7336,
      "amount": 4
    },
    {
      "id": 12325,
      "amount": 1
    },
    {
      "id": 7376,
      "amount": 6
    },
    {
      "id": 2639,
      "amount": 3
    },
    {
      "id": 373,
      "amount": 2
    },
    {
      "id": 10294,
      "amount": 3
    },
    {
      "id": 12538,
      "amount": 1
    },
    {
      "id": 7352,
      "amount": 1
    },
    {
      "id": 1430,
      "amount": 1
    },
    {
      "id": 849,
      "amount": 1
    },
    {
      "id": 1093,
      "amount": 4
    },
    {
      "id": 3480,
      "amount": 2
    },
    {
      "id": 3481,
      "amount": 6
    },
    {
      "id": 2667,
      "amount": 2
    },
    {
      "id": 10376,
      "amount": 1
    },
    {
      "id": 1135,
      "amount": 1
    },
    {
      "id": 1211,
      "amount": 2
    },
    {
      "id": 12494,
      "amount": 3
    },
    {
      "id": 2615,
      "amount": 1
    },
    {
      "id": 12500,
      "amount": 1
    },
    {
      "id": 12536,
      "amount": 1
    },
    {
      "id": 7340,
      "amount": 1
    },
    {
      "id": 12516,
      "amount": 3
    },
    {
      "id": 10308,
      "amount": 1
    },
    {
      "id": 3477,
      "amount": 2
    },
    {
      "id": 1317,
      "amount": 3
    },
    {
      "id": 12532,
      "amount": 1
    },
    {
      "id": 1448,
      "amount": 1
    },
    {
      "id": 1167,
      "amount": 1
    },
    {
      "id": 3479,
      "amount": 2
    },
    {
      "id": 1059,
      "amount": 1
    },
    {
      "id": 1195,
      "amount": 1
    },
    {
      "id": 7374,
      "amount": 1
    },
    {
      "id": 10298,
      "amount": 1
    },
    {
      "id": 7384,
      "amount": 1
    },
    {
      "id": 10442,
      "amount": 1
    },
    {
      "id": 7327,
      "amount": 1
    },
    {
      "id": 12498,
      "amount": 1
    },
    {
      "id": 2653,
      "amount": 2
    },
    {
      "id": 3486,
      "amount": 5
    },
    {
      "id": 10474,
      "amount": 1
    },
    {
      "id": 12273,
      "amount": 1
    },
    {
      "id": 7332,
      "amount": 1
    },
    {
      "id": 10302,
      "amount": 1
    },
    {
      "id": 995,
      "amount": 29
    },
    {
      "id": 12795,
      "amount": 2
    },
    {
      "id": 608,
      "amount": 2
    },
    {
      "id": 1,
      "amount": 1
    },
    {
      "id": 12534,
      "amount": 1
    },
    {
      "id": 11943,
      "amount": 46
    },
    {
      "id": 4728,
      "amount": 2
    },
    {
      "id": 5302,
      "amount": 20
    },
    {
      "id": 2436,
      "amount": 10
    },
    {
      "id": 2434,
      "amount": 50
    },
    {
      "id": 7462,
      "amount": 4
    },
    {
      "id": 4724,
      "amount": 1
    },
    {
      "id": 4714,
      "amount": 1
    },
    {
      "id": 4708,
      "amount": 1
    },
    {
      "id": 4726,
      "amount": 1
    },
    {
      "id": 748,
      "amount": 2
    },
    {
      "id": 12873,
      "amount": 1
    },
    {
      "id": 6731,
      "amount": 2
    },
    {
      "id": 13263,
      "amount": 1
    },
    {
      "id": 3024,
      "amount": 10
    },
    {
      "id": 4716,
      "amount": 2
    },
    {
      "id": 4749,
      "amount": 1
    },
    {
      "id": 2442,
      "amount": 10
    },
    {
      "id": 7980,
      "amount": 1
    },
    {
      "id": 19481,
      "amount": 1
    },
    {
      "id": 4151,
      "amount": 1
    },
    {
      "id": 11928,
      "amount": 1
    },
    {
      "id": 4087,
      "amount": 2
    },
    {
      "id": 2577,
      "amount": 2
    },
    {
      "id": 292,
      "amount": 1
    },
    {
      "id": 10872,
      "amount": 1
    },
    {
      "id": 1631,
      "amount": 1
    },
    {
      "id": 12695,
      "amount": 27
    },
    {
      "id": 11834,
      "amount": 1
    },
    {
      "id": 11832,
      "amount": 1
    },
    {
      "id": 989,
      "amount": 1
    },
    {
      "id": 11828,
      "amount": 1
    },
    {
      "id": 11830,
      "amount": 1
    },
    {
      "id": 11826,
      "amount": 1
    },
    {
      "id": 3204,
      "amount": 1
    },
    {
      "id": 2402,
      "amount": 1
    },
    {
      "id": 11863,
      "amount": 1
    },
    {
      "id": 12414,
      "amount": 1
    },
    {
      "id": 12417,
      "amount": 1
    },
    {
      "id": 11897,
      "amount": 1
    },
    {
      "id": 10320,
      "amount": 1
    },
    {
      "id": 11899,
      "amount": 1
    },
    {
      "id": 11900,
      "amount": 1
    },
    {
      "id": 3140,
      "amount": 13
    },
    {
      "id": 11840,
      "amount": 7
    },
    {
      "id": 13182,
      "amount": 3
    },
    {
      "id": 12829,
      "amount": 9
    },
    {
      "id": 8394,
      "amount": 1
    },
    {
      "id": 6735,
      "amount": 1
    },
    {
      "id": 11335,
      "amount": 12
    },
    {
      "id": 12877,
      "amount": 1
    },
    {
      "id": 12883,
      "amount": 1
    },
    {
      "id": 4012,
      "amount": 28
    },
    {
      "id": 2722,
      "amount": 125
    },
    {
      "id": 2803,
      "amount": 3
    },
    {
      "id": 10551,
      "amount": 4
    },
    {
      "id": 1187,
      "amount": 5
    },
    {
      "id": 11286,
      "amount": 2
    },
    {
      "id": 1149,
      "amount": 7
    },
    {
      "id": 3483,
      "amount": 5
    },
    {
      "id": 12954,
      "amount": 4
    },
    {
      "id": 4225,
      "amount": 4
    },
    {
      "id": 10548,
      "amount": 4
    },
    {
      "id": 4587,
      "amount": 5
    },
    {
      "id": 12389,
      "amount": 1
    },
    {
      "id": 2682,
      "amount": 4
    },
    {
      "id": 12802,
      "amount": 2
    },
    {
      "id": 12608,
      "amount": 5
    },
    {
      "id": 6571,
      "amount": 2
    },
    {
      "id": 6920,
      "amount": 2
    },
    {
      "id": 4214,
      "amount": 4
    },
    {
      "id": 12391,
      "amount": 3
    },
    {
      "id": 12612,
      "amount": 3
    },
    {
      "id": 6570,
      "amount": 8
    },
    {
      "id": 11931,
      "amount": 2
    },
    {
      "id": 11933,
      "amount": 1
    },
    {
      "id": 4585,
      "amount": 2
    },
    {
      "id": 12610,
      "amount": 3
    },
    {
      "id": 12800,
      "amount": 2
    },
    {
      "id": 11847,
      "amount": 1
    },
    {
      "id": 4712,
      "amount": 1
    },
    {
      "id": 2440,
      "amount": 30
    },
    {
      "id": 19484,
      "amount": 1500
    },
    {
      "id": 11230,
      "amount": 50
    },
    {
      "id": 6733,
      "amount": 3
    },
    null,
    null,
    null,
    null,
    null,
    null,
    null,
    null,
    null,
    null,
    null,
    null,
    null,
    null,
    null,
    null,
    null,
    null,
    null,
    null,
    null,
    null,
    null,
    null,
    null,
    null,
    null,
    null,
    null,
    null,
    null,
    null,
    null,
    null,
    null,
    null,
    null,
    null,
    null,
    null,
    null,
    null,
    null,
    null,
    null,
    null,
    null,
    null,
    null,
    null,
    null,
    null,
    null,
    null,
    null,
    null,
    null,
    null,
    null,
    null,
    null,
    null,
    null,
    null,
    null,
    null,
    null,
    null,
    null,
    null,
    null,
    null,
    null,
    null,
    null,
    null,
    null,
    null,
    null,
    null,
    null,
    null,
    null,
    null,
    null,
    null,
    null,
    null,
    null,
    null,
    null,
    null,
    null,
    null,
    null,
    null,
    null,
    null,
    null,
    null,
    null,
    null,
    null,
    null,
    null,
    null,
    null,
    null,
    null,
    null,
    null,
    null
  ],
  "tabAmounts": [
    196,
    10,
    27,
    5,
    0,
    0,
    0,
    0,
    0,
    0
  ],
  "inventory": [
    {
      "id": 12829,
      "amount": 1
    },
    {
      "id": 11840,
      "amount": 1
    },
    {
      "id": 11335,
      "amount": 1
    },
    {
      "id": 11840,
      "amount": 1
    },
    {
      "id": 6731,
      "amount": 1
    },
    {
      "id": 7795,
      "amount": 1
    },
    {
      "id": 12795,
      "amount": 1
    },
    {
      "id": 7789,
      "amount": 1
    },
    {
      "id": 7786,
      "amount": 1
    },
    {
      "id": 7789,
      "amount": 1
    },
    {
      "id": 12829,
      "amount": 1
    },
    {
      "id": 12829,
      "amount": 1
    },
    {
      "id": 7783,
      "amount": 1
    },
    {
      "id": 7780,
      "amount": 1
    },
    {
      "id": 11840,
      "amount": 1
    },
    {
      "id": 6733,
      "amount": 1
    },
    {
      "id": 11335,
      "amount": 1
    },
    {
      "id": 12829,
      "amount": 1
    },
    {
      "id": 13274,
      "amount": 1
    },
    {
      "id": 7798,
      "amount": 1
    },
    {
      "id": 7780,
      "amount": 1
    },
    {
      "id": 11335,
      "amount": 1
    },
    {
      "id": 7792,
      "amount": 1
    },
    {
      "id": 6735,
      "amount": 1
    },
    {
      "id": 3140,
      "amount": 1
    },
    {
      "id": 3140,
      "amount": 1
    },
    {
      "id": 13222,
      "amount": 1
    },
    {
      "id": 8942,
      "amount": 1
    }
  ],
  "equipment": [
    null,
    {
      "id": 13222,
      "amount": 1
    },
    {
      "id": 1499,
      "amount": 1
    },
    {
      "id": 7142,
      "amount": 1
    },
    {
      "id": 11899,
      "amount": 1
    },
    {
      "id": 12829,
      "amount": 1
    },
    null,
    {
      "id": 11900,
      "amount": 1
    },
    null,
    {
      "id": 1580,
      "amount": 1
    },
    {
      "id": 13237,
      "amount": 1
    },
    null,
    {
      "id": 6737,
      "amount": 1
    },
    null
  ],
  "shopItems": [
    null,
    null,
    null,
    null,
    null,
    null,
    null,
    null,
    null,
    null,
    null,
    null,
    null,
    null,
    null,
    null,
    null,
    null,
    null,
    null,
    null,
    null,
    null,
    null,
    null,
    null,
    null,
    null,
    null,
    null,
    null,
    null,
    null,
    null,
    null,
    null
  ],
  "shopPrices": [
    0,
    0,
    0,
    0,
    0,
    0,
    0,
    0,
    0,
    0,
    0,
    0,
    0,
    0,
    0,
    0,
    0,
    0,
    0,
    0,
    0,
    0,
    0,
    0,
    0,
    0,
    0,
    0,
    0,
    0,
    0,
    0,
    0,
    0,
    0,
    0
  ],
  "pouches": [
    0,
    0,
    0,
    0
  ]
}