{
  "bank": [
    {
      "id": 1321,
      "amount": 1
    },
    {
      "id": 1333,
      "amount": 6
    },
    {
      "id": 4587,
      "amount": 2
    },
    {
      "id": 841,
      "amount": 1
    },
    {
      "id": 861,
      "amount": 2
    },
    {
      "id": 884,
      "amount": 250
    },
    {
      "id": 892,
      "amount": 1000001098
    },
    {
      "id": 1381,
      "amount": 1
    },
    {
      "id": 554,
      "amount": 300
    },
    {
      "id": 558,
      "amount": 100
    },
    {
      "id": 562,
      "amount": 100
    },
    {
      "id": 1844,
      "amount": 1
    },
    {
      "id": 1845,
      "amount": 1
    },
    {
      "id": 1846,
      "amount": 1
    },
    {
      "id": 1712,
      "amount": 1
    },
    {
      "id": 7946,
      "amount": 100
    },
    {
      "id": 12695,
      "amount": 3
    },
    {
      "id": 2682,
      "amount": 4
    },
    {
      "id": 1,
      "amount": 1
    },
    {
      "id": 12084,
      "amount": 27
    },
    {
      "id": 12085,
      "amount": 1
    },
    {
      "id": 11335,
      "amount": 8
    },
    {
      "id": 12879,
      "amount": 1
    },
    {
      "id": 3140,
      "amount": 5
    },
    {
      "id": 6570,
      "amount": 5
    },
    {
      "id": 12829,
      "amount": 9
    },
    {
      "id": 7783,
      "amount": 13
    },
    {
      "id": 7789,
      "amount": 15
    },
    {
      "id": 7786,
      "amount": 14
    },
    {
      "id": 7792,
      "amount": 10
    },
    {
      "id": 7798,
      "amount": 7
    },
    {
      "id": 7795,
      "amount": 11
    },
    {
      "id": 6685,
      "amount": 999999986
    },
    {
      "id": 4736,
      "amount": 2
    },
    {
      "id": 6733,
      "amount": 6
    },
    {
      "id": 1513,
      "amount": 50
    },
    {
      "id": 7780,
      "amount": 5
    },
    {
      "id": 383,
      "amount": 150
    },
    {
      "id": 10551,
      "amount": 3
    },
    {
      "id": 4708,
      "amount": 2
    },
    {
      "id": 2434,
      "amount": 25
    },
    {
      "id": 4732,
      "amount": 1
    },
    {
      "id": 397,
      "amount": 989
    },
    {
      "id": 207,
      "amount": 25
    },
    {
      "id": 11936,
      "amount": 27
    },
    {
      "id": 4728,
      "amount": 1
    },
    {
      "id": 19484,
      "amount": 495
    },
    {
      "id": 989,
      "amount": 2
    },
    {
      "id": 4087,
      "amount": 3
    },
    {
      "id": 2440,
      "amount": 10
    },
    {
      "id": 1213,
      "amount": 7
    },
    {
      "id": 8780,
      "amount": 4
    },
    {
      "id": 7354,
      "amount": 4
    },
    {
      "id": 1079,
      "amount": 16
    },
    {
      "id": 749,
      "amount": 2
    },
    {
      "id": 1357,
      "amount": 4
    },
    {
      "id": 1129,
      "amount": 1
    },
    {
      "id": 1091,
      "amount": 2
    },
    {
      "id": 7462,
      "amount": 5
    },
    {
      "id": 317,
      "amount": 100
    },
    {
      "id": 331,
      "amount": 100
    },
    {
      "id": 377,
      "amount": 100
    },
    {
      "id": 371,
      "amount": 100
    },
    {
      "id": 395,
      "amount": 100
    },
    {
      "id": 11934,
      "amount": 88
    },
    {
      "id": 12789,
      "amount": 887
    },
    {
      "id": 11840,
      "amount": 8
    },
    {
      "id": 12875,
      "amount": 1
    },
    {
      "id": 11900,
      "amount": 1
    },
    {
      "id": 7979,
      "amount": 6
    },
    {
      "id": 13263,
      "amount": 1
    },
    {
      "id": 7142,
      "amount": 1
    },
    {
      "id": 9242,
      "amount": 999999999
    },
    {
      "id": 8305,
      "amount": 1
    },
    {
      "id": 2722,
      "amount": 45
    },
    {
      "id": 4585,
      "amount": 1
    },
    {
      "id": 3486,
      "amount": 4
    },
    {
      "id": 12608,
      "amount": 1
    },
    {
      "id": 3488,
      "amount": 2
    },
    {
      "id": 12610,
      "amount": 3
    },
    {
      "id": 11230,
      "amount": 999983999
    },
    {
      "id": 11864,
      "amount": 1
    },
    {
      "id": 4710,
      "amount": 1
    },
    {
      "id": 3024,
      "amount": 999999966
    },
    {
      "id": 843,
      "amount": 1
    },
    {
      "id": 845,
      "amount": 1
    },
    {
      "id": 292,
      "amount": 1
    },
    {
      "id": 13144,
      "amount": 1
    },
    {
      "id": 19701,
      "amount": 1
    },
    {
      "id": 9243,
      "amount": 999999
    },
    {
      "id": 3026,
      "amount": 1
    },
    {
      "id": 229,
      "amount": 5
    },
    {
      "id": 12938,
      "amount": 2
    },
    {
      "id": 11828,
      "amount": 2
    },
    {
      "id": 11830,
      "amount": 2
    },
    {
      "id": 13576,
      "amount": 1
    },
    {
      "id": 6689,
      "amount": 1
    },
    {
      "id": 6687,
      "amount": 1
    },
    {
      "id": 3028,
      "amount": 2
    },
    {
      "id": 748,
      "amount": 1
    },
    {
      "id": 12699,
      "amount": 1
    },
    {
      "id": 4214,
      "amount": 1
    },
    {
      "id": 608,
      "amount": 9
    },
    {
      "id": 12389,
      "amount": 1
    },
    {
      "id": 11932,
      "amount": 1
    },
    {
      "id": 3485,
      "amount": 2
    },
    {
      "id": 13068,
      "amount": 1
    },
    {
      "id": 13222,
      "amount": 1
    },
    {
      "id": 11897,
      "amount": 1
    },
    {
      "id": 19610,
      "amount": 1
    },
    {
      "id": 11824,
      "amount": 1
    },
    {
      "id": 19481,
      "amount": 29
    },
    {
      "id": 8871,
      "amount": 1
    },
    {
      "id": 12931,
      "amount": 1
    },
    {
      "id": 8839,
      "amount": 1
    },
    {
      "id": 8840,
      "amount": 1
    },
    {
      "id": 11834,
      "amount": 1
    },
    {
      "id": 565,
      "amount": 999999991
    },
    {
      "id": 555,
      "amount": 999999975
    },
    {
      "id": 11802,
      "amount": 1
    },
    {
      "id": 560,
      "amount": 999999983
    },
    {
      "id": 12006,
      "amount": 1
    },
    {
      "id": 11665,
      "amount": 1
    },
    {
      "id": 12954,
      "amount": 1
    },
    {
      "id": 12904,
      "amount": 1
    },
    {
      "id": 9244,
      "amount": 999999995
    },
    {
      "id": 7384,
      "amount": 4
    },
    {
      "id": 12506,
      "amount": 2
    },
    {
      "id": 379,
      "amount": 8
    },
    {
      "id": 7334,
      "amount": 1
    },
    {
      "id": 2665,
      "amount": 4
    },
    {
      "id": 7336,
      "amount": 3
    },
    {
      "id": 1201,
      "amount": 13
    },
    {
      "id": 1303,
      "amount": 9
    },
    {
      "id": 7348,
      "amount": 3
    },
    {
      "id": 10298,
      "amount": 2
    },
    {
      "id": 12325,
      "amount": 2
    },
    {
      "id": 4823,
      "amount": 10
    },
    {
      "id": 2503,
      "amount": 6
    },
    {
      "id": 7374,
      "amount": 7
    },
    {
      "id": 1127,
      "amount": 9
    },
    {
      "id": 2661,
      "amount": 4
    },
    {
      "id": 1099,
      "amount": 2
    },
    {
      "id": 1185,
      "amount": 10
    },
    {
      "id": 12492,
      "amount": 2
    },
    {
      "id": 2609,
      "amount": 1
    },
    {
      "id": 1359,
      "amount": 7
    },
    {
      "id": 2491,
      "amount": 7
    },
    {
      "id": 1373,
      "amount": 11
    },
    {
      "id": 12313,
      "amount": 1
    },
    {
      "id": 1151,
      "amount": 1
    },
    {
      "id": 1347,
      "amount": 4
    },
    {
      "id": 12518,
      "amount": 3
    },
    {
      "id": 1432,
      "amount": 8
    },
    {
      "id": 1211,
      "amount": 2
    },
    {
      "id": 10372,
      "amount": 1
    },
    {
      "id": 1163,
      "amount": 4
    },
    {
      "id": 12269,
      "amount": 2
    },
    {
      "id": 12520,
      "amount": 2
    },
    {
      "id": 12289,
      "amount": 1
    },
    {
      "id": 2663,
      "amount": 4
    },
    {
      "id": 10390,
      "amount": 1
    },
    {
      "id": 10292,
      "amount": 3
    },
    {
      "id": 2615,
      "amount": 1
    },
    {
      "id": 12524,
      "amount": 3
    },
    {
      "id": 1371,
      "amount": 4
    },
    {
      "id": 12530,
      "amount": 1
    },
    {
      "id": 1700,
      "amount": 1
    },
    {
      "id": 12315,
      "amount": 3
    },
    {
      "id": 3833,
      "amount": 1
    },
    {
      "id": 12532,
      "amount": 3
    },
    {
      "id": 857,
      "amount": 3
    },
    {
      "id": 1430,
      "amount": 4
    },
    {
      "id": 559,
      "amount": 12
    },
    {
      "id": 12225,
      "amount": 1
    },
    {
      "id": 1059,
      "amount": 1
    },
    {
      "id": 1446,
      "amount": 1
    },
    {
      "id": 2621,
      "amount": 2
    },
    {
      "id": 1271,
      "amount": 2
    },
    {
      "id": 2724,
      "amount": 72
    },
    {
      "id": 10346,
      "amount": 1
    },
    {
      "id": 12307,
      "amount": 1
    },
    {
      "id": 7321,
      "amount": 2
    },
    {
      "id": 1093,
      "amount": 5
    },
    {
      "id": 1073,
      "amount": 1
    },
    {
      "id": 7398,
      "amount": 2
    },
    {
      "id": 2669,
      "amount": 2
    },
    {
      "id": 10472,
      "amount": 1
    },
    {
      "id": 12201,
      "amount": 1
    },
    {
      "id": 12428,
      "amount": 2
    },
    {
      "id": 849,
      "amount": 2
    },
    {
      "id": 10384,
      "amount": 1
    },
    {
      "id": 2629,
      "amount": 1
    },
    {
      "id": 1135,
      "amount": 2
    },
    {
      "id": 10370,
      "amount": 1
    },
    {
      "id": 1199,
      "amount": 2
    },
    {
      "id": 2645,
      "amount": 1
    },
    {
      "id": 10310,
      "amount": 1
    },
    {
      "id": 1179,
      "amount": 1
    },
    {
      "id": 12381,
      "amount": 2
    },
    {
      "id": 12508,
      "amount": 1
    },
    {
      "id": 12414,
      "amount": 1
    },
    {
      "id": 9183,
      "amount": 1
    },
    {
      "id": 12496,
      "amount": 1
    },
    {
      "id": 10300,
      "amount": 1
    },
    {
      "id": 12498,
      "amount": 1
    },
    {
      "id": 12415,
      "amount": 1
    },
    {
      "id": 12383,
      "amount": 1
    },
    {
      "id": 12504,
      "amount": 1
    },
    {
      "id": 12305,
      "amount": 1
    },
    {
      "id": 1301,
      "amount": 1
    },
    {
      "id": 10296,
      "amount": 1
    },
    {
      "id": 10442,
      "amount": 1
    },
    {
      "id": 12417,
      "amount": 1
    },
    {
      "id": 12534,
      "amount": 1
    },
    {
      "id": 10386,
      "amount": 1
    },
    {
      "id": 1145,
      "amount": 1
    },
    {
      "id": 12303,
      "amount": 1
    },
    {
      "id": 13343,
      "amount": 1
    },
    {
      "id": 12825,
      "amount": 1
    },
    {
      "id": 12457,
      "amount": 1
    },
    {
      "id": 9194,
      "amount": 24
    },
    {
      "id": 19529,
      "amount": 1
    },
    {
      "id": 6581,
      "amount": 1
    },
    {
      "id": 12391,
      "amount": 1
    },
    {
      "id": 11928,
      "amount": 1
    },
    {
      "id": 10548,
      "amount": 2
    },
    {
      "id": 4225,
      "amount": 1
    },
    {
      "id": 10010,
      "amount": 1
    },
    {
      "id": 9341,
      "amount": 1
    },
    {
      "id": 11260,
      "amount": 11
    },
    {
      "id": 10034,
      "amount": 5
    },
    {
      "id": 11959,
      "amount": 5
    },
    {
      "id": 6914,
      "amount": 1
    },
    {
      "id": 13275,
      "amount": 1
    },
    {
      "id": 4757,
      "amount": 1
    },
    {
      "id": 2436,
      "amount": 10
    },
    {
      "id": 13195,
      "amount": 1
    },
    {
      "id": 5601,
      "amount": 1
    },
    {
      "id": 995,
      "amount": 1000412332
    },
    {
      "id": 12929,
      "amount": 4
    },
    {
      "id": 12934,
      "amount": 998933999
    },
    {
      "id": 12458,
      "amount": 1
    },
    {
      "id": 12459,
      "amount": 1
    },
    {
      "id": 13124,
      "amount": 1
    },
    {
      "id": 13239,
      "amount": 1
    },
    {
      "id": 1046,
      "amount": 1
    },
    {
      "id": 1580,
      "amount": 1
    },
    {
      "id": 12817,
      "amount": 1
    },
    {
      "id": 11785,
      "amount": 1
    },
    {
      "id": 12899,
      "amount": 1
    },
    {
      "id": 13073,
      "amount": 1
    },
    {
      "id": 11663,
      "amount": 1
    },
    {
      "id": 8842,
      "amount": 1
    },
    {
      "id": 13280,
      "amount": 1
    },
    {
      "id": 13072,
      "amount": 1
    },
    {
      "id": 11664,
      "amount": 1
    },
    {
      "id": 12649,
      "amount": 1
    },
    {
      "id": 13237,
      "amount": 1
    },
    {
      "id": 4236,
      "amount": 2
    },
    {
      "id": 10150,
      "amount": 1
    },
    {
      "id": 13337,
      "amount": 1
    },
    {
      "id": 13241,
      "amount": 1
    },
    {
      "id": 10858,
      "amount": 1
    },
    {
      "id": 13243,
      "amount": 1
    },
    {
      "id": 12939,
      "amount": 1
    },
    {
      "id": 13441,
      "amount": 17
    },
    {
      "id": 12940,
      "amount": 1
    },
    {
      "id": 1755,
      "amount": 1
    },
    null,
    null,
    null,
    null,
    null,
    null,
    null,
    null,
    null,
    null,
    null,
    null,
    null,
    null,
    null,
    null,
    null,
    null,
    null,
    null,
    null,
    null,
    null,
    null,
    null,
    null,
    null,
    null,
    null,
    null,
    null,
    null,
    null,
    null,
    null,
    null,
    null,
    null,
    null,
    null,
    null,
    null,
    null,
    null,
    null,
    null,
    null,
    null,
    null,
    null,
    null,
    null,
    null,
    null,
    null,
    null,
    null,
    null,
    null,
    null,
    null,
    null,
    null,
    null,
    null,
    null,
    null,
    null,
    null,
    null,
    null,
    null,
    null,
    null,
    null,
    null,
    null,
    null,
    null,
    null,
    null
  ],
  "tabAmounts": [
    269,
    0,
    0,
    0,
    0,
    0,
    0,
    0,
    0,
    0
  ],
  "inventory": [
    null,
    null,
    null,
    null,
    null,
    null,
    null,
    null,
    null,
    null,
    null,
    null,
    null,
    null,
    null,
    null,
    null,
    null,
    null,
    null,
    null,
    null,
    null,
    null,
    null,
    null,
    null,
    null
  ],
  "equipment": [
    {
      "id": 13330,
      "amount": 1
    },
    {
      "id": 13329,
      "amount": 1
    },
    {
      "id": 19547,
      "amount": 1
    },
    {
      "id": 13265,
      "amount": 1
    },
    {
      "id": 10348,
      "amount": 1
    },
    {
      "id": 12825,
      "amount": 1
    },
    null,
    {
      "id": 10346,
      "amount": 1
    },
    null,
    {
      "id": 7462,
      "amount": 1
    },
    {
      "id": 13239,
      "amount": 1
    },
    null,
    null,
    null
  ],
  "shopItems": [
    null,
    null,
    null,
    null,
    null,
    null,
    null,
    null,
    null,
    null,
    null,
    null,
    null,
    null,
    null,
    null,
    null,
    null,
    null,
    null,
    null,
    null,
    null,
    null,
    null,
    null,
    null,
    null,
    null,
    null,
    null,
    null,
    null,
    null,
    null,
    null
  ],
  "shopPrices": [
    0,
    0,
    0,
    0,
    0,
    0,
    0,
    0,
    0,
    0,
    0,
    0,
    0,
    0,
    0,
    0,
    0,
    0,
    0,
    0,
    0,
    0,
    0,
    0,
    0,
    0,
    0,
    0,
    0,
    0,
    0,
    0,
    0,
    0,
    0,
    0
  ],
  "pouches": [
    0,
    0,
    0,
    0
  ]
}