{
  "bank": [
    {
      "id": 995,
      "amount": 263990
    },
    {
      "id": 1333,
      "amount": 1
    },
    {
      "id": 4587,
      "amount": 1
    },
    {
      "id": 841,
      "amount": 1
    },
    {
      "id": 861,
      "amount": 1
    },
    {
      "id": 884,
      "amount": 250
    },
    {
      "id": 892,
      "amount": 100
    },
    {
      "id": 1381,
      "amount": 1
    },
    {
      "id": 554,
      "amount": 300
    },
    {
      "id": 558,
      "amount": 100
    },
    {
      "id": 562,
      "amount": 100
    },
    {
      "id": 1844,
      "amount": 1
    },
    {
      "id": 1845,
      "amount": 1
    },
    {
      "id": 1846,
      "amount": 1
    },
    {
      "id": 7946,
      "amount": 96
    },
    {
      "id": 12695,
      "amount": 53
    },
    {
      "id": 11943,
      "amount": 60
    },
    {
      "id": 2434,
      "amount": 14
    },
    {
      "id": 229,
      "amount": 5
    },
    {
      "id": 1,
      "amount": 1
    },
    {
      "id": 985,
      "amount": 3
    },
    {
      "id": 12748,
      "amount": 2
    },
    {
      "id": 12455,
      "amount": 2
    },
    {
      "id": 3391,
      "amount": 4
    },
    {
      "id": 1478,
      "amount": 1
    },
    {
      "id": 12451,
      "amount": 1
    },
    {
      "id": 1702,
      "amount": 1
    },
    {
      "id": 1201,
      "amount": 1
    },
    {
      "id": 3101,
      "amount": 1
    },
    {
      "id": 1113,
      "amount": 2
    },
    {
      "id": 12445,
      "amount": 2
    },
    {
      "id": 3843,
      "amount": 1
    },
    {
      "id": 3749,
      "amount": 4
    },
    {
      "id": 6330,
      "amount": 1
    },
    {
      "id": 3753,
      "amount": 2
    },
    {
      "id": 12746,
      "amount": 1
    },
    {
      "id": 1127,
      "amount": 1
    },
    {
      "id": 6922,
      "amount": 1
    },
    {
      "id": 6324,
      "amount": 2
    },
    {
      "id": 1093,
      "amount": 1
    },
    {
      "id": 4131,
      "amount": 2
    },
    {
      "id": 2890,
      "amount": 1
    },
    {
      "id": 2366,
      "amount": 1
    },
    {
      "id": 1099,
      "amount": 3
    },
    {
      "id": 6322,
      "amount": 2
    },
    {
      "id": 6328,
      "amount": 1
    },
    {
      "id": 3389,
      "amount": 1
    },
    {
      "id": 2550,
      "amount": 1
    },
    {
      "id": 9185,
      "amount": 1
    },
    {
      "id": 1731,
      "amount": 1
    },
    {
      "id": 3385,
      "amount": 1
    },
    {
      "id": 12375,
      "amount": 1
    },
    {
      "id": 7458,
      "amount": 1
    },
    {
      "id": 3105,
      "amount": 1
    },
    {
      "id": 7460,
      "amount": 1
    },
    {
      "id": 6912,
      "amount": 1
    },
    {
      "id": 2368,
      "amount": 1
    },
    {
      "id": 952,
      "amount": 3
    },
    {
      "id": 3833,
      "amount": 1
    },
    {
      "id": 10314,
      "amount": 1
    },
    {
      "id": 7350,
      "amount": 1
    },
    {
      "id": 10462,
      "amount": 1
    },
    {
      "id": 10392,
      "amount": 1
    },
    {
      "id": 7344,
      "amount": 1
    },
    {
      "id": 13276,
      "amount": 1
    },
    {
      "id": 12769,
      "amount": 1
    },
    {
      "id": 4736,
      "amount": 1
    },
    {
      "id": 608,
      "amount": 1
    },
    {
      "id": 7979,
      "amount": 1
    },
    null,
    null,
    null,
    null,
    null,
    null,
    null,
    null,
    null,
    null,
    null,
    null,
    null,
    null,
    null,
    null,
    null,
    null,
    null,
    null,
    null,
    null,
    null,
    null,
    null,
    null,
    null,
    null,
    null,
    null,
    null,
    null,
    null,
    null,
    null,
    null,
    null,
    null,
    null,
    null,
    null,
    null,
    null,
    null,
    null,
    null,
    null,
    null,
    null,
    null,
    null,
    null,
    null,
    null,
    null,
    null,
    null,
    null,
    null,
    null,
    null,
    null,
    null,
    null,
    null,
    null,
    null,
    null,
    null,
    null,
    null,
    null,
    null,
    null,
    null,
    null,
    null,
    null,
    null,
    null,
    null,
    null,
    null,
    null,
    null,
    null,
    null,
    null,
    null,
    null,
    null,
    null,
    null,
    null,
    null,
    null,
    null,
    null,
    null,
    null,
    null,
    null,
    null,
    null,
    null,
    null,
    null,
    null,
    null,
    null,
    null,
    null,
    null,
    null,
    null,
    null,
    null,
    null,
    null,
    null,
    null,
    null,
    null,
    null,
    null,
    null,
    null,
    null,
    null,
    null,
    null,
    null,
    null,
    null,
    null,
    null,
    null,
    null,
    null,
    null,
    null,
    null,
    null,
    null,
    null,
    null,
    null,
    null,
    null,
    null,
    null,
    null,
    null,
    null,
    null,
    null,
    null,
    null,
    null,
    null,
    null,
    null,
    null,
    null,
    null,
    null,
    null,
    null,
    null,
    null,
    null,
    null,
    null,
    null,
    null,
    null,
    null,
    null,
    null,
    null,
    null,
    null,
    null,
    null,
    null,
    null,
    null,
    null,
    null,
    null,
    null,
    null,
    null,
    null,
    null,
    null,
    null,
    null,
    null,
    null,
    null,
    null,
    null,
    null,
    null,
    null,
    null,
    null,
    null,
    null,
    null,
    null,
    null,
    null,
    null,
    null,
    null,
    null,
    null,
    null,
    null,
    null,
    null,
    null,
    null,
    null,
    null,
    null,
    null,
    null,
    null,
    null,
    null,
    null,
    null,
    null,
    null,
    null,
    null,
    null,
    null,
    null,
    null,
    null,
    null,
    null,
    null,
    null,
    null,
    null,
    null,
    null,
    null,
    null,
    null,
    null,
    null,
    null,
    null,
    null,
    null,
    null,
    null,
    null,
    null,
    null,
    null,
    null,
    null,
    null,
    null,
    null,
    null,
    null,
    null,
    null,
    null,
    null,
    null,
    null,
    null
  ],
  "tabAmounts": [
    20,
    37,
    7,
    5,
    0,
    0,
    0,
    0,
    0,
    0
  ],
  "inventory": [
    {
      "id": 995,
      "amount": 14653
    },
    {
      "id": 12697,
      "amount": 1
    },
    {
      "id": 2434,
      "amount": 1
    },
    {
      "id": 2434,
      "amount": 1
    },
    {
      "id": 2434,
      "amount": 1
    },
    {
      "id": 2434,
      "amount": 1
    },
    {
      "id": 139,
      "amount": 1
    },
    null,
    null,
    null,
    null,
    null,
    null,
    null,
    null,
    null,
    null,
    null,
    null,
    null,
    null,
    null,
    null,
    null,
    null,
    null,
    null,
    null
  ],
  "equipment": [
    {
      "id": 10828,
      "amount": 1
    },
    null,
    {
      "id": 1712,
      "amount": 1
    },
    {
      "id": 13263,
      "amount": 1
    },
    {
      "id": 9674,
      "amount": 1
    },
    null,
    null,
    {
      "id": 9676,
      "amount": 1
    },
    null,
    {
      "id": 7462,
      "amount": 1
    },
    {
      "id": 3105,
      "amount": 1
    },
    null,
    null,
    null
  ],
  "shopItems": [
    null,
    null,
    null,
    null,
    null,
    null,
    null,
    null,
    null,
    null,
    null,
    null,
    null,
    null,
    null,
    null,
    null,
    null,
    null,
    null,
    null,
    null,
    null,
    null,
    null,
    null,
    null,
    null,
    null,
    null,
    null,
    null,
    null,
    null,
    null,
    null
  ],
  "shopPrices": [
    0,
    0,
    0,
    0,
    0,
    0,
    0,
    0,
    0,
    0,
    0,
    0,
    0,
    0,
    0,
    0,
    0,
    0,
    0,
    0,
    0,
    0,
    0,
    0,
    0,
    0,
    0,
    0,
    0,
    0,
    0,
    0,
    0,
    0,
    0,
    0
  ],
  "pouches": [
    0,
    0,
    0,
    0
  ]
}