{
  "bank": [
    {
      "id": 995,
      "amount": 239369050
    },
    {
      "id": 2550,
      "amount": 35
    },
    {
      "id": 11936,
      "amount": 1800
    },
    {
      "id": 385,
      "amount": 7081
    },
    {
      "id": 7946,
      "amount": 188
    },
    {
      "id": 13441,
      "amount": 112
    },
    {
      "id": 3144,
      "amount": 504
    },
    {
      "id": 314,
      "amount": 26734
    },
    {
      "id": 558,
      "amount": 89612
    },
    {
      "id": 556,
      "amount": 145733
    },
    {
      "id": 562,
      "amount": 1437
    },
    {
      "id": 565,
      "amount": 3421
    },
    {
      "id": 560,
      "amount": 8162
    },
    {
      "id": 557,
      "amount": 1350
    },
    {
      "id": 1436,
      "amount": 9577
    },
    {
      "id": 7936,
      "amount": 74757
    },
    {
      "id": 9075,
      "amount": 3528
    },
    {
      "id": 555,
      "amount": 5474
    },
    {
      "id": 566,
      "amount": 3479
    },
    {
      "id": 559,
      "amount": 1000
    },
    {
      "id": 561,
      "amount": 1202
    },
    {
      "id": 564,
      "amount": 1006
    },
    {
      "id": 554,
      "amount": 491
    },
    {
      "id": 563,
      "amount": 7662
    },
    {
      "id": 13281,
      "amount": 2
    },
    {
      "id": 13330,
      "amount": 3
    },
    {
      "id": 13338,
      "amount": 2
    },
    {
      "id": 13332,
      "amount": 2
    },
    {
      "id": 3024,
      "amount": 367
    },
    {
      "id": 3026,
      "amount": 14
    },
    {
      "id": 3028,
      "amount": 19
    },
    {
      "id": 3030,
      "amount": 23
    },
    {
      "id": 13280,
      "amount": 2
    },
    {
      "id": 13329,
      "amount": 3
    },
    {
      "id": 13337,
      "amount": 2
    },
    {
      "id": 13331,
      "amount": 2
    },
    {
      "id": 12695,
      "amount": 770
    },
    {
      "id": 12697,
      "amount": 27
    },
    {
      "id": 12699,
      "amount": 22
    },
    {
      "id": 12701,
      "amount": 19
    },
    {
      "id": 2452,
      "amount": 11
    },
    {
      "id": 2454,
      "amount": 3
    },
    {
      "id": 2456,
      "amount": 2
    },
    {
      "id": 2458,
      "amount": 3
    },
    {
      "id": 2444,
      "amount": 186
    },
    {
      "id": 169,
      "amount": 32
    },
    {
      "id": 171,
      "amount": 33
    },
    {
      "id": 173,
      "amount": 22
    },
    {
      "id": 2446,
      "amount": 455
    },
    {
      "id": 175,
      "amount": 3
    },
    {
      "id": 177,
      "amount": 2
    },
    {
      "id": 179,
      "amount": 2
    },
    {
      "id": 6685,
      "amount": 51
    },
    {
      "id": 6687,
      "amount": 2289
    },
    {
      "id": 6689,
      "amount": 2
    },
    {
      "id": 6691,
      "amount": 3
    },
    {
      "id": 8011,
      "amount": 282
    },
    {
      "id": 7786,
      "amount": 1
    },
    {
      "id": 7783,
      "amount": 1
    },
    {
      "id": 7798,
      "amount": 1
    },
    {
      "id": 7792,
      "amount": 1
    },
    {
      "id": 7789,
      "amount": 1
    },
    {
      "id": 7795,
      "amount": 1
    },
    {
      "id": 7780,
      "amount": 1
    },
    {
      "id": 2890,
      "amount": 5
    },
    {
      "id": 1347,
      "amount": 3
    },
    {
      "id": 2493,
      "amount": 12
    },
    {
      "id": 311,
      "amount": 12
    },
    {
      "id": 7944,
      "amount": 3256
    },
    {
      "id": 11934,
      "amount": 1017
    },
    {
      "id": 383,
      "amount": 1176
    },
    {
      "id": 13439,
      "amount": 991
    },
    {
      "id": 7462,
      "amount": 9
    },
    {
      "id": 12954,
      "amount": 3
    },
    {
      "id": 2572,
      "amount": 5
    },
    {
      "id": 447,
      "amount": 46
    },
    {
      "id": 451,
      "amount": 136
    },
    {
      "id": 449,
      "amount": 1381
    },
    {
      "id": 2359,
      "amount": 50
    },
    {
      "id": 2361,
      "amount": 769
    },
    {
      "id": 1779,
      "amount": 20335
    },
    {
      "id": 6529,
      "amount": 79620
    },
    {
      "id": 229,
      "amount": 557
    },
    {
      "id": 440,
      "amount": 294
    },
    {
      "id": 444,
      "amount": 554
    },
    {
      "id": 453,
      "amount": 1548
    },
    {
      "id": 2351,
      "amount": 8
    },
    {
      "id": 2363,
      "amount": 97
    },
    {
      "id": 859,
      "amount": 8343
    },
    {
      "id": 10010,
      "amount": 2
    },
    {
      "id": 1755,
      "amount": 7
    },
    {
      "id": 227,
      "amount": 16686
    },
    {
      "id": 269,
      "amount": 78
    },
    {
      "id": 2998,
      "amount": 5495
    },
    {
      "id": 2357,
      "amount": 9
    },
    {
      "id": 2353,
      "amount": 40
    },
    {
      "id": 1513,
      "amount": 6703
    },
    {
      "id": 946,
      "amount": 8
    },
    {
      "id": 5296,
      "amount": 534
    },
    {
      "id": 5304,
      "amount": 501
    },
    {
      "id": 247,
      "amount": 775
    },
    {
      "id": 6693,
      "amount": 8758
    },
    {
      "id": 70,
      "amount": 5445
    },
    {
      "id": 1777,
      "amount": 1932
    },
    {
      "id": 952,
      "amount": 12
    },
    {
      "id": 5331,
      "amount": 8
    },
    {
      "id": 5341,
      "amount": 11
    },
    {
      "id": 5343,
      "amount": 11
    },
    {
      "id": 10034,
      "amount": 350
    },
    {
      "id": 11959,
      "amount": 1154
    },
    {
      "id": 2347,
      "amount": 22
    },
    {
      "id": 1275,
      "amount": 10
    },
    {
      "id": 536,
      "amount": 435
    },
    {
      "id": 11943,
      "amount": 2572
    },
    {
      "id": 11940,
      "amount": 2860
    },
    {
      "id": 590,
      "amount": 12
    },
    {
      "id": 811,
      "amount": 658
    },
    {
      "id": 10952,
      "amount": 8
    },
    {
      "id": 1759,
      "amount": 3
    },
    {
      "id": 10499,
      "amount": 3
    },
    {
      "id": 12335,
      "amount": 1
    },
    {
      "id": 13277,
      "amount": 2
    },
    {
      "id": 3216,
      "amount": 11
    },
    {
      "id": 3840,
      "amount": 1
    },
    {
      "id": 6914,
      "amount": 9
    },
    {
      "id": 72,
      "amount": 352
    },
    {
      "id": 985,
      "amount": 13
    },
    {
      "id": 987,
      "amount": 1
    },
    {
      "id": 989,
      "amount": 1
    },
    {
      "id": 7170,
      "amount": 4
    },
    {
      "id": 6922,
      "amount": 6
    },
    {
      "id": 6920,
      "amount": 2
    },
    {
      "id": 11230,
      "amount": 6516
    },
    {
      "id": 12524,
      "amount": 2
    },
    {
      "id": 12530,
      "amount": 1
    },
    {
      "id": 4755,
      "amount": 4
    },
    {
      "id": 12375,
      "amount": 6
    },
    {
      "id": 11663,
      "amount": 1
    },
    {
      "id": 6735,
      "amount": 2
    },
    {
      "id": 10887,
      "amount": 10
    },
    {
      "id": 11930,
      "amount": 1
    },
    {
      "id": 12934,
      "amount": 531
    },
    {
      "id": 1987,
      "amount": 1
    },
    {
      "id": 13245,
      "amount": 1
    },
    {
      "id": 12936,
      "amount": 1
    },
    {
      "id": 11849,
      "amount": 25
    },
    {
      "id": 11665,
      "amount": 1
    },
    {
      "id": 10548,
      "amount": 1
    },
    {
      "id": 13092,
      "amount": 1
    },
    {
      "id": 4012,
      "amount": 30
    },
    {
      "id": 685,
      "amount": 10
    },
    {
      "id": 4225,
      "amount": 2
    },
    {
      "id": 3204,
      "amount": 3
    },
    {
      "id": 10551,
      "amount": 6
    },
    {
      "id": 4759,
      "amount": 2
    },
    {
      "id": 5514,
      "amount": 2
    },
    {
      "id": 12598,
      "amount": 2
    },
    {
      "id": 16,
      "amount": 1
    },
    {
      "id": 4738,
      "amount": 4
    },
    {
      "id": 4712,
      "amount": 5
    },
    {
      "id": 2651,
      "amount": 3
    },
    {
      "id": 12528,
      "amount": 3
    },
    {
      "id": 1595,
      "amount": 2
    },
    {
      "id": 12800,
      "amount": 1
    },
    {
      "id": 12940,
      "amount": 1
    },
    {
      "id": 13321,
      "amount": 1
    },
    {
      "id": 13322,
      "amount": 1
    },
    {
      "id": 19675,
      "amount": 1
    },
    {
      "id": 19481,
      "amount": 1
    },
    {
      "id": 13243,
      "amount": 1
    },
    {
      "id": 11283,
      "amount": 1
    },
    {
      "id": 4714,
      "amount": 4
    },
    {
      "id": 10977,
      "amount": 1
    },
    {
      "id": 430,
      "amount": 9
    },
    {
      "id": 12774,
      "amount": 1
    },
    {
      "id": 11212,
      "amount": 1086
    },
    {
      "id": 4753,
      "amount": 1
    },
    {
      "id": 11929,
      "amount": 1
    },
    {
      "id": 5512,
      "amount": 1
    },
    {
      "id": 12518,
      "amount": 2
    },
    {
      "id": 13233,
      "amount": 2
    },
    {
      "id": 301,
      "amount": 1
    },
    {
      "id": 12899,
      "amount": 1
    },
    {
      "id": 13235,
      "amount": 1
    },
    {
      "id": 13229,
      "amount": 1
    },
    {
      "id": 13274,
      "amount": 1
    },
    {
      "id": 12538,
      "amount": 1
    },
    {
      "id": 19693,
      "amount": 1
    },
    {
      "id": 1149,
      "amount": 1
    },
    {
      "id": 4732,
      "amount": 3
    },
    {
      "id": 12428,
      "amount": 1
    },
    {
      "id": 7980,
      "amount": 10
    },
    {
      "id": 7981,
      "amount": 6
    },
    {
      "id": 7979,
      "amount": 22
    },
    {
      "id": 10336,
      "amount": 2
    },
    {
      "id": 12418,
      "amount": 4
    },
    {
      "id": 12249,
      "amount": 1
    },
    {
      "id": 10394,
      "amount": 1
    },
    {
      "id": 634,
      "amount": 1
    },
    {
      "id": 10392,
      "amount": 1
    },
    {
      "id": 12414,
      "amount": 1
    },
    {
      "id": 12415,
      "amount": 1
    },
    {
      "id": 4587,
      "amount": 1
    },
    {
      "id": 10350,
      "amount": 1
    },
    {
      "id": 13144,
      "amount": 1
    },
    {
      "id": 3140,
      "amount": 5
    },
    {
      "id": 4087,
      "amount": 11
    },
    {
      "id": 4585,
      "amount": 9
    },
    {
      "id": 19607,
      "amount": 3
    },
    {
      "id": 12932,
      "amount": 2
    },
    {
      "id": 6573,
      "amount": 4
    },
    {
      "id": 442,
      "amount": 2491
    },
    {
      "id": 4207,
      "amount": 2
    },
    {
      "id": 4214,
      "amount": 4
    },
    {
      "id": 13073,
      "amount": 1
    },
    {
      "id": 13072,
      "amount": 1
    },
    {
      "id": 11664,
      "amount": 1
    },
    {
      "id": 8842,
      "amount": 1
    },
    {
      "id": 11924,
      "amount": 1
    },
    {
      "id": 1215,
      "amount": 1
    },
    {
      "id": 12931,
      "amount": 1
    },
    {
      "id": 6570,
      "amount": 1
    },
    {
      "id": 12006,
      "amount": 1
    },
    {
      "id": 11832,
      "amount": 1
    },
    {
      "id": 11834,
      "amount": 1
    },
    {
      "id": 11840,
      "amount": 3
    },
    {
      "id": 6737,
      "amount": 1
    },
    {
      "id": 3049,
      "amount": 4
    },
    {
      "id": 4278,
      "amount": 1
    },
    {
      "id": 11232,
      "amount": 58
    },
    {
      "id": 7880,
      "amount": 1
    },
    {
      "id": 19553,
      "amount": 1
    },
    {
      "id": 6479,
      "amount": 1
    },
    {
      "id": 6139,
      "amount": 1
    },
    {
      "id": 6562,
      "amount": 1
    },
    {
      "id": 11770,
      "amount": 1
    },
    {
      "id": 19649,
      "amount": 1
    },
    {
      "id": 6585,
      "amount": 1
    },
    {
      "id": 12926,
      "amount": 1
    },
    {
      "id": 4736,
      "amount": 2
    },
    {
      "id": 6328,
      "amount": 1
    },
    {
      "id": 6733,
      "amount": 1
    },
    {
      "id": 11820,
      "amount": 2
    },
    {
      "id": 11889,
      "amount": 1
    },
    {
      "id": 11838,
      "amount": 1
    },
    {
      "id": 19484,
      "amount": 348
    },
    {
      "id": 2581,
      "amount": 1
    },
    {
      "id": 6731,
      "amount": 1
    },
    {
      "id": 4726,
      "amount": 1
    },
    {
      "id": 11931,
      "amount": 1
    },
    {
      "id": 12748,
      "amount": 1
    },
    {
      "id": 12746,
      "amount": 1
    },
    {
      "id": 11798,
      "amount": 2
    },
    {
      "id": 11822,
      "amount": 2
    },
    {
      "id": 292,
      "amount": 1
    },
    {
      "id": 10540,
      "amount": 4
    },
    {
      "id": 7856,
      "amount": 1
    },
    {
      "id": 10561,
      "amount": 1
    },
    {
      "id": 11260,
      "amount": 233
    },
    {
      "id": 1515,
      "amount": 1000
    },
    {
      "id": 1747,
      "amount": 175
    },
    {
      "id": 9244,
      "amount": 990
    },
    {
      "id": 830,
      "amount": 8225
    },
    {
      "id": 4749,
      "amount": 1
    },
    {
      "id": 4728,
      "amount": 1
    },
    {
      "id": 4730,
      "amount": 1
    },
    {
      "id": 4751,
      "amount": 2
    },
    {
      "id": 4745,
      "amount": 1
    },
    {
      "id": 4724,
      "amount": 3
    },
    {
      "id": 4708,
      "amount": 2
    },
    {
      "id": 4757,
      "amount": 2
    },
    {
      "id": 4720,
      "amount": 1
    },
    {
      "id": 4716,
      "amount": 2
    },
    {
      "id": 4722,
      "amount": 3
    },
    {
      "id": 4734,
      "amount": 2
    },
    {
      "id": 4718,
      "amount": 3
    },
    {
      "id": 438,
      "amount": 34
    },
    {
      "id": 436,
      "amount": 35
    },
    {
      "id": 1267,
      "amount": 1
    },
    null,
    null,
    null,
    null,
    null,
    null,
    null,
    null,
    null,
    null,
    null,
    null,
    null,
    null,
    null,
    null,
    null,
    null,
    null,
    null,
    null,
    null,
    null,
    null,
    null,
    null,
    null,
    null,
    null,
    null,
    null,
    null,
    null,
    null,
    null,
    null,
    null,
    null,
    null,
    null,
    null,
    null,
    null,
    null,
    null,
    null,
    null,
    null,
    null,
    null,
    null,
    null,
    null,
    null,
    null,
    null,
    null,
    null,
    null,
    null,
    null,
    null,
    null,
    null,
    null,
    null,
    null,
    null,
    null,
    null,
    null
  ],
  "tabAmounts": [
    279,
    0,
    0,
    0,
    0,
    0,
    0,
    0,
    0,
    0
  ],
  "inventory": [
    {
      "id": 11849,
      "amount": 6
    },
    {
      "id": 4236,
      "amount": 1
    },
    {
      "id": 1050,
      "amount": 1
    },
    null,
    null,
    null,
    null,
    null,
    null,
    null,
    null,
    null,
    null,
    null,
    null,
    null,
    null,
    null,
    null,
    null,
    null,
    null,
    null,
    null,
    null,
    null,
    null,
    null
  ],
  "equipment": [
    null,
    null,
    null,
    null,
    null,
    null,
    null,
    null,
    null,
    null,
    null,
    null,
    null,
    null
  ],
  "shopItems": [
    null,
    null,
    null,
    null,
    null,
    null,
    null,
    null,
    null,
    null,
    null,
    null,
    null,
    null,
    null,
    null,
    null,
    null,
    null,
    null,
    null,
    null,
    null,
    null,
    null,
    null,
    null,
    null,
    null,
    null,
    null,
    null,
    null,
    null,
    null,
    null
  ],
  "shopPrices": [
    0,
    0,
    0,
    0,
    0,
    0,
    0,
    0,
    0,
    0,
    0,
    0,
    0,
    0,
    0,
    0,
    0,
    0,
    0,
    0,
    0,
    0,
    0,
    0,
    0,
    0,
    0,
    0,
    0,
    0,
    0,
    0,
    0,
    0,
    0,
    0
  ],
  "pouches": [
    0,
    0,
    0,
    0
  ]
}