{
  "bank": [
    {
      "id": 995,
      "amount": 176488
    },
    {
      "id": 1321,
      "amount": 1
    },
    {
      "id": 1327,
      "amount": 1
    },
    {
      "id": 892,
      "amount": 100
    },
    {
      "id": 884,
      "amount": 250
    },
    {
      "id": 861,
      "amount": 1
    },
    {
      "id": 841,
      "amount": 1
    },
    {
      "id": 1381,
      "amount": 1
    },
    {
      "id": 11230,
      "amount": 13
    },
    {
      "id": 561,
      "amount": 71
    },
    {
      "id": 1319,
      "amount": 1
    },
    {
      "id": 1621,
      "amount": 2
    },
    {
      "id": 1,
      "amount": 1
    },
    {
      "id": 3049,
      "amount": 4
    },
    {
      "id": 411,
      "amount": 1
    },
    {
      "id": 526,
      "amount": 2
    },
    {
      "id": 12695,
      "amount": 5
    },
    {
      "id": 7946,
      "amount": 61
    },
    {
      "id": 554,
      "amount": 375
    },
    {
      "id": 558,
      "amount": 100
    },
    {
      "id": 562,
      "amount": 100
    },
    {
      "id": 1333,
      "amount": 1
    },
    {
      "id": 442,
      "amount": 300
    },
    {
      "id": 2363,
      "amount": 1
    },
    {
      "id": 985,
      "amount": 8
    },
    {
      "id": 888,
      "amount": 3
    },
    {
      "id": 10976,
      "amount": 1
    },
    {
      "id": 5322,
      "amount": 2
    },
    {
      "id": 1623,
      "amount": 3
    },
    {
      "id": 555,
      "amount": 14
    },
    {
      "id": 1615,
      "amount": 1
    },
    {
      "id": 560,
      "amount": 2
    },
    {
      "id": 5323,
      "amount": 2
    },
    {
      "id": 2682,
      "amount": 2
    },
    {
      "id": 4757,
      "amount": 2
    },
    {
      "id": 1845,
      "amount": 1
    },
    {
      "id": 4087,
      "amount": 1
    },
    {
      "id": 1844,
      "amount": 1
    },
    {
      "id": 6914,
      "amount": 1
    },
    {
      "id": 1149,
      "amount": 4
    },
    {
      "id": 4714,
      "amount": 3
    },
    {
      "id": 1185,
      "amount": 1
    },
    {
      "id": 1247,
      "amount": 1
    },
    {
      "id": 4587,
      "amount": 1
    },
    {
      "id": 11936,
      "amount": 25
    },
    {
      "id": 2434,
      "amount": 25
    },
    {
      "id": 4728,
      "amount": 1
    },
    {
      "id": 5302,
      "amount": 40
    },
    {
      "id": 397,
      "amount": 1050
    },
    {
      "id": 3140,
      "amount": 3
    },
    {
      "id": 4718,
      "amount": 1
    },
    {
      "id": 4585,
      "amount": 2
    },
    {
      "id": 2440,
      "amount": 10
    },
    {
      "id": 7980,
      "amount": 1
    },
    {
      "id": 4712,
      "amount": 1
    },
    {
      "id": 4151,
      "amount": 1
    },
    {
      "id": 7981,
      "amount": 1
    },
    {
      "id": 12528,
      "amount": 1
    },
    {
      "id": 6685,
      "amount": 10
    },
    {
      "id": 1513,
      "amount": 50
    },
    {
      "id": 11898,
      "amount": 1
    },
    {
      "id": 3101,
      "amount": 1
    },
    {
      "id": 10499,
      "amount": 1
    },
    {
      "id": 6328,
      "amount": 2
    },
    {
      "id": 2722,
      "amount": 1
    },
    {
      "id": 1135,
      "amount": 1
    },
    {
      "id": 6326,
      "amount": 1
    },
    {
      "id": 12748,
      "amount": 2
    },
    {
      "id": 2803,
      "amount": 2
    },
    {
      "id": 3755,
      "amount": 1
    },
    {
      "id": 12608,
      "amount": 1
    },
    {
      "id": 6912,
      "amount": 3
    },
    {
      "id": 6330,
      "amount": 2
    },
    {
      "id": 1478,
      "amount": 1
    },
    {
      "id": 10828,
      "amount": 1
    },
    {
      "id": 3393,
      "amount": 1
    },
    {
      "id": 2802,
      "amount": 1
    },
    {
      "id": 12447,
      "amount": 1
    },
    {
      "id": 3749,
      "amount": 1
    },
    {
      "id": 12451,
      "amount": 1
    },
    {
      "id": 1093,
      "amount": 2
    },
    {
      "id": 1079,
      "amount": 2
    },
    {
      "id": 3389,
      "amount": 1
    },
    {
      "id": 12449,
      "amount": 1
    },
    {
      "id": 12610,
      "amount": 1
    },
    {
      "id": 3387,
      "amount": 1
    },
    {
      "id": 11724,
      "amount": 14
    },
    {
      "id": 11725,
      "amount": 1
    },
    null,
    null,
    null,
    null,
    null,
    null,
    null,
    null,
    null,
    null,
    null,
    null,
    null,
    null,
    null,
    null,
    null,
    null,
    null,
    null,
    null,
    null,
    null,
    null,
    null,
    null,
    null,
    null,
    null,
    null,
    null,
    null,
    null,
    null,
    null,
    null,
    null,
    null,
    null,
    null,
    null,
    null,
    null,
    null,
    null,
    null,
    null,
    null,
    null,
    null,
    null,
    null,
    null,
    null,
    null,
    null,
    null,
    null,
    null,
    null,
    null,
    null,
    null,
    null,
    null,
    null,
    null,
    null,
    null,
    null,
    null,
    null,
    null,
    null,
    null,
    null,
    null,
    null,
    null,
    null,
    null,
    null,
    null,
    null,
    null,
    null,
    null,
    null,
    null,
    null,
    null,
    null,
    null,
    null,
    null,
    null,
    null,
    null,
    null,
    null,
    null,
    null,
    null,
    null,
    null,
    null,
    null,
    null,
    null,
    null,
    null,
    null,
    null,
    null,
    null,
    null,
    null,
    null,
    null,
    null,
    null,
    null,
    null,
    null,
    null,
    null,
    null,
    null,
    null,
    null,
    null,
    null,
    null,
    null,
    null,
    null,
    null,
    null,
    null,
    null,
    null,
    null,
    null,
    null,
    null,
    null,
    null,
    null,
    null,
    null,
    null,
    null,
    null,
    null,
    null,
    null,
    null,
    null,
    null,
    null,
    null,
    null,
    null,
    null,
    null,
    null,
    null,
    null,
    null,
    null,
    null,
    null,
    null,
    null,
    null,
    null,
    null,
    null,
    null,
    null,
    null,
    null,
    null,
    null,
    null,
    null,
    null,
    null,
    null,
    null,
    null,
    null,
    null,
    null,
    null,
    null,
    null,
    null,
    null,
    null,
    null,
    null,
    null,
    null,
    null,
    null,
    null,
    null,
    null,
    null,
    null,
    null,
    null,
    null,
    null,
    null,
    null,
    null,
    null,
    null,
    null,
    null,
    null,
    null,
    null,
    null,
    null,
    null,
    null,
    null,
    null,
    null,
    null,
    null,
    null,
    null,
    null,
    null,
    null,
    null,
    null,
    null,
    null,
    null,
    null,
    null,
    null,
    null,
    null,
    null,
    null,
    null,
    null,
    null,
    null,
    null,
    null,
    null,
    null,
    null,
    null,
    null
  ],
  "tabAmounts": [
    88,
    0,
    0,
    0,
    0,
    0,
    0,
    0,
    0,
    0
  ],
  "inventory": [
    null,
    null,
    null,
    null,
    null,
    null,
    null,
    null,
    null,
    null,
    null,
    null,
    null,
    null,
    null,
    null,
    null,
    null,
    null,
    null,
    null,
    null,
    null,
    null,
    null,
    null,
    null,
    null
  ],
  "equipment": [
    {
      "id": 10828,
      "amount": 1
    },
    null,
    {
      "id": 1712,
      "amount": 1
    },
    {
      "id": 2724,
      "amount": 1
    },
    {
      "id": 3140,
      "amount": 1
    },
    {
      "id": 1540,
      "amount": 1
    },
    null,
    {
      "id": 4087,
      "amount": 1
    },
    null,
    null,
    {
      "id": 1846,
      "amount": 1
    },
    null,
    null,
    null
  ],
  "shopItems": [
    null,
    null,
    null,
    null,
    null,
    null,
    null,
    null,
    null,
    null,
    null,
    null,
    null,
    null,
    null,
    null,
    null,
    null,
    null,
    null,
    null,
    null,
    null,
    null,
    null,
    null,
    null,
    null,
    null,
    null,
    null,
    null,
    null,
    null,
    null,
    null
  ],
  "shopPrices": [
    0,
    0,
    0,
    0,
    0,
    0,
    0,
    0,
    0,
    0,
    0,
    0,
    0,
    0,
    0,
    0,
    0,
    0,
    0,
    0,
    0,
    0,
    0,
    0,
    0,
    0,
    0,
    0,
    0,
    0,
    0,
    0,
    0,
    0,
    0,
    0
  ],
  "pouches": [
    0,
    0,
    0,
    0
  ]
}