{
  "bank": [
    {
      "id": 6330,
      "amount": 2
    },
    {
      "id": 11849,
      "amount": 3
    },
    {
      "id": 7460,
      "amount": 2
    },
    {
      "id": 9143,
      "amount": 500
    },
    {
      "id": 7946,
      "amount": 39
    },
    {
      "id": 1731,
      "amount": 2
    },
    {
      "id": 1381,
      "amount": 1
    },
    {
      "id": 12695,
      "amount": 5
    },
    {
      "id": 1097,
      "amount": 1
    },
    {
      "id": 6328,
      "amount": 1
    },
    {
      "id": 1,
      "amount": 1
    },
    {
      "id": 861,
      "amount": 1
    },
    {
      "id": 3755,
      "amount": 3
    },
    {
      "id": 3385,
      "amount": 1
    },
    {
      "id": 1093,
      "amount": 2
    },
    {
      "id": 2682,
      "amount": 2
    },
    {
      "id": 9674,
      "amount": 1
    },
    {
      "id": 892,
      "amount": 80
    },
    {
      "id": 2487,
      "amount": 1
    },
    {
      "id": 2499,
      "amount": 1
    },
    {
      "id": 3024,
      "amount": 11
    },
    {
      "id": 1079,
      "amount": 1
    },
    {
      "id": 10952,
      "amount": 2
    },
    {
      "id": 3028,
      "amount": 2
    },
    {
      "id": 868,
      "amount": 393
    },
    {
      "id": 2493,
      "amount": 1
    },
    {
      "id": 1347,
      "amount": 1
    },
    {
      "id": 10290,
      "amount": 1
    },
    {
      "id": 7382,
      "amount": 2
    },
    {
      "id": 2890,
      "amount": 1
    },
    {
      "id": 229,
      "amount": 14
    },
    {
      "id": 1333,
      "amount": 1
    },
    {
      "id": 430,
      "amount": 2
    },
    {
      "id": 3843,
      "amount": 2
    },
    {
      "id": 4131,
      "amount": 1
    },
    {
      "id": 12453,
      "amount": 2
    },
    {
      "id": 7376,
      "amount": 1
    },
    {
      "id": 4097,
      "amount": 1
    },
    {
      "id": 10828,
      "amount": 1
    },
    {
      "id": 4089,
      "amount": 1
    },
    {
      "id": 3030,
      "amount": 4
    },
    {
      "id": 4151,
      "amount": 1
    },
    {
      "id": 3389,
      "amount": 1
    },
    {
      "id": 1712,
      "amount": 1
    },
    {
      "id": 558,
      "amount": 597
    },
    {
      "id": 4225,
      "amount": 1
    },
    {
      "id": 4587,
      "amount": 1
    },
    {
      "id": 3391,
      "amount": 1
    },
    {
      "id": 12447,
      "amount": 1
    },
    {
      "id": 3839,
      "amount": 1
    },
    {
      "id": 2444,
      "amount": 3
    },
    {
      "id": 3144,
      "amount": 253
    },
    {
      "id": 11230,
      "amount": 1
    },
    {
      "id": 9193,
      "amount": 50
    },
    {
      "id": 3749,
      "amount": 1
    },
    {
      "id": 563,
      "amount": 575
    },
    {
      "id": 8840,
      "amount": 1
    },
    {
      "id": 8839,
      "amount": 1
    },
    {
      "id": 169,
      "amount": 1
    },
    {
      "id": 173,
      "amount": 1
    },
    {
      "id": 1704,
      "amount": 1
    },
    {
      "id": 1710,
      "amount": 1
    },
    {
      "id": 1513,
      "amount": 200
    },
    {
      "id": 811,
      "amount": 150
    },
    {
      "id": 6908,
      "amount": 1
    },
    {
      "id": 1702,
      "amount": 1
    },
    {
      "id": 379,
      "amount": 1
    },
    {
      "id": 2803,
      "amount": 1
    },
    {
      "id": 1540,
      "amount": 1
    },
    {
      "id": 4214,
      "amount": 1
    },
    {
      "id": 9185,
      "amount": 1
    },
    {
      "id": 12934,
      "amount": 5580
    },
    {
      "id": 2503,
      "amount": 1
    },
    {
      "id": 830,
      "amount": 477
    },
    {
      "id": 4155,
      "amount": 1
    },
    {
      "id": 5974,
      "amount": 20
    },
    {
      "id": 12926,
      "amount": 1
    },
    {
      "id": 4736,
      "amount": 1
    },
    {
      "id": 1643,
      "amount": 1
    },
    {
      "id": 9340,
      "amount": 498
    },
    {
      "id": 171,
      "amount": 1
    },
    {
      "id": 3026,
      "amount": 1
    },
    {
      "id": 12938,
      "amount": 5
    },
    {
      "id": 4708,
      "amount": 1
    },
    null,
    null,
    null,
    null,
    null,
    null,
    null,
    null,
    null,
    null,
    null,
    null,
    null,
    null,
    null,
    null,
    null,
    null,
    null,
    null,
    null,
    null,
    null,
    null,
    null,
    null,
    null,
    null,
    null,
    null,
    null,
    null,
    null,
    null,
    null,
    null,
    null,
    null,
    null,
    null,
    null,
    null,
    null,
    null,
    null,
    null,
    null,
    null,
    null,
    null,
    null,
    null,
    null,
    null,
    null,
    null,
    null,
    null,
    null,
    null,
    null,
    null,
    null,
    null,
    null,
    null,
    null,
    null,
    null,
    null,
    null,
    null,
    null,
    null,
    null,
    null,
    null,
    null,
    null,
    null,
    null,
    null,
    null,
    null,
    null,
    null,
    null,
    null,
    null,
    null,
    null,
    null,
    null,
    null,
    null,
    null,
    null,
    null,
    null,
    null,
    null,
    null,
    null,
    null,
    null,
    null,
    null,
    null,
    null,
    null,
    null,
    null,
    null,
    null,
    null,
    null,
    null,
    null,
    null,
    null,
    null,
    null,
    null,
    null,
    null,
    null,
    null,
    null,
    null,
    null,
    null,
    null,
    null,
    null,
    null,
    null,
    null,
    null,
    null,
    null,
    null,
    null,
    null,
    null,
    null,
    null,
    null,
    null,
    null,
    null,
    null,
    null,
    null,
    null,
    null,
    null,
    null,
    null,
    null,
    null,
    null,
    null,
    null,
    null,
    null,
    null,
    null,
    null,
    null,
    null,
    null,
    null,
    null,
    null,
    null,
    null,
    null,
    null,
    null,
    null,
    null,
    null,
    null,
    null,
    null,
    null,
    null,
    null,
    null,
    null,
    null,
    null,
    null,
    null,
    null,
    null,
    null,
    null,
    null,
    null,
    null,
    null,
    null,
    null,
    null,
    null,
    null,
    null,
    null,
    null,
    null,
    null,
    null,
    null,
    null,
    null,
    null,
    null,
    null,
    null,
    null,
    null,
    null,
    null,
    null,
    null,
    null,
    null,
    null,
    null,
    null,
    null,
    null,
    null,
    null,
    null,
    null,
    null,
    null,
    null,
    null,
    null,
    null,
    null,
    null,
    null,
    null,
    null,
    null,
    null,
    null,
    null,
    null,
    null,
    null,
    null,
    null,
    null,
    null,
    null,
    null,
    null,
    null,
    null,
    null,
    null
  ],
  "tabAmounts": [
    84,
    0,
    0,
    0,
    0,
    0,
    0,
    0,
    0,
    0
  ],
  "inventory": [
    {
      "id": 11664,
      "amount": 1
    },
    {
      "id": 1249,
      "amount": 1
    },
    {
      "id": 10499,
      "amount": 1
    },
    {
      "id": 3105,
      "amount": 1
    },
    {
      "id": 562,
      "amount": 563
    },
    {
      "id": 554,
      "amount": 664
    },
    {
      "id": 12447,
      "amount": 1
    },
    {
      "id": 3385,
      "amount": 1
    },
    {
      "id": 3101,
      "amount": 1
    },
    {
      "id": 7534,
      "amount": 1
    },
    {
      "id": 995,
      "amount": 7217348
    },
    {
      "id": 6339,
      "amount": 1
    },
    {
      "id": 7003,
      "amount": 1
    },
    {
      "id": 5556,
      "amount": 1
    },
    {
      "id": 1381,
      "amount": 1
    },
    null,
    null,
    null,
    null,
    null,
    null,
    null,
    null,
    null,
    null,
    null,
    null,
    null
  ],
  "equipment": [
    {
      "id": 9758,
      "amount": 1
    },
    {
      "id": 9756,
      "amount": 1
    },
    {
      "id": 6585,
      "amount": 1
    },
    null,
    {
      "id": 12451,
      "amount": 1
    },
    {
      "id": 12610,
      "amount": 1
    },
    null,
    {
      "id": 2497,
      "amount": 1
    },
    null,
    {
      "id": 2491,
      "amount": 1
    },
    {
      "id": 6920,
      "amount": 1
    },
    null,
    null,
    null
  ],
  "shopItems": [
    null,
    null,
    null,
    null,
    null,
    null,
    null,
    null,
    null,
    null,
    null,
    null,
    null,
    null,
    null,
    null,
    null,
    null,
    null,
    null,
    null,
    null,
    null,
    null,
    null,
    null,
    null,
    null,
    null,
    null,
    null,
    null,
    null,
    null,
    null,
    null
  ],
  "shopPrices": [
    0,
    0,
    0,
    0,
    0,
    0,
    0,
    0,
    0,
    0,
    0,
    0,
    0,
    0,
    0,
    0,
    0,
    0,
    0,
    0,
    0,
    0,
    0,
    0,
    0,
    0,
    0,
    0,
    0,
    0,
    0,
    0,
    0,
    0,
    0,
    0
  ],
  "pouches": [
    0,
    0,
    0,
    0
  ]
}