{
  "bank": [
    {
      "id": 1351,
      "amount": 1
    },
    {
      "id": 590,
      "amount": 1
    },
    {
      "id": 303,
      "amount": 1
    },
    {
      "id": 315,
      "amount": 1
    },
    {
      "id": 1925,
      "amount": 1
    },
    {
      "id": 1931,
      "amount": 1
    },
    {
      "id": 2309,
      "amount": 1
    },
    {
      "id": 1265,
      "amount": 1
    },
    {
      "id": 1205,
      "amount": 1
    },
    {
      "id": 1277,
      "amount": 1
    },
    {
      "id": 1171,
      "amount": 1
    },
    {
      "id": 841,
      "amount": 1
    },
    {
      "id": 882,
      "amount": 25
    },
    {
      "id": 556,
      "amount": 25
    },
    {
      "id": 558,
      "amount": 15
    },
    {
      "id": 555,
      "amount": 6
    },
    {
      "id": 557,
      "amount": 4
    },
    {
      "id": 559,
      "amount": 2
    },
    {
      "id": 4325,
      "amount": 1
    },
    {
      "id": 1163,
      "amount": 2
    },
    {
      "id": 1147,
      "amount": 8
    },
    {
      "id": 2682,
      "amount": 3
    },
    {
      "id": 1127,
      "amount": 2
    },
    {
      "id": 600,
      "amount": 2
    },
    {
      "id": 560,
      "amount": 361
    },
    {
      "id": 3144,
      "amount": 123099
    },
    {
      "id": 7936,
      "amount": 38
    },
    {
      "id": 179,
      "amount": 1
    },
    {
      "id": 12612,
      "amount": 1
    },
    {
      "id": 12812,
      "amount": 1
    },
    {
      "id": 12810,
      "amount": 1
    },
    {
      "id": 12811,
      "amount": 1
    },
    {
      "id": 3101,
      "amount": 2
    },
    {
      "id": 1631,
      "amount": 3
    },
    {
      "id": 890,
      "amount": 35
    },
    {
      "id": 565,
      "amount": 35
    },
    {
      "id": 987,
      "amount": 8
    },
    {
      "id": 4587,
      "amount": 1
    },
    {
      "id": 869,
      "amount": 141
    },
    {
      "id": 12325,
      "amount": 1
    },
    {
      "id": 1432,
      "amount": 1
    },
    {
      "id": 7354,
      "amount": 2
    },
    {
      "id": 2615,
      "amount": 1
    },
    {
      "id": 3753,
      "amount": 1
    },
    {
      "id": 1247,
      "amount": 2
    },
    {
      "id": 1615,
      "amount": 1
    },
    {
      "id": 10952,
      "amount": 1
    },
    {
      "id": 229,
      "amount": 13
    },
    {
      "id": 1149,
      "amount": 1
    },
    {
      "id": 1113,
      "amount": 1
    },
    {
      "id": 1249,
      "amount": 1
    },
    {
      "id": 592,
      "amount": 1
    },
    {
      "id": 6324,
      "amount": 2
    },
    {
      "id": 3391,
      "amount": 1
    },
    {
      "id": 11126,
      "amount": 1
    },
    {
      "id": 12453,
      "amount": 2
    },
    {
      "id": 2803,
      "amount": 1
    },
    {
      "id": 12301,
      "amount": 1
    },
    {
      "id": 379,
      "amount": 1
    },
    {
      "id": 1317,
      "amount": 1
    },
    {
      "id": 4823,
      "amount": 5
    },
    {
      "id": 12295,
      "amount": 1
    },
    {
      "id": 1215,
      "amount": 1
    },
    {
      "id": 237,
      "amount": 6
    },
    {
      "id": 1319,
      "amount": 3
    },
    {
      "id": 1303,
      "amount": 1
    },
    {
      "id": 11818,
      "amount": 3
    },
    {
      "id": 1201,
      "amount": 2
    },
    {
      "id": 1093,
      "amount": 4
    },
    {
      "id": 1123,
      "amount": 1
    },
    {
      "id": 11820,
      "amount": 1
    },
    {
      "id": 11838,
      "amount": 3
    },
    {
      "id": 11822,
      "amount": 2
    },
    {
      "id": 7218,
      "amount": 1
    },
    {
      "id": 2444,
      "amount": 1
    },
    {
      "id": 3028,
      "amount": 2
    },
    {
      "id": 3026,
      "amount": 2
    },
    {
      "id": 12934,
      "amount": 24248
    },
    {
      "id": 892,
      "amount": 150
    },
    {
      "id": 563,
      "amount": 1772
    },
    {
      "id": 1779,
      "amount": 825
    },
    {
      "id": 1513,
      "amount": 200
    },
    {
      "id": 6289,
      "amount": 245
    },
    {
      "id": 5288,
      "amount": 2
    },
    {
      "id": 8782,
      "amount": 50
    },
    {
      "id": 1462,
      "amount": 2
    },
    {
      "id": 9193,
      "amount": 101
    },
    {
      "id": 1623,
      "amount": 7
    },
    {
      "id": 536,
      "amount": 240
    },
    {
      "id": 2723,
      "amount": 1
    },
    {
      "id": 3387,
      "amount": 1
    },
    {
      "id": 12451,
      "amount": 1
    },
    {
      "id": 7458,
      "amount": 1
    },
    {
      "id": 12938,
      "amount": 81
    },
    {
      "id": 12932,
      "amount": 1
    },
    {
      "id": 3024,
      "amount": 3
    },
    {
      "id": 2361,
      "amount": 25
    },
    {
      "id": 4207,
      "amount": 1
    },
    {
      "id": 9185,
      "amount": 1
    },
    {
      "id": 430,
      "amount": 1
    },
    {
      "id": 6729,
      "amount": 22
    },
    {
      "id": 1397,
      "amount": 2
    },
    {
      "id": 5106,
      "amount": 1
    },
    {
      "id": 1399,
      "amount": 1
    },
    {
      "id": 1395,
      "amount": 1
    },
    {
      "id": 995,
      "amount": 12524825
    },
    {
      "id": 1185,
      "amount": 1
    },
    {
      "id": 7360,
      "amount": 1
    },
    {
      "id": 861,
      "amount": 1
    },
    {
      "id": 2499,
      "amount": 1
    },
    {
      "id": 6139,
      "amount": 1
    },
    {
      "id": 1347,
      "amount": 1
    },
    {
      "id": 2617,
      "amount": 1
    },
    {
      "id": 2641,
      "amount": 1
    },
    {
      "id": 1333,
      "amount": 1
    },
    {
      "id": 2655,
      "amount": 1
    },
    {
      "id": 12532,
      "amount": 1
    },
    {
      "id": 2663,
      "amount": 1
    },
    {
      "id": 3478,
      "amount": 1
    },
    {
      "id": 3755,
      "amount": 1
    },
    null,
    null,
    null,
    null,
    null,
    null,
    null,
    null,
    null,
    null,
    null,
    null,
    null,
    null,
    null,
    null,
    null,
    null,
    null,
    null,
    null,
    null,
    null,
    null,
    null,
    null,
    null,
    null,
    null,
    null,
    null,
    null,
    null,
    null,
    null,
    null,
    null,
    null,
    null,
    null,
    null,
    null,
    null,
    null,
    null,
    null,
    null,
    null,
    null,
    null,
    null,
    null,
    null,
    null,
    null,
    null,
    null,
    null,
    null,
    null,
    null,
    null,
    null,
    null,
    null,
    null,
    null,
    null,
    null,
    null,
    null,
    null,
    null,
    null,
    null,
    null,
    null,
    null,
    null,
    null,
    null,
    null,
    null,
    null,
    null,
    null,
    null,
    null,
    null,
    null,
    null,
    null,
    null,
    null,
    null,
    null,
    null,
    null,
    null,
    null,
    null,
    null,
    null,
    null,
    null,
    null,
    null,
    null,
    null,
    null,
    null,
    null,
    null,
    null,
    null,
    null,
    null,
    null,
    null,
    null,
    null,
    null,
    null,
    null,
    null,
    null,
    null,
    null,
    null,
    null,
    null,
    null,
    null,
    null,
    null,
    null,
    null,
    null,
    null,
    null,
    null,
    null,
    null,
    null,
    null,
    null,
    null,
    null,
    null,
    null,
    null,
    null,
    null,
    null,
    null,
    null,
    null,
    null,
    null,
    null,
    null,
    null,
    null,
    null,
    null,
    null,
    null,
    null,
    null,
    null,
    null,
    null,
    null,
    null,
    null,
    null,
    null,
    null,
    null,
    null,
    null,
    null,
    null,
    null,
    null,
    null,
    null,
    null,
    null,
    null,
    null,
    null,
    null,
    null,
    null,
    null,
    null,
    null,
    null,
    null,
    null,
    null,
    null,
    null,
    null,
    null,
    null,
    null,
    null,
    null,
    null,
    null,
    null,
    null,
    null,
    null,
    null,
    null,
    null,
    null,
    null,
    null,
    null,
    null,
    null,
    null,
    null,
    null,
    null,
    null
  ],
  "tabAmounts": [
    120,
    0,
    0,
    0,
    0,
    0,
    0,
    0,
    0,
    0
  ],
  "inventory": [
    null,
    null,
    null,
    null,
    {
      "id": 10382,
      "amount": 1
    },
    null,
    null,
    null,
    null,
    null,
    null,
    null,
    null,
    {
      "id": 1050,
      "amount": 1
    },
    null,
    null,
    null,
    null,
    null,
    null,
    null,
    null,
    null,
    null,
    null,
    null,
    null,
    null
  ],
  "equipment": [
    {
      "id": 1042,
      "amount": 1
    },
    {
      "id": 10499,
      "amount": 1
    },
    null,
    {
      "id": 4236,
      "amount": 1
    },
    {
      "id": 7376,
      "amount": 1
    },
    null,
    null,
    {
      "id": 2493,
      "amount": 1
    },
    null,
    {
      "id": 7460,
      "amount": 1
    },
    {
      "id": 3105,
      "amount": 1
    },
    null,
    null,
    null
  ],
  "shopItems": [
    null,
    null,
    null,
    null,
    null,
    null,
    null,
    null,
    null,
    null,
    null,
    null,
    null,
    null,
    null,
    null,
    null,
    null,
    null,
    null,
    null,
    null,
    null,
    null,
    null,
    null,
    null,
    null,
    null,
    null,
    null,
    null,
    null,
    null,
    null,
    null
  ],
  "shopPrices": [
    0,
    0,
    0,
    0,
    0,
    0,
    0,
    0,
    0,
    0,
    0,
    0,
    0,
    0,
    0,
    0,
    0,
    0,
    0,
    0,
    0,
    0,
    0,
    0,
    0,
    0,
    0,
    0,
    0,
    0,
    0,
    0,
    0,
    0,
    0,
    0
  ],
  "pouches": [
    0,
    0,
    0,
    0
  ]
}