{
  "bank": [
    {
      "id": 1333,
      "amount": 1
    },
    {
      "id": 4587,
      "amount": 1
    },
    {
      "id": 1381,
      "amount": 1
    },
    {
      "id": 554,
      "amount": 300
    },
    {
      "id": 558,
      "amount": 100
    },
    {
      "id": 562,
      "amount": 100
    },
    {
      "id": 7946,
      "amount": 84
    },
    {
      "id": 12695,
      "amount": 5
    },
    {
      "id": 1265,
      "amount": 1
    },
    {
      "id": 1712,
      "amount": 2
    },
    {
      "id": 841,
      "amount": 1
    },
    {
      "id": 1844,
      "amount": 1
    },
    {
      "id": 1845,
      "amount": 1
    },
    {
      "id": 1846,
      "amount": 1
    },
    {
      "id": 884,
      "amount": 213
    },
    {
      "id": 995,
      "amount": 1
    },
    {
      "id": 2434,
      "amount": 112
    },
    {
      "id": 2446,
      "amount": 9
    },
    {
      "id": 143,
      "amount": 1
    },
    {
      "id": 385,
      "amount": 496
    },
    {
      "id": 2550,
      "amount": 3
    },
    {
      "id": 177,
      "amount": 1
    },
    {
      "id": 139,
      "amount": 1
    },
    {
      "id": 19484,
      "amount": 1
    },
    {
      "id": 3749,
      "amount": 1
    },
    {
      "id": 10499,
      "amount": 1
    },
    {
      "id": 6585,
      "amount": 1
    },
    {
      "id": 861,
      "amount": 1
    },
    {
      "id": 2503,
      "amount": 1
    },
    {
      "id": 2497,
      "amount": 1
    },
    {
      "id": 2491,
      "amount": 1
    },
    {
      "id": 6328,
      "amount": 1
    },
    {
      "id": 892,
      "amount": 1059
    },
    {
      "id": 10828,
      "amount": 1
    },
    {
      "id": 12748,
      "amount": 1
    },
    {
      "id": 12449,
      "amount": 2
    },
    {
      "id": 12445,
      "amount": 2
    },
    {
      "id": 3843,
      "amount": 1
    },
    {
      "id": 1113,
      "amount": 4
    },
    {
      "id": 1163,
      "amount": 9
    },
    {
      "id": 9185,
      "amount": 2
    },
    {
      "id": 1135,
      "amount": 3
    },
    {
      "id": 3393,
      "amount": 2
    },
    {
      "id": 1099,
      "amount": 1
    },
    {
      "id": 1147,
      "amount": 5
    },
    {
      "id": 379,
      "amount": 14
    },
    {
      "id": 2368,
      "amount": 1
    },
    {
      "id": 6912,
      "amount": 1
    },
    {
      "id": 12612,
      "amount": 1
    },
    {
      "id": 1731,
      "amount": 1
    },
    {
      "id": 3841,
      "amount": 1
    },
    {
      "id": 6322,
      "amount": 1
    },
    {
      "id": 12451,
      "amount": 1
    },
    {
      "id": 3839,
      "amount": 2
    },
    {
      "id": 6324,
      "amount": 1
    },
    {
      "id": 430,
      "amount": 1
    },
    {
      "id": 11849,
      "amount": 12
    },
    null,
    null,
    null,
    null,
    null,
    null,
    null,
    null,
    null,
    null,
    null,
    null,
    null,
    null,
    null,
    null,
    null,
    null,
    null,
    null,
    null,
    null,
    null,
    null,
    null,
    null,
    null,
    null,
    null,
    null,
    null,
    null,
    null,
    null,
    null,
    null,
    null,
    null,
    null,
    null,
    null,
    null,
    null,
    null,
    null,
    null,
    null,
    null,
    null,
    null,
    null,
    null,
    null,
    null,
    null,
    null,
    null,
    null,
    null,
    null,
    null,
    null,
    null,
    null,
    null,
    null,
    null,
    null,
    null,
    null,
    null,
    null,
    null,
    null,
    null,
    null,
    null,
    null,
    null,
    null,
    null,
    null,
    null,
    null,
    null,
    null,
    null,
    null,
    null,
    null,
    null,
    null,
    null,
    null,
    null,
    null,
    null,
    null,
    null,
    null,
    null,
    null,
    null,
    null,
    null,
    null,
    null,
    null,
    null,
    null,
    null,
    null,
    null,
    null,
    null,
    null,
    null,
    null,
    null,
    null,
    null,
    null,
    null,
    null,
    null,
    null,
    null,
    null,
    null,
    null,
    null,
    null,
    null,
    null,
    null,
    null,
    null,
    null,
    null,
    null,
    null,
    null,
    null,
    null,
    null,
    null,
    null,
    null,
    null,
    null,
    null,
    null,
    null,
    null,
    null,
    null,
    null,
    null,
    null,
    null,
    null,
    null,
    null,
    null,
    null,
    null,
    null,
    null,
    null,
    null,
    null,
    null,
    null,
    null,
    null,
    null,
    null,
    null,
    null,
    null,
    null,
    null,
    null,
    null,
    null,
    null,
    null,
    null,
    null,
    null,
    null,
    null,
    null,
    null,
    null,
    null,
    null,
    null,
    null,
    null,
    null,
    null,
    null,
    null,
    null,
    null,
    null,
    null,
    null,
    null,
    null,
    null,
    null,
    null,
    null,
    null,
    null,
    null,
    null,
    null,
    null,
    null,
    null,
    null,
    null,
    null,
    null,
    null,
    null,
    null,
    null,
    null,
    null,
    null,
    null,
    null,
    null,
    null,
    null,
    null,
    null,
    null,
    null,
    null,
    null,
    null,
    null,
    null,
    null,
    null,
    null,
    null,
    null,
    null,
    null,
    null,
    null,
    null,
    null,
    null,
    null,
    null,
    null,
    null,
    null,
    null,
    null,
    null,
    null,
    null,
    null,
    null,
    null,
    null,
    null,
    null,
    null,
    null,
    null,
    null,
    null,
    null,
    null,
    null,
    null,
    null,
    null,
    null,
    null,
    null,
    null,
    null,
    null
  ],
  "tabAmounts": [
    34,
    22,
    1,
    0,
    0,
    0,
    0,
    0,
    0,
    0
  ],
  "inventory": [
    {
      "id": 2681,
      "amount": 1
    },
    {
      "id": 2682,
      "amount": 1
    },
    {
      "id": 995,
      "amount": 2851848
    },
    {
      "id": 952,
      "amount": 1
    },
    {
      "id": 1597,
      "amount": 1
    },
    {
      "id": 1592,
      "amount": 1
    },
    {
      "id": 1595,
      "amount": 1
    },
    {
      "id": 2347,
      "amount": 1
    },
    {
      "id": 436,
      "amount": 1
    },
    {
      "id": 1275,
      "amount": 1
    },
    null,
    null,
    null,
    null,
    null,
    null,
    null,
    null,
    null,
    null,
    null,
    null,
    null,
    null,
    null,
    null,
    null,
    null
  ],
  "equipment": [
    null,
    null,
    null,
    {
      "id": 1267,
      "amount": 1
    },
    null,
    null,
    null,
    null,
    null,
    null,
    null,
    null,
    null,
    null
  ],
  "shopItems": [
    null,
    null,
    null,
    null,
    null,
    null,
    null,
    null,
    null,
    null,
    null,
    null,
    null,
    null,
    null,
    null,
    null,
    null,
    null,
    null,
    null,
    null,
    null,
    null,
    null,
    null,
    null,
    null,
    null,
    null,
    null,
    null,
    null,
    null,
    null,
    null
  ],
  "shopPrices": [
    0,
    0,
    0,
    0,
    0,
    0,
    0,
    0,
    0,
    0,
    0,
    0,
    0,
    0,
    0,
    0,
    0,
    0,
    0,
    0,
    0,
    0,
    0,
    0,
    0,
    0,
    0,
    0,
    0,
    0,
    0,
    0,
    0,
    0,
    0,
    0
  ],
  "pouches": [
    0,
    0,
    0,
    0
  ]
}