{
  "bank": [
    {
      "id": 882,
      "amount": 194
    },
    {
      "id": 1321,
      "amount": 1
    },
    {
      "id": 841,
      "amount": 1
    },
    {
      "id": 861,
      "amount": 2
    },
    {
      "id": 884,
      "amount": 350
    },
    {
      "id": 892,
      "amount": 500
    },
    {
      "id": 1381,
      "amount": 1
    },
    {
      "id": 12695,
      "amount": 5
    },
    {
      "id": 1,
      "amount": 1
    },
    {
      "id": 1846,
      "amount": 1
    },
    {
      "id": 9674,
      "amount": 1
    },
    {
      "id": 9676,
      "amount": 1
    },
    {
      "id": 1844,
      "amount": 1
    },
    {
      "id": 1845,
      "amount": 1
    },
    {
      "id": 2655,
      "amount": 1
    },
    {
      "id": 563,
      "amount": 2149
    },
    {
      "id": 561,
      "amount": 1193
    },
    {
      "id": 2647,
      "amount": 1
    },
    {
      "id": 2653,
      "amount": 1
    },
    {
      "id": 2657,
      "amount": 1
    },
    {
      "id": 385,
      "amount": 874
    },
    {
      "id": 2440,
      "amount": 41
    },
    {
      "id": 2436,
      "amount": 41
    },
    {
      "id": 6685,
      "amount": 96
    },
    {
      "id": 3024,
      "amount": 172
    },
    {
      "id": 2452,
      "amount": 9
    },
    {
      "id": 157,
      "amount": 1
    },
    {
      "id": 145,
      "amount": 1
    },
    {
      "id": 6687,
      "amount": 2
    },
    {
      "id": 1215,
      "amount": 2
    },
    {
      "id": 12612,
      "amount": 2
    },
    {
      "id": 3755,
      "amount": 1
    },
    {
      "id": 12455,
      "amount": 4
    },
    {
      "id": 6328,
      "amount": 2
    },
    {
      "id": 3028,
      "amount": 14
    },
    {
      "id": 7936,
      "amount": 3015
    },
    {
      "id": 2442,
      "amount": 30
    },
    {
      "id": 12871,
      "amount": 1
    },
    {
      "id": 12865,
      "amount": 1
    },
    {
      "id": 12869,
      "amount": 1
    },
    {
      "id": 853,
      "amount": 1
    },
    {
      "id": 3204,
      "amount": 2
    },
    {
      "id": 9752,
      "amount": 1
    },
    {
      "id": 3105,
      "amount": 3
    },
    {
      "id": 1099,
      "amount": 2
    },
    {
      "id": 1093,
      "amount": 2
    },
    {
      "id": 3393,
      "amount": 1
    },
    {
      "id": 12451,
      "amount": 3
    },
    {
      "id": 430,
      "amount": 3
    },
    {
      "id": 12299,
      "amount": 1
    },
    {
      "id": 3753,
      "amount": 2
    },
    {
      "id": 177,
      "amount": 2
    },
    {
      "id": 3839,
      "amount": 2
    },
    {
      "id": 229,
      "amount": 75
    },
    {
      "id": 1249,
      "amount": 2
    },
    {
      "id": 379,
      "amount": 2
    },
    {
      "id": 12303,
      "amount": 1
    },
    {
      "id": 1731,
      "amount": 2
    },
    {
      "id": 6322,
      "amount": 2
    },
    {
      "id": 556,
      "amount": 1162
    },
    {
      "id": 4087,
      "amount": 1
    },
    {
      "id": 6330,
      "amount": 2
    },
    {
      "id": 558,
      "amount": 1596
    },
    {
      "id": 9750,
      "amount": 1
    },
    {
      "id": 554,
      "amount": 1756
    },
    {
      "id": 562,
      "amount": 536
    },
    {
      "id": 557,
      "amount": 1420
    },
    {
      "id": 555,
      "amount": 774
    },
    {
      "id": 6326,
      "amount": 3
    },
    {
      "id": 3030,
      "amount": 16
    },
    {
      "id": 12445,
      "amount": 1
    },
    {
      "id": 6529,
      "amount": 16064
    },
    {
      "id": 559,
      "amount": 1000
    },
    {
      "id": 564,
      "amount": 1027
    },
    {
      "id": 9075,
      "amount": 1000
    },
    {
      "id": 2890,
      "amount": 2
    },
    {
      "id": 7946,
      "amount": 1
    },
    {
      "id": 7460,
      "amount": 2
    },
    {
      "id": 207,
      "amount": 25
    },
    {
      "id": 9438,
      "amount": 1
    },
    {
      "id": 12375,
      "amount": 2
    },
    {
      "id": 1710,
      "amount": 2
    },
    {
      "id": 2456,
      "amount": 1
    },
    {
      "id": 4587,
      "amount": 4
    },
    {
      "id": 4131,
      "amount": 2
    },
    {
      "id": 3841,
      "amount": 2
    },
    {
      "id": 3749,
      "amount": 3
    },
    {
      "id": 453,
      "amount": 532
    },
    {
      "id": 11812,
      "amount": 1
    },
    {
      "id": 161,
      "amount": 3
    },
    {
      "id": 149,
      "amount": 3
    },
    {
      "id": 181,
      "amount": 1
    },
    {
      "id": 6691,
      "amount": 1
    },
    {
      "id": 10828,
      "amount": 2
    },
    {
      "id": 12934,
      "amount": 37926
    },
    {
      "id": 9193,
      "amount": 74
    },
    {
      "id": 3140,
      "amount": 1
    },
    {
      "id": 1513,
      "amount": 876
    },
    {
      "id": 10499,
      "amount": 2
    },
    {
      "id": 1478,
      "amount": 1
    },
    {
      "id": 4207,
      "amount": 1
    },
    {
      "id": 12449,
      "amount": 1
    },
    {
      "id": 12447,
      "amount": 1
    },
    {
      "id": 383,
      "amount": 100
    },
    {
      "id": 1615,
      "amount": 2
    },
    {
      "id": 451,
      "amount": 10
    },
    {
      "id": 11230,
      "amount": 8856
    },
    {
      "id": 1631,
      "amount": 2
    },
    {
      "id": 1745,
      "amount": 27
    },
    {
      "id": 3101,
      "amount": 1
    },
    {
      "id": 1163,
      "amount": 1
    },
    {
      "id": 1127,
      "amount": 1
    },
    {
      "id": 1079,
      "amount": 1
    },
    {
      "id": 2361,
      "amount": 7
    },
    {
      "id": 9244,
      "amount": 42
    },
    {
      "id": 10548,
      "amount": 1
    },
    {
      "id": 2499,
      "amount": 1
    },
    {
      "id": 2487,
      "amount": 1
    },
    {
      "id": 1147,
      "amount": 1
    },
    {
      "id": 1289,
      "amount": 1
    },
    {
      "id": 2491,
      "amount": 1
    },
    {
      "id": 7376,
      "amount": 1
    },
    {
      "id": 12512,
      "amount": 1
    },
    {
      "id": 12524,
      "amount": 1
    },
    {
      "id": 1347,
      "amount": 1
    },
    {
      "id": 2493,
      "amount": 1
    },
    {
      "id": 1303,
      "amount": 1
    },
    {
      "id": 1201,
      "amount": 1
    },
    {
      "id": 952,
      "amount": 1
    },
    {
      "id": 7346,
      "amount": 1
    },
    {
      "id": 1199,
      "amount": 1
    },
    {
      "id": 857,
      "amount": 1
    },
    {
      "id": 4099,
      "amount": 1
    },
    {
      "id": 566,
      "amount": 1136
    },
    {
      "id": 565,
      "amount": 65
    },
    {
      "id": 560,
      "amount": 254
    },
    {
      "id": 10952,
      "amount": 1
    },
    {
      "id": 12002,
      "amount": 1
    },
    {
      "id": 4675,
      "amount": 1
    },
    {
      "id": 4101,
      "amount": 1
    },
    {
      "id": 6889,
      "amount": 1
    },
    {
      "id": 4103,
      "amount": 1
    },
    {
      "id": 6920,
      "amount": 1
    },
    {
      "id": 1113,
      "amount": 2
    },
    {
      "id": 1135,
      "amount": 1
    },
    {
      "id": 3026,
      "amount": 3
    },
    {
      "id": 2446,
      "amount": 294
    },
    {
      "id": 6585,
      "amount": 3
    },
    {
      "id": 2572,
      "amount": 1
    },
    {
      "id": 4714,
      "amount": 1
    },
    {
      "id": 4712,
      "amount": 1
    },
    {
      "id": 4708,
      "amount": 1
    },
    {
      "id": 6573,
      "amount": 3
    },
    {
      "id": 3485,
      "amount": 1
    },
    {
      "id": 3486,
      "amount": 1
    },
    {
      "id": 6731,
      "amount": 1
    },
    {
      "id": 11840,
      "amount": 1
    },
    {
      "id": 11836,
      "amount": 1
    },
    {
      "id": 4720,
      "amount": 1
    },
    {
      "id": 4151,
      "amount": 1
    },
    {
      "id": 1753,
      "amount": 100
    },
    {
      "id": 4722,
      "amount": 1
    },
    {
      "id": 147,
      "amount": 3
    },
    {
      "id": 159,
      "amount": 3
    },
    {
      "id": 11283,
      "amount": 1
    },
    {
      "id": 9144,
      "amount": 183
    },
    {
      "id": 1391,
      "amount": 10
    },
    {
      "id": 1702,
      "amount": 2
    },
    {
      "id": 1779,
      "amount": 338
    },
    {
      "id": 6289,
      "amount": 105
    },
    {
      "id": 3122,
      "amount": 2
    },
    {
      "id": 3144,
      "amount": 500
    },
    {
      "id": 2444,
      "amount": 495
    },
    {
      "id": 171,
      "amount": 2
    },
    {
      "id": 173,
      "amount": 1
    },
    {
      "id": 985,
      "amount": 1
    },
    {
      "id": 8782,
      "amount": 50
    },
    {
      "id": 5316,
      "amount": 1
    },
    {
      "id": 169,
      "amount": 2
    },
    {
      "id": 3843,
      "amount": 1
    },
    {
      "id": 5302,
      "amount": 10
    },
    {
      "id": 8007,
      "amount": 50
    },
    {
      "id": 11849,
      "amount": 8
    },
    {
      "id": 12938,
      "amount": 20
    },
    {
      "id": 995,
      "amount": 204829002
    },
    {
      "id": 12610,
      "amount": 1
    },
    {
      "id": 1540,
      "amount": 1
    },
    {
      "id": 6689,
      "amount": 2
    },
    {
      "id": 9185,
      "amount": 1
    },
    {
      "id": 2503,
      "amount": 1
    },
    {
      "id": 4751,
      "amount": 1
    },
    {
      "id": 2550,
      "amount": 1
    },
    {
      "id": 11664,
      "amount": 1
    },
    {
      "id": 19481,
      "amount": 1
    },
    {
      "id": 8839,
      "amount": 1
    },
    {
      "id": 8840,
      "amount": 1
    },
    {
      "id": 8842,
      "amount": 1
    },
    {
      "id": 830,
      "amount": 875
    },
    {
      "id": 2723,
      "amount": 1
    },
    null,
    null,
    null,
    null,
    null,
    null,
    null,
    null,
    null,
    null,
    null,
    null,
    null,
    null,
    null,
    null,
    null,
    null,
    null,
    null,
    null,
    null,
    null,
    null,
    null,
    null,
    null,
    null,
    null,
    null,
    null,
    null,
    null,
    null,
    null,
    null,
    null,
    null,
    null,
    null,
    null,
    null,
    null,
    null,
    null,
    null,
    null,
    null,
    null,
    null,
    null,
    null,
    null,
    null,
    null,
    null,
    null,
    null,
    null,
    null,
    null,
    null,
    null,
    null,
    null,
    null,
    null,
    null,
    null,
    null,
    null,
    null,
    null,
    null,
    null,
    null,
    null,
    null,
    null,
    null,
    null,
    null,
    null,
    null,
    null,
    null,
    null,
    null,
    null,
    null,
    null,
    null,
    null,
    null,
    null,
    null,
    null,
    null,
    null,
    null,
    null,
    null,
    null,
    null,
    null,
    null,
    null,
    null,
    null,
    null,
    null,
    null,
    null,
    null,
    null,
    null,
    null,
    null,
    null,
    null,
    null,
    null,
    null,
    null,
    null,
    null,
    null,
    null,
    null,
    null,
    null,
    null,
    null,
    null,
    null,
    null,
    null,
    null,
    null,
    null,
    null,
    null,
    null,
    null,
    null,
    null,
    null,
    null,
    null,
    null,
    null
  ],
  "tabAmounts": [
    199,
    0,
    0,
    0,
    0,
    0,
    0,
    0,
    0,
    0
  ],
  "inventory": [
    {
      "id": 2440,
      "amount": 1
    },
    {
      "id": 2436,
      "amount": 1
    },
    {
      "id": 6685,
      "amount": 1
    },
    {
      "id": 3024,
      "amount": 1
    },
    {
      "id": 3024,
      "amount": 1
    },
    {
      "id": 3024,
      "amount": 1
    },
    {
      "id": 3026,
      "amount": 1
    },
    {
      "id": 13092,
      "amount": 1
    },
    {
      "id": 385,
      "amount": 1
    },
    {
      "id": 385,
      "amount": 1
    },
    {
      "id": 385,
      "amount": 1
    },
    {
      "id": 385,
      "amount": 1
    },
    {
      "id": 385,
      "amount": 1
    },
    {
      "id": 385,
      "amount": 1
    },
    {
      "id": 385,
      "amount": 1
    },
    {
      "id": 385,
      "amount": 1
    },
    {
      "id": 385,
      "amount": 1
    },
    {
      "id": 385,
      "amount": 1
    },
    {
      "id": 385,
      "amount": 1
    },
    {
      "id": 385,
      "amount": 1
    },
    {
      "id": 385,
      "amount": 1
    },
    {
      "id": 385,
      "amount": 1
    },
    {
      "id": 385,
      "amount": 1
    },
    {
      "id": 385,
      "amount": 1
    },
    {
      "id": 385,
      "amount": 1
    },
    {
      "id": 385,
      "amount": 1
    },
    {
      "id": 385,
      "amount": 1
    },
    {
      "id": 385,
      "amount": 1
    }
  ],
  "equipment": [
    {
      "id": 19649,
      "amount": 1
    },
    {
      "id": 6570,
      "amount": 1
    },
    {
      "id": 19553,
      "amount": 1
    },
    {
      "id": 13263,
      "amount": 1
    },
    {
      "id": 10551,
      "amount": 1
    },
    null,
    null,
    {
      "id": 11834,
      "amount": 1
    },
    null,
    {
      "id": 7462,
      "amount": 1
    },
    {
      "id": 11840,
      "amount": 1
    },
    null,
    {
      "id": 2572,
      "amount": 1
    },
    {
      "id": 9244,
      "amount": 3
    }
  ],
  "shopItems": [
    null,
    null,
    null,
    null,
    null,
    null,
    null,
    null,
    null,
    null,
    null,
    null,
    null,
    null,
    null,
    null,
    null,
    null,
    null,
    null,
    null,
    null,
    null,
    null,
    null,
    null,
    null,
    null,
    null,
    null,
    null,
    null,
    null,
    null,
    null,
    null
  ],
  "shopPrices": [
    0,
    0,
    0,
    0,
    0,
    0,
    0,
    0,
    0,
    0,
    0,
    0,
    0,
    0,
    0,
    0,
    0,
    0,
    0,
    0,
    0,
    0,
    0,
    0,
    0,
    0,
    0,
    0,
    0,
    0,
    0,
    0,
    0,
    0,
    0,
    0
  ],
  "pouches": [
    0,
    0,
    0,
    0
  ]
}