{
  "bank": [
    {
      "id": 1454,
      "amount": 1
    },
    {
      "id": 1931,
      "amount": 1
    },
    {
      "id": 1925,
      "amount": 1
    },
    {
      "id": 52,
      "amount": 15
    },
    {
      "id": 50,
      "amount": 3
    },
    {
      "id": 48,
      "amount": 23
    },
    {
      "id": 1511,
      "amount": 3
    },
    {
      "id": 315,
      "amount": 22
    },
    {
      "id": 307,
      "amount": 2
    },
    {
      "id": 995,
      "amount": 33315
    },
    {
      "id": 1277,
      "amount": 1
    },
    {
      "id": 1205,
      "amount": 1
    },
    {
      "id": 1171,
      "amount": 1
    },
    {
      "id": 1327,
      "amount": 2
    },
    {
      "id": 12810,
      "amount": 1
    },
    {
      "id": 12811,
      "amount": 1
    },
    {
      "id": 12812,
      "amount": 1
    },
    {
      "id": 1540,
      "amount": 1
    },
    {
      "id": 1373,
      "amount": 1
    },
    {
      "id": 556,
      "amount": 25
    },
    {
      "id": 558,
      "amount": 15
    },
    {
      "id": 555,
      "amount": 6
    },
    {
      "id": 559,
      "amount": 2
    },
    {
      "id": 557,
      "amount": 4
    },
    {
      "id": 563,
      "amount": 2
    },
    {
      "id": 562,
      "amount": 5
    },
    {
      "id": 882,
      "amount": 72
    },
    {
      "id": 886,
      "amount": 150
    },
    {
      "id": 841,
      "amount": 1
    },
    {
      "id": 305,
      "amount": 2
    },
    {
      "id": 303,
      "amount": 2
    },
    {
      "id": 309,
      "amount": 1
    },
    {
      "id": 311,
      "amount": 2
    },
    {
      "id": 379,
      "amount": 1
    },
    {
      "id": 319,
      "amount": 12
    },
    {
      "id": 261,
      "amount": 2
    },
    {
      "id": 952,
      "amount": 2
    },
    {
      "id": 251,
      "amount": 2
    },
    {
      "id": 255,
      "amount": 1
    },
    {
      "id": 115,
      "amount": 1
    },
    {
      "id": 5293,
      "amount": 1
    },
    {
      "id": 532,
      "amount": 1
    },
    {
      "id": 249,
      "amount": 1
    },
    {
      "id": 267,
      "amount": 1
    },
    {
      "id": 590,
      "amount": 1
    },
    {
      "id": 946,
      "amount": 2
    },
    {
      "id": 1351,
      "amount": 1
    },
    {
      "id": 1265,
      "amount": 1
    },
    {
      "id": 1267,
      "amount": 1
    },
    {
      "id": 1755,
      "amount": 2
    },
    {
      "id": 2347,
      "amount": 2
    },
    {
      "id": 1615,
      "amount": 1
    },
    {
      "id": 1623,
      "amount": 7
    },
    {
      "id": 2353,
      "amount": 2
    },
    {
      "id": 1595,
      "amount": 2
    },
    {
      "id": 1592,
      "amount": 2
    },
    {
      "id": 1735,
      "amount": 2
    },
    {
      "id": 10010,
      "amount": 2
    },
    null,
    null,
    null,
    null,
    null,
    null,
    null,
    null,
    null,
    null,
    null,
    null,
    null,
    null,
    null,
    null,
    null,
    null,
    null,
    null,
    null,
    null,
    null,
    null,
    null,
    null,
    null,
    null,
    null,
    null,
    null,
    null,
    null,
    null,
    null,
    null,
    null,
    null,
    null,
    null,
    null,
    null,
    null,
    null,
    null,
    null,
    null,
    null,
    null,
    null,
    null,
    null,
    null,
    null,
    null,
    null,
    null,
    null,
    null,
    null,
    null,
    null,
    null,
    null,
    null,
    null,
    null,
    null,
    null,
    null,
    null,
    null,
    null,
    null,
    null,
    null,
    null,
    null,
    null,
    null,
    null,
    null,
    null,
    null,
    null,
    null,
    null,
    null,
    null,
    null,
    null,
    null,
    null,
    null,
    null,
    null,
    null,
    null,
    null,
    null,
    null,
    null,
    null,
    null,
    null,
    null,
    null,
    null,
    null,
    null,
    null,
    null,
    null,
    null,
    null,
    null,
    null,
    null,
    null,
    null,
    null,
    null,
    null,
    null,
    null,
    null,
    null,
    null,
    null,
    null,
    null,
    null,
    null,
    null,
    null,
    null,
    null,
    null,
    null,
    null,
    null,
    null,
    null,
    null,
    null,
    null,
    null,
    null,
    null,
    null,
    null,
    null,
    null,
    null,
    null,
    null,
    null,
    null,
    null,
    null,
    null,
    null,
    null,
    null,
    null,
    null,
    null,
    null,
    null,
    null,
    null,
    null,
    null,
    null,
    null,
    null,
    null,
    null,
    null,
    null,
    null,
    null,
    null,
    null,
    null,
    null,
    null,
    null,
    null,
    null,
    null,
    null,
    null,
    null,
    null,
    null,
    null,
    null,
    null,
    null,
    null,
    null,
    null,
    null,
    null,
    null,
    null,
    null,
    null,
    null,
    null,
    null,
    null,
    null,
    null,
    null,
    null,
    null,
    null,
    null,
    null,
    null,
    null,
    null,
    null,
    null,
    null,
    null,
    null,
    null,
    null,
    null,
    null,
    null,
    null,
    null,
    null,
    null,
    null,
    null,
    null,
    null,
    null,
    null,
    null,
    null,
    null,
    null,
    null,
    null,
    null,
    null,
    null,
    null,
    null,
    null,
    null,
    null,
    null,
    null,
    null,
    null,
    null,
    null,
    null,
    null,
    null,
    null,
    null,
    null,
    null,
    null,
    null,
    null,
    null,
    null,
    null,
    null,
    null,
    null,
    null,
    null,
    null,
    null,
    null,
    null,
    null,
    null,
    null,
    null,
    null,
    null
  ],
  "tabAmounts": [
    9,
    10,
    7,
    3,
    15,
    3,
    10,
    1,
    0,
    0
  ],
  "inventory": [
    {
      "id": 301,
      "amount": 1
    },
    {
      "id": 379,
      "amount": 1
    },
    {
      "id": 379,
      "amount": 1
    },
    {
      "id": 379,
      "amount": 1
    },
    {
      "id": 379,
      "amount": 1
    },
    {
      "id": 379,
      "amount": 1
    },
    {
      "id": 379,
      "amount": 1
    },
    {
      "id": 379,
      "amount": 1
    },
    {
      "id": 379,
      "amount": 1
    },
    {
      "id": 379,
      "amount": 1
    },
    {
      "id": 379,
      "amount": 1
    },
    {
      "id": 379,
      "amount": 1
    },
    {
      "id": 379,
      "amount": 1
    },
    {
      "id": 379,
      "amount": 1
    },
    {
      "id": 379,
      "amount": 1
    },
    {
      "id": 379,
      "amount": 1
    },
    {
      "id": 379,
      "amount": 1
    },
    {
      "id": 379,
      "amount": 1
    },
    {
      "id": 379,
      "amount": 1
    },
    {
      "id": 379,
      "amount": 1
    },
    {
      "id": 995,
      "amount": 72916
    },
    {
      "id": 379,
      "amount": 1
    },
    {
      "id": 379,
      "amount": 1
    },
    {
      "id": 379,
      "amount": 1
    },
    {
      "id": 379,
      "amount": 1
    },
    {
      "id": 379,
      "amount": 1
    },
    {
      "id": 379,
      "amount": 1
    },
    {
      "id": 379,
      "amount": 1
    }
  ],
  "equipment": [
    null,
    null,
    null,
    {
      "id": 1249,
      "amount": 1
    },
    null,
    null,
    null,
    null,
    null,
    null,
    null,
    null,
    null,
    null
  ],
  "shopItems": [
    null,
    null,
    null,
    null,
    null,
    null,
    null,
    null,
    null,
    null,
    null,
    null,
    null,
    null,
    null,
    null,
    null,
    null,
    null,
    null,
    null,
    null,
    null,
    null,
    null,
    null,
    null,
    null,
    null,
    null,
    null,
    null,
    null,
    null,
    null,
    null
  ],
  "shopPrices": [
    0,
    0,
    0,
    0,
    0,
    0,
    0,
    0,
    0,
    0,
    0,
    0,
    0,
    0,
    0,
    0,
    0,
    0,
    0,
    0,
    0,
    0,
    0,
    0,
    0,
    0,
    0,
    0,
    0,
    0,
    0,
    0,
    0,
    0,
    0,
    0
  ],
  "pouches": [
    0,
    0,
    0,
    0
  ]
}