{
  "bank": [
    null,
    null,
    null,
    null,
    null,
    null,
    null,
    null,
    null,
    null,
    null,
    null,
    null,
    null,
    null,
    null,
    null,
    null,
    null,
    null,
    null,
    null,
    null,
    null,
    null,
    null,
    null,
    null,
    null,
    null,
    null,
    null,
    null,
    null,
    null,
    null,
    null,
    null,
    null,
    null,
    null,
    null,
    null,
    null,
    null,
    null,
    null,
    null,
    null,
    null,
    null,
    null,
    null,
    null,
    null,
    null,
    null,
    null,
    null,
    null,
    null,
    null,
    null,
    null,
    null,
    null,
    null,
    null,
    null,
    null,
    null,
    null,
    null,
    null,
    null,
    null,
    null,
    null,
    null,
    null,
    null,
    null,
    null,
    null,
    null,
    null,
    null,
    null,
    null,
    null,
    null,
    null,
    null,
    null,
    null,
    null,
    null,
    null,
    null,
    null,
    null,
    null,
    null,
    null,
    null,
    null,
    null,
    null,
    null,
    null,
    null,
    null,
    null,
    null,
    null,
    null,
    null,
    null,
    null,
    null,
    null,
    null,
    null,
    null,
    null,
    null,
    null,
    null,
    null,
    null,
    null,
    null,
    null,
    null,
    null,
    null,
    null,
    null,
    null,
    null,
    null,
    null,
    null,
    null,
    null,
    null,
    null,
    null,
    null,
    null,
    null,
    null,
    null,
    null,
    null,
    null,
    null,
    null,
    null,
    null,
    null,
    null,
    null,
    null,
    null,
    null,
    null,
    null,
    null,
    null,
    null,
    null,
    null,
    null,
    null,
    null,
    null,
    null,
    null,
    null,
    null,
    null,
    null,
    null,
    null,
    null,
    null,
    null,
    null,
    null,
    null,
    null,
    null,
    null,
    null,
    null,
    null,
    null,
    null,
    null,
    null,
    null,
    null,
    null,
    null,
    null,
    null,
    null,
    null,
    null,
    null,
    null,
    null,
    null,
    null,
    null,
    null,
    null,
    null,
    null,
    null,
    null,
    null,
    null,
    null,
    null,
    null,
    null,
    null,
    null,
    null,
    null,
    null,
    null,
    null,
    null,
    null,
    null,
    null,
    null,
    null,
    null,
    null,
    null,
    null,
    null,
    null,
    null,
    null,
    null,
    null,
    null,
    null,
    null,
    null,
    null,
    null,
    null,
    null,
    null,
    null,
    null,
    null,
    null,
    null,
    null,
    null,
    null,
    null,
    null,
    null,
    null,
    null,
    null,
    null,
    null,
    null,
    null,
    null,
    null,
    null,
    null,
    null,
    null,
    null,
    null,
    null,
    null,
    null,
    null,
    null,
    null,
    null,
    null,
    null,
    null,
    null,
    null,
    null,
    null,
    null,
    null,
    null,
    null,
    null,
    null,
    null,
    null,
    null,
    null,
    null,
    null,
    null,
    null,
    null,
    null,
    null,
    null,
    null,
    null,
    null,
    null,
    null,
    null,
    null,
    null,
    null,
    null,
    null,
    null,
    null,
    null,
    null,
    null,
    null,
    null,
    null,
    null,
    null,
    null,
    null,
    null,
    null,
    null,
    null,
    null,
    null,
    null,
    null,
    null
  ],
  "tabAmounts": [
    0,
    0,
    0,
    0,
    0,
    0,
    0,
    0,
    0,
    0
  ],
  "inventory": [
    {
      "id": 7382,
      "amount": 1
    },
    {
      "id": 2639,
      "amount": 1
    },
    {
      "id": 385,
      "amount": 1
    },
    {
      "id": 2724,
      "amount": 1
    },
    {
      "id": 2724,
      "amount": 1
    },
    {
      "id": 2724,
      "amount": 1
    },
    {
      "id": 2724,
      "amount": 1
    },
    {
      "id": 2724,
      "amount": 1
    },
    {
      "id": 2724,
      "amount": 1
    },
    {
      "id": 2724,
      "amount": 1
    },
    {
      "id": 2724,
      "amount": 1
    },
    {
      "id": 2724,
      "amount": 1
    },
    {
      "id": 10470,
      "amount": 1
    },
    {
      "id": 2659,
      "amount": 1
    },
    {
      "id": 2615,
      "amount": 1
    },
    {
      "id": 1361,
      "amount": 1
    },
    {
      "id": 12506,
      "amount": 1
    },
    {
      "id": 1079,
      "amount": 1
    },
    {
      "id": 10376,
      "amount": 1
    },
    {
      "id": 12379,
      "amount": 1
    },
    {
      "id": 861,
      "amount": 1
    },
    {
      "id": 1093,
      "amount": 1
    },
    {
      "id": 10290,
      "amount": 1
    },
    null,
    null,
    null,
    null,
    null
  ],
  "equipment": [
    {
      "id": 13140,
      "amount": 1
    },
    {
      "id": 13124,
      "amount": 1
    },
    {
      "id": 13136,
      "amount": 1
    },
    {
      "id": 13111,
      "amount": 1
    },
    {
      "id": 13107,
      "amount": 1
    },
    {
      "id": 13120,
      "amount": 1
    },
    null,
    {
      "id": 13115,
      "amount": 1
    },
    null,
    {
      "id": 13103,
      "amount": 1
    },
    {
      "id": 13132,
      "amount": 1
    },
    null,
    {
      "id": 13128,
      "amount": 1
    },
    null
  ],
  "shopItems": [
    null,
    null,
    null,
    null,
    null,
    null,
    null,
    null,
    null,
    null,
    null,
    null,
    null,
    null,
    null,
    null,
    null,
    null,
    null,
    null,
    null,
    null,
    null,
    null,
    null,
    null,
    null,
    null,
    null,
    null,
    null,
    null,
    null,
    null,
    null,
    null
  ],
  "shopPrices": [
    0,
    0,
    0,
    0,
    0,
    0,
    0,
    0,
    0,
    0,
    0,
    0,
    0,
    0,
    0,
    0,
    0,
    0,
    0,
    0,
    0,
    0,
    0,
    0,
    0,
    0,
    0,
    0,
    0,
    0,
    0,
    0,
    0,
    0,
    0,
    0
  ],
  "pouches": [
    0,
    0,
    0,
    0
  ]
}