{
  "bank": [
    {
      "id": 995,
      "amount": 203716513
    },
    {
      "id": 7946,
      "amount": 607
    },
    {
      "id": 12695,
      "amount": 258
    },
    {
      "id": 385,
      "amount": 1184
    },
    {
      "id": 10952,
      "amount": 6
    },
    {
      "id": 7462,
      "amount": 5
    },
    {
      "id": 6585,
      "amount": 4
    },
    {
      "id": 11936,
      "amount": 1876
    },
    {
      "id": 3144,
      "amount": 18
    },
    {
      "id": 397,
      "amount": 259
    },
    {
      "id": 10499,
      "amount": 6
    },
    {
      "id": 12954,
      "amount": 11
    },
    {
      "id": 13092,
      "amount": 1
    },
    {
      "id": 11283,
      "amount": 4
    },
    {
      "id": 6328,
      "amount": 2
    },
    {
      "id": 3024,
      "amount": 335
    },
    {
      "id": 12931,
      "amount": 1
    },
    {
      "id": 13441,
      "amount": 562
    },
    {
      "id": 11832,
      "amount": 1
    },
    {
      "id": 2444,
      "amount": 473
    },
    {
      "id": 11664,
      "amount": 1
    },
    {
      "id": 19641,
      "amount": 1
    },
    {
      "id": 11665,
      "amount": 1
    },
    {
      "id": 19481,
      "amount": 1
    },
    {
      "id": 11663,
      "amount": 1
    },
    {
      "id": 8839,
      "amount": 1
    },
    {
      "id": 8840,
      "amount": 1
    },
    {
      "id": 16,
      "amount": 1
    },
    {
      "id": 8842,
      "amount": 1
    },
    {
      "id": 2722,
      "amount": 5
    },
    {
      "id": 13103,
      "amount": 1
    },
    {
      "id": 13265,
      "amount": 1
    },
    {
      "id": 987,
      "amount": 6
    },
    {
      "id": 7142,
      "amount": 1
    },
    {
      "id": 11840,
      "amount": 1
    },
    {
      "id": 6570,
      "amount": 1
    },
    {
      "id": 292,
      "amount": 1
    },
    {
      "id": 11943,
      "amount": 34
    },
    {
      "id": 4736,
      "amount": 1
    },
    {
      "id": 12926,
      "amount": 1
    },
    {
      "id": 4738,
      "amount": 1
    },
    {
      "id": 13140,
      "amount": 1
    },
    {
      "id": 13115,
      "amount": 1
    },
    {
      "id": 13124,
      "amount": 1
    },
    {
      "id": 882,
      "amount": 1004
    },
    {
      "id": 884,
      "amount": 250
    },
    {
      "id": 892,
      "amount": 70
    },
    {
      "id": 861,
      "amount": 1
    },
    {
      "id": 830,
      "amount": 4938
    },
    {
      "id": 863,
      "amount": 1306
    },
    {
      "id": 811,
      "amount": 1745
    },
    {
      "id": 9244,
      "amount": 929
    },
    {
      "id": 11232,
      "amount": 21
    },
    {
      "id": 9185,
      "amount": 1
    },
    {
      "id": 2497,
      "amount": 2
    },
    {
      "id": 2503,
      "amount": 2
    },
    {
      "id": 19484,
      "amount": 679
    },
    {
      "id": 4214,
      "amount": 2
    },
    {
      "id": 11771,
      "amount": 1
    },
    {
      "id": 9144,
      "amount": 21
    },
    {
      "id": 4740,
      "amount": 195
    },
    {
      "id": 19547,
      "amount": 1
    },
    {
      "id": 2540,
      "amount": 29
    },
    {
      "id": 11230,
      "amount": 212
    },
    {
      "id": 12807,
      "amount": 1
    },
    {
      "id": 11212,
      "amount": 16
    },
    {
      "id": 2581,
      "amount": 1
    },
    {
      "id": 554,
      "amount": 9471
    },
    {
      "id": 562,
      "amount": 4546
    },
    {
      "id": 6889,
      "amount": 2
    },
    {
      "id": 6914,
      "amount": 4
    },
    {
      "id": 12938,
      "amount": 57
    },
    {
      "id": 7936,
      "amount": 10770
    },
    {
      "id": 558,
      "amount": 3143
    },
    {
      "id": 555,
      "amount": 7106
    },
    {
      "id": 556,
      "amount": 3731
    },
    {
      "id": 557,
      "amount": 4203
    },
    {
      "id": 559,
      "amount": 3000
    },
    {
      "id": 560,
      "amount": 4099
    },
    {
      "id": 563,
      "amount": 3000
    },
    {
      "id": 561,
      "amount": 5250
    },
    {
      "id": 565,
      "amount": 2675
    },
    {
      "id": 566,
      "amount": 3250
    },
    {
      "id": 9075,
      "amount": 2988
    },
    {
      "id": 5514,
      "amount": 1
    },
    {
      "id": 5512,
      "amount": 1
    },
    {
      "id": 5510,
      "amount": 1
    },
    {
      "id": 5509,
      "amount": 1
    },
    {
      "id": 564,
      "amount": 2975
    },
    {
      "id": 12598,
      "amount": 1
    },
    {
      "id": 6916,
      "amount": 1
    },
    {
      "id": 1381,
      "amount": 1
    },
    {
      "id": 11770,
      "amount": 1
    },
    {
      "id": 6918,
      "amount": 2
    },
    {
      "id": 9763,
      "amount": 1
    },
    {
      "id": 6922,
      "amount": 1
    },
    {
      "id": 4728,
      "amount": 1
    },
    {
      "id": 4716,
      "amount": 1
    },
    {
      "id": 4710,
      "amount": 1
    },
    {
      "id": 4718,
      "amount": 1
    },
    {
      "id": 4724,
      "amount": 1
    },
    {
      "id": 4747,
      "amount": 1
    },
    {
      "id": 4753,
      "amount": 1
    },
    {
      "id": 10540,
      "amount": 12
    },
    {
      "id": 6529,
      "amount": 1776
    },
    {
      "id": 7979,
      "amount": 4
    },
    {
      "id": 72,
      "amount": 138
    },
    {
      "id": 1513,
      "amount": 3574
    },
    {
      "id": 1779,
      "amount": 2166
    },
    {
      "id": 13307,
      "amount": 310296
    },
    {
      "id": 11940,
      "amount": 1038
    },
    {
      "id": 301,
      "amount": 2
    },
    {
      "id": 1734,
      "amount": 200
    },
    {
      "id": 11260,
      "amount": 20
    },
    {
      "id": 946,
      "amount": 1
    },
    {
      "id": 952,
      "amount": 2
    },
    {
      "id": 453,
      "amount": 2367
    },
    {
      "id": 2361,
      "amount": 448
    },
    {
      "id": 2351,
      "amount": 1211
    },
    {
      "id": 451,
      "amount": 120
    },
    {
      "id": 2363,
      "amount": 264
    },
    {
      "id": 70,
      "amount": 194
    },
    {
      "id": 1359,
      "amount": 1
    },
    {
      "id": 1515,
      "amount": 113
    },
    {
      "id": 11849,
      "amount": 20
    },
    {
      "id": 1733,
      "amount": 1
    },
    {
      "id": 19610,
      "amount": 1
    },
    {
      "id": 13241,
      "amount": 1
    },
    {
      "id": 1615,
      "amount": 1
    },
    {
      "id": 2,
      "amount": 500
    },
    {
      "id": 1939,
      "amount": 180
    },
    {
      "id": 2550,
      "amount": 2
    },
    {
      "id": 12934,
      "amount": 19744
    },
    {
      "id": 379,
      "amount": 236
    },
    {
      "id": 361,
      "amount": 106
    },
    {
      "id": 373,
      "amount": 78
    },
    {
      "id": 13439,
      "amount": 40
    },
    {
      "id": 395,
      "amount": 39
    },
    {
      "id": 383,
      "amount": 953
    },
    {
      "id": 311,
      "amount": 1
    },
    {
      "id": 207,
      "amount": 25
    },
    {
      "id": 7981,
      "amount": 1
    },
    {
      "id": 10010,
      "amount": 1
    },
    {
      "id": 7980,
      "amount": 2
    },
    {
      "id": 2357,
      "amount": 452
    },
    {
      "id": 2355,
      "amount": 301
    },
    {
      "id": 1712,
      "amount": 15
    },
    {
      "id": 10561,
      "amount": 6
    },
    {
      "id": 11822,
      "amount": 1
    },
    {
      "id": 11818,
      "amount": 1
    },
    {
      "id": 590,
      "amount": 1
    },
    {
      "id": 449,
      "amount": 23
    },
    {
      "id": 1115,
      "amount": 20
    },
    {
      "id": 2347,
      "amount": 1
    },
    {
      "id": 19,
      "amount": 3
    },
    {
      "id": 442,
      "amount": 98
    },
    {
      "id": 444,
      "amount": 271
    },
    {
      "id": 5974,
      "amount": 40
    },
    {
      "id": 1249,
      "amount": 1
    },
    {
      "id": 6289,
      "amount": 35
    },
    {
      "id": 6573,
      "amount": 15
    },
    {
      "id": 440,
      "amount": 200
    },
    {
      "id": 2434,
      "amount": 2
    },
    {
      "id": 143,
      "amount": 1
    },
    {
      "id": 8851,
      "amount": 180
    },
    {
      "id": 3028,
      "amount": 8
    },
    {
      "id": 1925,
      "amount": 1
    },
    {
      "id": 303,
      "amount": 1
    },
    {
      "id": 2509,
      "amount": 50
    },
    {
      "id": 447,
      "amount": 2
    },
    {
      "id": 2436,
      "amount": 10
    },
    {
      "id": 13243,
      "amount": 1
    },
    {
      "id": 2366,
      "amount": 1
    },
    {
      "id": 6571,
      "amount": 1
    },
    {
      "id": 1755,
      "amount": 1
    },
    {
      "id": 1702,
      "amount": 27
    },
    {
      "id": 1759,
      "amount": 4
    },
    {
      "id": 592,
      "amount": 69
    },
    {
      "id": 1631,
      "amount": 4
    },
    {
      "id": 10896,
      "amount": 1
    },
    {
      "id": 13322,
      "amount": 1
    },
    {
      "id": 13321,
      "amount": 1
    },
    {
      "id": 12936,
      "amount": 1
    },
    {
      "id": 12748,
      "amount": 4
    },
    {
      "id": 12746,
      "amount": 1
    },
    {
      "id": 12653,
      "amount": 1
    },
    {
      "id": 12646,
      "amount": 1
    },
    {
      "id": 3204,
      "amount": 3
    },
    {
      "id": 4587,
      "amount": 2
    },
    {
      "id": 4151,
      "amount": 1
    },
    {
      "id": 10551,
      "amount": 8
    },
    {
      "id": 10555,
      "amount": 1
    },
    {
      "id": 3140,
      "amount": 1
    },
    {
      "id": 1079,
      "amount": 2
    },
    {
      "id": 6735,
      "amount": 1
    },
    {
      "id": 11836,
      "amount": 1
    },
    {
      "id": 4087,
      "amount": 1
    },
    {
      "id": 4585,
      "amount": 1
    },
    {
      "id": 1127,
      "amount": 1
    },
    {
      "id": 1163,
      "amount": 1
    },
    {
      "id": 10548,
      "amount": 2
    },
    {
      "id": 2493,
      "amount": 1
    },
    {
      "id": 2890,
      "amount": 1
    },
    {
      "id": 1347,
      "amount": 1
    },
    {
      "id": 10828,
      "amount": 1
    },
    {
      "id": 10422,
      "amount": 1
    },
    {
      "id": 10364,
      "amount": 1
    },
    {
      "id": 10396,
      "amount": 1
    },
    {
      "id": 12361,
      "amount": 1
    },
    {
      "id": 1846,
      "amount": 1
    },
    {
      "id": 1844,
      "amount": 1
    },
    {
      "id": 1845,
      "amount": 1
    },
    {
      "id": 12383,
      "amount": 1
    },
    {
      "id": 10390,
      "amount": 1
    },
    {
      "id": 12500,
      "amount": 1
    },
    {
      "id": 10380,
      "amount": 1
    },
    {
      "id": 10398,
      "amount": 1
    },
    {
      "id": 10392,
      "amount": 1
    },
    {
      "id": 10458,
      "amount": 1
    },
    {
      "id": 10378,
      "amount": 1
    },
    {
      "id": 12516,
      "amount": 1
    },
    {
      "id": 19695,
      "amount": 1
    },
    {
      "id": 10388,
      "amount": 1
    },
    {
      "id": 2579,
      "amount": 2
    },
    {
      "id": 10408,
      "amount": 1
    },
    {
      "id": 7856,
      "amount": 1
    },
    {
      "id": 7859,
      "amount": 1
    },
    {
      "id": 7841,
      "amount": 1
    },
    {
      "id": 7892,
      "amount": 1
    },
    {
      "id": 7916,
      "amount": 1
    },
    {
      "id": 7826,
      "amount": 1
    },
    {
      "id": 12699,
      "amount": 4
    },
    {
      "id": 12697,
      "amount": 14
    },
    {
      "id": 171,
      "amount": 7
    },
    {
      "id": 169,
      "amount": 6
    },
    {
      "id": 141,
      "amount": 1
    },
    {
      "id": 2440,
      "amount": 10
    },
    {
      "id": 3030,
      "amount": 13
    },
    {
      "id": 12701,
      "amount": 5
    },
    {
      "id": 173,
      "amount": 7
    },
    {
      "id": 3026,
      "amount": 27
    },
    {
      "id": 229,
      "amount": 71
    },
    {
      "id": 2442,
      "amount": 20
    },
    {
      "id": 6685,
      "amount": 23
    },
    null,
    null,
    null,
    null,
    null,
    null,
    null,
    null,
    null,
    null,
    null,
    null,
    null,
    null,
    null,
    null,
    null,
    null,
    null,
    null,
    null,
    null,
    null,
    null,
    null,
    null,
    null,
    null,
    null,
    null,
    null,
    null,
    null,
    null,
    null,
    null,
    null,
    null,
    null,
    null,
    null,
    null,
    null,
    null,
    null,
    null,
    null,
    null,
    null,
    null,
    null,
    null,
    null,
    null,
    null,
    null,
    null,
    null,
    null,
    null,
    null,
    null,
    null,
    null,
    null,
    null,
    null,
    null,
    null,
    null,
    null,
    null,
    null,
    null,
    null,
    null,
    null,
    null,
    null,
    null,
    null,
    null,
    null,
    null,
    null,
    null,
    null,
    null,
    null,
    null,
    null,
    null,
    null,
    null,
    null,
    null,
    null,
    null,
    null,
    null,
    null,
    null,
    null,
    null,
    null,
    null
  ],
  "tabAmounts": [
    44,
    23,
    29,
    7,
    76,
    8,
    18,
    20,
    6,
    13
  ],
  "inventory": [
    null,
    null,
    null,
    null,
    null,
    null,
    null,
    null,
    null,
    null,
    null,
    null,
    null,
    null,
    null,
    null,
    null,
    null,
    null,
    null,
    null,
    null,
    null,
    null,
    null,
    null,
    null,
    null
  ],
  "equipment": [
    {
      "id": 12637,
      "amount": 1
    },
    {
      "id": 2414,
      "amount": 1
    },
    {
      "id": 1499,
      "amount": 1
    },
    {
      "id": 12899,
      "amount": 1
    },
    {
      "id": 4712,
      "amount": 1
    },
    {
      "id": 6889,
      "amount": 1
    },
    null,
    {
      "id": 4714,
      "amount": 1
    },
    null,
    {
      "id": 1580,
      "amount": 1
    },
    {
      "id": 6920,
      "amount": 1
    },
    null,
    {
      "id": 10872,
      "amount": 1
    },
    {
      "id": 19484,
      "amount": 274
    }
  ],
  "shopItems": [
    null,
    null,
    null,
    null,
    null,
    null,
    null,
    null,
    null,
    null,
    null,
    null,
    null,
    null,
    null,
    null,
    null,
    null,
    null,
    null,
    null,
    null,
    null,
    null,
    null,
    null,
    null,
    null,
    null,
    null,
    null,
    null,
    null,
    null,
    null,
    null
  ],
  "shopPrices": [
    0,
    0,
    0,
    0,
    0,
    0,
    0,
    0,
    0,
    0,
    0,
    0,
    0,
    0,
    0,
    0,
    0,
    0,
    0,
    0,
    0,
    0,
    0,
    0,
    0,
    0,
    0,
    0,
    0,
    0,
    0,
    0,
    0,
    0,
    0,
    0
  ],
  "pouches": [
    0,
    0,
    0,
    0
  ]
}