{
  "bank": [
    {
      "id": 995,
      "amount": 540832
    },
    {
      "id": 884,
      "amount": 223
    },
    {
      "id": 1321,
      "amount": 1
    },
    {
      "id": 841,
      "amount": 1
    },
    {
      "id": 882,
      "amount": 170
    },
    {
      "id": 1381,
      "amount": 1
    },
    {
      "id": 554,
      "amount": 375
    },
    {
      "id": 558,
      "amount": 175
    },
    {
      "id": 562,
      "amount": 100
    },
    {
      "id": 1846,
      "amount": 1
    },
    {
      "id": 1097,
      "amount": 1
    },
    {
      "id": 12695,
      "amount": 5
    },
    {
      "id": 2682,
      "amount": 6
    },
    {
      "id": 1,
      "amount": 1
    },
    {
      "id": 1845,
      "amount": 1
    },
    {
      "id": 1844,
      "amount": 1
    },
    {
      "id": 7936,
      "amount": 85
    },
    {
      "id": 1135,
      "amount": 1
    },
    {
      "id": 5520,
      "amount": 1
    },
    {
      "id": 560,
      "amount": 124
    },
    {
      "id": 1163,
      "amount": 1
    },
    {
      "id": 1333,
      "amount": 1
    },
    {
      "id": 2890,
      "amount": 1
    },
    {
      "id": 12445,
      "amount": 1
    },
    {
      "id": 829,
      "amount": 20
    },
    {
      "id": 1127,
      "amount": 1
    },
    {
      "id": 1079,
      "amount": 1
    },
    {
      "id": 1201,
      "amount": 1
    },
    {
      "id": 4587,
      "amount": 1
    },
    {
      "id": 863,
      "amount": 188
    },
    {
      "id": 3024,
      "amount": 10
    },
    {
      "id": 2366,
      "amount": 1
    },
    {
      "id": 952,
      "amount": 2
    },
    {
      "id": 143,
      "amount": 4
    },
    {
      "id": 2723,
      "amount": 1
    },
    {
      "id": 229,
      "amount": 6
    },
    {
      "id": 12612,
      "amount": 1
    },
    {
      "id": 6330,
      "amount": 1
    },
    {
      "id": 385,
      "amount": 357
    },
    {
      "id": 532,
      "amount": 1
    },
    {
      "id": 1631,
      "amount": 2
    },
    {
      "id": 9144,
      "amount": 189
    },
    {
      "id": 141,
      "amount": 1
    },
    {
      "id": 9185,
      "amount": 1
    },
    {
      "id": 12934,
      "amount": 5170
    },
    {
      "id": 1987,
      "amount": 500
    },
    {
      "id": 536,
      "amount": 32
    },
    {
      "id": 12610,
      "amount": 1
    },
    {
      "id": 3755,
      "amount": 1
    },
    {
      "id": 10828,
      "amount": 1
    },
    {
      "id": 1623,
      "amount": 2
    },
    {
      "id": 1619,
      "amount": 1
    },
    {
      "id": 2550,
      "amount": 3
    },
    {
      "id": 4740,
      "amount": 110
    },
    {
      "id": 566,
      "amount": 250
    },
    {
      "id": 2444,
      "amount": 14
    },
    {
      "id": 2434,
      "amount": 5
    },
    {
      "id": 10555,
      "amount": 1
    },
    {
      "id": 861,
      "amount": 1
    },
    {
      "id": 2368,
      "amount": 2
    },
    null,
    null,
    null,
    null,
    null,
    null,
    null,
    null,
    null,
    null,
    null,
    null,
    null,
    null,
    null,
    null,
    null,
    null,
    null,
    null,
    null,
    null,
    null,
    null,
    null,
    null,
    null,
    null,
    null,
    null,
    null,
    null,
    null,
    null,
    null,
    null,
    null,
    null,
    null,
    null,
    null,
    null,
    null,
    null,
    null,
    null,
    null,
    null,
    null,
    null,
    null,
    null,
    null,
    null,
    null,
    null,
    null,
    null,
    null,
    null,
    null,
    null,
    null,
    null,
    null,
    null,
    null,
    null,
    null,
    null,
    null,
    null,
    null,
    null,
    null,
    null,
    null,
    null,
    null,
    null,
    null,
    null,
    null,
    null,
    null,
    null,
    null,
    null,
    null,
    null,
    null,
    null,
    null,
    null,
    null,
    null,
    null,
    null,
    null,
    null,
    null,
    null,
    null,
    null,
    null,
    null,
    null,
    null,
    null,
    null,
    null,
    null,
    null,
    null,
    null,
    null,
    null,
    null,
    null,
    null,
    null,
    null,
    null,
    null,
    null,
    null,
    null,
    null,
    null,
    null,
    null,
    null,
    null,
    null,
    null,
    null,
    null,
    null,
    null,
    null,
    null,
    null,
    null,
    null,
    null,
    null,
    null,
    null,
    null,
    null,
    null,
    null,
    null,
    null,
    null,
    null,
    null,
    null,
    null,
    null,
    null,
    null,
    null,
    null,
    null,
    null,
    null,
    null,
    null,
    null,
    null,
    null,
    null,
    null,
    null,
    null,
    null,
    null,
    null,
    null,
    null,
    null,
    null,
    null,
    null,
    null,
    null,
    null,
    null,
    null,
    null,
    null,
    null,
    null,
    null,
    null,
    null,
    null,
    null,
    null,
    null,
    null,
    null,
    null,
    null,
    null,
    null,
    null,
    null,
    null,
    null,
    null,
    null,
    null,
    null,
    null,
    null,
    null,
    null,
    null,
    null,
    null,
    null,
    null,
    null,
    null,
    null,
    null,
    null,
    null,
    null,
    null,
    null,
    null,
    null,
    null,
    null,
    null,
    null,
    null,
    null,
    null,
    null,
    null,
    null,
    null,
    null,
    null,
    null,
    null,
    null,
    null,
    null,
    null,
    null,
    null,
    null,
    null,
    null,
    null,
    null,
    null,
    null,
    null,
    null,
    null,
    null,
    null,
    null,
    null,
    null,
    null,
    null,
    null,
    null,
    null,
    null,
    null,
    null,
    null,
    null,
    null,
    null,
    null,
    null,
    null,
    null,
    null,
    null,
    null
  ],
  "tabAmounts": [
    60,
    0,
    0,
    0,
    0,
    0,
    0,
    0,
    0,
    0
  ],
  "inventory": [
    {
      "id": 173,
      "amount": 1
    },
    {
      "id": 229,
      "amount": 1
    },
    {
      "id": 141,
      "amount": 1
    },
    {
      "id": 2434,
      "amount": 1
    },
    {
      "id": 2434,
      "amount": 1
    },
    {
      "id": 2434,
      "amount": 1
    },
    {
      "id": 2434,
      "amount": 1
    },
    {
      "id": 2434,
      "amount": 1
    },
    {
      "id": 560,
      "amount": 200
    },
    {
      "id": 868,
      "amount": 6
    },
    {
      "id": 1185,
      "amount": 1
    },
    null,
    {
      "id": 995,
      "amount": 458691
    },
    {
      "id": 2368,
      "amount": 1
    },
    {
      "id": 9185,
      "amount": 1
    },
    null,
    null,
    null,
    null,
    {
      "id": 2366,
      "amount": 1
    },
    null,
    null,
    null,
    null,
    null,
    null,
    null,
    null
  ],
  "equipment": [
    {
      "id": 10828,
      "amount": 1
    },
    {
      "id": 10499,
      "amount": 1
    },
    {
      "id": 1712,
      "amount": 1
    },
    {
      "id": 868,
      "amount": 101
    },
    {
      "id": 2503,
      "amount": 1
    },
    null,
    null,
    {
      "id": 2497,
      "amount": 1
    },
    null,
    {
      "id": 2491,
      "amount": 1
    },
    {
      "id": 6328,
      "amount": 1
    },
    null,
    null,
    {
      "id": 892,
      "amount": 83
    }
  ],
  "shopItems": [
    null,
    null,
    null,
    null,
    null,
    null,
    null,
    null,
    null,
    null,
    null,
    null,
    null,
    null,
    null,
    null,
    null,
    null,
    null,
    null,
    null,
    null,
    null,
    null,
    null,
    null,
    null,
    null,
    null,
    null,
    null,
    null,
    null,
    null,
    null,
    null
  ],
  "shopPrices": [
    0,
    0,
    0,
    0,
    0,
    0,
    0,
    0,
    0,
    0,
    0,
    0,
    0,
    0,
    0,
    0,
    0,
    0,
    0,
    0,
    0,
    0,
    0,
    0,
    0,
    0,
    0,
    0,
    0,
    0,
    0,
    0,
    0,
    0,
    0,
    0
  ],
  "pouches": [
    0,
    0,
    0,
    0
  ]
}