{
  "bank": [
    {
      "id": 2347,
      "amount": 3
    },
    {
      "id": 952,
      "amount": 4
    },
    {
      "id": 1755,
      "amount": 3
    },
    {
      "id": 12695,
      "amount": 4
    },
    {
      "id": 2682,
      "amount": 2
    },
    {
      "id": 946,
      "amount": 3
    },
    {
      "id": 590,
      "amount": 3
    },
    {
      "id": 303,
      "amount": 3
    },
    {
      "id": 311,
      "amount": 3
    },
    {
      "id": 1351,
      "amount": 3
    },
    {
      "id": 1265,
      "amount": 3
    },
    {
      "id": 373,
      "amount": 87
    },
    {
      "id": 8851,
      "amount": 155
    },
    {
      "id": 8850,
      "amount": 1
    },
    {
      "id": 6529,
      "amount": 16064
    },
    {
      "id": 385,
      "amount": 119
    },
    {
      "id": 11849,
      "amount": 3
    },
    {
      "id": 2503,
      "amount": 2
    },
    {
      "id": 12934,
      "amount": 3943
    },
    {
      "id": 560,
      "amount": 351
    },
    {
      "id": 9244,
      "amount": 1487
    },
    {
      "id": 3841,
      "amount": 1
    },
    {
      "id": 12612,
      "amount": 1
    },
    {
      "id": 1163,
      "amount": 2
    },
    {
      "id": 3753,
      "amount": 1
    },
    {
      "id": 5520,
      "amount": 2
    },
    {
      "id": 4755,
      "amount": 1
    },
    {
      "id": 12536,
      "amount": 1
    },
    {
      "id": 12445,
      "amount": 2
    },
    {
      "id": 3749,
      "amount": 1
    },
    {
      "id": 2890,
      "amount": 1
    },
    {
      "id": 1347,
      "amount": 1
    },
    {
      "id": 2493,
      "amount": 1
    },
    {
      "id": 141,
      "amount": 2
    },
    {
      "id": 2444,
      "amount": 7
    },
    {
      "id": 2550,
      "amount": 18
    },
    {
      "id": 171,
      "amount": 1
    },
    {
      "id": 892,
      "amount": 157
    },
    {
      "id": 561,
      "amount": 67
    },
    {
      "id": 861,
      "amount": 1
    },
    {
      "id": 6920,
      "amount": 1
    },
    {
      "id": 10499,
      "amount": 2
    },
    {
      "id": 882,
      "amount": 731
    },
    {
      "id": 4131,
      "amount": 1
    },
    {
      "id": 10456,
      "amount": 1
    },
    {
      "id": 1079,
      "amount": 1
    },
    {
      "id": 4587,
      "amount": 2
    },
    {
      "id": 2491,
      "amount": 1
    },
    {
      "id": 12746,
      "amount": 2
    },
    {
      "id": 2440,
      "amount": 9
    },
    {
      "id": 2436,
      "amount": 9
    },
    {
      "id": 143,
      "amount": 2
    },
    {
      "id": 7460,
      "amount": 2
    },
    {
      "id": 1702,
      "amount": 1
    },
    {
      "id": 3105,
      "amount": 2
    },
    {
      "id": 1478,
      "amount": 1
    },
    {
      "id": 1099,
      "amount": 1
    },
    {
      "id": 6914,
      "amount": 3
    },
    {
      "id": 13233,
      "amount": 2
    },
    {
      "id": 11933,
      "amount": 1
    },
    {
      "id": 10952,
      "amount": 3
    },
    {
      "id": 2579,
      "amount": 2
    },
    {
      "id": 12534,
      "amount": 1
    },
    {
      "id": 4225,
      "amount": 3
    },
    {
      "id": 6918,
      "amount": 1
    },
    {
      "id": 12528,
      "amount": 1
    },
    {
      "id": 2361,
      "amount": 8
    },
    {
      "id": 12701,
      "amount": 2
    },
    {
      "id": 1201,
      "amount": 1
    },
    {
      "id": 1127,
      "amount": 1
    },
    {
      "id": 9676,
      "amount": 1
    },
    {
      "id": 169,
      "amount": 2
    },
    {
      "id": 1731,
      "amount": 1
    },
    {
      "id": 3024,
      "amount": 8
    },
    {
      "id": 12938,
      "amount": 4
    },
    {
      "id": 2497,
      "amount": 1
    },
    {
      "id": 397,
      "amount": 973
    },
    {
      "id": 1708,
      "amount": 1
    },
    {
      "id": 3026,
      "amount": 1
    },
    {
      "id": 12699,
      "amount": 1
    },
    {
      "id": 13092,
      "amount": 1
    },
    {
      "id": 10828,
      "amount": 1
    },
    {
      "id": 6570,
      "amount": 1
    },
    {
      "id": 9674,
      "amount": 1
    },
    {
      "id": 12415,
      "amount": 1
    },
    {
      "id": 11840,
      "amount": 1
    },
    {
      "id": 2572,
      "amount": 1
    },
    {
      "id": 3188,
      "amount": 1
    },
    {
      "id": 995,
      "amount": 423688
    },
    {
      "id": 12954,
      "amount": 1
    },
    {
      "id": 12774,
      "amount": 1
    },
    {
      "id": 12538,
      "amount": 1
    },
    {
      "id": 12610,
      "amount": 1
    },
    {
      "id": 12420,
      "amount": 1
    },
    {
      "id": 2581,
      "amount": 1
    },
    {
      "id": 12421,
      "amount": 1
    },
    {
      "id": 12419,
      "amount": 1
    },
    {
      "id": 6585,
      "amount": 1
    },
    {
      "id": 19484,
      "amount": 200
    },
    null,
    null,
    null,
    null,
    null,
    null,
    null,
    null,
    null,
    null,
    null,
    null,
    null,
    null,
    null,
    null,
    null,
    null,
    null,
    null,
    null,
    null,
    null,
    null,
    null,
    null,
    null,
    null,
    null,
    null,
    null,
    null,
    null,
    null,
    null,
    null,
    null,
    null,
    null,
    null,
    null,
    null,
    null,
    null,
    null,
    null,
    null,
    null,
    null,
    null,
    null,
    null,
    null,
    null,
    null,
    null,
    null,
    null,
    null,
    null,
    null,
    null,
    null,
    null,
    null,
    null,
    null,
    null,
    null,
    null,
    null,
    null,
    null,
    null,
    null,
    null,
    null,
    null,
    null,
    null,
    null,
    null,
    null,
    null,
    null,
    null,
    null,
    null,
    null,
    null,
    null,
    null,
    null,
    null,
    null,
    null,
    null,
    null,
    null,
    null,
    null,
    null,
    null,
    null,
    null,
    null,
    null,
    null,
    null,
    null,
    null,
    null,
    null,
    null,
    null,
    null,
    null,
    null,
    null,
    null,
    null,
    null,
    null,
    null,
    null,
    null,
    null,
    null,
    null,
    null,
    null,
    null,
    null,
    null,
    null,
    null,
    null,
    null,
    null,
    null,
    null,
    null,
    null,
    null,
    null,
    null,
    null,
    null,
    null,
    null,
    null,
    null,
    null,
    null,
    null,
    null,
    null,
    null,
    null,
    null,
    null,
    null,
    null,
    null,
    null,
    null,
    null,
    null,
    null,
    null,
    null,
    null,
    null,
    null,
    null,
    null,
    null,
    null,
    null,
    null,
    null,
    null,
    null,
    null,
    null,
    null,
    null,
    null,
    null,
    null,
    null,
    null,
    null,
    null,
    null,
    null,
    null,
    null,
    null,
    null,
    null,
    null,
    null,
    null,
    null,
    null,
    null,
    null,
    null,
    null,
    null,
    null,
    null,
    null,
    null,
    null,
    null,
    null,
    null,
    null,
    null,
    null,
    null,
    null,
    null,
    null,
    null,
    null,
    null,
    null,
    null,
    null,
    null,
    null,
    null,
    null,
    null,
    null,
    null,
    null,
    null,
    null,
    null,
    null,
    null,
    null,
    null,
    null,
    null,
    null,
    null
  ],
  "tabAmounts": [
    99,
    0,
    0,
    0,
    0,
    0,
    0,
    0,
    0,
    0
  ],
  "inventory": [
    null,
    null,
    null,
    null,
    null,
    null,
    null,
    null,
    null,
    null,
    null,
    null,
    null,
    null,
    null,
    null,
    null,
    null,
    null,
    null,
    null,
    null,
    null,
    null,
    null,
    null,
    null,
    null
  ],
  "equipment": [
    {
      "id": 579,
      "amount": 1
    },
    null,
    null,
    {
      "id": 4214,
      "amount": 1
    },
    null,
    null,
    null,
    null,
    null,
    null,
    null,
    null,
    null,
    null
  ],
  "shopItems": [
    null,
    null,
    null,
    null,
    null,
    null,
    null,
    null,
    null,
    null,
    null,
    null,
    null,
    null,
    null,
    null,
    null,
    null,
    null,
    null,
    null,
    null,
    null,
    null,
    null,
    null,
    null,
    null,
    null,
    null,
    null,
    null,
    null,
    null,
    null,
    null
  ],
  "shopPrices": [
    0,
    0,
    0,
    0,
    0,
    0,
    0,
    0,
    0,
    0,
    0,
    0,
    0,
    0,
    0,
    0,
    0,
    0,
    0,
    0,
    0,
    0,
    0,
    0,
    0,
    0,
    0,
    0,
    0,
    0,
    0,
    0,
    0,
    0,
    0,
    0
  ],
  "pouches": [
    0,
    0,
    0,
    0
  ]
}