{
  "bank": [
    {
      "id": 995,
      "amount": 29794943
    },
    {
      "id": 1333,
      "amount": 1
    },
    {
      "id": 861,
      "amount": 2
    },
    {
      "id": 892,
      "amount": 100
    },
    {
      "id": 1381,
      "amount": 2
    },
    {
      "id": 554,
      "amount": 675
    },
    {
      "id": 1844,
      "amount": 1
    },
    {
      "id": 1845,
      "amount": 1
    },
    {
      "id": 1846,
      "amount": 1
    },
    {
      "id": 7946,
      "amount": 19
    },
    {
      "id": 4155,
      "amount": 1
    },
    {
      "id": 884,
      "amount": 224
    },
    {
      "id": 1321,
      "amount": 1
    },
    {
      "id": 1444,
      "amount": 1
    },
    {
      "id": 1063,
      "amount": 1
    },
    {
      "id": 12207,
      "amount": 1
    },
    {
      "id": 841,
      "amount": 1
    },
    {
      "id": 2363,
      "amount": 2
    },
    {
      "id": 1247,
      "amount": 1
    },
    {
      "id": 1185,
      "amount": 1
    },
    {
      "id": 6328,
      "amount": 1
    },
    {
      "id": 882,
      "amount": 348
    },
    {
      "id": 1540,
      "amount": 2
    },
    {
      "id": 558,
      "amount": 221
    },
    {
      "id": 556,
      "amount": 3714
    },
    {
      "id": 562,
      "amount": 1588
    },
    {
      "id": 4093,
      "amount": 1
    },
    {
      "id": 267,
      "amount": 13
    },
    {
      "id": 249,
      "amount": 1
    },
    {
      "id": 1149,
      "amount": 5
    },
    {
      "id": 3393,
      "amount": 2
    },
    {
      "id": 987,
      "amount": 2
    },
    {
      "id": 1249,
      "amount": 1
    },
    {
      "id": 2368,
      "amount": 2
    },
    {
      "id": 3841,
      "amount": 2
    },
    {
      "id": 4587,
      "amount": 3
    },
    {
      "id": 12748,
      "amount": 1
    },
    {
      "id": 12449,
      "amount": 1
    },
    {
      "id": 12612,
      "amount": 1
    },
    {
      "id": 1199,
      "amount": 1
    },
    {
      "id": 1091,
      "amount": 1
    },
    {
      "id": 857,
      "amount": 1
    },
    {
      "id": 373,
      "amount": 1
    },
    {
      "id": 1345,
      "amount": 1
    },
    {
      "id": 8778,
      "amount": 1
    },
    {
      "id": 1163,
      "amount": 2
    },
    {
      "id": 557,
      "amount": 150
    },
    {
      "id": 1201,
      "amount": 4
    },
    {
      "id": 11849,
      "amount": 3
    },
    {
      "id": 7458,
      "amount": 2
    },
    {
      "id": 1079,
      "amount": 1
    },
    {
      "id": 952,
      "amount": 3
    },
    {
      "id": 2487,
      "amount": 1
    },
    {
      "id": 2499,
      "amount": 1
    },
    {
      "id": 2671,
      "amount": 1
    },
    {
      "id": 1,
      "amount": 1
    },
    {
      "id": 314,
      "amount": 7
    },
    {
      "id": 229,
      "amount": 35
    },
    {
      "id": 141,
      "amount": 3
    },
    {
      "id": 559,
      "amount": 75
    },
    {
      "id": 560,
      "amount": 285
    },
    {
      "id": 4740,
      "amount": 655
    },
    {
      "id": 2442,
      "amount": 10
    },
    {
      "id": 3387,
      "amount": 2
    },
    {
      "id": 430,
      "amount": 1
    },
    {
      "id": 9674,
      "amount": 1
    },
    {
      "id": 9676,
      "amount": 1
    },
    {
      "id": 6326,
      "amount": 1
    },
    {
      "id": 1127,
      "amount": 1
    },
    {
      "id": 4087,
      "amount": 1
    },
    {
      "id": 12201,
      "amount": 1
    },
    {
      "id": 3105,
      "amount": 2
    },
    {
      "id": 139,
      "amount": 2
    },
    {
      "id": 11936,
      "amount": 40
    },
    {
      "id": 3024,
      "amount": 19
    },
    {
      "id": 12603,
      "amount": 1
    },
    {
      "id": 225,
      "amount": 50
    },
    {
      "id": 6693,
      "amount": 75
    },
    {
      "id": 4585,
      "amount": 1
    },
    {
      "id": 2890,
      "amount": 2
    },
    {
      "id": 1347,
      "amount": 1
    },
    {
      "id": 2493,
      "amount": 1
    },
    {
      "id": 2639,
      "amount": 1
    },
    {
      "id": 12938,
      "amount": 18
    },
    {
      "id": 10294,
      "amount": 1
    },
    {
      "id": 6332,
      "amount": 400
    },
    {
      "id": 143,
      "amount": 1
    },
    {
      "id": 565,
      "amount": 200
    },
    {
      "id": 442,
      "amount": 200
    },
    {
      "id": 1187,
      "amount": 1
    },
    {
      "id": 2722,
      "amount": 2
    },
    {
      "id": 11818,
      "amount": 2
    },
    {
      "id": 11820,
      "amount": 2
    },
    {
      "id": 2550,
      "amount": 13
    },
    {
      "id": 11798,
      "amount": 1
    },
    {
      "id": 13441,
      "amount": 1
    },
    {
      "id": 3030,
      "amount": 1
    },
    {
      "id": 6691,
      "amount": 1
    },
    {
      "id": 6687,
      "amount": 1
    },
    {
      "id": 385,
      "amount": 197
    },
    {
      "id": 2434,
      "amount": 23
    },
    {
      "id": 9749,
      "amount": 1
    },
    {
      "id": 171,
      "amount": 1
    },
    {
      "id": 12699,
      "amount": 1
    },
    {
      "id": 4878,
      "amount": 1
    },
    {
      "id": 2503,
      "amount": 1
    },
    {
      "id": 2497,
      "amount": 1
    },
    {
      "id": 1623,
      "amount": 2
    },
    {
      "id": 2361,
      "amount": 25
    },
    {
      "id": 9185,
      "amount": 1
    },
    {
      "id": 1987,
      "amount": 500
    },
    {
      "id": 985,
      "amount": 4
    },
    {
      "id": 1513,
      "amount": 100
    },
    {
      "id": 4736,
      "amount": 1
    },
    {
      "id": 4214,
      "amount": 1
    },
    {
      "id": 4738,
      "amount": 1
    },
    {
      "id": 2491,
      "amount": 1
    },
    {
      "id": 9144,
      "amount": 520
    },
    {
      "id": 2801,
      "amount": 1
    },
    {
      "id": 2680,
      "amount": 1
    },
    {
      "id": 4089,
      "amount": 1
    },
    {
      "id": 10499,
      "amount": 1
    },
    {
      "id": 1387,
      "amount": 1
    },
    {
      "id": 4091,
      "amount": 1
    },
    {
      "id": 4097,
      "amount": 1
    },
    {
      "id": 9193,
      "amount": 24
    },
    {
      "id": 10828,
      "amount": 1
    },
    {
      "id": 830,
      "amount": 86
    },
    {
      "id": 11838,
      "amount": 1
    },
    {
      "id": 3026,
      "amount": 1
    },
    {
      "id": 12934,
      "amount": 242
    },
    {
      "id": 12608,
      "amount": 1
    },
    {
      "id": 1731,
      "amount": 1
    },
    {
      "id": 6330,
      "amount": 1
    },
    {
      "id": 3391,
      "amount": 1
    },
    {
      "id": 4726,
      "amount": 1
    },
    {
      "id": 2513,
      "amount": 1
    },
    {
      "id": 1113,
      "amount": 1
    },
    {
      "id": 12453,
      "amount": 1
    },
    {
      "id": 7398,
      "amount": 1
    },
    {
      "id": 5974,
      "amount": 100
    },
    {
      "id": 563,
      "amount": 400
    },
    {
      "id": 1779,
      "amount": 873
    },
    {
      "id": 5288,
      "amount": 1
    },
    null,
    null,
    null,
    null,
    null,
    null,
    null,
    null,
    null,
    null,
    null,
    null,
    null,
    null,
    null,
    null,
    null,
    null,
    null,
    null,
    null,
    null,
    null,
    null,
    null,
    null,
    null,
    null,
    null,
    null,
    null,
    null,
    null,
    null,
    null,
    null,
    null,
    null,
    null,
    null,
    null,
    null,
    null,
    null,
    null,
    null,
    null,
    null,
    null,
    null,
    null,
    null,
    null,
    null,
    null,
    null,
    null,
    null,
    null,
    null,
    null,
    null,
    null,
    null,
    null,
    null,
    null,
    null,
    null,
    null,
    null,
    null,
    null,
    null,
    null,
    null,
    null,
    null,
    null,
    null,
    null,
    null,
    null,
    null,
    null,
    null,
    null,
    null,
    null,
    null,
    null,
    null,
    null,
    null,
    null,
    null,
    null,
    null,
    null,
    null,
    null,
    null,
    null,
    null,
    null,
    null,
    null,
    null,
    null,
    null,
    null,
    null,
    null,
    null,
    null,
    null,
    null,
    null,
    null,
    null,
    null,
    null,
    null,
    null,
    null,
    null,
    null,
    null,
    null,
    null,
    null,
    null,
    null,
    null,
    null,
    null,
    null,
    null,
    null,
    null,
    null,
    null,
    null,
    null,
    null,
    null,
    null,
    null,
    null,
    null,
    null,
    null,
    null,
    null,
    null,
    null,
    null,
    null,
    null,
    null,
    null,
    null,
    null,
    null,
    null,
    null,
    null,
    null,
    null,
    null,
    null,
    null,
    null,
    null,
    null,
    null,
    null,
    null,
    null,
    null,
    null,
    null,
    null,
    null,
    null,
    null,
    null,
    null,
    null,
    null,
    null,
    null,
    null,
    null,
    null,
    null,
    null,
    null,
    null,
    null,
    null,
    null,
    null,
    null,
    null,
    null
  ],
  "tabAmounts": [
    140,
    4,
    0,
    0,
    0,
    0,
    0,
    0,
    0,
    0
  ],
  "inventory": [
    {
      "id": 995,
      "amount": 440348
    },
    null,
    null,
    null,
    null,
    null,
    null,
    null,
    null,
    null,
    null,
    null,
    null,
    null,
    null,
    null,
    null,
    null,
    null,
    null,
    null,
    null,
    null,
    null,
    null,
    null,
    null,
    null
  ],
  "equipment": [
    {
      "id": 4724,
      "amount": 1
    },
    {
      "id": 9748,
      "amount": 1
    },
    {
      "id": 1712,
      "amount": 1
    },
    {
      "id": 12774,
      "amount": 1
    },
    {
      "id": 4728,
      "amount": 1
    },
    {
      "id": 3122,
      "amount": 1
    },
    null,
    {
      "id": 4730,
      "amount": 1
    },
    null,
    {
      "id": 7460,
      "amount": 1
    },
    {
      "id": 11840,
      "amount": 1
    },
    null,
    null,
    null
  ],
  "shopItems": [
    null,
    null,
    null,
    null,
    null,
    null,
    null,
    null,
    null,
    null,
    null,
    null,
    null,
    null,
    null,
    null,
    null,
    null,
    null,
    null,
    null,
    null,
    null,
    null,
    null,
    null,
    null,
    null,
    null,
    null,
    null,
    null,
    null,
    null,
    null,
    null
  ],
  "shopPrices": [
    0,
    0,
    0,
    0,
    0,
    0,
    0,
    0,
    0,
    0,
    0,
    0,
    0,
    0,
    0,
    0,
    0,
    0,
    0,
    0,
    0,
    0,
    0,
    0,
    0,
    0,
    0,
    0,
    0,
    0,
    0,
    0,
    0,
    0,
    0,
    0
  ],
  "pouches": [
    0,
    0,
    0,
    0
  ]
}