{
  "bank": [
    {
      "id": 995,
      "amount": 156812
    },
    {
      "id": 590,
      "amount": 1
    },
    {
      "id": 841,
      "amount": 1
    },
    {
      "id": 562,
      "amount": 16
    },
    {
      "id": 556,
      "amount": 85
    },
    {
      "id": 558,
      "amount": 40
    },
    {
      "id": 555,
      "amount": 36
    },
    {
      "id": 557,
      "amount": 36
    },
    {
      "id": 559,
      "amount": 30
    },
    {
      "id": 563,
      "amount": 65
    },
    {
      "id": 566,
      "amount": 22
    },
    {
      "id": 7178,
      "amount": 10
    },
    {
      "id": 3144,
      "amount": 2
    },
    {
      "id": 565,
      "amount": 7
    },
    {
      "id": 1605,
      "amount": 6
    },
    {
      "id": 5100,
      "amount": 1
    },
    {
      "id": 5300,
      "amount": 7
    },
    {
      "id": 5304,
      "amount": 1
    },
    {
      "id": 5281,
      "amount": 1
    },
    {
      "id": 5297,
      "amount": 1
    },
    {
      "id": 5298,
      "amount": 5
    },
    {
      "id": 3000,
      "amount": 1
    },
    {
      "id": 5294,
      "amount": 1
    },
    {
      "id": 5303,
      "amount": 2
    },
    {
      "id": 2890,
      "amount": 1
    },
    {
      "id": 12811,
      "amount": 1
    },
    {
      "id": 1267,
      "amount": 1
    },
    {
      "id": 1215,
      "amount": 6
    },
    {
      "id": 5541,
      "amount": 2
    },
    {
      "id": 985,
      "amount": 5
    },
    {
      "id": 3391,
      "amount": 3
    },
    {
      "id": 2570,
      "amount": 4
    },
    {
      "id": 1747,
      "amount": 20
    },
    {
      "id": 1273,
      "amount": 1
    },
    {
      "id": 993,
      "amount": 2
    },
    {
      "id": 9342,
      "amount": 8
    },
    {
      "id": 9194,
      "amount": 4
    },
    {
      "id": 5937,
      "amount": 12
    },
    {
      "id": 892,
      "amount": 280
    },
    {
      "id": 805,
      "amount": 50
    },
    {
      "id": 1351,
      "amount": 1
    },
    {
      "id": 3393,
      "amount": 1
    },
    {
      "id": 3839,
      "amount": 1
    },
    {
      "id": 2568,
      "amount": 9
    },
    {
      "id": 6155,
      "amount": 6
    },
    {
      "id": 139,
      "amount": 4
    },
    {
      "id": 1700,
      "amount": 6
    },
    {
      "id": 1601,
      "amount": 8
    },
    {
      "id": 4097,
      "amount": 2
    },
    {
      "id": 1442,
      "amount": 2
    },
    {
      "id": 1448,
      "amount": 1
    },
    {
      "id": 1540,
      "amount": 1
    },
    {
      "id": 882,
      "amount": 311
    },
    {
      "id": 10499,
      "amount": 1
    },
    {
      "id": 1615,
      "amount": 4
    },
    {
      "id": 855,
      "amount": 1
    },
    {
      "id": 4587,
      "amount": 1
    },
    {
      "id": 11230,
      "amount": 25
    },
    {
      "id": 11232,
      "amount": 18
    },
    {
      "id": 5316,
      "amount": 1
    },
    {
      "id": 9193,
      "amount": 9
    },
    {
      "id": 11260,
      "amount": 8
    },
    {
      "id": 10010,
      "amount": 1
    },
    {
      "id": 4155,
      "amount": 1
    },
    {
      "id": 385,
      "amount": 1
    },
    null,
    null,
    null,
    null,
    null,
    null,
    null,
    null,
    null,
    null,
    null,
    null,
    null,
    null,
    null,
    null,
    null,
    null,
    null,
    null,
    null,
    null,
    null,
    null,
    null,
    null,
    null,
    null,
    null,
    null,
    null,
    null,
    null,
    null,
    null,
    null,
    null,
    null,
    null,
    null,
    null,
    null,
    null,
    null,
    null,
    null,
    null,
    null,
    null,
    null,
    null,
    null,
    null,
    null,
    null,
    null,
    null,
    null,
    null,
    null,
    null,
    null,
    null,
    null,
    null,
    null,
    null,
    null,
    null,
    null,
    null,
    null,
    null,
    null,
    null,
    null,
    null,
    null,
    null,
    null,
    null,
    null,
    null,
    null,
    null,
    null,
    null,
    null,
    null,
    null,
    null,
    null,
    null,
    null,
    null,
    null,
    null,
    null,
    null,
    null,
    null,
    null,
    null,
    null,
    null,
    null,
    null,
    null,
    null,
    null,
    null,
    null,
    null,
    null,
    null,
    null,
    null,
    null,
    null,
    null,
    null,
    null,
    null,
    null,
    null,
    null,
    null,
    null,
    null,
    null,
    null,
    null,
    null,
    null,
    null,
    null,
    null,
    null,
    null,
    null,
    null,
    null,
    null,
    null,
    null,
    null,
    null,
    null,
    null,
    null,
    null,
    null,
    null,
    null,
    null,
    null,
    null,
    null,
    null,
    null,
    null,
    null,
    null,
    null,
    null,
    null,
    null,
    null,
    null,
    null,
    null,
    null,
    null,
    null,
    null,
    null,
    null,
    null,
    null,
    null,
    null,
    null,
    null,
    null,
    null,
    null,
    null,
    null,
    null,
    null,
    null,
    null,
    null,
    null,
    null,
    null,
    null,
    null,
    null,
    null,
    null,
    null,
    null,
    null,
    null,
    null,
    null,
    null,
    null,
    null,
    null,
    null,
    null,
    null,
    null,
    null,
    null,
    null,
    null,
    null,
    null,
    null,
    null,
    null,
    null,
    null,
    null,
    null,
    null,
    null,
    null,
    null,
    null,
    null,
    null,
    null,
    null,
    null,
    null,
    null,
    null,
    null,
    null,
    null,
    null,
    null,
    null,
    null,
    null,
    null,
    null,
    null,
    null,
    null,
    null,
    null,
    null,
    null,
    null,
    null,
    null,
    null,
    null,
    null,
    null,
    null,
    null,
    null,
    null,
    null,
    null,
    null,
    null,
    null,
    null,
    null,
    null,
    null,
    null,
    null,
    null,
    null,
    null,
    null,
    null
  ],
  "tabAmounts": [
    65,
    0,
    0,
    0,
    0,
    0,
    0,
    0,
    0,
    0
  ],
  "inventory": [
    {
      "id": 995,
      "amount": 36310
    },
    {
      "id": 303,
      "amount": 1
    },
    {
      "id": 317,
      "amount": 1
    },
    {
      "id": 301,
      "amount": 1
    },
    {
      "id": 311,
      "amount": 1
    },
    {
      "id": 305,
      "amount": 1
    },
    {
      "id": 317,
      "amount": 1
    },
    {
      "id": 317,
      "amount": 1
    },
    {
      "id": 317,
      "amount": 1
    },
    {
      "id": 317,
      "amount": 1
    },
    {
      "id": 317,
      "amount": 1
    },
    {
      "id": 317,
      "amount": 1
    },
    {
      "id": 317,
      "amount": 1
    },
    {
      "id": 317,
      "amount": 1
    },
    {
      "id": 317,
      "amount": 1
    },
    {
      "id": 317,
      "amount": 1
    },
    {
      "id": 317,
      "amount": 1
    },
    {
      "id": 321,
      "amount": 1
    },
    {
      "id": 321,
      "amount": 1
    },
    {
      "id": 317,
      "amount": 1
    },
    {
      "id": 317,
      "amount": 1
    },
    {
      "id": 321,
      "amount": 1
    },
    {
      "id": 321,
      "amount": 1
    },
    {
      "id": 317,
      "amount": 1
    },
    {
      "id": 317,
      "amount": 1
    },
    {
      "id": 321,
      "amount": 1
    },
    null,
    null
  ],
  "equipment": [
    {
      "id": 12810,
      "amount": 1
    },
    null,
    {
      "id": 1704,
      "amount": 1
    },
    {
      "id": 4587,
      "amount": 1
    },
    {
      "id": 1113,
      "amount": 1
    },
    {
      "id": 1185,
      "amount": 1
    },
    null,
    {
      "id": 12812,
      "amount": 1
    },
    null,
    null,
    null,
    null,
    null,
    null
  ],
  "shopItems": [
    null,
    null,
    null,
    null,
    null,
    null,
    null,
    null,
    null,
    null,
    null,
    null,
    null,
    null,
    null,
    null,
    null,
    null,
    null,
    null,
    null,
    null,
    null,
    null,
    null,
    null,
    null,
    null,
    null,
    null,
    null,
    null,
    null,
    null,
    null,
    null
  ],
  "shopPrices": [
    0,
    0,
    0,
    0,
    0,
    0,
    0,
    0,
    0,
    0,
    0,
    0,
    0,
    0,
    0,
    0,
    0,
    0,
    0,
    0,
    0,
    0,
    0,
    0,
    0,
    0,
    0,
    0,
    0,
    0,
    0,
    0,
    0,
    0,
    0,
    0
  ],
  "pouches": [
    0,
    0,
    0,
    0
  ]
}