{
  "bank": [
    {
      "id": 1925,
      "amount": 1
    },
    {
      "id": 1931,
      "amount": 1
    },
    {
      "id": 841,
      "amount": 1
    },
    {
      "id": 882,
      "amount": 25
    },
    {
      "id": 559,
      "amount": 58
    },
    {
      "id": 303,
      "amount": 1
    },
    {
      "id": 1351,
      "amount": 1
    },
    {
      "id": 590,
      "amount": 1
    },
    {
      "id": 556,
      "amount": 88
    },
    {
      "id": 1265,
      "amount": 1
    },
    {
      "id": 5512,
      "amount": 1
    },
    {
      "id": 5510,
      "amount": 1
    },
    {
      "id": 5509,
      "amount": 1
    },
    {
      "id": 251,
      "amount": 1
    },
    {
      "id": 2481,
      "amount": 1
    },
    {
      "id": 259,
      "amount": 1
    },
    {
      "id": 554,
      "amount": 1
    },
    {
      "id": 558,
      "amount": 228
    },
    {
      "id": 566,
      "amount": 66
    },
    {
      "id": 555,
      "amount": 90
    },
    {
      "id": 564,
      "amount": 12
    },
    {
      "id": 7936,
      "amount": 799
    },
    {
      "id": 565,
      "amount": 28
    },
    {
      "id": 5303,
      "amount": 3
    },
    {
      "id": 563,
      "amount": 39
    },
    {
      "id": 562,
      "amount": 8
    },
    {
      "id": 253,
      "amount": 4
    },
    {
      "id": 5100,
      "amount": 1
    },
    {
      "id": 5295,
      "amount": 1
    },
    {
      "id": 5294,
      "amount": 2
    },
    {
      "id": 5285,
      "amount": 1
    },
    {
      "id": 5299,
      "amount": 1
    },
    {
      "id": 5300,
      "amount": 3
    },
    {
      "id": 993,
      "amount": 4
    },
    {
      "id": 1171,
      "amount": 1
    },
    {
      "id": 1747,
      "amount": 36
    },
    {
      "id": 5287,
      "amount": 2
    },
    {
      "id": 11260,
      "amount": 4
    },
    {
      "id": 10010,
      "amount": 1
    },
    {
      "id": 325,
      "amount": 15
    },
    {
      "id": 2366,
      "amount": 1
    },
    {
      "id": 1359,
      "amount": 1
    },
    {
      "id": 11849,
      "amount": 1
    },
    {
      "id": 12811,
      "amount": 1
    },
    {
      "id": 12812,
      "amount": 1
    },
    {
      "id": 1275,
      "amount": 1
    },
    {
      "id": 12810,
      "amount": 1
    },
    {
      "id": 2347,
      "amount": 1
    },
    {
      "id": 1163,
      "amount": 2
    },
    {
      "id": 1147,
      "amount": 6
    },
    {
      "id": 1185,
      "amount": 1
    },
    {
      "id": 987,
      "amount": 4
    },
    {
      "id": 863,
      "amount": 352
    },
    {
      "id": 4587,
      "amount": 1
    },
    {
      "id": 379,
      "amount": 3
    },
    {
      "id": 2678,
      "amount": 1
    },
    {
      "id": 995,
      "amount": 4668479
    },
    {
      "id": 301,
      "amount": 1
    },
    {
      "id": 397,
      "amount": 920
    },
    {
      "id": 2722,
      "amount": 1
    },
    {
      "id": 4097,
      "amount": 1
    },
    {
      "id": 1540,
      "amount": 1
    },
    {
      "id": 952,
      "amount": 1
    },
    {
      "id": 9185,
      "amount": 1
    },
    {
      "id": 12375,
      "amount": 1
    },
    {
      "id": 430,
      "amount": 1
    },
    {
      "id": 12455,
      "amount": 1
    },
    {
      "id": 12453,
      "amount": 1
    },
    {
      "id": 12445,
      "amount": 1
    },
    {
      "id": 12612,
      "amount": 1
    },
    {
      "id": 12449,
      "amount": 1
    },
    {
      "id": 6908,
      "amount": 1
    },
    {
      "id": 1731,
      "amount": 1
    },
    {
      "id": 7458,
      "amount": 1
    },
    {
      "id": 3391,
      "amount": 1
    },
    {
      "id": 10499,
      "amount": 1
    },
    {
      "id": 6324,
      "amount": 1
    },
    {
      "id": 7346,
      "amount": 1
    },
    {
      "id": 10312,
      "amount": 1
    },
    {
      "id": 2605,
      "amount": 1
    },
    {
      "id": 1341,
      "amount": 1
    },
    {
      "id": 10280,
      "amount": 1
    },
    {
      "id": 12215,
      "amount": 1
    },
    {
      "id": 1440,
      "amount": 1
    },
    null,
    null,
    null,
    null,
    null,
    null,
    null,
    null,
    null,
    null,
    null,
    null,
    null,
    null,
    null,
    null,
    null,
    null,
    null,
    null,
    null,
    null,
    null,
    null,
    null,
    null,
    null,
    null,
    null,
    null,
    null,
    null,
    null,
    null,
    null,
    null,
    null,
    null,
    null,
    null,
    null,
    null,
    null,
    null,
    null,
    null,
    null,
    null,
    null,
    null,
    null,
    null,
    null,
    null,
    null,
    null,
    null,
    null,
    null,
    null,
    null,
    null,
    null,
    null,
    null,
    null,
    null,
    null,
    null,
    null,
    null,
    null,
    null,
    null,
    null,
    null,
    null,
    null,
    null,
    null,
    null,
    null,
    null,
    null,
    null,
    null,
    null,
    null,
    null,
    null,
    null,
    null,
    null,
    null,
    null,
    null,
    null,
    null,
    null,
    null,
    null,
    null,
    null,
    null,
    null,
    null,
    null,
    null,
    null,
    null,
    null,
    null,
    null,
    null,
    null,
    null,
    null,
    null,
    null,
    null,
    null,
    null,
    null,
    null,
    null,
    null,
    null,
    null,
    null,
    null,
    null,
    null,
    null,
    null,
    null,
    null,
    null,
    null,
    null,
    null,
    null,
    null,
    null,
    null,
    null,
    null,
    null,
    null,
    null,
    null,
    null,
    null,
    null,
    null,
    null,
    null,
    null,
    null,
    null,
    null,
    null,
    null,
    null,
    null,
    null,
    null,
    null,
    null,
    null,
    null,
    null,
    null,
    null,
    null,
    null,
    null,
    null,
    null,
    null,
    null,
    null,
    null,
    null,
    null,
    null,
    null,
    null,
    null,
    null,
    null,
    null,
    null,
    null,
    null,
    null,
    null,
    null,
    null,
    null,
    null,
    null,
    null,
    null,
    null,
    null,
    null,
    null,
    null,
    null,
    null,
    null,
    null,
    null,
    null,
    null,
    null,
    null,
    null,
    null,
    null,
    null,
    null,
    null,
    null,
    null,
    null,
    null,
    null,
    null,
    null,
    null,
    null,
    null,
    null,
    null,
    null,
    null,
    null,
    null,
    null,
    null,
    null,
    null,
    null,
    null,
    null,
    null,
    null,
    null,
    null,
    null,
    null,
    null,
    null,
    null,
    null,
    null,
    null,
    null,
    null,
    null,
    null,
    null,
    null,
    null,
    null
  ],
  "tabAmounts": [
    65,
    19,
    0,
    0,
    0,
    0,
    0,
    0,
    0,
    0
  ],
  "inventory": [
    {
      "id": 4155,
      "amount": 1
    },
    {
      "id": 397,
      "amount": 1
    },
    {
      "id": 397,
      "amount": 1
    },
    {
      "id": 397,
      "amount": 1
    },
    {
      "id": 397,
      "amount": 1
    },
    {
      "id": 397,
      "amount": 1
    },
    {
      "id": 397,
      "amount": 1
    },
    {
      "id": 397,
      "amount": 1
    },
    {
      "id": 397,
      "amount": 1
    },
    {
      "id": 397,
      "amount": 1
    },
    {
      "id": 397,
      "amount": 1
    },
    {
      "id": 397,
      "amount": 1
    },
    {
      "id": 397,
      "amount": 1
    },
    {
      "id": 397,
      "amount": 1
    },
    {
      "id": 397,
      "amount": 1
    },
    {
      "id": 397,
      "amount": 1
    },
    {
      "id": 397,
      "amount": 1
    },
    {
      "id": 397,
      "amount": 1
    },
    {
      "id": 397,
      "amount": 1
    },
    {
      "id": 397,
      "amount": 1
    },
    {
      "id": 1215,
      "amount": 1
    },
    {
      "id": 397,
      "amount": 1
    },
    {
      "id": 397,
      "amount": 1
    },
    {
      "id": 397,
      "amount": 1
    },
    {
      "id": 397,
      "amount": 1
    },
    {
      "id": 397,
      "amount": 1
    },
    {
      "id": 397,
      "amount": 1
    },
    {
      "id": 397,
      "amount": 1
    }
  ],
  "equipment": [
    {
      "id": 11665,
      "amount": 1
    },
    {
      "id": 10499,
      "amount": 1
    },
    {
      "id": 1731,
      "amount": 1
    },
    {
      "id": 4151,
      "amount": 1
    },
    {
      "id": 8839,
      "amount": 1
    },
    {
      "id": 12610,
      "amount": 1
    },
    null,
    {
      "id": 8840,
      "amount": 1
    },
    null,
    {
      "id": 8842,
      "amount": 1
    },
    {
      "id": 4131,
      "amount": 1
    },
    null,
    null,
    null
  ],
  "shopItems": [
    null,
    null,
    null,
    null,
    null,
    null,
    null,
    null,
    null,
    null,
    null,
    null,
    null,
    null,
    null,
    null,
    null,
    null,
    null,
    null,
    null,
    null,
    null,
    null,
    null,
    null,
    null,
    null,
    null,
    null,
    null,
    null,
    null,
    null,
    null,
    null
  ],
  "shopPrices": [
    0,
    0,
    0,
    0,
    0,
    0,
    0,
    0,
    0,
    0,
    0,
    0,
    0,
    0,
    0,
    0,
    0,
    0,
    0,
    0,
    0,
    0,
    0,
    0,
    0,
    0,
    0,
    0,
    0,
    0,
    0,
    0,
    0,
    0,
    0,
    0
  ],
  "pouches": [
    0,
    0,
    0,
    0
  ]
}