{
  "bank": [
    {
      "id": 995,
      "amount": 1
    },
    {
      "id": 1321,
      "amount": 1
    },
    {
      "id": 841,
      "amount": 1
    },
    {
      "id": 861,
      "amount": 2
    },
    {
      "id": 884,
      "amount": 250
    },
    {
      "id": 1381,
      "amount": 1
    },
    {
      "id": 554,
      "amount": 411
    },
    {
      "id": 558,
      "amount": 100
    },
    {
      "id": 562,
      "amount": 1100
    },
    {
      "id": 555,
      "amount": 392
    },
    {
      "id": 7946,
      "amount": 8
    },
    {
      "id": 849,
      "amount": 1
    },
    {
      "id": 1,
      "amount": 1
    },
    {
      "id": 1452,
      "amount": 1
    },
    {
      "id": 3833,
      "amount": 1
    },
    {
      "id": 438,
      "amount": 1
    },
    {
      "id": 557,
      "amount": 10
    },
    {
      "id": 1367,
      "amount": 1
    },
    {
      "id": 1462,
      "amount": 1
    },
    {
      "id": 12445,
      "amount": 1
    },
    {
      "id": 251,
      "amount": 1
    },
    {
      "id": 1355,
      "amount": 1
    },
    {
      "id": 7460,
      "amount": 2
    },
    {
      "id": 12699,
      "amount": 2
    },
    {
      "id": 1753,
      "amount": 8
    },
    {
      "id": 207,
      "amount": 1
    },
    {
      "id": 3105,
      "amount": 1
    },
    {
      "id": 1540,
      "amount": 1
    },
    {
      "id": 2434,
      "amount": 9
    },
    {
      "id": 143,
      "amount": 1
    },
    {
      "id": 9193,
      "amount": 36
    },
    {
      "id": 5316,
      "amount": 1
    },
    {
      "id": 2550,
      "amount": 16
    },
    {
      "id": 173,
      "amount": 8
    },
    {
      "id": 385,
      "amount": 36
    },
    {
      "id": 3101,
      "amount": 3
    },
    {
      "id": 1779,
      "amount": 39
    },
    {
      "id": 12934,
      "amount": 1
    },
    {
      "id": 3835,
      "amount": 1
    },
    {
      "id": 952,
      "amount": 1
    },
    {
      "id": 4587,
      "amount": 1
    },
    {
      "id": 5288,
      "amount": 1
    },
    {
      "id": 1249,
      "amount": 1
    },
    {
      "id": 229,
      "amount": 5
    },
    {
      "id": 1731,
      "amount": 1
    },
    {
      "id": 6289,
      "amount": 175
    },
    {
      "id": 5974,
      "amount": 80
    },
    {
      "id": 1939,
      "amount": 1000
    },
    {
      "id": 6908,
      "amount": 1
    },
    {
      "id": 563,
      "amount": 10
    },
    {
      "id": 2722,
      "amount": 1
    },
    {
      "id": 6330,
      "amount": 1
    },
    {
      "id": 442,
      "amount": 100
    },
    {
      "id": 3749,
      "amount": 1
    },
    {
      "id": 10499,
      "amount": 1
    },
    {
      "id": 1710,
      "amount": 1
    },
    {
      "id": 9185,
      "amount": 1
    },
    {
      "id": 2503,
      "amount": 1
    },
    {
      "id": 3843,
      "amount": 1
    },
    {
      "id": 2497,
      "amount": 1
    },
    {
      "id": 2491,
      "amount": 1
    },
    {
      "id": 6328,
      "amount": 1
    },
    {
      "id": 9144,
      "amount": 111
    },
    {
      "id": 12447,
      "amount": 1
    },
    {
      "id": 12451,
      "amount": 1
    },
    null,
    null,
    null,
    null,
    null,
    null,
    null,
    null,
    null,
    null,
    null,
    null,
    null,
    null,
    null,
    null,
    null,
    null,
    null,
    null,
    null,
    null,
    null,
    null,
    null,
    null,
    null,
    null,
    null,
    null,
    null,
    null,
    null,
    null,
    null,
    null,
    null,
    null,
    null,
    null,
    null,
    null,
    null,
    null,
    null,
    null,
    null,
    null,
    null,
    null,
    null,
    null,
    null,
    null,
    null,
    null,
    null,
    null,
    null,
    null,
    null,
    null,
    null,
    null,
    null,
    null,
    null,
    null,
    null,
    null,
    null,
    null,
    null,
    null,
    null,
    null,
    null,
    null,
    null,
    null,
    null,
    null,
    null,
    null,
    null,
    null,
    null,
    null,
    null,
    null,
    null,
    null,
    null,
    null,
    null,
    null,
    null,
    null,
    null,
    null,
    null,
    null,
    null,
    null,
    null,
    null,
    null,
    null,
    null,
    null,
    null,
    null,
    null,
    null,
    null,
    null,
    null,
    null,
    null,
    null,
    null,
    null,
    null,
    null,
    null,
    null,
    null,
    null,
    null,
    null,
    null,
    null,
    null,
    null,
    null,
    null,
    null,
    null,
    null,
    null,
    null,
    null,
    null,
    null,
    null,
    null,
    null,
    null,
    null,
    null,
    null,
    null,
    null,
    null,
    null,
    null,
    null,
    null,
    null,
    null,
    null,
    null,
    null,
    null,
    null,
    null,
    null,
    null,
    null,
    null,
    null,
    null,
    null,
    null,
    null,
    null,
    null,
    null,
    null,
    null,
    null,
    null,
    null,
    null,
    null,
    null,
    null,
    null,
    null,
    null,
    null,
    null,
    null,
    null,
    null,
    null,
    null,
    null,
    null,
    null,
    null,
    null,
    null,
    null,
    null,
    null,
    null,
    null,
    null,
    null,
    null,
    null,
    null,
    null,
    null,
    null,
    null,
    null,
    null,
    null,
    null,
    null,
    null,
    null,
    null,
    null,
    null,
    null,
    null,
    null,
    null,
    null,
    null,
    null,
    null,
    null,
    null,
    null,
    null,
    null,
    null,
    null,
    null,
    null,
    null,
    null,
    null,
    null,
    null,
    null,
    null,
    null,
    null,
    null,
    null,
    null,
    null,
    null,
    null,
    null,
    null,
    null,
    null,
    null,
    null,
    null,
    null,
    null,
    null,
    null,
    null,
    null,
    null,
    null,
    null,
    null,
    null,
    null,
    null,
    null,
    null,
    null,
    null,
    null,
    null
  ],
  "tabAmounts": [
    65,
    0,
    0,
    0,
    0,
    0,
    0,
    0,
    0,
    0
  ],
  "inventory": [
    null,
    null,
    null,
    null,
    null,
    null,
    null,
    null,
    null,
    null,
    null,
    null,
    null,
    null,
    null,
    null,
    null,
    null,
    null,
    null,
    null,
    null,
    null,
    null,
    null,
    null,
    null,
    null
  ],
  "equipment": [
    null,
    null,
    null,
    null,
    null,
    null,
    null,
    null,
    null,
    null,
    null,
    null,
    null,
    null
  ],
  "shopItems": [
    null,
    null,
    null,
    null,
    null,
    null,
    null,
    null,
    null,
    null,
    null,
    null,
    null,
    null,
    null,
    null,
    null,
    null,
    null,
    null,
    null,
    null,
    null,
    null,
    null,
    null,
    null,
    null,
    null,
    null,
    null,
    null,
    null,
    null,
    null,
    null
  ],
  "shopPrices": [
    0,
    0,
    0,
    0,
    0,
    0,
    0,
    0,
    0,
    0,
    0,
    0,
    0,
    0,
    0,
    0,
    0,
    0,
    0,
    0,
    0,
    0,
    0,
    0,
    0,
    0,
    0,
    0,
    0,
    0,
    0,
    0,
    0,
    0,
    0,
    0
  ],
  "pouches": [
    0,
    0,
    0,
    0
  ]
}