{
  "bank": [
    {
      "id": 2570,
      "amount": 20
    },
    {
      "id": 2568,
      "amount": 18
    },
    {
      "id": 1731,
      "amount": 3
    },
    {
      "id": 1601,
      "amount": 16
    },
    {
      "id": 1215,
      "amount": 7
    },
    {
      "id": 5937,
      "amount": 36
    },
    {
      "id": 1747,
      "amount": 120
    },
    {
      "id": 805,
      "amount": 500
    },
    {
      "id": 9342,
      "amount": 14
    },
    {
      "id": 1347,
      "amount": 1
    },
    {
      "id": 9341,
      "amount": 3
    },
    {
      "id": 1704,
      "amount": 4
    },
    {
      "id": 526,
      "amount": 15
    },
    {
      "id": 536,
      "amount": 63
    },
    {
      "id": 11260,
      "amount": 17
    },
    {
      "id": 1700,
      "amount": 1
    },
    {
      "id": 11237,
      "amount": 13
    },
    {
      "id": 5316,
      "amount": 1
    },
    {
      "id": 5541,
      "amount": 1
    },
    {
      "id": 5300,
      "amount": 6
    },
    {
      "id": 430,
      "amount": 1
    },
    {
      "id": 10010,
      "amount": 1
    },
    {
      "id": 995,
      "amount": 29992730
    },
    {
      "id": 12695,
      "amount": 103
    },
    {
      "id": 2434,
      "amount": 5
    },
    {
      "id": 385,
      "amount": 436
    },
    {
      "id": 2436,
      "amount": 11
    },
    {
      "id": 2440,
      "amount": 21
    },
    {
      "id": 561,
      "amount": 763
    },
    {
      "id": 3053,
      "amount": 9
    },
    {
      "id": 3749,
      "amount": 1
    },
    {
      "id": 2550,
      "amount": 2
    },
    {
      "id": 12449,
      "amount": 3
    },
    {
      "id": 1845,
      "amount": 1
    },
    {
      "id": 2801,
      "amount": 1
    },
    {
      "id": 6330,
      "amount": 3
    },
    {
      "id": 1247,
      "amount": 3
    },
    {
      "id": 2368,
      "amount": 1
    },
    {
      "id": 3385,
      "amount": 1
    },
    {
      "id": 830,
      "amount": 10
    },
    {
      "id": 257,
      "amount": 2
    },
    {
      "id": 12447,
      "amount": 2
    },
    {
      "id": 3391,
      "amount": 2
    },
    {
      "id": 2363,
      "amount": 8
    },
    {
      "id": 1181,
      "amount": 1
    },
    {
      "id": 532,
      "amount": 1
    },
    {
      "id": 4155,
      "amount": 1
    },
    {
      "id": 1197,
      "amount": 2
    },
    {
      "id": 6912,
      "amount": 1
    },
    {
      "id": 859,
      "amount": 4
    },
    {
      "id": 1389,
      "amount": 4
    },
    {
      "id": 2723,
      "amount": 1
    },
    {
      "id": 249,
      "amount": 2
    },
    {
      "id": 1846,
      "amount": 1
    },
    {
      "id": 1319,
      "amount": 8
    },
    {
      "id": 3393,
      "amount": 1
    },
    {
      "id": 3101,
      "amount": 3
    },
    {
      "id": 1540,
      "amount": 1
    },
    {
      "id": 560,
      "amount": 704
    },
    {
      "id": 1615,
      "amount": 5
    },
    {
      "id": 207,
      "amount": 2
    },
    {
      "id": 211,
      "amount": 1
    },
    {
      "id": 1099,
      "amount": 4
    },
    {
      "id": 12445,
      "amount": 1
    },
    {
      "id": 7936,
      "amount": 190
    },
    {
      "id": 2890,
      "amount": 2
    },
    {
      "id": 12455,
      "amount": 2
    },
    {
      "id": 1702,
      "amount": 3
    },
    {
      "id": 2803,
      "amount": 2
    },
    {
      "id": 6908,
      "amount": 2
    },
    {
      "id": 373,
      "amount": 443
    },
    {
      "id": 841,
      "amount": 1
    },
    {
      "id": 2682,
      "amount": 2
    },
    {
      "id": 1844,
      "amount": 1
    },
    {
      "id": 884,
      "amount": 227
    },
    {
      "id": 685,
      "amount": 1
    },
    {
      "id": 1939,
      "amount": 30
    },
    {
      "id": 12451,
      "amount": 2
    },
    {
      "id": 4697,
      "amount": 35
    },
    {
      "id": 8844,
      "amount": 1
    },
    {
      "id": 12453,
      "amount": 1
    },
    {
      "id": 8846,
      "amount": 1
    },
    {
      "id": 3387,
      "amount": 1
    },
    {
      "id": 8847,
      "amount": 1
    },
    {
      "id": 8848,
      "amount": 1
    },
    {
      "id": 8849,
      "amount": 1
    },
    {
      "id": 8850,
      "amount": 1
    },
    {
      "id": 8845,
      "amount": 1
    },
    {
      "id": 8851,
      "amount": 120
    },
    {
      "id": 3105,
      "amount": 2
    },
    {
      "id": 451,
      "amount": 20
    },
    {
      "id": 2361,
      "amount": 35
    },
    {
      "id": 563,
      "amount": 315
    },
    {
      "id": 1,
      "amount": 1
    },
    {
      "id": 829,
      "amount": 20
    },
    {
      "id": 9736,
      "amount": 120
    },
    {
      "id": 890,
      "amount": 193
    },
    {
      "id": 566,
      "amount": 683
    },
    {
      "id": 1403,
      "amount": 1
    },
    {
      "id": 11230,
      "amount": 131
    },
    {
      "id": 9144,
      "amount": 250
    },
    {
      "id": 2501,
      "amount": 1
    },
    {
      "id": 7979,
      "amount": 1
    },
    {
      "id": 1513,
      "amount": 5
    },
    {
      "id": 2722,
      "amount": 2
    },
    {
      "id": 1135,
      "amount": 3
    },
    {
      "id": 229,
      "amount": 2
    },
    {
      "id": 1623,
      "amount": 2
    },
    {
      "id": 442,
      "amount": 301
    },
    {
      "id": 9143,
      "amount": 305
    },
    {
      "id": 882,
      "amount": 881
    },
    {
      "id": 12788,
      "amount": 1
    },
    {
      "id": 2503,
      "amount": 1
    },
    {
      "id": 4151,
      "amount": 3
    },
    {
      "id": 9676,
      "amount": 1
    },
    {
      "id": 9674,
      "amount": 1
    },
    {
      "id": 1432,
      "amount": 1
    },
    {
      "id": 562,
      "amount": 72
    },
    {
      "id": 558,
      "amount": 97
    },
    {
      "id": 554,
      "amount": 212
    },
    {
      "id": 1381,
      "amount": 1
    },
    {
      "id": 2497,
      "amount": 2
    },
    {
      "id": 4087,
      "amount": 3
    },
    {
      "id": 159,
      "amount": 2
    },
    {
      "id": 147,
      "amount": 2
    },
    {
      "id": 143,
      "amount": 1
    },
    {
      "id": 11942,
      "amount": 1
    },
    {
      "id": 1617,
      "amount": 2
    },
    {
      "id": 3755,
      "amount": 1
    },
    {
      "id": 4153,
      "amount": 1
    },
    {
      "id": 987,
      "amount": 6
    },
    {
      "id": 12748,
      "amount": 4
    },
    {
      "id": 3122,
      "amount": 3
    },
    {
      "id": 6920,
      "amount": 2
    },
    {
      "id": 12610,
      "amount": 2
    },
    {
      "id": 2491,
      "amount": 2
    },
    {
      "id": 2366,
      "amount": 4
    },
    {
      "id": 3839,
      "amount": 1
    },
    {
      "id": 9185,
      "amount": 3
    },
    {
      "id": 3841,
      "amount": 4
    },
    {
      "id": 4091,
      "amount": 2
    },
    {
      "id": 4587,
      "amount": 3
    },
    {
      "id": 4089,
      "amount": 4
    },
    {
      "id": 4097,
      "amount": 4
    },
    {
      "id": 1149,
      "amount": 6
    },
    {
      "id": 10499,
      "amount": 3
    },
    {
      "id": 10828,
      "amount": 2
    },
    {
      "id": 7460,
      "amount": 5
    },
    {
      "id": 6328,
      "amount": 2
    },
    {
      "id": 149,
      "amount": 1
    },
    {
      "id": 161,
      "amount": 1
    },
    {
      "id": 13576,
      "amount": 1
    },
    {
      "id": 12954,
      "amount": 1
    },
    {
      "id": 11665,
      "amount": 1
    },
    {
      "id": 6570,
      "amount": 1
    },
    {
      "id": 13092,
      "amount": 1
    },
    {
      "id": 4131,
      "amount": 1
    },
    {
      "id": 892,
      "amount": 939
    },
    {
      "id": 11694,
      "amount": 1
    },
    {
      "id": 7462,
      "amount": 3
    },
    {
      "id": 10952,
      "amount": 1
    },
    {
      "id": 4093,
      "amount": 1
    },
    {
      "id": 12612,
      "amount": 1
    },
    {
      "id": 556,
      "amount": 2775
    },
    {
      "id": 4878,
      "amount": 2
    },
    {
      "id": 4932,
      "amount": 1
    },
    {
      "id": 4950,
      "amount": 1
    },
    {
      "id": 4884,
      "amount": 1
    },
    {
      "id": 4914,
      "amount": 1
    },
    {
      "id": 6529,
      "amount": 14505
    },
    {
      "id": 379,
      "amount": 276
    },
    {
      "id": 2413,
      "amount": 1
    },
    {
      "id": 19670,
      "amount": 1
    },
    {
      "id": 323,
      "amount": 3
    },
    {
      "id": 315,
      "amount": 42
    },
    {
      "id": 319,
      "amount": 23
    },
    {
      "id": 317,
      "amount": 4
    },
    {
      "id": 7946,
      "amount": 511
    },
    {
      "id": 303,
      "amount": 1
    },
    {
      "id": 301,
      "amount": 1
    },
    {
      "id": 6032,
      "amount": 6
    },
    {
      "id": 1605,
      "amount": 2
    },
    {
      "id": 5297,
      "amount": 1
    },
    {
      "id": 5303,
      "amount": 2
    },
    {
      "id": 3144,
      "amount": 4
    },
    {
      "id": 1607,
      "amount": 1
    },
    {
      "id": 565,
      "amount": 21
    },
    {
      "id": 10136,
      "amount": 10
    },
    {
      "id": 5298,
      "amount": 5
    },
    {
      "id": 564,
      "amount": 8
    },
    {
      "id": 3000,
      "amount": 1
    },
    {
      "id": 6918,
      "amount": 1
    },
    {
      "id": 1079,
      "amount": 1
    },
    {
      "id": 11849,
      "amount": 30
    },
    {
      "id": 12522,
      "amount": 1
    },
    {
      "id": 2641,
      "amount": 1
    },
    {
      "id": 12217,
      "amount": 1
    },
    {
      "id": 12518,
      "amount": 1
    },
    {
      "id": 10288,
      "amount": 1
    },
    {
      "id": 2639,
      "amount": 1
    },
    {
      "id": 12325,
      "amount": 1
    },
    {
      "id": 6322,
      "amount": 1
    },
    {
      "id": 12375,
      "amount": 1
    },
    {
      "id": 2603,
      "amount": 1
    },
    {
      "id": 1249,
      "amount": 1
    },
    {
      "id": 19649,
      "amount": 1
    },
    {
      "id": 311,
      "amount": 1
    },
    {
      "id": 12307,
      "amount": 1
    },
    {
      "id": 19544,
      "amount": 1
    },
    {
      "id": 4214,
      "amount": 1
    },
    {
      "id": 3140,
      "amount": 1
    },
    {
      "id": 4738,
      "amount": 2
    },
    {
      "id": 4585,
      "amount": 2
    },
    {
      "id": 4759,
      "amount": 1
    },
    {
      "id": 19484,
      "amount": 500
    },
    {
      "id": 6737,
      "amount": 1
    },
    {
      "id": 4712,
      "amount": 1
    },
    {
      "id": 1127,
      "amount": 1
    },
    {
      "id": 10422,
      "amount": 1
    },
    {
      "id": 10294,
      "amount": 1
    },
    {
      "id": 4728,
      "amount": 1
    },
    {
      "id": 4710,
      "amount": 1
    },
    {
      "id": 6735,
      "amount": 2
    },
    {
      "id": 1359,
      "amount": 1
    },
    {
      "id": 383,
      "amount": 50
    },
    {
      "id": 11936,
      "amount": 25
    },
    {
      "id": 11840,
      "amount": 1
    },
    {
      "id": 3024,
      "amount": 11
    },
    {
      "id": 11896,
      "amount": 1
    },
    {
      "id": 6914,
      "amount": 1
    },
    {
      "id": 10408,
      "amount": 1
    },
    {
      "id": 557,
      "amount": 53
    },
    {
      "id": 11898,
      "amount": 1
    },
    {
      "id": 139,
      "amount": 10
    },
    {
      "id": 292,
      "amount": 1
    },
    {
      "id": 10302,
      "amount": 1
    },
    {
      "id": 10310,
      "amount": 1
    },
    {
      "id": 12361,
      "amount": 1
    },
    {
      "id": 4753,
      "amount": 1
    },
    {
      "id": 4736,
      "amount": 1
    },
    {
      "id": 13441,
      "amount": 2437
    },
    {
      "id": 1371,
      "amount": 1
    },
    {
      "id": 861,
      "amount": 1
    },
    {
      "id": 11664,
      "amount": 1
    },
    {
      "id": 1712,
      "amount": 1
    },
    {
      "id": 13072,
      "amount": 1
    },
    {
      "id": 13073,
      "amount": 1
    },
    {
      "id": 8842,
      "amount": 1
    },
    {
      "id": 2577,
      "amount": 1
    },
    {
      "id": 2572,
      "amount": 1
    },
    {
      "id": 173,
      "amount": 1
    },
    {
      "id": 169,
      "amount": 1
    },
    {
      "id": 1619,
      "amount": 17
    },
    {
      "id": 1391,
      "amount": 15
    },
    {
      "id": 12926,
      "amount": 1
    },
    {
      "id": 12800,
      "amount": 1
    },
    {
      "id": 11685,
      "amount": 1
    },
    {
      "id": 1349,
      "amount": 1
    },
    {
      "id": 438,
      "amount": 5
    },
    {
      "id": 436,
      "amount": 3
    },
    {
      "id": 444,
      "amount": 11
    },
    {
      "id": 453,
      "amount": 5
    },
    {
      "id": 440,
      "amount": 1
    },
    {
      "id": 1621,
      "amount": 1
    },
    {
      "id": 1627,
      "amount": 1
    },
    {
      "id": 1625,
      "amount": 2
    },
    {
      "id": 1629,
      "amount": 3
    },
    {
      "id": 447,
      "amount": 70
    },
    {
      "id": 1275,
      "amount": 1
    },
    {
      "id": 449,
      "amount": 108
    },
    null,
    null,
    null,
    null,
    null,
    null,
    null,
    null,
    null,
    null,
    null,
    null,
    null,
    null,
    null,
    null,
    null,
    null,
    null,
    null,
    null,
    null,
    null,
    null,
    null,
    null,
    null,
    null,
    null,
    null,
    null,
    null,
    null,
    null,
    null,
    null,
    null,
    null,
    null,
    null,
    null,
    null,
    null,
    null,
    null,
    null,
    null,
    null,
    null,
    null,
    null,
    null,
    null,
    null,
    null,
    null,
    null,
    null,
    null,
    null,
    null,
    null,
    null,
    null,
    null,
    null,
    null,
    null,
    null,
    null,
    null,
    null,
    null,
    null,
    null,
    null,
    null,
    null,
    null,
    null
  ],
  "tabAmounts": [
    270,
    0,
    0,
    0,
    0,
    0,
    0,
    0,
    0,
    0
  ],
  "inventory": [
    {
      "id": 995,
      "amount": 208687
    },
    null,
    null,
    null,
    null,
    null,
    null,
    null,
    null,
    null,
    null,
    null,
    null,
    null,
    null,
    null,
    null,
    null,
    null,
    null,
    null,
    null,
    null,
    null,
    null,
    null,
    null,
    null
  ],
  "equipment": [
    null,
    null,
    null,
    {
      "id": 13243,
      "amount": 1
    },
    null,
    null,
    null,
    null,
    null,
    null,
    null,
    null,
    null,
    null
  ],
  "shopItems": [
    null,
    null,
    null,
    null,
    null,
    null,
    null,
    null,
    null,
    null,
    null,
    null,
    null,
    null,
    null,
    null,
    null,
    null,
    null,
    null,
    null,
    null,
    null,
    null,
    null,
    null,
    null,
    null,
    null,
    null,
    null,
    null,
    null,
    null,
    null,
    null
  ],
  "shopPrices": [
    0,
    0,
    0,
    0,
    0,
    0,
    0,
    0,
    0,
    0,
    0,
    0,
    0,
    0,
    0,
    0,
    0,
    0,
    0,
    0,
    0,
    0,
    0,
    0,
    0,
    0,
    0,
    0,
    0,
    0,
    0,
    0,
    0,
    0,
    0,
    0
  ],
  "pouches": [
    0,
    0,
    0,
    0
  ]
}