{
  "bank": [
    {
      "id": 995,
      "amount": 13084103
    },
    {
      "id": 563,
      "amount": 38
    },
    {
      "id": 561,
      "amount": 205
    },
    {
      "id": 565,
      "amount": 459
    },
    {
      "id": 560,
      "amount": 1161
    },
    {
      "id": 562,
      "amount": 760
    },
    {
      "id": 558,
      "amount": 157
    },
    {
      "id": 9075,
      "amount": 10
    },
    {
      "id": 554,
      "amount": 1073
    },
    {
      "id": 556,
      "amount": 10
    },
    {
      "id": 564,
      "amount": 220
    },
    {
      "id": 557,
      "amount": 474
    },
    {
      "id": 555,
      "amount": 3340
    },
    {
      "id": 2550,
      "amount": 6
    },
    {
      "id": 379,
      "amount": 205
    },
    {
      "id": 9674,
      "amount": 1
    },
    {
      "id": 9672,
      "amount": 1
    },
    {
      "id": 3216,
      "amount": 1
    },
    {
      "id": 261,
      "amount": 1
    },
    {
      "id": 229,
      "amount": 53
    },
    {
      "id": 227,
      "amount": 479
    },
    {
      "id": 235,
      "amount": 13
    },
    {
      "id": 6337,
      "amount": 1
    },
    {
      "id": 9143,
      "amount": 947
    },
    {
      "id": 5520,
      "amount": 10
    },
    {
      "id": 9758,
      "amount": 2
    },
    {
      "id": 830,
      "amount": 738
    },
    {
      "id": 233,
      "amount": 3
    },
    {
      "id": 225,
      "amount": 5
    },
    {
      "id": 223,
      "amount": 3
    },
    {
      "id": 99,
      "amount": 9
    },
    {
      "id": 6685,
      "amount": 21
    },
    {
      "id": 868,
      "amount": 1
    },
    {
      "id": 952,
      "amount": 7
    },
    {
      "id": 2487,
      "amount": 1
    },
    {
      "id": 2499,
      "amount": 1
    },
    {
      "id": 1734,
      "amount": 500
    },
    {
      "id": 2639,
      "amount": 2
    },
    {
      "id": 5296,
      "amount": 1
    },
    {
      "id": 2440,
      "amount": 3
    },
    {
      "id": 2436,
      "amount": 24
    },
    {
      "id": 2428,
      "amount": 3
    },
    {
      "id": 121,
      "amount": 1
    },
    {
      "id": 1127,
      "amount": 1
    },
    {
      "id": 1079,
      "amount": 1
    },
    {
      "id": 1163,
      "amount": 2
    },
    {
      "id": 8851,
      "amount": 30
    },
    {
      "id": 10976,
      "amount": 1
    },
    {
      "id": 6910,
      "amount": 2
    },
    {
      "id": 6908,
      "amount": 3
    },
    {
      "id": 2452,
      "amount": 6
    },
    {
      "id": 1381,
      "amount": 1
    },
    {
      "id": 3385,
      "amount": 3
    },
    {
      "id": 10298,
      "amount": 2
    },
    {
      "id": 7356,
      "amount": 1
    },
    {
      "id": 12451,
      "amount": 7
    },
    {
      "id": 3837,
      "amount": 1
    },
    {
      "id": 2645,
      "amount": 1
    },
    {
      "id": 12771,
      "amount": 3
    },
    {
      "id": 10462,
      "amount": 1
    },
    {
      "id": 2635,
      "amount": 1
    },
    {
      "id": 12375,
      "amount": 5
    },
    {
      "id": 1603,
      "amount": 1
    },
    {
      "id": 11992,
      "amount": 1
    },
    {
      "id": 1747,
      "amount": 34
    },
    {
      "id": 1623,
      "amount": 1
    },
    {
      "id": 1605,
      "amount": 1
    },
    {
      "id": 1621,
      "amount": 1
    },
    {
      "id": 811,
      "amount": 12
    },
    {
      "id": 2497,
      "amount": 6
    },
    {
      "id": 861,
      "amount": 6
    },
    {
      "id": 892,
      "amount": 748
    },
    {
      "id": 863,
      "amount": 485
    },
    {
      "id": 884,
      "amount": 250
    },
    {
      "id": 6322,
      "amount": 3
    },
    {
      "id": 6326,
      "amount": 2
    },
    {
      "id": 2491,
      "amount": 2
    },
    {
      "id": 869,
      "amount": 109
    },
    {
      "id": 1,
      "amount": 2
    },
    {
      "id": 1733,
      "amount": 6
    },
    {
      "id": 946,
      "amount": 2
    },
    {
      "id": 1357,
      "amount": 1
    },
    {
      "id": 301,
      "amount": 1
    },
    {
      "id": 311,
      "amount": 1
    },
    {
      "id": 10887,
      "amount": 2
    },
    {
      "id": 1249,
      "amount": 11
    },
    {
      "id": 9756,
      "amount": 2
    },
    {
      "id": 7986,
      "amount": 1
    },
    {
      "id": 8264,
      "amount": 1
    },
    {
      "id": 1619,
      "amount": 2
    },
    {
      "id": 1607,
      "amount": 94
    },
    {
      "id": 1753,
      "amount": 31
    },
    {
      "id": 7936,
      "amount": 2661
    },
    {
      "id": 10010,
      "amount": 2
    },
    {
      "id": 303,
      "amount": 1
    },
    {
      "id": 10306,
      "amount": 1
    },
    {
      "id": 4111,
      "amount": 1
    },
    {
      "id": 2653,
      "amount": 2
    },
    {
      "id": 12307,
      "amount": 1
    },
    {
      "id": 7350,
      "amount": 1
    },
    {
      "id": 7378,
      "amount": 1
    },
    {
      "id": 1393,
      "amount": 2
    },
    {
      "id": 9749,
      "amount": 1
    },
    {
      "id": 2456,
      "amount": 1
    },
    {
      "id": 1761,
      "amount": 1
    },
    {
      "id": 2363,
      "amount": 27
    },
    {
      "id": 10292,
      "amount": 1
    },
    {
      "id": 9755,
      "amount": 1
    },
    {
      "id": 6912,
      "amount": 2
    },
    {
      "id": 8850,
      "amount": 1
    },
    {
      "id": 11849,
      "amount": 30
    },
    {
      "id": 3480,
      "amount": 1
    },
    {
      "id": 7400,
      "amount": 2
    },
    {
      "id": 3122,
      "amount": 1
    },
    {
      "id": 3105,
      "amount": 5
    },
    {
      "id": 2458,
      "amount": 1
    },
    {
      "id": 2446,
      "amount": 45
    },
    {
      "id": 1540,
      "amount": 1
    },
    {
      "id": 7458,
      "amount": 1
    },
    {
      "id": 7354,
      "amount": 2
    },
    {
      "id": 1359,
      "amount": 1
    },
    {
      "id": 3389,
      "amount": 3
    },
    {
      "id": 4107,
      "amount": 1
    },
    {
      "id": 12345,
      "amount": 1
    },
    {
      "id": 12445,
      "amount": 5
    },
    {
      "id": 12453,
      "amount": 3
    },
    {
      "id": 2361,
      "amount": 45
    },
    {
      "id": 7382,
      "amount": 1
    },
    {
      "id": 161,
      "amount": 1
    },
    {
      "id": 149,
      "amount": 1
    },
    {
      "id": 5295,
      "amount": 22
    },
    {
      "id": 6155,
      "amount": 12
    },
    {
      "id": 453,
      "amount": 13
    },
    {
      "id": 2357,
      "amount": 3
    },
    {
      "id": 2347,
      "amount": 1
    },
    {
      "id": 1275,
      "amount": 1
    },
    {
      "id": 12303,
      "amount": 1
    },
    {
      "id": 6529,
      "amount": 17016
    },
    {
      "id": 9676,
      "amount": 1
    },
    {
      "id": 173,
      "amount": 2
    },
    {
      "id": 12610,
      "amount": 3
    },
    {
      "id": 12447,
      "amount": 2
    },
    {
      "id": 257,
      "amount": 63
    },
    {
      "id": 1093,
      "amount": 2
    },
    {
      "id": 12416,
      "amount": 1
    },
    {
      "id": 1615,
      "amount": 15
    },
    {
      "id": 1123,
      "amount": 1
    },
    {
      "id": 1403,
      "amount": 2
    },
    {
      "id": 4695,
      "amount": 100
    },
    {
      "id": 1391,
      "amount": 30
    },
    {
      "id": 4093,
      "amount": 4
    },
    {
      "id": 3749,
      "amount": 4
    },
    {
      "id": 3753,
      "amount": 3
    },
    {
      "id": 7114,
      "amount": 2
    },
    {
      "id": 2503,
      "amount": 5
    },
    {
      "id": 12325,
      "amount": 2
    },
    {
      "id": 13233,
      "amount": 1
    },
    {
      "id": 1779,
      "amount": 520
    },
    {
      "id": 1777,
      "amount": 56
    },
    {
      "id": 10294,
      "amount": 1
    },
    {
      "id": 430,
      "amount": 1
    },
    {
      "id": 4587,
      "amount": 1
    },
    {
      "id": 12520,
      "amount": 1
    },
    {
      "id": 9754,
      "amount": 1
    },
    {
      "id": 10428,
      "amount": 1
    },
    {
      "id": 1187,
      "amount": 1
    },
    {
      "id": 3140,
      "amount": 2
    },
    {
      "id": 12383,
      "amount": 1
    },
    {
      "id": 7399,
      "amount": 1
    },
    {
      "id": 1213,
      "amount": 1
    },
    {
      "id": 7384,
      "amount": 1
    },
    {
      "id": 1965,
      "amount": 2
    },
    {
      "id": 7338,
      "amount": 1
    },
    {
      "id": 10290,
      "amount": 1
    },
    {
      "id": 10280,
      "amount": 1
    },
    {
      "id": 147,
      "amount": 1
    },
    {
      "id": 159,
      "amount": 1
    },
    {
      "id": 9748,
      "amount": 1
    },
    {
      "id": 13439,
      "amount": 7
    },
    {
      "id": 395,
      "amount": 7
    },
    {
      "id": 383,
      "amount": 4
    },
    {
      "id": 11934,
      "amount": 1
    },
    {
      "id": 5316,
      "amount": 3
    },
    {
      "id": 1513,
      "amount": 1714
    },
    {
      "id": 2509,
      "amount": 441
    },
    {
      "id": 592,
      "amount": 9455
    },
    {
      "id": 11932,
      "amount": 1
    },
    {
      "id": 11931,
      "amount": 1
    },
    {
      "id": 859,
      "amount": 2
    },
    {
      "id": 9341,
      "amount": 13
    },
    {
      "id": 11212,
      "amount": 114
    },
    {
      "id": 2675,
      "amount": 1
    },
    {
      "id": 19610,
      "amount": 1
    },
    {
      "id": 2659,
      "amount": 1
    },
    {
      "id": 7360,
      "amount": 1
    },
    {
      "id": 1289,
      "amount": 2
    },
    {
      "id": 12608,
      "amount": 1
    },
    {
      "id": 157,
      "amount": 1
    },
    {
      "id": 145,
      "amount": 1
    },
    {
      "id": 10977,
      "amount": 1
    },
    {
      "id": 251,
      "amount": 1
    },
    {
      "id": 253,
      "amount": 2
    },
    {
      "id": 3024,
      "amount": 40
    },
    {
      "id": 12697,
      "amount": 4
    },
    {
      "id": 10952,
      "amount": 4
    },
    {
      "id": 9193,
      "amount": 47
    },
    {
      "id": 11232,
      "amount": 22
    },
    {
      "id": 1432,
      "amount": 1
    },
    {
      "id": 10288,
      "amount": 1
    },
    {
      "id": 12516,
      "amount": 1
    },
    {
      "id": 7334,
      "amount": 2
    },
    {
      "id": 1347,
      "amount": 1
    },
    {
      "id": 12263,
      "amount": 1
    },
    {
      "id": 7336,
      "amount": 1
    },
    {
      "id": 2641,
      "amount": 1
    },
    {
      "id": 2661,
      "amount": 1
    },
    {
      "id": 10416,
      "amount": 1
    },
    {
      "id": 7332,
      "amount": 1
    },
    {
      "id": 2611,
      "amount": 1
    },
    {
      "id": 3843,
      "amount": 3
    },
    {
      "id": 3755,
      "amount": 1
    },
    {
      "id": 3028,
      "amount": 1
    },
    {
      "id": 12498,
      "amount": 2
    },
    {
      "id": 11237,
      "amount": 22
    },
    {
      "id": 3841,
      "amount": 2
    },
    {
      "id": 2366,
      "amount": 1
    },
    {
      "id": 2368,
      "amount": 2
    },
    {
      "id": 1712,
      "amount": 4
    },
    {
      "id": 7398,
      "amount": 1
    },
    {
      "id": 2493,
      "amount": 1
    },
    {
      "id": 2890,
      "amount": 3
    },
    {
      "id": 6527,
      "amount": 1
    },
    {
      "id": 10378,
      "amount": 1
    },
    {
      "id": 2680,
      "amount": 1
    },
    {
      "id": 4740,
      "amount": 55
    },
    {
      "id": 1731,
      "amount": 7
    },
    {
      "id": 1643,
      "amount": 1
    },
    {
      "id": 4675,
      "amount": 1
    },
    {
      "id": 4712,
      "amount": 1
    },
    {
      "id": 12319,
      "amount": 1
    },
    {
      "id": 12315,
      "amount": 1
    },
    {
      "id": 3831,
      "amount": 1
    },
    {
      "id": 10452,
      "amount": 1
    },
    {
      "id": 10412,
      "amount": 1
    },
    {
      "id": 10388,
      "amount": 2
    },
    {
      "id": 2663,
      "amount": 1
    },
    {
      "id": 985,
      "amount": 9
    },
    {
      "id": 10551,
      "amount": 5
    },
    {
      "id": 12954,
      "amount": 6
    },
    {
      "id": 3204,
      "amount": 1
    },
    {
      "id": 10828,
      "amount": 1
    },
    {
      "id": 1215,
      "amount": 1
    },
    {
      "id": 7460,
      "amount": 3
    },
    {
      "id": 12695,
      "amount": 323
    },
    {
      "id": 2444,
      "amount": 21
    },
    {
      "id": 397,
      "amount": 1
    },
    {
      "id": 13441,
      "amount": 89
    },
    {
      "id": 385,
      "amount": 12
    },
    {
      "id": 10499,
      "amount": 5
    },
    {
      "id": 9185,
      "amount": 10
    },
    {
      "id": 9144,
      "amount": 82
    },
    {
      "id": 6328,
      "amount": 1
    },
    {
      "id": 6914,
      "amount": 2
    },
    {
      "id": 1617,
      "amount": 1
    },
    {
      "id": 1515,
      "amount": 15
    },
    {
      "id": 4155,
      "amount": 1
    },
    {
      "id": 2132,
      "amount": 7
    },
    {
      "id": 6032,
      "amount": 6
    },
    {
      "id": 361,
      "amount": 1
    },
    {
      "id": 1438,
      "amount": 1
    },
    {
      "id": 1601,
      "amount": 12
    },
    {
      "id": 3144,
      "amount": 4
    },
    {
      "id": 1927,
      "amount": 1
    },
    {
      "id": 566,
      "amount": 66
    },
    {
      "id": 11260,
      "amount": 31
    },
    {
      "id": 9194,
      "amount": 4
    },
    {
      "id": 7218,
      "amount": 9
    },
    {
      "id": 5300,
      "amount": 1
    },
    {
      "id": 2723,
      "amount": 1
    },
    {
      "id": 11943,
      "amount": 230
    },
    {
      "id": 3839,
      "amount": 1
    },
    {
      "id": 1755,
      "amount": 1
    },
    {
      "id": 4278,
      "amount": 3
    },
    {
      "id": 2803,
      "amount": 1
    },
    {
      "id": 6733,
      "amount": 1
    },
    {
      "id": 4151,
      "amount": 1
    },
    {
      "id": 7462,
      "amount": 3
    },
    {
      "id": 6570,
      "amount": 1
    },
    {
      "id": 9244,
      "amount": 472
    },
    {
      "id": 1631,
      "amount": 20
    },
    {
      "id": 6573,
      "amount": 2
    },
    {
      "id": 4585,
      "amount": 1
    },
    {
      "id": 534,
      "amount": 5
    },
    {
      "id": 12746,
      "amount": 1
    },
    {
      "id": 2722,
      "amount": 2
    },
    {
      "id": 12612,
      "amount": 1
    },
    {
      "id": 2434,
      "amount": 45
    },
    {
      "id": 536,
      "amount": 39
    },
    {
      "id": 12829,
      "amount": 1
    },
    {
      "id": 10547,
      "amount": 1
    },
    {
      "id": 10555,
      "amount": 1
    },
    {
      "id": 10561,
      "amount": 1
    },
    {
      "id": 10549,
      "amount": 1
    },
    {
      "id": 5303,
      "amount": 3
    },
    {
      "id": 4732,
      "amount": 1
    },
    {
      "id": 11820,
      "amount": 1
    },
    {
      "id": 10534,
      "amount": 1
    },
    {
      "id": 7880,
      "amount": 1
    },
    {
      "id": 12934,
      "amount": 898
    },
    {
      "id": 12343,
      "amount": 1
    },
    {
      "id": 2631,
      "amount": 1
    },
    {
      "id": 6289,
      "amount": 35
    },
    {
      "id": 171,
      "amount": 3
    },
    {
      "id": 608,
      "amount": 1
    },
    {
      "id": 179,
      "amount": 1
    },
    {
      "id": 175,
      "amount": 2
    },
    {
      "id": 8942,
      "amount": 1
    },
    {
      "id": 2682,
      "amount": 1
    },
    null,
    null,
    null,
    null,
    null,
    null,
    null,
    null,
    null,
    null,
    null,
    null,
    null,
    null,
    null,
    null,
    null,
    null,
    null,
    null,
    null,
    null,
    null,
    null,
    null,
    null,
    null,
    null,
    null,
    null,
    null,
    null
  ],
  "tabAmounts": [
    318,
    0,
    0,
    0,
    0,
    0,
    0,
    0,
    0,
    0
  ],
  "inventory": [
    {
      "id": 171,
      "amount": 1
    },
    {
      "id": 2444,
      "amount": 1
    },
    {
      "id": 2444,
      "amount": 1
    },
    {
      "id": 2444,
      "amount": 1
    },
    {
      "id": 13442,
      "amount": 52
    },
    {
      "id": 748,
      "amount": 1
    },
    {
      "id": 2510,
      "amount": 11
    },
    {
      "id": 868,
      "amount": 32
    },
    {
      "id": 11944,
      "amount": 25
    },
    {
      "id": 12696,
      "amount": 10
    },
    {
      "id": 11260,
      "amount": 1
    },
    {
      "id": 593,
      "amount": 69
    },
    {
      "id": 1514,
      "amount": 25
    },
    null,
    null,
    null,
    null,
    null,
    null,
    null,
    null,
    null,
    null,
    null,
    {
      "id": 292,
      "amount": 1
    },
    null,
    null,
    null
  ],
  "equipment": [
    {
      "id": 11826,
      "amount": 1
    },
    {
      "id": 10499,
      "amount": 1
    },
    {
      "id": 6585,
      "amount": 1
    },
    {
      "id": 868,
      "amount": 431
    },
    {
      "id": 12508,
      "amount": 1
    },
    {
      "id": 4225,
      "amount": 1
    },
    null,
    {
      "id": 10372,
      "amount": 1
    },
    null,
    {
      "id": 10384,
      "amount": 1
    },
    {
      "id": 6328,
      "amount": 1
    },
    null,
    {
      "id": 2572,
      "amount": 1
    },
    null
  ],
  "shopItems": [
    null,
    null,
    null,
    null,
    null,
    null,
    null,
    null,
    null,
    null,
    null,
    null,
    null,
    null,
    null,
    null,
    null,
    null,
    null,
    null,
    null,
    null,
    null,
    null,
    null,
    null,
    null,
    null,
    null,
    null,
    null,
    null,
    null,
    null,
    null,
    null
  ],
  "shopPrices": [
    0,
    0,
    0,
    0,
    0,
    0,
    0,
    0,
    0,
    0,
    0,
    0,
    0,
    0,
    0,
    0,
    0,
    0,
    0,
    0,
    0,
    0,
    0,
    0,
    0,
    0,
    0,
    0,
    0,
    0,
    0,
    0,
    0,
    0,
    0,
    0
  ],
  "pouches": [
    0,
    0,
    0,
    0
  ]
}