
---2016/08/31 18:56:34---
Pantera has won 83339784 Coins from Fe Squad.

---2016/08/31 18:56:34---
Pantera has won 1 Primordial Boots from Fe Squad.

---2016/08/31 18:57:55---
Pantera has won 1 Rapier from Fe Squad.

---2016/08/31 19:01:49---
Pantera has won 50000000 Coins from Fe Squad.

---2016/08/31 19:01:49---
Pantera has won 1 Primordial Boots from Fe Squad.

---2016/08/31 19:01:49---
Pantera has won 1 Bandos chestplate from Fe Squad.

---2016/08/31 19:01:49---
Pantera has won 1 Bandos tassets from Fe Squad.

---2016/08/31 19:02:43---
Pantera has won 1 White partyhat from Fe Squad.

---2016/08/31 19:03:51---
Pantera has won 170000000 Coins from Fe Squad.

---2016/08/31 19:03:51---
Pantera has won 1 Rapier from Fe Squad.

---2016/08/31 19:03:51---
Pantera has won 1 Ring of the Drops from Fe Squad.

---2016/08/31 19:03:51---
Pantera has won 1 Amulet of Drops from Fe Squad.

---2016/08/31 19:03:51---
Pantera has won 1 Black Santa Hat from Fe Squad.

---2016/08/31 19:05:28---
Pantera has won 83000000 Coins from Fe Squad.

---2016/08/31 19:09:09---
Pantera has won 1 Amulet of Torture from Fe Squad.

---2016/08/31 19:09:09---
Pantera has won 2 Serpentine helm from Fe Squad.

---2016/08/31 19:09:09---
Pantera has won 1 Rapier from Fe Squad.

---2016/08/31 19:09:09---
Pantera has won 1 Primordial Boots from Fe Squad.

---2016/08/31 19:09:09---
Pantera has won 1 Ring of the Drops from Fe Squad.

---2016/08/31 19:09:09---
Pantera has won 1 Bandos chestplate from Fe Squad.

---2016/08/31 19:09:09---
Pantera has won 1 White partyhat from Fe Squad.

---2016/08/31 19:09:09---
Pantera has won 1 Bandos tassets from Fe Squad.

---2016/08/31 19:09:09---
Pantera has won 1 Amulet of Drops from Fe Squad.

---2016/08/31 19:09:09---
Pantera has won 1 Necklace of Anguish from Fe Squad.
