
---2016/07/04 23:42:00---
Apex12 has recieved 1 Ashes.

---2016/07/04 23:42:00---
Apex12 has recieved 15 Bolt rack.

---2016/07/04 23:42:00---
Apex12 has recieved 75 Air rune.

---2016/07/05 04:43:56---
Apex12 has recieved 30 Bolt rack.

---2016/07/05 04:43:56---
Apex12 has recieved 150 Big bones.

---2016/07/05 04:43:56---
Apex12 has recieved 75 Air rune.

---2016/07/05 04:43:56---
Apex12 has recieved 1 Bones.

---2016/07/11 01:18:27---
Apex12 has recieved 250 Nature rune.

---2016/07/11 01:18:27---
Apex12 has recieved 70 Bolt rack.

---2016/07/11 01:18:27---
Apex12 has recieved 1 Bones.

---2016/07/11 01:32:05---
Apex12 has recieved 300 Big bones.

---2016/07/11 01:32:05---
Apex12 has recieved 75 Mind rune.

---2016/07/18 09:04:24---
Apex12 has recieved 75 Fire rune.

---2016/07/18 09:04:24---
Apex12 has recieved 75 Earth rune.

---2016/07/18 09:04:24---
Apex12 has recieved 1 Bones.

---2016/08/05 09:43:23---
Apex12 has recieved 150 Big bones.

---2016/08/05 09:43:23---
Apex12 has recieved 1 Karil's leatherskirt 0.

---2016/08/05 09:43:23---
Apex12 has recieved 200 Babydragon bones.

---2016/08/05 09:48:57---
Apex12 has recieved 25 Bolt rack.

---2016/08/05 09:48:57---
Apex12 has recieved 1 Ahrim's robeskirt 0.

---2016/08/05 09:48:57---
Apex12 has recieved 75 Body rune.
