
---2016/07/14 00:13:47---
Apex has recieved 25 Bolt rack.

---2016/07/14 00:13:47---
Apex has recieved 75 Earth rune.

---2016/07/14 00:13:47---
Apex has recieved 1 Ahrim's robeskirt 0.

---2016/07/14 00:13:47---
Apex has recieved 75 Mind rune.

---2016/07/14 00:21:18---
Apex has recieved 45 Bolt rack.

---2016/07/14 00:29:13---
Apex has recieved 1 Ashes.

---2016/07/14 00:29:13---
Apex has recieved 1 Karil's leathertop 0.

---2016/07/14 00:29:13---
Apex has recieved 25 Bolt rack.

---2016/07/14 00:29:13---
Apex has recieved 75 Earth rune.

---2016/07/14 00:35:52---
Apex has recieved 50 Bolt rack.

---2016/07/14 00:35:52---
Apex has recieved 75 Mind rune.

---2016/07/14 00:35:52---
Apex has recieved 75 Body rune.

---2016/07/14 00:45:33---
Apex has recieved 250 Death rune.

---2016/07/14 00:45:33---
Apex has recieved 75 Water rune.

---2016/07/14 00:45:33---
Apex has recieved 75 Earth rune.

---2016/07/14 00:54:32---
Apex has recieved 250 Death rune.

---2016/07/14 00:54:32---
Apex has recieved 1 Ashes.

---2016/07/14 00:54:32---
Apex has recieved 75 Mind rune.

---2016/07/14 01:01:58---
Apex has recieved 1 Ahrim's staff 0.

---2016/07/14 01:01:58---
Apex has recieved 40 Bolt rack.

---2016/07/14 01:01:58---
Apex has recieved 75 Fire rune.

---2016/07/14 01:01:58---
Apex has recieved 75 Water rune.

---2016/07/14 01:08:15---
Apex has recieved 1 Karil's leathertop 0.

---2016/07/14 01:08:15---
Apex has recieved 15 Bolt rack.

---2016/07/14 01:08:15---
Apex has recieved 75 Water rune.

---2016/07/14 01:15:39---
Apex has recieved 5 Bolt rack.

---2016/07/14 01:15:39---
Apex has recieved 150 Big bones.

---2016/07/14 01:15:39---
Apex has recieved 75 Fire rune.

---2016/07/14 01:22:07---
Apex has recieved 1 Ashes.

---2016/07/14 01:22:07---
Apex has recieved 70 Bolt rack.

---2016/07/14 01:22:07---
Apex has recieved 150 Big bones.

---2016/07/14 01:22:07---
Apex has recieved 75 Air rune.

---2016/07/14 01:31:16---
Apex has recieved 1 Verac's brassard 0.

---2016/07/14 01:31:16---
Apex has recieved 250 Chaos rune.

---2016/07/14 01:31:16---
Apex has recieved 30 Bolt rack.

---2016/07/14 01:31:16---
Apex has recieved 250 Blood rune.

---2016/07/14 11:39:57---
Apex has recieved 1 Ashes.

---2016/07/14 11:39:57---
Apex has recieved 5 Bolt rack.

---2016/07/14 11:39:57---
Apex has recieved 75 Mind rune.

---2016/07/14 11:39:57---
Apex has recieved 75 Body rune.

---2016/07/14 11:45:56---
Apex has recieved 55 Bolt rack.

---2016/07/14 11:45:56---
Apex has recieved 150 Big bones.

---2016/07/14 11:45:56---
Apex has recieved 1 Bones.

---2016/07/14 11:51:11---
Apex has recieved 1 Karil's leathertop 0.

---2016/07/14 11:51:11---
Apex has recieved 1 Ahrim's staff 0.

---2016/07/14 11:51:11---
Apex has recieved 75 Bolt rack.

---2016/07/14 11:51:11---
Apex has recieved 75 Fire rune.

---2016/07/14 11:57:21---
Apex has recieved 15 Bolt rack.

---2016/07/14 11:57:21---
Apex has recieved 75 Fire rune.

---2016/07/14 11:57:21---
Apex has recieved 75 Earth rune.

---2016/07/18 19:03:28---
Apex has recieved 15 Bolt rack.

---2016/07/18 19:03:28---
Apex has recieved 150 Big bones.

---2016/07/18 19:03:28---
Apex has recieved 75 Mind rune.

---2016/07/18 19:10:47---
Apex has recieved 1 Ashes.

---2016/07/18 19:10:47---
Apex has recieved 75 Water rune.

---2016/07/18 19:10:47---
Apex has recieved 75 Earth rune.

---2016/07/18 19:10:47---
Apex has recieved 1 Bones.

---2016/07/18 19:10:47---
Apex has recieved 75 Body rune.

---2016/07/18 19:23:25---
Apex has recieved 75 Bolt rack.

---2016/07/18 19:23:25---
Apex has recieved 75 Water rune.

---2016/07/18 19:23:25---
Apex has recieved 150 Mind rune.

---2016/07/18 19:47:33---
Apex has recieved 70 Bolt rack.

---2016/07/18 19:47:33---
Apex has recieved 75 Earth rune.

---2016/07/18 19:55:33---
Apex has recieved 250 Chaos rune.

---2016/07/18 19:55:33---
Apex has recieved 15 Bolt rack.

---2016/07/18 19:55:33---
Apex has recieved 75 Mind rune.

---2016/07/18 20:03:06---
Apex has recieved 250 Chaos rune.

---2016/07/18 20:03:06---
Apex has recieved 55 Bolt rack.

---2016/07/18 20:03:06---
Apex has recieved 75 Fire rune.
