
---2016/08/10 13:17:36---
Bananana has recieved 150 Bolt rack.

---2016/08/10 13:17:36---
Bananana has recieved 75 Fire rune.

---2016/08/10 13:24:08---
Bananana has recieved 1 Ashes.

---2016/08/10 13:24:08---
Bananana has recieved 55 Bolt rack.

---2016/08/10 13:24:08---
Bananana has recieved 75 Mind rune.

---2016/08/10 13:24:08---
Bananana has recieved 1 Bones.

---2016/08/10 13:32:26---
Bananana has recieved 30 Bolt rack.

---2016/08/10 13:32:26---
Bananana has recieved 1 Ahrim's robetop 0.

---2016/08/10 13:32:26---
Bananana has recieved 75 Water rune.
