
---2016/08/13 13:37:53---
Bonecrusher has recieved 1 Verac's brassard 0.

---2016/08/13 13:37:53---
Bonecrusher has recieved 250 Nature rune.

---2016/08/13 13:37:53---
Bonecrusher has recieved 105 Bolt rack.

---2016/08/13 13:37:53---
Bonecrusher has recieved 250 Blood rune.

---2016/08/13 13:42:26---
Bonecrusher has recieved 1 Verac's brassard 0.

---2016/08/13 13:42:26---
Bonecrusher has recieved 1 Ashes.

---2016/08/13 13:42:26---
Bonecrusher has recieved 25 Bolt rack.

---2016/08/13 13:42:26---
Bonecrusher has recieved 75 Body rune.

---2016/08/25 08:17:30---
Bonecrusher has recieved 15 Bolt rack.

---2016/08/25 08:17:30---
Bonecrusher has recieved 1 Barrows gloves.

---2016/08/25 08:17:30---
Bonecrusher has recieved 75 Air rune.

---2016/08/25 08:17:30---
Bonecrusher has recieved 150 Earth rune.

---2016/08/25 08:21:42---
Bonecrusher has recieved 25 Bolt rack.

---2016/08/25 08:21:42---
Bonecrusher has recieved 75 Fire rune.

---2016/08/25 08:21:42---
Bonecrusher has recieved 75 Air rune.
