
---2016/08/10 07:35:34---
Bosses has recieved 75 Bolt rack.

---2016/08/10 07:35:34---
Bosses has recieved 1 Dharok's greataxe 0.

---2016/08/10 07:35:34---
Bosses has recieved 1 Guthan's helm 0.

---2016/08/10 07:35:34---
Bosses has recieved 75 Earth rune.

---2016/08/10 07:35:34---
Bosses has recieved 1 Torag's platelegs 0.

---2016/08/10 07:56:06---
Bosses has recieved 65 Bolt rack.

---2016/08/10 07:56:06---
Bosses has recieved 75 Fire rune.

---2016/08/10 07:56:06---
Bosses has recieved 1 Bones.

---2016/08/12 04:00:41---
Bosses has recieved 20 Bolt rack.

---2016/08/12 04:00:41---
Bosses has recieved 75 Body rune.

---2016/08/19 16:02:32---
Bosses has recieved 150 Big bones.

---2016/08/19 16:02:32---
Bosses has recieved 250 Soul rune.

---2016/08/19 16:02:32---
Bosses has recieved 75 Water rune.
