
---2016/07/11 08:37:52---
Bounce Up has recieved 1 Ashes.

---2016/07/11 08:37:52---
Bounce Up has recieved 5 Bolt rack.

---2016/07/11 08:37:52---
Bounce Up has recieved 250 Soul rune.

---2016/07/11 08:42:35---
Bounce Up has recieved 1 Ashes.

---2016/07/11 08:42:35---
Bounce Up has recieved 15 Bolt rack.

---2016/07/11 08:42:35---
Bounce Up has recieved 75 Water rune.

---2016/07/11 08:42:35---
Bounce Up has recieved 1 Bones.

---2016/07/11 08:46:59---
Bounce Up has recieved 250 Death rune.

---2016/07/11 08:46:59---
Bounce Up has recieved 150 Big bones.

---2016/07/11 08:46:59---
Bounce Up has recieved 75 Water rune.

---2016/07/11 08:46:59---
Bounce Up has recieved 1 Bones.

---2016/07/11 08:46:59---
Bounce Up has recieved 75 Body rune.

---2016/07/13 14:04:27---
Bounce Up has recieved 50 Bolt rack.

---2016/07/13 14:04:27---
Bounce Up has recieved 150 Big bones.

---2016/07/13 14:04:27---
Bounce Up has recieved 75 Body rune.

---2016/07/13 14:09:13---
Bounce Up has recieved 55 Bolt rack.
