
---2016/07/09 04:27:17---
Cheese has recieved 250 Death rune.

---2016/07/09 04:27:17---
Cheese has recieved 40 Bolt rack.

---2016/07/09 04:27:17---
Cheese has recieved 75 Mind rune.

---2016/07/09 04:27:17---
Cheese has recieved 75 Body rune.

---2016/07/09 04:31:41---
Cheese has recieved 1 Ashes.

---2016/07/09 04:31:41---
Cheese has recieved 220 Bolt rack.

---2016/07/09 04:31:41---
Cheese has recieved 75 Air rune.

---2016/07/09 04:31:41---
Cheese has recieved 1 Bones.

---2016/07/09 05:31:00---
Cheese has recieved 250 Nature rune.

---2016/07/09 05:31:00---
Cheese has recieved 5 Bolt rack.

---2016/07/09 05:31:00---
Cheese has recieved 75 Mind rune.

---2016/07/09 06:28:12---
Cheese has recieved 150 Bolt rack.

---2016/07/09 06:28:12---
Cheese has recieved 150 Water rune.

---2016/07/09 06:28:12---
Cheese has recieved 1 Bones.

---2016/07/09 06:34:48---
Cheese has recieved 200 Bolt rack.

---2016/07/09 06:40:24---
Cheese has recieved 1 Dharok's platebody 0.

---2016/07/09 06:40:24---
Cheese has recieved 75 Fire rune.

---2016/07/09 06:40:24---
Cheese has recieved 2 Bones.

---2016/07/09 06:40:24---
Cheese has recieved 75 Mind rune.

---2016/07/15 09:26:07---
Cheese has recieved 30 Bolt rack.

---2016/07/15 09:26:07---
Cheese has recieved 150 Big bones.

---2016/07/15 09:26:07---
Cheese has recieved 250 Blood rune.

---2016/07/15 09:26:07---
Cheese has recieved 200 Babydragon bones.

---2016/07/15 09:32:19---
Cheese has recieved 150 Bolt rack.

---2016/07/15 09:32:19---
Cheese has recieved 1 Verac's flail 0.

---2016/07/15 09:38:50---
Cheese has recieved 80 Bolt rack.

---2016/07/15 09:38:50---
Cheese has recieved 75 Earth rune.

---2016/07/15 09:48:42---
Cheese has recieved 5 Bolt rack.

---2016/07/15 09:48:42---
Cheese has recieved 250 Blood rune.

---2016/07/15 09:48:42---
Cheese has recieved 75 Fire rune.

---2016/07/15 09:54:06---
Cheese has recieved 5 Bolt rack.

---2016/07/15 09:54:06---
Cheese has recieved 150 Big bones.

---2016/07/15 09:54:06---
Cheese has recieved 1 Karil's leatherskirt 0.

---2016/07/15 10:01:14---
Cheese has recieved 15 Bolt rack.

---2016/07/15 10:01:14---
Cheese has recieved 150 Big bones.

---2016/07/15 10:01:14---
Cheese has recieved 75 Water rune.

---2016/07/16 04:36:41---
Cheese has recieved 70 Bolt rack.

---2016/07/16 04:36:41---
Cheese has recieved 250 Blood rune.

---2016/07/16 04:36:41---
Cheese has recieved 250 Soul rune.

---2016/07/16 04:41:35---
Cheese has recieved 1 Ahrim's staff 0.

---2016/07/16 04:41:35---
Cheese has recieved 55 Bolt rack.

---2016/07/16 04:41:35---
Cheese has recieved 250 Blood rune.

---2016/07/16 04:41:35---
Cheese has recieved 150 Big bones.

---2016/07/16 04:41:35---
Cheese has recieved 75 Earth rune.

---2016/07/16 04:46:59---
Cheese has recieved 150 Water rune.

---2016/07/16 04:46:59---
Cheese has recieved 75 Air rune.

---2016/07/16 04:46:59---
Cheese has recieved 75 Earth rune.

---2016/07/16 04:58:38---
Cheese has recieved 40 Bolt rack.

---2016/07/16 04:58:38---
Cheese has recieved 150 Big bones.

---2016/07/16 04:58:38---
Cheese has recieved 75 Fire rune.

---2016/07/16 05:04:14---
Cheese has recieved 2 Ashes.

---2016/07/16 05:04:14---
Cheese has recieved 155 Bolt rack.

---2016/07/16 05:10:43---
Cheese has recieved 30 Bolt rack.

---2016/07/16 05:10:43---
Cheese has recieved 75 Water rune.

---2016/07/16 05:10:43---
Cheese has recieved 75 Earth rune.

---2016/07/16 05:10:43---
Cheese has recieved 75 Body rune.

---2016/07/16 05:15:49---
Cheese has recieved 70 Bolt rack.

---2016/07/16 05:15:49---
Cheese has recieved 75 Water rune.

---2016/07/16 05:15:49---
Cheese has recieved 75 Earth rune.

---2016/07/16 05:15:49---
Cheese has recieved 75 Mind rune.

---2016/08/01 03:53:42---
Cheese has recieved 1 Verac's brassard 0.

---2016/08/01 03:53:42---
Cheese has recieved 15 Bolt rack.

---2016/08/01 03:53:42---
Cheese has recieved 75 Air rune.

---2016/08/01 03:53:42---
Cheese has recieved 75 Mind rune.

---2016/08/01 03:53:42---
Cheese has recieved 1 Bones.

---2016/08/01 03:58:27---
Cheese has recieved 1 Ahrim's staff 0.

---2016/08/01 03:58:27---
Cheese has recieved 155 Bolt rack.

---2016/08/01 04:11:09---
Cheese has recieved 25 Bolt rack.

---2016/08/01 04:11:09---
Cheese has recieved 150 Big bones.

---2016/08/01 04:11:09---
Cheese has recieved 75 Earth rune.

---2016/08/01 04:11:09---
Cheese has recieved 75 Body rune.

---2016/08/23 00:07:26---
Cheese has recieved 1 Credits Scroll.

---2016/08/23 00:07:26---
Cheese has recieved 130 Bolt rack.

---2016/08/23 00:07:26---
Cheese has recieved 150 Big bones.

---2016/08/23 00:07:26---
Cheese has recieved 75 Water rune.

---2016/08/23 00:11:25---
Cheese has recieved 75 Water rune.

---2016/08/23 00:11:25---
Cheese has recieved 1 Bones.

---2016/08/23 00:11:25---
Cheese has recieved 75 Body rune.

---2016/08/23 00:15:42---
Cheese has recieved 1 Ashes.

---2016/08/23 00:15:42---
Cheese has recieved 250 Nature rune.

---2016/08/23 00:15:42---
Cheese has recieved 1 Crystal key.

---2016/08/23 00:19:18---
Cheese has recieved 105 Bolt rack.

---2016/08/23 00:19:18---
Cheese has recieved 1 Barrows gloves.

---2016/08/23 00:19:18---
Cheese has recieved 75 Body rune.
