
---2016/08/19 17:51:33---
Croyde has recieved 15 Bolt rack.

---2016/08/19 17:51:33---
Croyde has recieved 75 Air rune.

---2016/08/19 17:51:33---
Croyde has recieved 75 Earth rune.

---2016/08/19 17:51:33---
Croyde has recieved 1 Bones.
