
---2016/07/13 23:37:56---
Eirik has recieved 15 Bolt rack.

---2016/07/13 23:37:56---
Eirik has recieved 1 Bones.

---2016/07/13 23:37:56---
Eirik has recieved 75 Body rune.

---2016/07/13 23:44:16---
Eirik has recieved 205 Bolt rack.

---2016/07/13 23:44:16---
Eirik has recieved 75 Mind rune.

---2016/07/13 23:44:16---
Eirik has recieved 75 Body rune.

---2016/07/13 23:49:32---
Eirik has recieved 15 Bolt rack.

---2016/07/13 23:49:32---
Eirik has recieved 75 Water rune.

---2016/07/13 23:49:32---
Eirik has recieved 1 Torag's helm 0.

---2016/07/13 23:54:34---
Eirik has recieved 1 Ashes.

---2016/07/13 23:54:34---
Eirik has recieved 125 Bolt rack.

---2016/07/14 00:00:06---
Eirik has recieved 80 Bolt rack.

---2016/07/14 00:00:06---
Eirik has recieved 150 Big bones.

---2016/07/14 00:00:06---
Eirik has recieved 75 Earth rune.

---2016/07/14 00:00:06---
Eirik has recieved 75 Mind rune.

---2016/07/15 22:14:17---
Eirik has recieved 25 Bolt rack.

---2016/07/15 22:14:17---
Eirik has recieved 150 Big bones.

---2016/07/15 22:14:17---
Eirik has recieved 250 Soul rune.

---2016/07/15 22:14:17---
Eirik has recieved 75 Mind rune.

---2016/07/15 22:19:33---
Eirik has recieved 1 Dharok's helm 0.

---2016/07/15 22:19:33---
Eirik has recieved 1 Torag's platelegs 0.

---2016/07/15 22:19:33---
Eirik has recieved 75 Body rune.

---2016/07/15 22:25:16---
Eirik has recieved 80 Bolt rack.

---2016/07/15 22:25:16---
Eirik has recieved 300 Big bones.

---2016/07/15 22:25:16---
Eirik has recieved 75 Body rune.

---2016/07/15 22:30:37---
Eirik has recieved 60 Bolt rack.

---2016/07/15 22:30:37---
Eirik has recieved 75 Earth rune.

---2016/07/15 22:30:37---
Eirik has recieved 75 Mind rune.

---2016/07/15 22:36:41---
Eirik has recieved 75 Bolt rack.

---2016/07/15 22:36:41---
Eirik has recieved 150 Air rune.

---2016/07/15 22:42:25---
Eirik has recieved 25 Bolt rack.

---2016/07/15 22:42:25---
Eirik has recieved 75 Fire rune.

---2016/07/15 22:42:25---
Eirik has recieved 75 Water rune.

---2016/07/15 22:42:25---
Eirik has recieved 75 Body rune.

---2016/07/15 22:46:53---
Eirik has recieved 1 Ashes.

---2016/07/15 22:46:53---
Eirik has recieved 250 Death rune.

---2016/07/15 22:46:53---
Eirik has recieved 75 Fire rune.

---2016/07/15 22:46:53---
Eirik has recieved 1 Dharok's greataxe 0.

---2016/07/15 22:51:25---
Eirik has recieved 130 Bolt rack.

---2016/07/15 22:51:25---
Eirik has recieved 1 Dharok's greataxe 0.

---2016/07/15 22:51:25---
Eirik has recieved 75 Fire rune.

---2016/07/15 22:51:25---
Eirik has recieved 75 Body rune.

---2016/07/15 22:56:32---
Eirik has recieved 1 Ashes.

---2016/07/15 22:56:32---
Eirik has recieved 15 Bolt rack.

---2016/07/15 22:56:32---
Eirik has recieved 75 Air rune.

---2016/07/15 22:56:32---
Eirik has recieved 75 Earth rune.

---2016/07/15 22:56:32---
Eirik has recieved 1 Bones.

---2016/07/15 23:01:16---
Eirik has recieved 100 Bolt rack.

---2016/07/15 23:01:16---
Eirik has recieved 1 Verac's plateskirt 0.

---2016/07/15 23:01:16---
Eirik has recieved 75 Body rune.

---2016/07/15 23:06:42---
Eirik has recieved 90 Bolt rack.

---2016/07/15 23:06:42---
Eirik has recieved 1 Ahrim's robeskirt 0.

---2016/07/15 23:11:49---
Eirik has recieved 25 Bolt rack.

---2016/07/15 23:11:49---
Eirik has recieved 75 Air rune.

---2016/07/15 23:11:49---
Eirik has recieved 1 Bones.

---2016/07/15 23:11:49---
Eirik has recieved 75 Body rune.

---2016/07/16 00:33:57---
Eirik has recieved 20 Bolt rack.

---2016/07/16 00:33:57---
Eirik has recieved 150 Big bones.

---2016/07/16 00:38:34---
Eirik has recieved 55 Bolt rack.

---2016/07/16 00:38:34---
Eirik has recieved 200 Babydragon bones.

---2016/07/16 00:38:34---
Eirik has recieved 75 Air rune.

---2016/07/16 00:44:12---
Eirik has recieved 75 Fire rune.

---2016/07/16 00:44:12---
Eirik has recieved 75 Water rune.

---2016/07/16 00:44:12---
Eirik has recieved 75 Earth rune.

---2016/07/16 00:44:12---
Eirik has recieved 75 Body rune.

---2016/07/16 00:50:21---
Eirik has recieved 1 Ashes.

---2016/07/16 00:50:21---
Eirik has recieved 55 Bolt rack.

---2016/07/16 00:50:21---
Eirik has recieved 1 Torag's platebody 0.

---2016/07/16 00:50:21---
Eirik has recieved 75 Fire rune.

---2016/07/16 00:57:09---
Eirik has recieved 150 Big bones.

---2016/07/16 00:57:09---
Eirik has recieved 2 Bones.

---2016/07/16 01:02:38---
Eirik has recieved 1 Torag's hammers 0.

---2016/07/16 01:02:38---
Eirik has recieved 150 Big bones.

---2016/07/16 01:02:38---
Eirik has recieved 75 Earth rune.

---2016/07/16 01:08:15---
Eirik has recieved 50 Bolt rack.

---2016/07/16 01:08:15---
Eirik has recieved 1 Verac's helm 0.

---2016/07/16 01:08:15---
Eirik has recieved 200 Babydragon bones.

---2016/07/16 01:14:22---
Eirik has recieved 150 Big bones.

---2016/07/16 01:14:22---
Eirik has recieved 75 Fire rune.

---2016/07/16 01:14:22---
Eirik has recieved 75 Water rune.

---2016/07/18 17:39:49---
Eirik has recieved 105 Bolt rack.

---2016/07/18 20:40:56---
Eirik has recieved 150 Bolt rack.

---2016/07/18 20:40:56---
Eirik has recieved 75 Water rune.

---2016/07/18 20:40:56---
Eirik has recieved 75 Earth rune.

---2016/07/18 20:40:56---
Eirik has recieved 1 Bones.

---2016/07/30 06:56:08---
Eirik has recieved 1 Dharok's platebody 0.

---2016/07/30 06:56:08---
Eirik has recieved 205 Bolt rack.

---2016/07/30 06:56:08---
Eirik has recieved 1 Torag's platelegs 0.

---2016/07/30 07:08:30---
Eirik has recieved 1 Ashes.

---2016/07/30 07:08:30---
Eirik has recieved 40 Bolt rack.

---2016/07/30 07:08:30---
Eirik has recieved 75 Earth rune.
