
---2016/07/10 16:15:04---
Emilyispro has recieved 1 Ashes.

---2016/07/10 16:15:04---
Emilyispro has recieved 25 Bolt rack.

---2016/07/10 16:15:04---
Emilyispro has recieved 150 Big bones.

---2016/07/10 16:15:04---
Emilyispro has recieved 75 Air rune.

---2016/07/10 16:18:55---
Emilyispro has recieved 605 Bolt rack.

---2016/07/10 16:18:55---
Emilyispro has recieved 75 Earth rune.

---2016/07/10 16:23:17---
Emilyispro has recieved 25 Bolt rack.

---2016/07/10 16:23:17---
Emilyispro has recieved 75 Air rune.

---2016/07/10 16:23:17---
Emilyispro has recieved 75 Mind rune.
