
---2016/07/10 00:07:48---
Graco has recieved 755 Bolt rack.

---2016/07/10 00:07:48---
Graco has recieved 75 Mind rune.

---2016/08/29 03:19:40---
Graco has recieved 55 Bolt rack.

---2016/08/29 03:19:40---
Graco has recieved 2 Bones.

---2016/08/29 03:23:20---
Graco has recieved 5 Bolt rack.

---2016/08/29 03:23:20---
Graco has recieved 75 Water rune.

---2016/08/29 03:23:20---
Graco has recieved 75 Body rune.

---2016/08/29 03:27:19---
Graco has recieved 90 Bolt rack.

---2016/08/29 03:27:19---
Graco has recieved 150 Big bones.

---2016/08/29 03:27:19---
Graco has recieved 75 Earth rune.
