
---2016/08/10 15:06:55---
Im Predz has recieved 15 Bolt rack.

---2016/08/10 15:06:55---
Im Predz has recieved 1 Ahrim's hood 0.

---2016/08/10 15:06:55---
Im Predz has recieved 75 Air rune.

---2016/08/10 15:11:10---
Im Predz has recieved 250 Chaos rune.

---2016/08/10 15:11:10---
Im Predz has recieved 120 Bolt rack.

---2016/08/22 04:48:10---
Im Predz has recieved 15 Bolt rack.

---2016/08/22 04:48:10---
Im Predz has recieved 150 Big bones.

---2016/08/22 04:48:10---
Im Predz has recieved 75 Earth rune.

---2016/08/22 04:48:10---
Im Predz has recieved 75 Mind rune.

---2016/08/22 04:48:10---
Im Predz has recieved 75 Body rune.
