
---2016/07/20 02:58:52---
Janie177 has recieved 250 Nature rune.

---2016/07/20 02:58:52---
Janie177 has recieved 1 Bones.

---2016/07/20 02:58:52---
Janie177 has recieved 75 Mind rune.

---2016/07/20 02:58:52---
Janie177 has recieved 75 Body rune.

---2016/07/23 03:59:43---
Janie177 has recieved 75 Water rune.

---2016/07/23 03:59:43---
Janie177 has recieved 75 Earth rune.

---2016/07/23 03:59:43---
Janie177 has recieved 75 Body rune.
