
---2016/08/22 19:14:14---
Kid Cudi has recieved 1 Ashes.

---2016/08/22 19:14:14---
Kid Cudi has recieved 150 Big bones.

---2016/08/22 19:14:14---
Kid Cudi has recieved 75 Water rune.

---2016/08/22 19:14:14---
Kid Cudi has recieved 75 Air rune.

---2016/08/22 19:22:41---
Kid Cudi has recieved 1 Ashes.

---2016/08/22 19:22:41---
Kid Cudi has recieved 75 Fire rune.

---2016/08/22 19:22:41---
Kid Cudi has recieved 75 Water rune.

---2016/08/22 19:22:41---
Kid Cudi has recieved 75 Earth rune.
