
---2016/07/11 14:54:34---
Mbox has recieved 90 Bolt rack.

---2016/07/11 14:54:34---
Mbox has recieved 75 Water rune.

---2016/07/11 14:54:34---
Mbox has recieved 75 Air rune.

---2016/07/12 11:07:52---
Mbox has recieved 90 Bolt rack.

---2016/07/12 11:07:52---
Mbox has recieved 250 Blood rune.

---2016/07/12 11:07:52---
Mbox has recieved 75 Mind rune.

---2016/07/12 11:13:45---
Mbox has recieved 150 Big bones.

---2016/07/12 11:13:45---
Mbox has recieved 75 Water rune.

---2016/07/12 11:13:45---
Mbox has recieved 75 Air rune.

---2016/07/12 11:19:29---
Mbox has recieved 250 Chaos rune.

---2016/07/12 11:19:29---
Mbox has recieved 75 Water rune.

---2016/07/12 11:19:29---
Mbox has recieved 1 Bones.

---2016/07/16 12:44:09---
Mbox has recieved 125 Bolt rack.

---2016/07/16 12:44:09---
Mbox has recieved 75 Water rune.

---2016/07/16 12:49:29---
Mbox has recieved 55 Bolt rack.

---2016/07/16 12:49:29---
Mbox has recieved 75 Air rune.

---2016/07/16 12:49:29---
Mbox has recieved 1 Bones.
