
---2016/07/29 20:00:12---
Meradj10 has recieved 250 Nature rune.

---2016/07/29 20:00:12---
Meradj10 has recieved 750 Bolt rack.

---2016/07/29 20:00:12---
Meradj10 has recieved 200 Babydragon bones.

---2016/07/29 20:00:12---
Meradj10 has recieved 1 Verac's flail 0.

---2016/07/29 20:32:13---
Meradj10 has recieved 5 Bolt rack.

---2016/07/29 20:32:13---
Meradj10 has recieved 150 Big bones.

---2016/07/29 20:32:13---
Meradj10 has recieved 75 Body rune.

---2016/07/31 16:10:23---
Meradj10 has recieved 25 Bolt rack.

---2016/07/31 16:10:23---
Meradj10 has recieved 1 Barrows gloves.

---2016/07/31 16:10:23---
Meradj10 has recieved 75 Fire rune.

---2016/07/31 16:10:23---
Meradj10 has recieved 75 Earth rune.

---2016/07/31 16:16:49---
Meradj10 has recieved 105 Bolt rack.

---2016/07/31 16:16:49---
Meradj10 has recieved 75 Fire rune.

---2016/07/31 16:16:49---
Meradj10 has recieved 75 Mind rune.

---2016/07/31 16:24:31---
Meradj10 has recieved 250 Chaos rune.

---2016/07/31 16:24:31---
Meradj10 has recieved 75 Bolt rack.

---2016/07/31 16:24:31---
Meradj10 has recieved 250 Soul rune.

---2016/07/31 16:24:31---
Meradj10 has recieved 75 Fire rune.

---2016/07/31 16:31:24---
Meradj10 has recieved 1 Ashes.

---2016/07/31 16:31:24---
Meradj10 has recieved 150 Big bones.

---2016/07/31 16:31:24---
Meradj10 has recieved 75 Mind rune.
