
---2016/07/08 22:50:20---
Payt021 has recieved 65 Bolt rack.

---2016/07/08 23:19:35---
Payt021 has recieved 1 Ashes.

---2016/07/08 23:19:35---
Payt021 has recieved 250 Nature rune.

---2016/07/08 23:19:35---
Payt021 has recieved 1 Karil's coif 0.

---2016/07/08 23:19:35---
Payt021 has recieved 15 Bolt rack.

---2016/07/19 18:51:14---
Payt021 has recieved 1 Torag's platebody 0.

---2016/07/19 18:51:14---
Payt021 has recieved 150 Water rune.

---2016/08/18 12:22:25---
Payt021 has recieved 55 Bolt rack.

---2016/08/18 12:22:25---
Payt021 has recieved 75 Fire rune.

---2016/08/18 12:22:25---
Payt021 has recieved 1 Bones.

---2016/08/18 12:40:48---
Payt021 has recieved 15 Bolt rack.

---2016/08/18 12:40:48---
Payt021 has recieved 75 Air rune.

---2016/08/18 12:40:48---
Payt021 has recieved 75 Earth rune.

---2016/08/26 04:00:35---
Payt021 has recieved 1 Credits Scroll.

---2016/08/26 04:00:35---
Payt021 has recieved 250 Death rune.

---2016/08/26 04:00:35---
Payt021 has recieved 75 Air rune.

---2016/08/26 04:12:25---
Payt021 has recieved 20 Bolt rack.

---2016/08/26 04:12:25---
Payt021 has recieved 300 Big bones.

---2016/08/26 04:57:45---
Payt021 has recieved 250 Chaos rune.

---2016/08/26 04:57:45---
Payt021 has recieved 5 Bolt rack.

---2016/08/26 04:57:45---
Payt021 has recieved 150 Water rune.

---2016/08/26 22:12:19---
Payt021 has recieved 65 Bolt rack.

---2016/08/26 22:12:19---
Payt021 has recieved 1 Crystal key.
