
---2016/07/26 21:58:03---
Satanic has recieved 5 Bolt rack.

---2016/07/26 21:58:03---
Satanic has recieved 150 Big bones.

---2016/07/26 21:58:03---
Satanic has recieved 75 Water rune.

---2016/07/26 21:58:03---
Satanic has recieved 150 Body rune.

---2016/07/27 14:25:42---
Satanic has recieved 65 Bolt rack.

---2016/07/27 14:25:42---
Satanic has recieved 150 Fire rune.

---2016/07/27 14:30:20---
Satanic has recieved 90 Bolt rack.

---2016/07/27 14:30:20---
Satanic has recieved 75 Mind rune.

---2016/08/04 15:17:20---
Satanic has recieved 260 Bolt rack.

---2016/08/04 15:17:20---
Satanic has recieved 150 Big bones.

---2016/08/04 15:22:10---
Satanic has recieved 1 Ashes.

---2016/08/04 15:22:10---
Satanic has recieved 15 Bolt rack.

---2016/08/04 15:22:10---
Satanic has recieved 150 Big bones.
