
---2016/07/12 14:01:58---
Stefanos has recieved 90 Bolt rack.

---2016/07/12 14:01:58---
Stefanos has recieved 75 Fire rune.

---2016/07/12 14:05:38---
Stefanos has recieved 1 Ashes.

---2016/07/12 14:05:38---
Stefanos has recieved 30 Bolt rack.

---2016/07/12 14:10:07---
Stefanos has recieved 100 Bolt rack.

---2016/07/12 14:10:07---
Stefanos has recieved 75 Water rune.

---2016/07/12 14:10:07---
Stefanos has recieved 75 Air rune.

---2016/07/12 14:10:07---
Stefanos has recieved 1 Bones.

---2016/07/12 14:14:46---
Stefanos has recieved 25 Bolt rack.

---2016/07/12 14:14:46---
Stefanos has recieved 250 Soul rune.

---2016/07/12 14:22:17---
Stefanos has recieved 75 Bolt rack.

---2016/07/12 14:22:17---
Stefanos has recieved 75 Air rune.

---2016/07/12 14:22:17---
Stefanos has recieved 75 Body rune.

---2016/08/11 09:37:19---
Stefanos has recieved 180 Bolt rack.

---2016/08/11 09:37:19---
Stefanos has recieved 75 Mind rune.

---2016/08/11 09:41:14---
Stefanos has recieved 150 Big bones.

---2016/08/11 09:41:14---
Stefanos has recieved 75 Air rune.

---2016/08/11 09:41:14---
Stefanos has recieved 75 Earth rune.

---2016/08/11 09:45:16---
Stefanos has recieved 15 Bolt rack.

---2016/08/11 09:45:16---
Stefanos has recieved 75 Fire rune.

---2016/08/11 09:45:16---
Stefanos has recieved 1 Dharok's greataxe 0.

---2016/08/11 09:45:16---
Stefanos has recieved 75 Air rune.

---2016/08/27 12:21:55---
Stefanos has recieved 10 Bolt rack.

---2016/08/27 12:21:55---
Stefanos has recieved 75 Water rune.

---2016/08/27 12:21:55---
Stefanos has recieved 75 Air rune.

---2016/08/27 12:21:55---
Stefanos has recieved 75 Mind rune.

---2016/08/27 12:26:30---
Stefanos has recieved 205 Bolt rack.

---2016/08/27 12:26:30---
Stefanos has recieved 250 Blood rune.

---2016/08/27 12:26:30---
Stefanos has recieved 200 Babydragon bones.

---2016/08/27 12:26:30---
Stefanos has recieved 75 Water rune.

---2016/08/27 12:26:30---
Stefanos has recieved 1 Bones.

---2016/08/27 12:32:48---
Stefanos has recieved 1 Credits Scroll.

---2016/08/27 12:32:48---
Stefanos has recieved 55 Bolt rack.

---2016/08/27 12:32:48---
Stefanos has recieved 150 Big bones.

---2016/08/27 12:38:18---
Stefanos has recieved 25 Bolt rack.

---2016/08/27 12:38:18---
Stefanos has recieved 75 Water rune.

---2016/08/27 12:38:18---
Stefanos has recieved 1 Bones.

---2016/08/27 12:42:35---
Stefanos has recieved 75 Bolt rack.

---2016/08/27 12:42:35---
Stefanos has recieved 75 Mind rune.
