
---2016/07/23 18:41:38---
Tehdark12 has recieved 1 Ashes.

---2016/07/23 18:41:38---
Tehdark12 has recieved 75 Fire rune.

---2016/07/23 18:41:38---
Tehdark12 has recieved 150 Air rune.

---2016/07/23 18:41:38---
Tehdark12 has recieved 75 Earth rune.

---2016/08/05 14:30:34---
Tehdark12 has recieved 280 Bolt rack.
