
---2016/08/07 15:04:39---
Trollepoten has recieved 75 Bolt rack.

---2016/08/07 15:04:39---
Trollepoten has recieved 1 Dharok's helm 0.

---2016/08/07 15:04:39---
Trollepoten has recieved 75 Fire rune.

---2016/08/07 15:04:39---
Trollepoten has recieved 1 Bones.

---2016/08/07 15:11:13---
Trollepoten has recieved 1 Ashes.

---2016/08/07 15:11:13---
Trollepoten has recieved 1 Karil's coif 0.

---2016/08/07 15:11:13---
Trollepoten has recieved 5 Bolt rack.

---2016/08/07 15:11:13---
Trollepoten has recieved 1 Guthan's platebody 0.

---2016/08/07 15:54:49---
Trollepoten has recieved 1 Ashes.

---2016/08/07 15:54:49---
Trollepoten has recieved 10 Bolt rack.

---2016/08/07 16:00:15---
Trollepoten has recieved 15 Bolt rack.

---2016/08/07 16:00:15---
Trollepoten has recieved 150 Big bones.

---2016/08/07 16:00:15---
Trollepoten has recieved 75 Water rune.

---2016/08/07 16:00:15---
Trollepoten has recieved 150 Body rune.

---2016/08/07 20:42:58---
Trollepoten has recieved 100 Bolt rack.

---2016/08/07 20:42:58---
Trollepoten has recieved 1 Guthan's chainskirt 0.

---2016/08/07 23:25:08---
Trollepoten has recieved 250 Blood rune.

---2016/08/07 23:25:08---
Trollepoten has recieved 75 Water rune.

---2016/08/07 23:25:08---
Trollepoten has recieved 75 Body rune.
