
---2016/08/04 19:05:09---
Trustrup has recieved 1 Guthan's warspear 0.

---2016/08/04 19:05:09---
Trustrup has recieved 130 Bolt rack.

---2016/08/04 19:05:09---
Trustrup has recieved 75 Water rune.

---2016/08/04 19:16:05---
Trustrup has recieved 50 Bolt rack.

---2016/08/04 19:16:05---
Trustrup has recieved 75 Air rune.

---2016/08/04 19:16:05---
Trustrup has recieved 75 Earth rune.

---2016/08/04 19:24:29---
Trustrup has recieved 1 Ashes.

---2016/08/04 19:24:29---
Trustrup has recieved 110 Bolt rack.

---2016/08/04 19:24:29---
Trustrup has recieved 150 Big bones.

---2016/08/04 19:24:29---
Trustrup has recieved 75 Earth rune.

---2016/08/04 19:33:00---
Trustrup has recieved 1 Ashes.

---2016/08/04 19:33:00---
Trustrup has recieved 75 Bolt rack.

---2016/08/04 19:33:00---
Trustrup has recieved 75 Air rune.

---2016/08/04 19:41:51---
Trustrup has recieved 15 Bolt rack.

---2016/08/04 19:41:51---
Trustrup has recieved 150 Body rune.

---2016/08/05 00:51:30---
Trustrup has recieved 90 Bolt rack.

---2016/08/05 00:51:30---
Trustrup has recieved 75 Body rune.

---2016/08/05 00:58:38---
Trustrup has recieved 200 Babydragon bones.

---2016/08/05 00:58:38---
Trustrup has recieved 1 Dharok's greataxe 0.

---2016/08/05 00:58:38---
Trustrup has recieved 75 Air rune.

---2016/08/05 01:05:52---
Trustrup has recieved 250 Death rune.

---2016/08/05 01:05:52---
Trustrup has recieved 25 Bolt rack.

---2016/08/05 01:05:52---
Trustrup has recieved 75 Fire rune.

---2016/08/05 01:05:52---
Trustrup has recieved 150 Mind rune.

---2016/08/05 01:11:44---
Trustrup has recieved 75 Bolt rack.

---2016/08/05 01:11:44---
Trustrup has recieved 150 Big bones.

---2016/08/05 01:11:44---
Trustrup has recieved 1 Bones.

---2016/08/05 01:17:16---
Trustrup has recieved 1 Ashes.

---2016/08/05 01:17:16---
Trustrup has recieved 250 Death rune.

---2016/08/05 01:17:16---
Trustrup has recieved 130 Bolt rack.

---2016/08/05 01:23:53---
Trustrup has recieved 50 Bolt rack.

---2016/08/05 01:23:53---
Trustrup has recieved 75 Fire rune.

---2016/08/05 01:23:53---
Trustrup has recieved 75 Water rune.

---2016/08/05 01:30:43---
Trustrup has recieved 1 Verac's plateskirt 0.

---2016/08/05 01:30:43---
Trustrup has recieved 150 Earth rune.

---2016/08/05 02:04:50---
Trustrup has recieved 55 Bolt rack.

---2016/08/05 02:04:50---
Trustrup has recieved 75 Water rune.

---2016/08/05 02:10:55---
Trustrup has recieved 80 Bolt rack.

---2016/08/05 02:10:55---
Trustrup has recieved 150 Big bones.

---2016/08/05 02:17:18---
Trustrup has recieved 75 Bolt rack.

---2016/08/05 02:17:18---
Trustrup has recieved 75 Air rune.

---2016/08/05 02:17:18---
Trustrup has recieved 75 Body rune.

---2016/08/05 07:00:53---
Trustrup has recieved 1 Ashes.

---2016/08/05 07:00:53---
Trustrup has recieved 75 Mind rune.

---2016/08/05 07:00:53---
Trustrup has recieved 1 Bones.

---2016/08/05 07:07:03---
Trustrup has recieved 110 Bolt rack.

---2016/08/05 07:07:03---
Trustrup has recieved 75 Air rune.

---2016/08/05 07:07:03---
Trustrup has recieved 75 Body rune.

---2016/08/05 11:13:02---
Trustrup has recieved 1 Ashes.

---2016/08/05 11:13:02---
Trustrup has recieved 1 Guthan's warspear 0.

---2016/08/05 11:13:02---
Trustrup has recieved 55 Bolt rack.

---2016/08/05 11:23:57---
Trustrup has recieved 1 Karil's leathertop 0.

---2016/08/05 11:23:57---
Trustrup has recieved 75 Water rune.

---2016/08/05 11:23:57---
Trustrup has recieved 75 Earth rune.

---2016/08/05 11:23:57---
Trustrup has recieved 75 Mind rune.

---2016/08/05 11:31:04---
Trustrup has recieved 80 Bolt rack.

---2016/08/05 11:31:04---
Trustrup has recieved 250 Soul rune.

---2016/08/05 21:30:53---
Trustrup has recieved 1 Ashes.

---2016/08/05 21:30:53---
Trustrup has recieved 5 Bolt rack.

---2016/08/05 21:30:53---
Trustrup has recieved 75 Mind rune.

---2016/08/05 21:30:53---
Trustrup has recieved 75 Body rune.

---2016/08/05 21:40:24---
Trustrup has recieved 30 Bolt rack.

---2016/08/05 21:40:24---
Trustrup has recieved 150 Air rune.

---2016/08/05 21:47:08---
Trustrup has recieved 20 Bolt rack.

---2016/08/05 21:47:08---
Trustrup has recieved 1 Dharok's greataxe 0.

---2016/08/06 17:53:31---
Trustrup has recieved 40 Bolt rack.

---2016/08/06 17:53:31---
Trustrup has recieved 75 Air rune.

---2016/08/06 17:59:38---
Trustrup has recieved 1 Ashes.

---2016/08/06 17:59:38---
Trustrup has recieved 1 Dharok's platelegs 0.

---2016/08/06 17:59:38---
Trustrup has recieved 75 Earth rune.

---2016/08/06 18:05:56---
Trustrup has recieved 130 Bolt rack.

---2016/08/06 18:05:56---
Trustrup has recieved 1 Dharok's helm 0.

---2016/08/06 18:12:36---
Trustrup has recieved 1 Ashes.

---2016/08/06 18:12:36---
Trustrup has recieved 225 Bolt rack.

---2016/08/06 18:12:36---
Trustrup has recieved 1 Guthan's platebody 0.

---2016/08/06 18:19:59---
Trustrup has recieved 1 Ashes.

---2016/08/06 18:19:59---
Trustrup has recieved 20 Bolt rack.

---2016/08/06 18:29:29---
Trustrup has recieved 200 Babydragon bones.

---2016/08/06 18:29:29---
Trustrup has recieved 75 Water rune.

---2016/08/06 18:29:29---
Trustrup has recieved 1 Bones.
