
---2016/07/13 17:52:11---
Uzi has recieved 75 Bolt rack.

---2016/07/13 17:52:11---
Uzi has recieved 75 Fire rune.

---2016/07/13 17:52:11---
Uzi has recieved 75 Air rune.

---2016/07/13 18:02:02---
Uzi has recieved 1 Dharok's platebody 0.

---2016/07/13 18:02:02---
Uzi has recieved 20 Bolt rack.

---2016/07/13 18:02:02---
Uzi has recieved 75 Mind rune.

---2016/07/13 18:12:59---
Uzi has recieved 5 Bolt rack.

---2016/07/13 18:12:59---
Uzi has recieved 1 Karil's leatherskirt 0.

---2016/07/13 18:12:59---
Uzi has recieved 75 Water rune.

---2016/07/13 18:12:59---
Uzi has recieved 75 Earth rune.

---2016/07/13 18:20:46---
Uzi has recieved 25 Bolt rack.

---2016/07/13 18:20:46---
Uzi has recieved 150 Big bones.

---2016/07/13 18:20:46---
Uzi has recieved 75 Air rune.

---2016/07/13 18:20:46---
Uzi has recieved 1 Bones.

---2016/07/13 18:29:40---
Uzi has recieved 1 Ashes.

---2016/07/13 18:29:40---
Uzi has recieved 15 Bolt rack.

---2016/07/13 18:29:40---
Uzi has recieved 150 Big bones.

---2016/07/13 18:29:40---
Uzi has recieved 75 Fire rune.

---2016/07/13 18:29:40---
Uzi has recieved 1 Bones.

---2016/07/13 21:51:52---
Uzi has recieved 65 Bolt rack.

---2016/07/13 21:51:52---
Uzi has recieved 75 Air rune.

---2016/07/13 22:02:18---
Uzi has recieved 1 Torag's hammers 0.

---2016/07/13 22:02:18---
Uzi has recieved 15 Bolt rack.

---2016/07/13 22:02:18---
Uzi has recieved 75 Fire rune.

---2016/07/13 22:02:18---
Uzi has recieved 150 Air rune.

---2016/07/13 22:10:16---
Uzi has recieved 120 Bolt rack.

---2016/07/13 22:10:16---
Uzi has recieved 75 Earth rune.

---2016/07/13 23:25:07---
Uzi has recieved 1 Ashes.

---2016/07/13 23:25:07---
Uzi has recieved 1 Karil's leathertop 0.

---2016/07/13 23:25:07---
Uzi has recieved 5 Bolt rack.

---2016/07/13 23:25:07---
Uzi has recieved 150 Water rune.

---2016/07/13 23:32:21---
Uzi has recieved 1 Ashes.

---2016/07/13 23:32:21---
Uzi has recieved 25 Bolt rack.

---2016/07/13 23:32:21---
Uzi has recieved 75 Fire rune.

---2016/07/13 23:39:51---
Uzi has recieved 1 Torag's hammers 0.

---2016/07/13 23:39:51---
Uzi has recieved 5 Bolt rack.

---2016/07/13 23:39:51---
Uzi has recieved 75 Fire rune.

---2016/07/13 23:47:02---
Uzi has recieved 2 Ashes.

---2016/07/13 23:47:02---
Uzi has recieved 60 Bolt rack.

---2016/07/13 23:47:02---
Uzi has recieved 150 Big bones.

---2016/07/13 23:53:52---
Uzi has recieved 200 Babydragon bones.

---2016/07/13 23:53:52---
Uzi has recieved 150 Air rune.

---2016/07/14 00:02:54---
Uzi has recieved 1 Ashes.

---2016/07/14 00:02:54---
Uzi has recieved 70 Bolt rack.

---2016/07/14 00:02:54---
Uzi has recieved 150 Big bones.

---2016/07/14 00:09:49---
Uzi has recieved 1 Ahrim's staff 0.

---2016/07/14 00:09:49---
Uzi has recieved 90 Bolt rack.

---2016/07/14 00:09:49---
Uzi has recieved 75 Fire rune.

---2016/07/14 23:40:10---
Uzi has recieved 45 Bolt rack.

---2016/07/14 23:40:10---
Uzi has recieved 75 Water rune.

---2016/07/14 23:40:10---
Uzi has recieved 75 Earth rune.

---2016/07/15 03:24:52---
Uzi has recieved 1100 Bolt rack.

---2016/07/15 03:24:52---
Uzi has recieved 75 Mind rune.

---2016/07/15 03:30:15---
Uzi has recieved 55 Bolt rack.

---2016/07/15 03:30:15---
Uzi has recieved 150 Big bones.

---2016/07/15 03:30:15---
Uzi has recieved 75 Fire rune.

---2016/07/15 03:35:39---
Uzi has recieved 105 Bolt rack.

---2016/07/15 03:35:39---
Uzi has recieved 150 Big bones.

---2016/07/15 03:40:57---
Uzi has recieved 1 Ashes.

---2016/07/15 03:40:57---
Uzi has recieved 125 Bolt rack.

---2016/07/15 03:40:57---
Uzi has recieved 75 Water rune.

---2016/07/15 05:07:16---
Uzi has recieved 55 Bolt rack.

---2016/07/15 05:07:16---
Uzi has recieved 75 Air rune.

---2016/07/15 05:07:16---
Uzi has recieved 75 Earth rune.

---2016/07/16 00:14:09---
Uzi has recieved 750 Bolt rack.

---2016/07/16 00:14:09---
Uzi has recieved 1 Dharok's greataxe 0.

---2016/07/16 00:14:09---
Uzi has recieved 75 Earth rune.

---2016/07/16 00:34:43---
Uzi has recieved 60 Bolt rack.

---2016/07/16 00:34:43---
Uzi has recieved 250 Blood rune.

---2016/07/16 04:27:30---
Uzi has recieved 95 Bolt rack.

---2016/07/16 04:27:30---
Uzi has recieved 75 Air rune.

---2016/07/16 19:18:58---
Uzi has recieved 1 Ashes.

---2016/07/16 19:18:58---
Uzi has recieved 250 Soul rune.

---2016/07/16 19:18:58---
Uzi has recieved 75 Body rune.

---2016/07/16 19:23:42---
Uzi has recieved 250 Death rune.

---2016/07/16 19:23:42---
Uzi has recieved 40 Bolt rack.

---2016/07/16 19:23:42---
Uzi has recieved 150 Water rune.

---2016/07/16 19:29:15---
Uzi has recieved 1 Torag's hammers 0.

---2016/07/16 19:29:15---
Uzi has recieved 205 Bolt rack.

---2016/07/16 19:29:15---
Uzi has recieved 75 Earth rune.

---2016/07/16 19:29:15---
Uzi has recieved 1 Bones.

---2016/07/16 19:34:46---
Uzi has recieved 20 Bolt rack.

---2016/07/16 19:34:46---
Uzi has recieved 75 Mind rune.

---2016/07/16 19:40:46---
Uzi has recieved 5 Bolt rack.

---2016/07/16 19:40:46---
Uzi has recieved 1 Guthan's chainskirt 0.

---2016/07/16 19:40:46---
Uzi has recieved 75 Body rune.

---2016/07/16 19:47:37---
Uzi has recieved 80 Bolt rack.

---2016/07/16 19:47:37---
Uzi has recieved 1 Bones.

---2016/07/16 19:53:15---
Uzi has recieved 1 Torag's hammers 0.

---2016/07/16 19:53:15---
Uzi has recieved 75 Air rune.

---2016/07/16 19:53:15---
Uzi has recieved 75 Earth rune.

---2016/07/16 19:59:19---
Uzi has recieved 105 Bolt rack.

---2016/07/16 19:59:19---
Uzi has recieved 75 Water rune.

---2016/07/16 19:59:19---
Uzi has recieved 75 Body rune.

---2016/07/16 20:06:52---
Uzi has recieved 250 Blood rune.

---2016/07/16 20:06:52---
Uzi has recieved 150 Body rune.

---2016/07/17 18:23:18---
Uzi has recieved 1 Ashes.

---2016/07/17 18:23:18---
Uzi has recieved 30 Bolt rack.

---2016/07/17 18:23:18---
Uzi has recieved 75 Body rune.

---2016/07/29 17:02:13---
Uzi has recieved 90 Bolt rack.

---2016/07/29 17:02:13---
Uzi has recieved 75 Earth rune.

---2016/07/29 17:02:13---
Uzi has recieved 75 Body rune.

---2016/07/29 20:19:32---
Uzi has recieved 50 Bolt rack.

---2016/07/29 20:19:32---
Uzi has recieved 75 Fire rune.

---2016/07/29 20:19:32---
Uzi has recieved 75 Water rune.

---2016/07/29 20:23:24---
Uzi has recieved 55 Bolt rack.

---2016/07/29 20:23:24---
Uzi has recieved 250 Blood rune.

---2016/07/29 20:23:24---
Uzi has recieved 75 Water rune.

---2016/07/29 20:23:24---
Uzi has recieved 75 Body rune.

---2016/07/29 20:27:34---
Uzi has recieved 75 Mind rune.

---2016/07/29 20:27:34---
Uzi has recieved 150 Body rune.

---2016/07/29 20:32:36---
Uzi has recieved 100 Bolt rack.

---2016/07/29 20:32:36---
Uzi has recieved 1 Torag's platebody 0.

---2016/08/01 19:25:47---
Uzi has recieved 1 Dharok's platelegs 0.

---2016/08/01 19:25:47---
Uzi has recieved 75 Earth rune.

---2016/08/01 19:25:47---
Uzi has recieved 75 Mind rune.

---2016/08/01 19:32:40---
Uzi has recieved 40 Bolt rack.

---2016/08/01 19:32:40---
Uzi has recieved 150 Big bones.

---2016/08/01 19:32:40---
Uzi has recieved 200 Babydragon bones.

---2016/08/01 19:32:40---
Uzi has recieved 75 Body rune.

---2016/08/01 19:38:30---
Uzi has recieved 1 Ashes.

---2016/08/01 19:38:30---
Uzi has recieved 250 Nature rune.

---2016/08/01 19:38:30---
Uzi has recieved 105 Bolt rack.

---2016/08/01 19:38:30---
Uzi has recieved 1 Bones.

---2016/08/01 19:45:32---
Uzi has recieved 40 Bolt rack.

---2016/08/01 19:45:32---
Uzi has recieved 1 Guthan's helm 0.

---2016/08/01 19:53:19---
Uzi has recieved 25 Bolt rack.

---2016/08/01 19:53:19---
Uzi has recieved 75 Water rune.

---2016/08/01 19:53:19---
Uzi has recieved 1 Bones.

---2016/08/01 20:00:53---
Uzi has recieved 1 Karil's coif 0.

---2016/08/01 20:00:53---
Uzi has recieved 75 Fire rune.

---2016/08/01 20:00:53---
Uzi has recieved 75 Water rune.

---2016/08/01 20:07:18---
Uzi has recieved 5 Bolt rack.

---2016/08/01 20:07:18---
Uzi has recieved 150 Big bones.

---2016/08/01 20:07:18---
Uzi has recieved 250 Soul rune.

---2016/08/01 20:07:18---
Uzi has recieved 1 Torag's helm 0.

---2016/08/01 20:13:35---
Uzi has recieved 25 Bolt rack.

---2016/08/01 20:13:35---
Uzi has recieved 75 Earth rune.

---2016/08/01 20:13:35---
Uzi has recieved 75 Mind rune.

---2016/08/01 20:13:35---
Uzi has recieved 1 Bones.

---2016/08/01 20:22:43---
Uzi has recieved 20 Bolt rack.

---2016/08/01 20:22:43---
Uzi has recieved 1 Ahrim's hood 0.

---2016/08/01 20:29:59---
Uzi has recieved 85 Bolt rack.

---2016/08/01 20:29:59---
Uzi has recieved 150 Big bones.

---2016/08/01 20:29:59---
Uzi has recieved 75 Mind rune.

---2016/08/01 20:39:45---
Uzi has recieved 25 Bolt rack.

---2016/08/01 20:39:45---
Uzi has recieved 150 Big bones.

---2016/08/01 20:39:45---
Uzi has recieved 75 Fire rune.

---2016/08/01 20:39:45---
Uzi has recieved 75 Earth rune.

---2016/08/01 20:39:45---
Uzi has recieved 1 Bones.

---2016/08/01 20:45:14---
Uzi has recieved 1 Ashes.

---2016/08/01 20:45:14---
Uzi has recieved 250 Soul rune.

---2016/08/01 20:45:14---
Uzi has recieved 1 Bones.

---2016/08/01 20:45:14---
Uzi has recieved 75 Mind rune.

---2016/08/01 23:37:16---
Uzi has recieved 1 Karil's leathertop 0.

---2016/08/01 23:37:16---
Uzi has recieved 55 Bolt rack.

---2016/08/01 23:37:16---
Uzi has recieved 75 Fire rune.

---2016/08/01 23:37:16---
Uzi has recieved 150 Earth rune.

---2016/08/01 23:44:48---
Uzi has recieved 15 Bolt rack.

---2016/08/01 23:44:48---
Uzi has recieved 250 Blood rune.

---2016/08/01 23:44:48---
Uzi has recieved 75 Fire rune.

---2016/08/01 23:53:34---
Uzi has recieved 55 Bolt rack.

---2016/08/01 23:53:34---
Uzi has recieved 75 Air rune.

---2016/08/01 23:53:34---
Uzi has recieved 150 Earth rune.

---2016/08/01 23:59:54---
Uzi has recieved 1 Barrows gloves.

---2016/08/01 23:59:54---
Uzi has recieved 75 Earth rune.

---2016/08/01 23:59:54---
Uzi has recieved 75 Body rune.

---2016/08/02 04:51:14---
Uzi has recieved 80 Bolt rack.

---2016/08/02 04:51:14---
Uzi has recieved 150 Big bones.

---2016/08/02 04:51:14---
Uzi has recieved 1 Karil's leatherskirt 0.

---2016/08/02 04:51:14---
Uzi has recieved 75 Air rune.

---2016/08/05 00:30:50---
Uzi has recieved 1 Ashes.

---2016/08/05 00:30:50---
Uzi has recieved 1 Karil's coif 0.

---2016/08/05 00:30:50---
Uzi has recieved 75 Mind rune.

---2016/08/05 00:38:03---
Uzi has recieved 1 Verac's brassard 0.

---2016/08/05 00:38:03---
Uzi has recieved 55 Bolt rack.

---2016/08/05 00:38:03---
Uzi has recieved 1 Torag's helm 0.

---2016/08/05 02:55:16---
Uzi has recieved 2 Dharok's platebody 0.

---2016/08/05 02:55:16---
Uzi has recieved 75 Fire rune.

---2016/08/06 17:52:11---
Uzi has recieved 15 Bolt rack.

---2016/08/06 17:52:11---
Uzi has recieved 150 Big bones.

---2016/08/06 17:52:11---
Uzi has recieved 75 Water rune.

---2016/08/06 17:52:11---
Uzi has recieved 75 Air rune.

---2016/08/06 17:52:11---
Uzi has recieved 75 Earth rune.

---2016/08/06 17:58:06---
Uzi has recieved 90 Bolt rack.

---2016/08/06 17:58:06---
Uzi has recieved 150 Big bones.

---2016/08/06 18:04:11---
Uzi has recieved 75 Water rune.

---2016/08/06 18:04:11---
Uzi has recieved 75 Air rune.

---2016/08/06 18:04:11---
Uzi has recieved 75 Earth rune.

---2016/08/06 18:08:48---
Uzi has recieved 250 Death rune.

---2016/08/06 18:08:48---
Uzi has recieved 15 Bolt rack.

---2016/08/06 18:08:48---
Uzi has recieved 1 Bones.

---2016/08/06 18:13:44---
Uzi has recieved 840 Bolt rack.

---2016/08/06 18:13:44---
Uzi has recieved 75 Water rune.

---2016/08/06 18:18:28---
Uzi has recieved 2 Ashes.

---2016/08/06 18:18:28---
Uzi has recieved 1 Dharok's platelegs 0.

---2016/08/06 18:18:28---
Uzi has recieved 75 Air rune.

---2016/08/06 18:22:58---
Uzi has recieved 55 Bolt rack.

---2016/08/06 18:22:58---
Uzi has recieved 75 Earth rune.

---2016/08/06 18:22:58---
Uzi has recieved 1 Bones.

---2016/08/06 18:22:58---
Uzi has recieved 75 Mind rune.

---2016/08/06 18:27:53---
Uzi has recieved 1 Verac's brassard 0.

---2016/08/06 18:27:53---
Uzi has recieved 55 Bolt rack.

---2016/08/06 18:27:53---
Uzi has recieved 150 Air rune.

---2016/08/06 18:27:53---
Uzi has recieved 1 Bones.

---2016/08/06 18:46:07---
Uzi has recieved 1 Ashes.

---2016/08/06 18:46:07---
Uzi has recieved 150 Fire rune.

---2016/08/06 18:46:07---
Uzi has recieved 75 Air rune.

---2016/08/06 18:50:20---
Uzi has recieved 1 Ahrim's staff 0.

---2016/08/06 18:50:20---
Uzi has recieved 250 Chaos rune.

---2016/08/06 18:50:20---
Uzi has recieved 1 Bones.

---2016/08/06 18:55:26---
Uzi has recieved 15 Bolt rack.

---2016/08/06 18:55:26---
Uzi has recieved 150 Big bones.

---2016/08/06 18:55:26---
Uzi has recieved 75 Fire rune.

---2016/08/06 18:55:26---
Uzi has recieved 75 Mind rune.

---2016/08/12 19:21:42---
Uzi has recieved 1 Ashes.

---2016/08/12 19:21:42---
Uzi has recieved 5 Bolt rack.

---2016/08/12 19:21:42---
Uzi has recieved 1 Dharok's greataxe 0.

---2016/08/12 19:21:42---
Uzi has recieved 1 Bones.

---2016/08/12 19:31:27---
Uzi has recieved 150 Big bones.

---2016/08/12 19:31:27---
Uzi has recieved 75 Air rune.

---2016/08/12 19:31:27---
Uzi has recieved 75 Body rune.

---2016/08/12 19:55:48---
Uzi has recieved 1 Ashes.

---2016/08/12 19:55:48---
Uzi has recieved 150 Big bones.

---2016/08/12 19:55:48---
Uzi has recieved 1 Bones.

---2016/08/12 20:01:41---
Uzi has recieved 60 Bolt rack.

---2016/08/12 20:01:41---
Uzi has recieved 75 Air rune.

---2016/08/12 20:01:41---
Uzi has recieved 1 Bones.

---2016/08/12 20:06:40---
Uzi has recieved 1 Ahrim's staff 0.

---2016/08/12 20:06:40---
Uzi has recieved 40 Bolt rack.

---2016/08/14 04:16:04---
Uzi has recieved 250 Death rune.

---2016/08/14 04:16:04---
Uzi has recieved 25 Bolt rack.

---2016/08/14 04:16:04---
Uzi has recieved 75 Fire rune.

---2016/08/14 04:16:04---
Uzi has recieved 75 Body rune.

---2016/08/14 17:28:37---
Uzi has recieved 50 Bolt rack.

---2016/08/14 17:28:37---
Uzi has recieved 1 Verac's flail 0.

---2016/08/14 17:34:46---
Uzi has recieved 575 Bolt rack.

---2016/08/14 17:34:46---
Uzi has recieved 1 Barrows gloves.

---2016/08/14 17:34:46---
Uzi has recieved 75 Mind rune.

---2016/08/14 18:14:43---
Uzi has recieved 1 Ashes.

---2016/08/14 18:14:43---
Uzi has recieved 30 Bolt rack.

---2016/08/14 18:14:43---
Uzi has recieved 200 Babydragon bones.

---2016/08/14 18:27:38---
Uzi has recieved 15 Bolt rack.

---2016/08/14 18:27:38---
Uzi has recieved 75 Water rune.

---2016/08/14 18:27:38---
Uzi has recieved 75 Air rune.

---2016/08/14 18:27:38---
Uzi has recieved 75 Body rune.

---2016/08/14 19:00:24---
Uzi has recieved 310 Bolt rack.

---2016/08/14 19:00:24---
Uzi has recieved 75 Air rune.

---2016/08/14 19:00:24---
Uzi has recieved 75 Mind rune.

---2016/08/14 19:05:52---
Uzi has recieved 750 Bolt rack.

---2016/08/14 19:05:52---
Uzi has recieved 150 Big bones.

---2016/08/14 19:05:52---
Uzi has recieved 75 Water rune.

---2016/08/14 19:05:52---
Uzi has recieved 75 Mind rune.

---2016/08/14 20:56:02---
Uzi has recieved 1 Dharok's helm 0.

---2016/08/14 20:56:02---
Uzi has recieved 75 Fire rune.

---2016/08/14 20:56:02---
Uzi has recieved 75 Air rune.

---2016/08/14 20:56:02---
Uzi has recieved 75 Body rune.

---2016/08/14 21:12:59---
Uzi has recieved 75 Bolt rack.

---2016/08/14 21:12:59---
Uzi has recieved 1 Barrows gloves.

---2016/08/14 21:12:59---
Uzi has recieved 75 Earth rune.

---2016/08/14 21:17:50---
Uzi has recieved 25 Bolt rack.

---2016/08/14 21:17:50---
Uzi has recieved 1 Verac's helm 0.

---2016/08/14 21:17:50---
Uzi has recieved 75 Earth rune.

---2016/08/14 21:40:37---
Uzi has recieved 15 Bolt rack.

---2016/08/14 21:40:37---
Uzi has recieved 150 Big bones.

---2016/08/14 21:40:37---
Uzi has recieved 75 Fire rune.

---2016/08/14 21:40:37---
Uzi has recieved 75 Air rune.

---2016/08/14 21:49:23---
Uzi has recieved 75 Fire rune.

---2016/08/14 21:49:23---
Uzi has recieved 75 Mind rune.

---2016/08/14 21:49:23---
Uzi has recieved 75 Body rune.

---2016/08/19 16:33:09---
Uzi has recieved 1 Ashes.

---2016/08/19 16:33:09---
Uzi has recieved 765 Bolt rack.

---2016/08/19 16:33:09---
Uzi has recieved 1 Crystal key.

---2016/08/19 16:33:09---
Uzi has recieved 75 Body rune.

---2016/08/19 16:39:12---
Uzi has recieved 75 Bolt rack.

---2016/08/19 16:39:12---
Uzi has recieved 150 Big bones.

---2016/08/19 16:39:12---
Uzi has recieved 1 Barrows gloves.

---2016/08/19 16:46:45---
Uzi has recieved 1 Ashes.

---2016/08/19 16:46:45---
Uzi has recieved 75 Fire rune.

---2016/08/19 16:46:45---
Uzi has recieved 1 Bones.

---2016/08/19 16:46:45---
Uzi has recieved 75 Mind rune.

---2016/08/19 16:55:06---
Uzi has recieved 1 Ashes.

---2016/08/19 16:55:06---
Uzi has recieved 25 Bolt rack.

---2016/08/19 16:55:06---
Uzi has recieved 75 Air rune.

---2016/08/19 16:55:06---
Uzi has recieved 75 Mind rune.

---2016/08/19 16:55:06---
Uzi has recieved 1 Bones.

---2016/08/19 17:06:07---
Uzi has recieved 70 Bolt rack.

---2016/08/19 17:06:07---
Uzi has recieved 75 Earth rune.

---2016/08/19 17:12:23---
Uzi has recieved 70 Bolt rack.

---2016/08/19 17:12:23---
Uzi has recieved 2 Mystery box.

---2016/08/19 17:12:23---
Uzi has recieved 75 Mind rune.

---2016/08/19 18:48:49---
Uzi has recieved 150 Water rune.

---2016/08/19 18:48:49---
Uzi has recieved 75 Body rune.

---2016/08/19 23:59:44---
Uzi has recieved 1 Credits Scroll.

---2016/08/19 23:59:44---
Uzi has recieved 955 Bolt rack.

---2016/08/19 23:59:44---
Uzi has recieved 75 Air rune.

---2016/08/20 00:05:39---
Uzi has recieved 775 Bolt rack.

---2016/08/20 00:05:39---
Uzi has recieved 150 Big bones.

---2016/08/20 00:05:39---
Uzi has recieved 150 Water rune.

---2016/08/20 01:46:56---
Uzi has recieved 200 Babydragon bones.

---2016/08/20 01:46:56---
Uzi has recieved 75 Water rune.

---2016/08/20 01:46:56---
Uzi has recieved 1 Crystal key.

---2016/08/20 01:46:56---
Uzi has recieved 75 Mind rune.

---2016/08/20 01:52:09---
Uzi has recieved 150 Big bones.

---2016/08/20 01:52:09---
Uzi has recieved 75 Air rune.

---2016/08/20 01:52:09---
Uzi has recieved 75 Mind rune.

---2016/08/20 01:57:40---
Uzi has recieved 1 Ashes.

---2016/08/20 01:57:40---
Uzi has recieved 15 Bolt rack.

---2016/08/20 01:57:40---
Uzi has recieved 150 Earth rune.

---2016/08/20 01:57:40---
Uzi has recieved 1 Bones.

---2016/08/20 02:03:41---
Uzi has recieved 70 Bolt rack.

---2016/08/20 02:03:41---
Uzi has recieved 75 Fire rune.

---2016/08/20 02:09:47---
Uzi has recieved 1 Ashes.

---2016/08/20 02:09:47---
Uzi has recieved 150 Big bones.

---2016/08/20 02:09:47---
Uzi has recieved 1 Crystal key.

---2016/08/20 02:09:47---
Uzi has recieved 2 Bones.
