
---2016/07/20 20:42:48---
Vigfus has recieved 150 Big bones.

---2016/07/20 20:42:48---
Vigfus has recieved 150 Fire rune.

---2016/07/20 20:42:48---
Vigfus has recieved 1 Bones.

---2016/08/12 18:31:03---
Vigfus has recieved 40 Bolt rack.

---2016/08/12 18:31:03---
Vigfus has recieved 150 Big bones.

---2016/08/12 18:31:03---
Vigfus has recieved 75 Earth rune.
