
---2016/07/13 03:27:19---
Wafes has recieved 30 Bolt rack.

---2016/07/13 03:27:19---
Wafes has recieved 1 Ahrim's robeskirt 0.

---2016/07/13 03:37:53---
Wafes has recieved 150 Fire rune.

---2016/07/13 03:37:53---
Wafes has recieved 75 Air rune.

---2016/07/13 03:37:53---
Wafes has recieved 1 Bones.

---2016/07/13 03:37:53---
Wafes has recieved 75 Mind rune.

---2016/07/13 03:44:40---
Wafes has recieved 1 Ashes.

---2016/07/13 03:44:40---
Wafes has recieved 250 Death rune.

---2016/07/13 03:44:40---
Wafes has recieved 5 Bolt rack.

---2016/07/13 03:44:40---
Wafes has recieved 75 Fire rune.

---2016/07/13 03:54:21---
Wafes has recieved 550 Bolt rack.

---2016/07/13 03:54:21---
Wafes has recieved 150 Big bones.

---2016/07/13 03:54:21---
Wafes has recieved 75 Fire rune.

---2016/07/13 03:54:21---
Wafes has recieved 75 Mind rune.

---2016/07/13 03:54:21---
Wafes has recieved 75 Body rune.

---2016/07/14 01:42:37---
Wafes has recieved 55 Bolt rack.

---2016/07/14 01:42:37---
Wafes has recieved 75 Air rune.

---2016/07/14 01:42:37---
Wafes has recieved 75 Earth rune.

---2016/07/14 04:42:37---
Wafes has recieved 15 Bolt rack.

---2016/07/14 04:42:37---
Wafes has recieved 75 Fire rune.

---2016/07/14 04:42:37---
Wafes has recieved 75 Earth rune.
