
---2016/07/14 23:45:23---
Ximez has recieved 25 Bolt rack.

---2016/07/14 23:45:23---
Ximez has recieved 150 Big bones.

---2016/07/14 23:45:23---
Ximez has recieved 75 Fire rune.

---2016/07/15 00:02:22---
Ximez has recieved 750 Bolt rack.

---2016/07/15 00:02:22---
Ximez has recieved 75 Water rune.

---2016/07/15 00:02:22---
Ximez has recieved 1 Bones.

---2016/07/16 10:20:33---
Ximez has recieved 1 Karil's leathertop 0.

---2016/07/16 10:20:33---
Ximez has recieved 250 Nature rune.

---2016/07/16 10:20:33---
Ximez has recieved 75 Fire rune.

---2016/07/16 10:29:18---
Ximez has recieved 130 Bolt rack.

---2016/07/16 10:29:18---
Ximez has recieved 250 Blood rune.

---2016/07/16 15:39:12---
Ximez has recieved 2 Ashes.

---2016/07/16 15:39:12---
Ximez has recieved 25 Bolt rack.

---2016/07/16 15:39:12---
Ximez has recieved 1 Torag's platebody 0.

---2016/07/16 15:52:07---
Ximez has recieved 1 Ashes.

---2016/07/16 15:52:07---
Ximez has recieved 150 Big bones.

---2016/07/16 15:52:07---
Ximez has recieved 75 Fire rune.
