
---2016/07/13 04:38:04---
Ascension has been killed by Rock Crab.

---2016/07/13 04:50:51---
Ascension has been killed by Ancient Gorilla.

---2016/07/13 04:51:35---
Ascension has been killed by Demonic Gorilla.
