
---2016/07/19 22:06:44---
Austin6661 has been killed by Ancient Gorilla.

---2016/07/20 13:02:42---
Austin6661 has been killed by Barrelchest.

---2016/07/20 13:04:01---
Austin6661 has been killed by Demonic Gorilla.

---2016/07/29 16:50:12---
Austin6661 has been killed by Chaos Fanatic.
