
---2016/07/20 07:51:19---
Bearisaur has been killed by Magic Axe.

---2016/07/20 08:13:11---
Bearisaur has been killed by Magic Axe.

---2016/07/20 10:28:03---
Bearisaur has been killed by Ancient Gorilla.
