
---2016/08/04 10:56:47---
Beyblades has been killed by Scorpia.

---2016/08/04 12:08:31---
Beyblades has been killed by Deadkid.

---2016/08/04 12:14:12---
Beyblades has been killed by Deadkid.

---2016/08/04 14:32:37---
Beyblades has been killed by Deadkid.

---2016/08/05 14:09:05---
Beyblades has been killed by Inflexion.

---2016/08/05 21:08:56---
Beyblades has been killed by Deadkid.
