
---2016/07/22 02:30:15---
Bigboy has been killed by Molanisk.

---2016/07/22 03:49:17---
Bigboy has been killed by Rock Crab.

---2016/07/23 09:00:16---
Bigboy has been killed by Vet'Ion.

---2016/09/01 00:18:39---
Bigboy has been killed by Corporeal Beast.
