
---2016/07/31 21:24:37---
Bill Cosby has been killed by Skotizo.

---2016/08/01 02:46:23---
Bill Cosby has been killed by Lizardman Shaman.

---2016/08/01 10:36:45---
Bill Cosby has been killed by Abyssal Spawn.

---2016/08/02 02:24:51---
Bill Cosby has been killed by Skotizo.

---2016/08/02 02:28:43---
Bill Cosby has been killed by Skotizo.

---2016/08/02 02:32:49---
Bill Cosby has been killed by Skotizo.

---2016/08/03 09:37:32---
Bill Cosby has been killed by Skotizo.

---2016/08/03 09:50:34---
Bill Cosby has been killed by Skotizo.

---2016/08/03 09:58:36---
Bill Cosby has been killed by Skotizo.

---2016/08/03 19:06:36---
Bill Cosby has been killed by Skotizo.

---2016/08/03 20:09:51---
Bill Cosby has been killed by Skotizo.

---2016/08/04 22:27:11---
Bill Cosby has been killed by Skotizo.

---2016/08/09 01:26:13---
Bill Cosby has been killed by Skotizo.

---2016/08/09 01:29:54---
Bill Cosby has been killed by Skotizo.

---2016/08/09 02:08:11---
Bill Cosby has been killed by Skotizo.

---2016/08/09 09:18:13---
Bill Cosby has been killed by Skotizo.

---2016/08/09 09:38:40---
Bill Cosby has been killed by Skotizo.

---2016/08/11 03:38:53---
Bill Cosby has been killed by Penance Queen.
