
---2016/08/23 09:33:28---
Clerk has been killed by Rock Crab.

---2016/08/25 14:58:00---
Clerk has been killed by Abyssal Monarch.

---2016/08/25 16:29:30---
Clerk has been killed by Abyssal Monarch.

---2016/08/25 16:56:11---
Clerk has been killed by Abyssal Spawn.

---2016/08/25 17:00:22---
Clerk has been killed by Abyssal Monarch.

---2016/08/26 15:22:53---
Clerk has been killed by King Black Dragon.

---2016/08/27 15:21:32---
Clerk has been killed by King Black Dragon.

---2016/08/28 14:05:30---
Clerk has been killed by Sea Troll Queen.

---2016/08/28 14:06:07---
Clerk has been killed by Sea Troll Queen.

---2016/08/28 14:06:32---
Clerk has been killed by Sea Troll Queen.
