
---2016/08/07 14:26:14---
Dark Asylum has been killed by Kalphite Queen.

---2016/08/08 04:13:43---
Dark Asylum has been killed by Callisto.

---2016/08/09 05:35:38---
Dark Asylum has been killed by Kalphite Queen.
