
---2016/07/11 07:22:38---
Dustin has been killed by Giant Mole.

---2016/07/17 06:07:15---
Dustin has been killed by Demonic Gorilla.

---2016/07/18 20:15:35---
Dustin has been killed by Abyssal Monarch.

---2016/07/19 07:39:34---
Dustin has been killed by Ancient Gorilla.

---2016/07/19 22:35:30---
Dustin has been killed by Thermonuclear Smoke Devil.

---2016/08/01 04:29:18---
Dustin has been killed by Inflexion.

---2016/08/01 04:40:57---
Dustin has been killed by Inflexion.

---2016/08/01 04:45:56---
Dustin has been killed by Inflexion.
