
---2016/07/22 23:09:27---
Fez has been killed by Barrelchest.

---2016/07/24 04:45:10---
Fez has been killed by Ancient Gorilla.

---2016/07/25 00:30:39---
Fez has been killed by Abyssal Monarch.

---2016/07/26 22:38:49---
Fez has been killed by Giant Mole.

---2016/07/27 20:56:44---
Fez has been killed by Demonic Gorilla.

---2016/07/27 23:33:08---
Fez has been killed by Nezikchened.

---2016/07/29 23:00:05---
Fez has been killed by Vet'Ion Reborn.

---2016/07/29 23:00:34---
Fez has been killed by Vet'Ion Reborn.

---2016/07/30 07:16:06---
Fez has been killed by Cerberus.

---2016/07/30 08:14:55---
Fez has been killed by Demonic Gorilla.

---2016/07/30 23:07:27---
Fez has been killed by Demonic Gorilla.

---2016/08/01 02:28:03---
Fez has been killed by Sergeant Steelwill.

---2016/08/01 04:28:25---
Fez has been killed by Vet'Ion.

---2016/08/06 00:28:51---
Fez has been killed by Dagannoth Supreme.

---2016/08/06 00:51:37---
Fez has been killed by Sergeant Steelwill.
