
---2016/07/09 15:49:48---
Floid has been killed by Guthan The Infested.

---2016/07/09 19:50:20---
Floid has been killed by Corporeal Beast.

---2016/07/09 19:51:05---
Floid has been killed by Corporeal Beast.

---2016/07/09 19:51:53---
Floid has been killed by Corporeal Beast.

---2016/07/09 19:52:31---
Floid has been killed by Corporeal Beast.

---2016/07/09 19:53:30---
Floid has been killed by Corporeal Beast.

---2016/07/09 19:54:15---
Floid has been killed by Corporeal Beast.

---2016/07/09 19:54:58---
Floid has been killed by Corporeal Beast.

---2016/07/09 19:55:45---
Floid has been killed by Corporeal Beast.

---2016/07/09 19:56:43---
Floid has been killed by Corporeal Beast.

---2016/07/17 17:43:14---
Floid has been killed by Ancient Gorilla.

---2016/07/17 17:43:49---
Floid has been killed by Monkey Archer.

---2016/07/17 18:41:24---
Floid has been killed by Kraken.

---2016/07/17 19:18:18---
Floid has been killed by Serci.

---2016/07/17 19:38:43---
Floid has been killed by Kefun.

---2016/07/17 19:41:09---
Floid has been killed by Kefun.

---2016/07/18 18:18:43---
Floid has been killed by Kraken.

---2016/07/18 18:58:10---
Floid has been killed by Kraken.

---2016/07/26 22:07:18---
Floid has been killed by Corporeal Beast.

---2016/07/27 19:45:18---
Floid has been killed by Nezikchened.

---2016/07/28 11:22:25---
Floid has been killed by Corporeal Beast.

---2016/07/28 13:16:46---
Floid has been killed by Corporeal Beast.

---2016/07/28 14:58:12---
Floid has been killed by Demonic Gorilla.

---2016/07/28 15:42:42---
Floid has been killed by Inflexion.

---2016/07/28 16:18:15---
Floid has been killed by Inflexion.

---2016/07/28 16:25:32---
Floid has been killed by Inflexion.

---2016/07/30 17:59:53---
Floid has been killed by Inflexion.

---2016/07/31 17:57:32---
Floid has been killed by Inflexion.

---2016/08/14 21:53:04---
Floid has been killed by Inflexion.
