
---2016/08/13 15:14:48---
Get Nasty has been killed by Abyssal Spawn.

---2016/08/13 15:35:25---
Get Nasty has been killed by Abyssal Spawn.

---2016/08/13 20:51:03---
Get Nasty has been killed by Nezikchened.

---2016/08/14 02:19:45---
Get Nasty has been killed by Abyssal Monarch.

---2016/08/14 03:34:11---
Get Nasty has been killed by Abyssal Monarch.

---2016/08/15 20:08:33---
Get Nasty has been killed by Inflexion.

---2016/08/15 20:10:52---
Get Nasty has been killed by Inflexion.

---2016/08/15 22:12:08---
Get Nasty has been killed by Inflexion.

---2016/08/15 22:21:27---
Get Nasty has been killed by Inflexion.

---2016/08/15 22:24:06---
Get Nasty has been killed by Inflexion.

---2016/08/15 23:12:20---
Get Nasty has been killed by Inflexion.

---2016/08/15 23:18:16---
Get Nasty has been killed by Inflexion.

---2016/08/15 23:28:11---
Get Nasty has been killed by Inflexion.

---2016/08/15 23:32:22---
Get Nasty has been killed by Inflexion.

---2016/08/15 23:35:19---
Get Nasty has been killed by Inflexion.

---2016/08/15 23:37:46---
Get Nasty has been killed by Inflexion.

---2016/08/15 23:48:41---
Get Nasty has been killed by Inflexion.

---2016/08/15 23:52:03---
Get Nasty has been killed by Inflexion.

---2016/08/16 00:01:39---
Get Nasty has been killed by Inflexion.

---2016/08/16 00:04:41---
Get Nasty has been killed by Inflexion.

---2016/08/16 00:06:13---
Get Nasty has been killed by Inflexion.

---2016/08/16 00:30:12---
Get Nasty has been killed by Inflexion.

---2016/08/17 11:39:52---
Get Nasty has been killed by Inflexion.

---2016/08/17 11:45:47---
Get Nasty has been killed by Inflexion.

---2016/08/17 11:54:24---
Get Nasty has been killed by Inflexion.

---2016/08/18 03:48:29---
Get Nasty has been killed by Inflexion.

---2016/08/18 03:51:12---
Get Nasty has been killed by Inflexion.

---2016/08/18 03:52:51---
Get Nasty has been killed by Inflexion.

---2016/08/18 06:29:06---
Get Nasty has been killed by Ancient Gorilla.

---2016/08/18 06:34:43---
Get Nasty has been killed by Monkey Archer.
