
---2016/07/21 02:28:50---
Gibby has been killed by Ancient Gorilla.

---2016/07/21 02:29:15---
Gibby has been killed by Ancient Gorilla.

---2016/07/21 02:30:26---
Gibby has been killed by Ancient Gorilla.

---2016/07/21 02:31:36---
Gibby has been killed by Monkey Archer.

---2016/07/21 06:23:48---
Gibby has been killed by Dill.

---2016/07/21 06:24:27---
Gibby has been killed by Dill.
