
---2016/08/15 21:40:15---
I Master U I has been killed by Ancient Gorilla.

---2016/08/15 23:06:27---
I Master U I has been killed by General Graardor.

---2016/08/20 20:46:25---
I Master U I has been killed by Scorpion.
