
---2016/08/04 17:32:22---
Iron Masta has been killed by Monkey Archer.

---2016/08/04 20:12:02---
Iron Masta has been killed by Lizardman Shaman.

---2016/08/05 17:36:04---
Iron Masta has been killed by Skeletal Wyvern.

---2016/08/05 18:50:59---
Iron Masta has been killed by Smoke Devil.

---2016/08/06 03:39:48---
Iron Masta has been killed by Demonic Gorilla.

---2016/08/06 04:26:57---
Iron Masta has been killed by Demonic Gorilla.

---2016/08/06 14:20:12---
Iron Masta has been killed by Demonic Gorilla.

---2016/08/06 14:34:38---
Iron Masta has been killed by Demonic Gorilla.

---2016/08/06 15:51:48---
Iron Masta has been killed by Demonic Gorilla.

---2016/08/06 15:52:47---
Iron Masta has been killed by Demonic Gorilla.
