
---2016/08/25 16:29:23---
Iron Boner has been killed by Barrelchest.

---2016/08/25 18:57:29---
Iron Boner has been killed by Sea Troll Queen.

---2016/08/25 18:57:41---
Iron Boner has been killed by Sea Troll Queen.

---2016/08/25 18:57:52---
Iron Boner has been killed by Sea Troll Queen.

---2016/08/25 18:58:07---
Iron Boner has been killed by Sea Troll Queen.

---2016/08/25 18:58:25---
Iron Boner has been killed by Sea Troll Queen.

---2016/08/25 18:58:37---
Iron Boner has been killed by Sea Troll Queen.

---2016/08/25 18:58:48---
Iron Boner has been killed by Sea Troll Queen.

---2016/08/25 18:58:58---
Iron Boner has been killed by Sea Troll Queen.

---2016/08/25 18:59:15---
Iron Boner has been killed by Chaos Fanatic.
