
---2016/08/03 00:31:42---
Iron Sound has been killed by Green Dragon.

---2016/08/03 14:53:37---
Iron Sound has been killed by Abyssal Monarch.

---2016/08/03 19:30:49---
Iron Sound has been killed by Smoke Devil.

---2016/08/10 00:12:53---
Iron Sound has been killed by Nezikchened.

---2016/08/10 02:19:02---
Iron Sound has been killed by Abyssal Spawn.

---2016/08/10 02:58:21---
Iron Sound has been killed by Ancient Gorilla.
