
---2016/07/06 04:10:05---
Jamian has been killed by Sea Troll Queen.

---2016/07/06 04:23:20---
Jamian has been killed by Cave Kraken.

---2016/07/11 15:37:38---
Jamian has been killed by Demonic Gorilla.

---2016/07/23 11:46:56---
Jamian has been killed by Aberrant Spectre.

---2016/07/23 15:58:37---
Jamian has been killed by Nezikchened.

---2016/07/28 17:09:40---
Jamian has been killed by Skeletal Wyvern.

---2016/07/30 19:51:01---
Jamian has been killed by Cow.

---2016/07/30 20:53:24---
Jamian has been killed by Cow.

---2016/08/02 18:12:27---
Jamian has been killed by Enraged Cow.

---2016/08/02 20:03:40---
Jamian has been killed by Kalphite Queen.

---2016/08/02 22:28:24---
Jamian has been killed by Enraged Cow.

---2016/08/10 11:46:40---
Jamian has been killed by Penance Queen.

---2016/08/17 18:51:54---
Jamian has been killed by Fiyr Shade.

---2016/08/17 20:32:48---
Jamian has been killed by Black Knight Titan.

---2016/08/17 20:34:04---
Jamian has been killed by Black Knight Titan.
