
---2016/08/07 19:03:21---
Jermaine has been killed by Royal.

---2016/08/07 19:10:35---
Jermaine has been killed by Cow.

---2016/08/12 20:22:04---
Jermaine has been killed by Nezikchened.

---2016/08/13 12:07:41---
Jermaine has been killed by Skeletal Wyvern.

---2016/08/13 14:48:58---
Jermaine has been killed by Abyssal Monarch.

---2016/08/13 16:41:01---
Jermaine has been killed by Thermonuclear Smoke Devil.

---2016/08/13 16:51:09---
Jermaine has been killed by Thermonuclear Smoke Devil.

---2016/08/15 08:29:23---
Jermaine has been killed by Nezikchened.

---2016/08/15 20:15:50---
Jermaine has been killed by Kraken.

---2016/08/19 10:59:39---
Jermaine has been killed by Demonic Gorilla.

---2016/08/19 11:06:27---
Jermaine has been killed by Demonic Gorilla.

---2016/08/19 11:11:24---
Jermaine has been killed by Demonic Gorilla.

---2016/08/19 11:16:43---
Jermaine has been killed by Demonic Gorilla.

---2016/08/19 21:24:59---
Jermaine has been killed by Demonic Gorilla.

---2016/08/23 12:31:30---
Jermaine has been killed by Demonic Gorilla.

---2016/08/23 13:10:48---
Jermaine has been killed by Demonic Gorilla.

---2016/08/23 14:03:41---
Jermaine has been killed by Demonic Gorilla.

---2016/08/26 17:18:07---
Jermaine has been killed by Demonic Gorilla.

---2016/08/26 19:30:36---
Jermaine has been killed by Cerberus.
