
---2016/08/22 13:41:55---
Kid Cudi has been killed by Hill Giant.

---2016/08/22 13:42:56---
Kid Cudi has been killed by Hill Giant.

---2016/08/22 17:38:32---
Kid Cudi has been killed by Blue Dragon.

---2016/08/22 18:20:49---
Kid Cudi has been killed by Blue Dragon.

---2016/08/22 18:23:10---
Kid Cudi has been killed by Blue Dragon.

---2016/08/22 19:33:50---
Kid Cudi has been killed by Bronze Dragon.

---2016/08/22 19:34:21---
Kid Cudi has been killed by Bronze Dragon.
