
---2016/06/30 00:41:36---
Kotori has been killed by King Black Dragon.

---2016/06/30 00:42:38---
Kotori has been killed by King Black Dragon.

---2016/06/30 00:44:19---
Kotori has been killed by Giant Mole.

---2016/07/01 23:15:49---
Kotori has been killed by Giant Mole.

---2016/07/03 12:26:36---
Kotori has been killed by Giant Mole.

---2016/07/05 23:17:16---
Kotori has been killed by Giant Mole.

---2016/07/06 17:41:47---
Kotori has been killed by Barrelchest.

---2016/07/07 16:37:46---
Kotori has been killed by Barrelchest.
