
---2016/08/18 10:50:11---
Lebron James has been killed by Skotizo.

---2016/08/18 10:51:10---
Lebron James has been killed by Ancient Gorilla.

---2016/08/18 10:52:02---
Lebron James has been killed by Snakeling.

---2016/08/18 10:52:42---
Lebron James has been killed by Sea Troll Queen.

---2016/08/18 10:53:18---
Lebron James has been killed by Sea Troll Queen.

---2016/08/18 10:54:47---
Lebron James has been killed by Dagannoth Prime.

---2016/08/18 10:56:05---
Lebron James has been killed by Lava Dragon.

---2016/08/18 10:56:30---
Lebron James has been killed by Ancient Gorilla.

---2016/08/18 10:57:23---
Lebron James has been killed by Callisto.

---2016/08/18 10:57:59---
Lebron James has been killed by Cerberus.

---2016/08/18 11:30:04---
Lebron James has been killed by Black Demon.

---2016/08/18 11:38:54---
Lebron James has been killed by Black Demon.
