
---2016/08/12 21:53:26---
Legolas has been killed by Barrelchest.

---2016/08/12 21:54:08---
Legolas has been killed by Corporeal Beast.

---2016/08/12 21:54:26---
Legolas has been killed by Ancient Gorilla.

---2016/08/12 21:54:43---
Legolas has been killed by Ancient Gorilla.

---2016/08/12 21:55:04---
Legolas has been killed by Ancient Gorilla.

---2016/08/12 21:55:18---
Legolas has been killed by Ancient Gorilla.

---2016/08/12 21:55:34---
Legolas has been killed by Ancient Gorilla.

---2016/08/12 21:55:50---
Legolas has been killed by Ancient Gorilla.

---2016/08/12 21:56:07---
Legolas has been killed by Ancient Gorilla.

---2016/08/12 21:56:25---
Legolas has been killed by Ancient Gorilla.

---2016/08/12 21:56:43---
Legolas has been killed by Ancient Gorilla.

---2016/08/12 21:57:02---
Legolas has been killed by Ancient Gorilla.

---2016/08/12 21:57:22---
Legolas has been killed by Ancient Gorilla.

---2016/08/12 21:57:42---
Legolas has been killed by Ancient Gorilla.

---2016/08/12 21:57:58---
Legolas has been killed by Ancient Gorilla.

---2016/08/12 21:58:13---
Legolas has been killed by Ancient Gorilla.

---2016/08/12 21:58:31---
Legolas has been killed by Ancient Gorilla.

---2016/08/12 21:58:47---
Legolas has been killed by Ancient Gorilla.

---2016/08/12 21:59:05---
Legolas has been killed by Ancient Gorilla.

---2016/08/12 21:59:22---
Legolas has been killed by Ancient Gorilla.

---2016/08/12 21:59:42---
Legolas has been killed by Ancient Gorilla.

---2016/08/12 22:00:01---
Legolas has been killed by Ancient Gorilla.

---2016/08/12 22:00:19---
Legolas has been killed by Ancient Gorilla.

---2016/08/12 22:00:39---
Legolas has been killed by Ancient Gorilla.

---2016/08/12 22:00:54---
Legolas has been killed by Ancient Gorilla.

---2016/08/12 22:01:12---
Legolas has been killed by Ancient Gorilla.

---2016/08/12 22:01:43---
Legolas has been killed by Ancient Gorilla.

---2016/08/12 22:02:07---
Legolas has been killed by Ancient Gorilla.

---2016/08/12 22:02:24---
Legolas has been killed by Ancient Gorilla.

---2016/08/12 22:02:44---
Legolas has been killed by Ancient Gorilla.

---2016/08/12 22:03:08---
Legolas has been killed by Ancient Gorilla.

---2016/08/12 22:03:27---
Legolas has been killed by Ancient Gorilla.

---2016/08/12 22:03:47---
Legolas has been killed by Ancient Gorilla.

---2016/08/12 22:04:06---
Legolas has been killed by Ancient Gorilla.

---2016/08/12 22:04:21---
Legolas has been killed by Ancient Gorilla.

---2016/08/12 22:04:38---
Legolas has been killed by Ancient Gorilla.

---2016/08/12 22:04:57---
Legolas has been killed by Ancient Gorilla.

---2016/08/12 22:05:20---
Legolas has been killed by Ancient Gorilla.

---2016/08/12 22:05:39---
Legolas has been killed by Ancient Gorilla.

---2016/08/12 22:05:58---
Legolas has been killed by Ancient Gorilla.

---2016/08/12 22:06:29---
Legolas has been killed by Ancient Gorilla.

---2016/08/12 22:07:00---
Legolas has been killed by Ancient Gorilla.

---2016/08/12 22:07:39---
Legolas has been killed by Sea Troll Queen.

---2016/08/12 22:07:58---
Legolas has been killed by Sea Troll Queen.

---2016/08/12 22:08:16---
Legolas has been killed by Sea Troll Queen.

---2016/08/12 22:08:44---
Legolas has been killed by Sea Troll Queen.

---2016/08/12 22:09:16---
Legolas has been killed by Sea Troll Queen.

---2016/08/12 22:09:38---
Legolas has been killed by Sea Troll Queen.

---2016/08/12 22:10:06---
Legolas has been killed by Sea Troll Queen.

---2016/08/12 22:10:24---
Legolas has been killed by Sea Troll Queen.

---2016/08/13 00:42:08---
Legolas has been killed by Kalphite Queen.

---2016/08/13 01:19:00---
Legolas has been killed by Kalphite Queen.

---2016/08/13 18:54:28---
Legolas has been killed by Kalphite Queen.

---2016/08/13 21:04:11---
Legolas has been killed by Sea Troll Queen.

---2016/08/15 20:39:05---
Legolas has been killed by Nezikchened.

---2016/08/22 19:40:24---
Legolas has been killed by Callisto.

---2016/08/23 17:17:27---
Legolas has been killed by Callisto.

---2016/08/29 23:47:06---
Legolas has been killed by Callisto.
