
---2016/08/03 16:07:39---
Leigh has been killed by Black Knight.

---2016/08/03 20:32:08---
Leigh has been killed by Barrelchest.

---2016/08/03 20:42:42---
Leigh has been killed by Barrelchest.

---2016/08/04 11:05:24---
Leigh has been killed by Abyssal Monarch.

---2016/08/04 14:26:09---
Leigh has been killed by Corporeal Beast.

---2016/08/04 14:35:14---
Leigh has been killed by Corporeal Beast.

---2016/08/04 14:36:31---
Leigh has been killed by Skotizo.

---2016/08/05 14:51:41---
Leigh has been killed by Black Demon.

---2016/08/06 17:26:10---
Leigh has been killed by Nezikchened.

---2016/08/06 19:08:16---
Leigh has been killed by Lizardman Shaman.

---2016/08/06 19:20:57---
Leigh has been killed by Ancient Gorilla.

---2016/08/06 19:21:44---
Leigh has been killed by Ancient Gorilla.

---2016/08/06 19:23:14---
Leigh has been killed by Monkey Archer.

---2016/08/06 19:23:53---
Leigh has been killed by Ancient Gorilla.

---2016/08/06 19:25:00---
Leigh has been killed by Ancient Gorilla.

---2016/08/06 19:25:45---
Leigh has been killed by Lizardman Shaman.

---2016/08/08 02:54:52---
Leigh has been killed by Demonic Gorilla.
