
---2016/07/12 01:51:43---
Martin has been killed by Abyssal Monarch.

---2016/07/12 02:19:12---
Martin has been killed by Smoke Devil.

---2016/07/12 02:19:42---
Martin has been killed by Smoke Devil.

---2016/07/12 02:55:58---
Martin has been killed by Abyssal Monarch.

---2016/07/12 02:57:03---
Martin has been killed by Abyssal Monarch.

---2016/07/12 03:05:05---
Martin has been killed by Abyssal Monarch.

---2016/07/26 11:15:12---
Martin has been killed by Skotizo.

---2016/07/26 11:17:40---
Martin has been killed by Skotizo.

---2016/07/26 12:35:38---
Martin has been killed by Demonic Gorilla.

---2016/07/26 12:39:39---
Martin has been killed by Demonic Gorilla.

---2016/07/26 12:42:02---
Martin has been killed by Demonic Gorilla.

---2016/07/26 12:46:21---
Martin has been killed by Demonic Gorilla.

---2016/07/26 12:47:26---
Martin has been killed by Demonic Gorilla.

---2016/07/26 12:50:10---
Martin has been killed by Demonic Gorilla.

---2016/07/26 12:51:17---
Martin has been killed by Ancient Gorilla.

---2016/07/26 12:55:08---
Martin has been killed by Monkey Archer.

---2016/07/26 13:00:52---
Martin has been killed by Ancient Gorilla.

---2016/07/27 14:24:06---
Martin has been killed by Skotizo.

---2016/07/27 15:04:40---
Martin has been killed by Corporeal Beast.

---2016/07/27 17:59:12---
Martin has been killed by General Graardor.

---2016/07/28 00:32:45---
Martin has been killed by Thermonuclear Smoke Devil.

---2016/07/28 00:47:01---
Martin has been killed by Dust Devil.

---2016/07/28 01:31:51---
Martin has been killed by Abyssal Monarch.

---2016/07/28 02:17:16---
Martin has been killed by Thermonuclear Smoke Devil.

---2016/07/28 02:40:44---
Martin has been killed by Cerberus.

---2016/07/28 03:12:19---
Martin has been killed by Callisto.

---2016/07/28 04:00:47---
Martin has been killed by Corporeal Beast.

---2016/07/28 04:04:18---
Martin has been killed by Corporeal Beast.

---2016/07/28 13:39:04---
Martin has been killed by Nezikchened.

---2016/07/28 15:06:05---
Martin has been killed by Giant Mole.

---2016/07/29 12:16:54---
Martin has been killed by Thermonuclear Smoke Devil.

---2016/07/29 12:26:26---
Martin has been killed by Smoke Devil.

---2016/07/29 12:30:55---
Martin has been killed by Thermonuclear Smoke Devil.

---2016/07/29 12:42:58---
Martin has been killed by Smoke Devil.

---2016/07/29 12:51:24---
Martin has been killed by Thermonuclear Smoke Devil.

---2016/07/29 13:05:56---
Martin has been killed by Dagannoth Prime.

---2016/07/29 16:59:34---
Martin has been killed by Demonic Gorilla.

---2016/07/29 17:03:03---
Martin has been killed by Demonic Gorilla.

---2016/07/30 16:31:18---
Martin has been killed by Demonic Gorilla.

---2016/07/30 18:55:56---
Martin has been killed by Demonic Gorilla.

---2016/07/31 16:17:06---
Martin has been killed by Corporeal Beast.

---2016/07/31 16:19:48---
Martin has been killed by Corporeal Beast.

---2016/08/01 04:13:15---
Martin has been killed by Callisto.

---2016/08/01 04:23:59---
Martin has been killed by Callisto.

---2016/08/01 16:03:33---
Martin has been killed by Demonic Gorilla.

---2016/08/01 17:07:39---
Martin has been killed by Ext Zerker.

---2016/08/01 17:15:25---
Martin has been killed by Bruce Lee.

---2016/08/01 17:22:09---
Martin has been killed by Bruce Lee.

---2016/08/02 04:37:23---
Martin has been killed by Nezikchened.

---2016/08/02 21:31:09---
Martin has been killed by Deadkid.

---2016/08/02 21:38:01---
Martin has been killed by Deadkid.

---2016/08/02 21:50:07---
Martin has been killed by Deadkid.

---2016/08/02 21:59:33---
Martin has been killed by Vet'Ion.

---2016/08/02 22:55:05---
Martin has been killed by Demonic Gorilla.

---2016/08/03 03:45:41---
Martin has been killed by Nightraptor.

---2016/08/03 04:29:49---
Martin has been killed by Bruce Lee.

---2016/08/03 05:04:59---
Martin has been killed by Bruce Lee.

---2016/08/03 12:50:57---
Martin has been killed by Deadkid.

---2016/08/04 22:48:07---
Martin has been killed by Trapper.

---2016/08/05 02:04:31---
Martin has been killed by Trapper.

---2016/08/05 02:17:10---
Martin has been killed by Inflexion.

---2016/08/05 02:20:58---
Martin has been killed by Inflexion.

---2016/08/05 02:28:19---
Martin has been killed by Inflexion.

---2016/08/05 06:01:45---
Martin has been killed by Jake Xd.

---2016/08/05 06:09:29---
Martin has been killed by Dabs.

---2016/08/05 06:13:39---
Martin has been killed by Dabs.

---2016/08/05 06:29:47---
Martin has been killed by Dabs.

---2016/08/05 06:44:15---
Martin has been killed by Jake Xd.

---2016/08/05 07:09:01---
Martin has been killed by Jake Xd.
