
---2016/06/30 00:56:27---
Matt has been killed by No.

---2016/07/05 07:09:49---
Matt has been killed by Cave Kraken.

---2016/07/05 13:24:53---
Matt has been killed by Abyssal Monarch.

---2016/07/05 14:24:18---
Matt has been killed by Abyssal Monarch.

---2016/07/11 03:14:36---
Matt has been killed by Zulrah.

---2016/07/11 03:25:04---
Matt has been killed by Zulrah.

---2016/07/13 21:31:01---
Matt has been killed by Smoke Devil.

---2016/08/01 03:34:10---
Matt has been killed by Bree.

---2016/08/01 04:54:12---
Matt has been killed by Inflexion.

---2016/08/01 04:57:45---
Matt has been killed by Inflexion.

---2016/08/06 20:02:55---
Matt has been killed by Deadkid.

---2016/08/09 05:17:14---
Matt has been killed by Skeletal Wyvern.

---2016/08/09 05:17:40---
Matt has been killed by Skeletal Wyvern.

---2016/08/09 05:18:05---
Matt has been killed by Skeletal Wyvern.

---2016/08/09 06:46:28---
Matt has been killed by Corporeal Beast.

---2016/08/09 07:38:04---
Matt has been killed by Derek.

---2016/08/10 07:30:21---
Matt has been killed by Demonic Gorilla.

---2016/08/10 08:01:18---
Matt has been killed by Demonic Gorilla.

---2016/08/10 17:48:13---
Matt has been killed by Demonic Gorilla.

---2016/08/15 18:09:15---
Matt has been killed by Bouncer.

---2016/08/17 13:07:10---
Matt has been killed by The Bros 2.

---2016/08/19 14:21:16---
Matt has been killed by Penance Queen.

---2016/08/31 21:21:15---
Matt has been killed by Ancient Gorilla.

---2016/08/31 21:23:10---
Matt has been killed by Sea Troll Queen.

---2016/08/31 21:24:18---
Matt has been killed by Callisto.

---2016/08/31 21:38:00---
Matt has been killed by Nick.

---2016/08/31 21:42:09---
Matt has been killed by Nick.

---2016/08/31 21:44:05---
Matt has been killed by Nick.

---2016/08/31 21:44:51---
Matt has been killed by Nick.

---2016/08/31 21:45:19---
Matt has been killed by Nick.

---2016/08/31 21:45:29---
Matt has been killed by Nick.

---2016/08/31 22:17:41---
Matt has been killed by Pantera.
