
---2016/08/15 17:03:59---
Morgzy has been killed by Ancient Gorilla.

---2016/08/15 17:04:31---
Morgzy has been killed by Ancient Gorilla.

---2016/08/17 03:17:47---
Morgzy has been killed by Black Demon.
