
---2016/08/12 09:46:27---
N has been killed by Demonic Gorilla.

---2016/08/13 14:01:54---
N has been killed by Corporeal Beast.

---2016/08/14 19:08:39---
N has been killed by The Bros 2.

---2016/08/18 01:53:48---
N has been killed by Bouncer.

---2016/08/18 04:00:54---
N has been killed by Bouncer.

---2016/08/19 02:25:00---
N has been killed by Starlight.

---2016/08/20 02:31:21---
N has been killed by D4rk K0.
