
---2016/06/30 05:51:44---
Nick has been killed by Green Dragon.

---2016/06/30 06:01:39---
Nick has been killed by Green Dragon.

---2016/07/01 00:13:31---
Nick has been killed by General Graardor.

---2016/07/02 07:17:03---
Nick has been killed by Ancient Gorilla.

---2016/07/02 23:11:30---
Nick has been killed by Abyssal Monarch.

---2016/07/04 05:07:44---
Nick has been killed by Gimmieurstof.

---2016/07/04 11:50:51---
Nick has been killed by Callisto.

---2016/07/04 12:54:52---
Nick has been killed by Chaos Fanatic.

---2016/07/04 13:48:18---
Nick has been killed by Corporeal Beast.

---2016/07/04 14:07:01---
Nick has been killed by Corporeal Beast.

---2016/07/04 23:39:08---
Nick has been killed by Corporeal Beast.

---2016/07/05 06:40:17---
Nick has been killed by Corporeal Beast.

---2016/07/05 23:58:29---
Nick has been killed by Callisto.

---2016/07/06 09:44:07---
Nick has been killed by Slime.

---2016/07/07 00:47:17---
Nick has been killed by General Graardor.

---2016/07/07 00:52:08---
Nick has been killed by General Graardor.

---2016/07/08 07:19:54---
Nick has been killed by Corporeal Beast.

---2016/07/08 07:29:20---
Nick has been killed by Corporeal Beast.

---2016/07/08 07:45:53---
Nick has been killed by Corporeal Beast.

---2016/07/08 17:33:50---
Nick has been killed by Ancient Gorilla.

---2016/07/10 08:10:02---
Nick has been killed by Corporeal Beast.

---2016/07/10 16:42:47---
Nick has been killed by Gratata.

---2016/07/11 03:17:36---
Nick has been killed by Zulrah.

---2016/07/11 07:52:18---
Nick has been killed by Callisto.

---2016/07/11 17:01:43---
Nick has been killed by Callisto.

---2016/07/12 11:20:14---
Nick has been killed by Demonic Gorilla.

---2016/07/12 11:24:39---
Nick has been killed by Demonic Gorilla.

---2016/07/12 11:34:00---
Nick has been killed by Demonic Gorilla.

---2016/07/12 11:41:59---
Nick has been killed by Demonic Gorilla.

---2016/07/12 20:37:26---
Nick has been killed by Demonic Gorilla.

---2016/07/12 21:43:25---
Nick has been killed by Demonic Gorilla.

---2016/07/17 17:38:37---
Nick has been killed by Serci.

---2016/07/24 00:18:31---
Nick has been killed by Tor.

---2016/07/24 00:34:14---
Nick has been killed by Tor.

---2016/07/24 22:49:31---
Nick has been killed by Callisto.

---2016/07/26 10:07:50---
Nick has been killed by Callisto.

---2016/07/27 02:08:36---
Nick has been killed by General Graardor.

---2016/07/27 02:50:42---
Nick has been killed by Demonic Gorilla.

---2016/07/27 03:29:06---
Nick has been killed by Demonic Gorilla.

---2016/07/27 03:45:55---
Nick has been killed by Demonic Gorilla.

---2016/07/27 04:00:36---
Nick has been killed by Demonic Gorilla.

---2016/07/27 04:04:23---
Nick has been killed by Demonic Gorilla.

---2016/07/27 22:13:54---
Nick has been killed by Demonic Gorilla.

---2016/07/31 13:28:05---
Nick has been killed by Demonic Gorilla.

---2016/07/31 13:33:56---
Nick has been killed by Demonic Gorilla.

---2016/07/31 13:40:39---
Nick has been killed by Demonic Gorilla.

---2016/07/31 13:45:11---
Nick has been killed by Demonic Gorilla.

---2016/07/31 13:48:26---
Nick has been killed by Demonic Gorilla.

---2016/08/03 10:15:04---
Nick has been killed by Vet'Ion.

---2016/08/03 14:36:00---
Nick has been killed by Kalphite Queen.

---2016/08/04 00:30:35---
Nick has been killed by Kalphite Queen.

---2016/08/04 18:39:13---
Nick has been killed by Kalphite Queen.

---2016/08/07 03:05:33---
Nick has been killed by King Black Dragon.

---2016/08/07 17:54:55---
Nick has been killed by Kalphite Queen.

---2016/08/08 08:19:19---
Nick has been killed by Enraged Cow.

---2016/08/08 10:56:33---
Nick has been killed by General Graardor.

---2016/08/10 02:49:28---
Nick has been killed by Kalphite Queen.

---2016/08/11 14:41:07---
Nick has been killed by Penance Queen.

---2016/08/14 16:56:36---
Nick has been killed by Kalphite Queen.

---2016/08/15 02:30:21---
Nick has been killed by Defence Pro1.

---2016/08/15 02:48:01---
Nick has been killed by Zulrah.

---2016/08/19 17:00:46---
Nick has been killed by Trapper.

---2016/08/20 09:12:03---
Nick has been killed by Dagannoth Prime.

---2016/08/23 22:53:16---
Nick has been killed by Dagannoth Supreme.

---2016/08/31 17:55:10---
Nick has been killed by Black Knight Titan.

---2016/08/31 21:44:06---
Nick has been killed by Matt.

---2016/08/31 21:44:50---
Nick has been killed by Matt.

---2016/08/31 21:45:28---
Nick has been killed by Matt.

---2016/08/31 21:50:36---
Nick has been killed by Scott.

---2016/08/31 22:11:39---
Nick has been killed by Pantera.

---2016/08/31 22:15:43---
Nick has been killed by Sleaze.

---2016/08/31 22:21:11---
Nick has been killed by Pantera.

---2016/08/31 22:21:57---
Nick has been killed by Study.

---2016/08/31 22:30:28---
Nick has been killed by Matt.

---2016/08/31 23:55:06---
Nick has been killed by 3a Queen.

---2016/09/01 00:04:20---
Nick has been killed by Pantera.

---2016/09/01 00:05:02---
Nick has been killed by Pantera.

---2016/09/01 00:52:48---
Nick has been killed by I Play A Lot.

---2016/09/01 09:09:08---
Nick has been killed by Trapper Mule.

---2016/09/01 09:13:39---
Nick has been killed by Corporeal Beast.

---2016/09/01 09:14:02---
Nick has been killed by Corporeal Beast.

---2016/09/01 09:15:13---
Nick has been killed by Vladimir.

---2016/09/01 17:40:17---
Nick has been killed by Trapper.

---2016/09/01 17:57:39---
Nick has been killed by Trapper.

---2016/09/01 18:02:31---
Nick has been killed by Trapper.

---2016/09/01 20:38:35---
Nick has been killed by Tor.

---2016/09/01 20:40:37---
Nick has been killed by Tor.

---2016/09/02 14:17:32---
Nick has been killed by Safe Ways.

---2016/09/02 14:21:01---
Nick has been killed by Trapper.

---2016/09/02 14:25:03---
Nick has been killed by Trapper.

---2016/09/02 14:29:46---
Nick has been killed by Trapper.

---2016/09/02 14:34:54---
Nick has been killed by Trapper.

---2016/09/02 14:38:55---
Nick has been killed by Trapper.

---2016/09/02 14:44:22---
Nick has been killed by Trapper.

---2016/09/02 14:48:04---
Nick has been killed by Trapper.

---2016/09/02 15:00:08---
Nick has been killed by Trapper.
