
---2016/07/26 22:52:40---
Onii Chan has been killed by Abyssal Spawn.

---2016/07/27 04:40:55---
Onii Chan has been killed by Ankou.

---2016/07/28 23:53:33---
Onii Chan has been killed by Corporeal Beast.

---2016/07/30 20:01:50---
Onii Chan has been killed by Abyssal Monarch.

---2016/07/30 20:03:55---
Onii Chan has been killed by Abyssal Monarch.

---2016/08/01 18:56:40---
Onii Chan has been killed by Ancient Gorilla.

---2016/08/01 19:00:24---
Onii Chan has been killed by Ancient Gorilla.

---2016/08/01 19:09:27---
Onii Chan has been killed by Monkey Archer.

---2016/08/01 19:29:20---
Onii Chan has been killed by Abyssal Spawn.

---2016/08/01 21:14:07---
Onii Chan has been killed by Skeletal Wyvern.

---2016/08/01 23:25:08---
Onii Chan has been killed by Ur Bad Kid.

---2016/08/02 22:54:42---
Onii Chan has been killed by Vet'Ion.

---2016/08/03 23:03:32---
Onii Chan has been killed by Cave Kraken.

---2016/08/04 00:08:44---
Onii Chan has been killed by Cave Kraken.

---2016/08/04 22:27:31---
Onii Chan has been killed by Thermonuclear Smoke Devil.

---2016/08/05 01:32:55---
Onii Chan has been killed by Thermonuclear Smoke Devil.
