
---2016/08/12 01:49:23---
Rip Infernal has been killed by The Bros 2.

---2016/08/12 02:29:29---
Rip Infernal has been killed by Theblkkid.

---2016/08/15 20:30:40---
Rip Infernal has been killed by The Bros 2.

---2016/08/30 11:07:10---
Rip Infernal has been killed by Trapper.

---2016/08/30 11:09:41---
Rip Infernal has been killed by Trapper.
