
---2016/08/18 11:48:33---
Sauron has been killed by Sea Troll Queen.

---2016/08/18 12:13:11---
Sauron has been killed by Sea Troll Queen.

---2016/08/18 12:13:33---
Sauron has been killed by Sea Troll Queen.

---2016/08/18 12:14:56---
Sauron has been killed by Sea Troll Queen.

---2016/08/18 12:15:44---
Sauron has been killed by Sea Troll Queen.

---2016/08/18 12:16:11---
Sauron has been killed by Sea Troll Queen.

---2016/08/18 12:16:38---
Sauron has been killed by Sea Troll Queen.

---2016/08/18 12:16:58---
Sauron has been killed by Sea Troll Queen.

---2016/08/18 12:17:28---
Sauron has been killed by Sea Troll Queen.

---2016/08/18 12:17:51---
Sauron has been killed by Sea Troll Queen.
