
---2016/07/14 12:49:37---
Serci has been killed by Green Dragon.

---2016/07/15 13:41:06---
Serci has been killed by Abyssal Monarch.

---2016/07/15 23:47:59---
Serci has been killed by Abyssal Monarch.

---2016/07/16 14:28:32---
Serci has been killed by Abyssal Monarch.

---2016/07/17 13:58:52---
Serci has been killed by Wingman Skree.

---2016/07/17 17:19:25---
Serci has been killed by Nick.

---2016/07/17 17:55:52---
Serci has been killed by Inflexion.

---2016/07/17 18:40:51---
Serci has been killed by Mr Barrows.

---2016/07/17 18:45:00---
Serci has been killed by Mr Barrows.

---2016/07/18 04:13:20---
Serci has been killed by Inflexion.

---2016/07/18 04:17:29---
Serci has been killed by Inflexion.

---2016/07/18 04:25:25---
Serci has been killed by Inflexion.

---2016/07/18 06:32:45---
Serci has been killed by Inflexion.

---2016/07/18 19:54:30---
Serci has been killed by Smoke Devil.
