
---2016/08/05 03:15:22---
Smurfing has been killed by Abyssal Spawn.

---2016/08/05 03:15:39---
Smurfing has been killed by Abyssal Spawn.

---2016/08/05 03:23:39---
Smurfing has been killed by Abyssal Spawn.
