
---2016/08/06 17:32:38---
Stelios has been killed by Views.

---2016/08/08 17:16:44---
Stelios has been killed by Ancient Gorilla.

---2016/08/14 00:45:40---
Stelios has been killed by Demonic Gorilla.

---2016/08/14 01:05:55---
Stelios has been killed by Demonic Gorilla.

---2016/08/14 01:42:10---
Stelios has been killed by Vet'Ion.

---2016/08/14 01:45:25---
Stelios has been killed by Vet'Ion Reborn.

---2016/08/17 00:58:36---
Stelios has been killed by Smoke Devil.

---2016/08/19 11:11:10---
Stelios has been killed by Demonic Gorilla.

---2016/08/19 11:32:39---
Stelios has been killed by Demonic Gorilla.

---2016/08/19 11:35:48---
Stelios has been killed by Skotizo.

---2016/08/19 11:46:35---
Stelios has been killed by Demonic Gorilla.

---2016/08/19 12:07:04---
Stelios has been killed by Thermonuclear Smoke Devil.

---2016/08/19 13:07:04---
Stelios has been killed by Demonic Gorilla.

---2016/08/19 13:24:53---
Stelios has been killed by Demonic Gorilla.

---2016/08/23 20:38:21---
Stelios has been killed by Demonic Gorilla.

---2016/08/30 14:01:21---
Stelios has been killed by Giant Mole.
