
---2016/06/30 23:22:41---
Str8m9 has been killed by Hill Giant.

---2016/07/30 12:57:43---
Str8m9 has been killed by Demonic Gorilla.

---2016/07/30 13:16:37---
Str8m9 has been killed by Abyssal Monarch.

---2016/07/31 00:26:05---
Str8m9 has been killed by Abyssal Monarch.
