
---2016/06/30 01:53:30---
Tariq 229 has been killed by Moss Giant.

---2016/06/30 02:33:40---
Tariq 229 has been killed by Ancient Gorilla.

---2016/06/30 02:35:55---
Tariq 229 has been killed by Ancient Gorilla.

---2016/06/30 02:36:23---
Tariq 229 has been killed by Ancient Gorilla.

---2016/06/30 02:36:46---
Tariq 229 has been killed by Ancient Gorilla.

---2016/06/30 02:37:13---
Tariq 229 has been killed by Ancient Gorilla.

---2016/06/30 03:17:53---
Tariq 229 has been killed by Zulrah.

---2016/07/13 18:37:50---
Tariq 229 has been killed by Lizardman Shaman.

---2016/07/13 18:47:25---
Tariq 229 has been killed by Lizardman Shaman.

---2016/07/13 18:48:21---
Tariq 229 has been killed by Lizardman Shaman.

---2016/07/19 05:20:50---
Tariq 229 has been killed by Abyssal Scion.

---2016/07/19 15:00:38---
Tariq 229 has been killed by Verac The Defiled.

---2016/07/19 22:06:31---
Tariq 229 has been killed by Serci.

---2016/07/19 22:17:07---
Tariq 229 has been killed by Abyssal Spawn.

---2016/07/19 22:52:06---
Tariq 229 has been killed by Serci.

---2016/07/19 23:23:47---
Tariq 229 has been killed by Tor.

---2016/07/19 23:28:01---
Tariq 229 has been killed by Tor.
