
---2016/07/05 16:27:09---
The Bros 2 has been killed by Sergeant Steelwill.

---2016/07/12 20:08:23---
The Bros 2 has been killed by Demonic Gorilla.

---2016/07/13 09:35:15---
The Bros 2 has been killed by Bruce Lee.

---2016/07/13 13:37:12---
The Bros 2 has been killed by Bounce Up.

---2016/07/13 13:38:51---
The Bros 2 has been killed by Bounce Up.

---2016/07/18 12:26:41---
The Bros 2 has been killed by Abyssal Scion.

---2016/07/22 13:04:11---
The Bros 2 has been killed by Corporeal Beast.

---2016/07/24 00:08:48---
The Bros 2 has been killed by Skotizo.

---2016/07/24 18:15:10---
The Bros 2 has been killed by Zulrah.

---2016/07/27 23:29:03---
The Bros 2 has been killed by Abyssal Monarch.

---2016/07/28 11:14:09---
The Bros 2 has been killed by Corporeal Beast.

---2016/08/04 20:04:27---
The Bros 2 has been killed by Deadkid.

---2016/08/07 14:18:51---
The Bros 2 has been killed by Demonic Gorilla.

---2016/08/07 14:28:30---
The Bros 2 has been killed by Demonic Gorilla.

---2016/08/07 15:19:29---
The Bros 2 has been killed by Demonic Gorilla.

---2016/08/07 15:35:23---
The Bros 2 has been killed by Demonic Gorilla.

---2016/08/07 16:24:23---
The Bros 2 has been killed by Demonic Gorilla.

---2016/08/09 22:53:04---
The Bros 2 has been killed by Deadkid.

---2016/08/12 01:58:43---
The Bros 2 has been killed by Trapper.

---2016/08/12 02:00:09---
The Bros 2 has been killed by Trapper.

---2016/08/12 02:46:54---
The Bros 2 has been killed by Theblkkid.

---2016/08/13 10:11:33---
The Bros 2 has been killed by Demonic Gorilla.

---2016/08/14 18:51:49---
The Bros 2 has been killed by Iron Dead.

---2016/08/22 09:30:39---
The Bros 2 has been killed by General Graardor.

---2016/08/22 13:38:38---
The Bros 2 has been killed by Demonic Gorilla.

---2016/08/24 07:02:45---
The Bros 2 has been killed by Iron Omerta.

---2016/08/24 07:06:26---
The Bros 2 has been killed by Iron Omerta.

---2016/08/26 10:38:33---
The Bros 2 has been killed by Black Knight Titan.

---2016/08/26 10:51:26---
The Bros 2 has been killed by Black Knight Titan.

---2016/08/26 10:52:28---
The Bros 2 has been killed by Black Knight Titan.

---2016/08/27 02:20:36---
The Bros 2 has been killed by Cerberus.

---2016/09/01 09:08:50---
The Bros 2 has been killed by Nick.

---2016/09/01 09:09:54---
The Bros 2 has been killed by Nick.
