
---2016/08/06 09:57:07---
The Weak has been killed by Hill Giant.

---2016/08/06 09:57:28---
The Weak has been killed by Hill Giant.

---2016/08/06 09:58:08---
The Weak has been killed by Hill Giant.

---2016/08/06 10:19:11---
The Weak has been killed by Hill Giant.

---2016/08/06 10:22:19---
The Weak has been killed by Hill Giant.
