
---2016/08/09 05:06:05---
Thewhtkid has been killed by Smoke Devil.

---2016/08/10 01:02:01---
Thewhtkid has been killed by Demonic Gorilla.

---2016/08/11 21:54:32---
Thewhtkid has been killed by Zulrah.
