
---2016/07/05 05:49:28---
Tuot has been killed by Monkey Archer.

---2016/07/05 05:51:05---
Tuot has been killed by Monkey Archer.

---2016/07/05 12:22:28---
Tuot has been killed by Abyssal Monarch.

---2016/07/05 12:34:16---
Tuot has been killed by Abyssal Monarch.

---2016/07/05 12:55:53---
Tuot has been killed by Abyssal Monarch.

---2016/07/06 19:07:11---
Tuot has been killed by Monkey Archer.
