
---2016/08/05 20:42:02---
Views has been killed by Skotizo.

---2016/08/06 06:08:01---
Views has been killed by Abyssal Spawn.

---2016/08/06 17:11:35---
Views has been killed by Demonic Gorilla.

---2016/08/06 20:44:28---
Views has been killed by Demonic Gorilla.

---2016/08/06 21:09:18---
Views has been killed by Demonic Gorilla.

---2016/08/06 21:14:51---
Views has been killed by Demonic Gorilla.

---2016/08/07 01:10:51---
Views has been killed by Demonic Gorilla.

---2016/08/07 03:31:35---
Views has been killed by Demonic Gorilla.

---2016/08/07 03:52:22---
Views has been killed by Demonic Gorilla.

---2016/08/07 04:00:39---
Views has been killed by Demonic Gorilla.

---2016/08/07 07:34:44---
Views has been killed by General Graardor.

---2016/08/07 21:52:21---
Views has been killed by Cerberus.

---2016/08/08 00:14:08---
Views has been killed by Demonic Gorilla.

---2016/08/08 21:38:04---
Views has been killed by Cerberus.

---2016/08/09 19:47:56---
Views has been killed by Demonic Gorilla.

---2016/08/10 21:55:28---
Views has been killed by Jake Xd.

---2016/08/10 22:01:58---
Views has been killed by Jake Xd.

---2016/08/10 22:09:59---
Views has been killed by Zulrah.

---2016/08/11 04:15:41---
Views has been killed by Barrelchest.

---2016/08/11 04:17:00---
Views has been killed by Tuckah.

---2016/08/11 04:19:35---
Views has been killed by Tuckah.

---2016/08/11 04:24:12---
Views has been killed by Barrelchest.

---2016/08/11 04:27:29---
Views has been killed by Barrelchest.

---2016/08/11 04:28:44---
Views has been killed by Tuckah.

---2016/08/12 00:56:47---
Views has been killed by The Bros 2.

---2016/08/12 02:29:31---
Views has been killed by Trapper.

---2016/08/12 02:32:32---
Views has been killed by The Bros 2.

---2016/08/15 02:32:06---
Views has been killed by Zulrah.

---2016/08/15 02:43:41---
Views has been killed by Zulrah.

---2016/08/15 18:58:02---
Views has been killed by King Black Dragon.

---2016/08/15 19:50:22---
Views has been killed by Barrelchest.

---2016/08/18 07:17:52---
Views has been killed by Skeletal Wyvern.

---2016/08/18 07:20:15---
Views has been killed by Skeletal Wyvern.
