
---2016/08/15 21:14:30---
Wvwvwvwvwvwv has been killed by Rock Crab.

---2016/08/18 23:36:02---
Wvwvwvwvwvwv has been killed by Ancient Gorilla.

---2016/08/18 23:36:38---
Wvwvwvwvwvwv has been killed by Ancient Gorilla.

---2016/08/18 23:37:03---
Wvwvwvwvwvwv has been killed by Ancient Gorilla.

---2016/08/19 00:07:03---
Wvwvwvwvwvwv has been killed by Penance Queen.

---2016/08/19 00:08:09---
Wvwvwvwvwvwv has been killed by Penance Queen.

---2016/08/19 23:30:42---
Wvwvwvwvwvwv has been killed by Skotizo.

---2016/08/26 04:46:25---
Wvwvwvwvwvwv has been killed by Demonic Gorilla.

---2016/08/26 04:48:42---
Wvwvwvwvwvwv has been killed by Demonic Gorilla.

---2016/08/26 05:34:57---
Wvwvwvwvwvwv has been killed by Penance Queen.

---2016/08/27 17:57:02---
Wvwvwvwvwvwv has been killed by Demonic Gorilla.
