
---2016/07/06 08:41:01---
Zypo has been killed by Abyssal Spawn.

---2016/07/08 21:17:18---
Zypo has been killed by Abyssal Monarch.

---2016/07/08 21:18:17---
Zypo has been killed by Abyssal Spawn.

---2016/07/11 05:00:04---
Zypo has been killed by Callisto.

---2016/07/11 05:00:42---
Zypo has been killed by Callisto.

---2016/07/11 05:03:34---
Zypo has been killed by Callisto.

---2016/07/11 05:05:31---
Zypo has been killed by Callisto.

---2016/08/07 12:06:36---
Zypo has been killed by Demonic Gorilla.

---2016/08/19 10:17:09---
Zypo has been killed by Skotizo.

---2016/08/19 20:31:07---
Zypo has been killed by Skotizo.
