
---2016/06/30 21:36:58---
1m has given 250000 Coins to B
1m has given 5 Super Combat Potion(4) to B
1m has given 1 Dragon Scimitar to B
1m has given 100 Monkfish to B
1m has given 100 Rune Arrow to B
