
---2016/07/31 03:14:38---
334433434 has given 1 Rune Kiteshield to Maxim
334433434 has given 252228 Coins to Maxim
334433434 has given 1 Rune Scimitar to Maxim
334433434 has given 5 Super Combat Potion(4) to Maxim
334433434 has given 1 Dragon Scimitar to Maxim
