
---2016/06/30 09:04:48---
7476 has given 250000 Coins to Ricci1337
7476 has given 1 Rune Scimitar to Ricci1337
7476 has given 5 Super Combat Potion(4) to Ricci1337
7476 has given 1 Tooth Half Of Key to Ricci1337
7476 has given 1 Bronze Scimitar to Ricci1337
7476 has given 100 Monkfish to Ricci1337
7476 has given 1 Dragon Scimitar to Ricci1337
7476 has given 100 Rune Arrow to Ricci1337
7476 has given 1 Magic Shortbow to Ricci1337
