
---2016/08/10 03:10:45---
Autumn has received 15000000 Coins from Iron Sound
Autumn has received 1 Amulet Of Fury from Iron Sound

---2016/08/10 03:10:45---
Autumn has given 1 Abyssal Dagger to Iron Sound

---2016/08/10 03:17:30---
Autumn has given 5000000 Coins to Cheese

---2016/08/10 03:17:30---
Autumn has received 1 Dragon Boots from Cheese
