
---2016/07/22 15:13:06---
Bennex has received 32 Dragon Bones from Apex

---2016/07/24 23:37:45---
Bennex has received 1006 Dragon Dart from Apex

---2016/07/25 00:29:53---
Bennex has given 9 Mystery Box to Apex
Bennex has given 1 Crystal Key to Apex
