
---2016/08/05 00:25:11---
Billy Idol has received 1 Bandos Crozier from Bill Cosby

---2016/08/05 00:35:38---
Billy Idol has received 1 Decorative Armour from Billy Mays

---2016/08/05 00:38:37---
Billy Idol has received 1 Heron from Billy Mays
Billy Idol has received 1 Decorative Armour from Billy Mays

---2016/08/05 00:45:22---
Billy Idol has received 1 Ancient Cloak from Billy Mays

---2016/08/05 00:57:30---
Billy Idol has received 2000000 Coins from Billy Mays
Billy Idol has received 1 Armadyl Cloak from Billy Mays
Billy Idol has received 1 Decorative Armour from Billy Mays
Billy Idol has received 1 Amulet Of Glory from Billy Mays

---2016/08/05 00:59:59---
Billy Idol has received 1 Book Of Darkness from Billy Mays

---2016/08/05 01:02:53---
Billy Idol has received 3 Lava Dragon Bones from Billy Mays

---2016/08/05 01:03:55---
Billy Idol has received 50 Prayer Potion(4) from Billy Mays

---2016/08/05 01:29:20---
Billy Idol has received 1 Amulet Of Torture from Billy Mays

---2016/08/07 04:15:53---
Billy Idol has received 1 Crystal Key from Billy Mays

---2016/08/07 05:46:18---
Billy Idol has received 1 Ahrim'S Robetop from Kaneki

---2016/08/07 09:33:34---
Billy Idol has received 5000000 Coins from Cheese

---2016/08/07 09:33:34---
Billy Idol has given 1 Ahrim'S Robetop to Cheese

---2016/08/10 01:11:15---
Billy Idol has received 1 Onyx from Verlin

---2016/08/10 01:14:01---
Billy Idol has received 1 Amulet Of Fury from Ushio

---2016/08/10 01:14:01---
Billy Idol has given 1 Onyx to Ushio

---2016/08/10 04:43:16---
Billy Idol has received 1 Armadyl Crozier from Hellbent

---2016/08/11 01:58:15---
Billy Idol has given 1 Dragon Boots to Billy Mays
Billy Idol has given 1 Amulet Of Fury to Billy Mays

---2016/08/11 01:58:15---
Billy Idol has received 5 Credits Scroll from Billy Mays

---2016/08/11 02:49:59---
Billy Idol has given 7207353 Coins to Bill Nye
Billy Idol has given 1 Book Of Darkness to Bill Nye
Billy Idol has given 1 Armadyl Cloak to Bill Nye
Billy Idol has given 1 Armadyl Crozier to Bill Nye
Billy Idol has given 1 Decorative Armour to Bill Nye
Billy Idol has given 1 Decorative Armour to Bill Nye
Billy Idol has given 1 Decorative Armour to Bill Nye

---2016/08/11 08:16:41---
Billy Idol has given 1 Amulet Of Torture to Doodat11
