
---2016/08/03 16:27:59---
Broken has received 1 Dark Infinity Colour Kit from Billy Mays
Broken has received 15365648 Coins from Billy Mays
Broken has received 1 Dragon Chainbody from Billy Mays
Broken has received 1 Dragon Chainbody Ornament Kit from Billy Mays
Broken has received 1 Dragon Plateskirt from Billy Mays
Broken has received 1 Seers Ring from Billy Mays
Broken has received 1 Kbd Heads from Billy Mays
Broken has received 200 Dragon Bolts (E) from Billy Mays

---2016/08/03 16:27:59---
Broken has given 1 Heron to Billy Mays

---2016/08/03 16:43:13---
Broken has received 1 Volcanic Abyssal Whip from Bill Cosby

---2016/08/03 17:31:09---
Broken has received 1 Amulet Of Power from Range Owns6

---2016/08/04 07:53:07---
Broken has given 10000000 Coins to Luuckie

---2016/08/04 07:53:07---
Broken has received 1 Dragonfire Shield from Luuckie

---2016/08/04 08:08:33---
Broken has given 16064 Tokkul to I Need Claws

---2016/08/04 08:12:47---
Broken has given 2000000 Coins to Tor

---2016/08/04 08:12:47---
Broken has received 1 Amulet Of Fury from Tor

---2016/08/04 13:49:01---
Broken has given 9000000 Coins to Luuckie

---2016/08/04 13:49:01---
Broken has received 1 Dragonfire Shield from Luuckie

---2016/08/05 10:26:33---
Broken has received 1 Dragonstone from Defence Pro2
