
---2016/08/03 07:55:13---
Darb has received 200000 Coins from Doodat11

---2016/08/03 07:55:13---
Darb has given 2 Black Helm (H1) to Doodat11
Darb has given 4 Black Helm (H3) to Doodat11
Darb has given 1 Black Helm (H4) to Doodat11
Darb has given 1 Black Helm (H5) to Doodat11

---2016/08/04 06:36:06---
Darb has given 1 Black Wizard Robe (G) to Clayy
Darb has given 1 Green Elegant Skirt to Clayy
Darb has given 1 Black Wizard Robe (T) to Clayy
Darb has given 1 Black Wizard Hat (G) to Clayy
Darb has given 1 Red Elegant Legs to Clayy
Darb has given 1 Black Wizard Hat (T) to Clayy
Darb has given 1 Bronze Platebody (G) to Clayy
Darb has given 1 Bronze Kiteshield (G) to Clayy
Darb has given 1 Black Cane to Clayy
Darb has given 1 A Powdered Wig to Clayy
Darb has given 1 Orange Boater to Clayy
Darb has given 1 Red Elegant Skirt to Clayy
Darb has given 1 Blue Elegant Blouse to Clayy
Darb has given 1 Black Skirt (G) to Clayy
Darb has given 1 Bronze Kiteshield (T) to Clayy
Darb has given 1 Black Skirt (T) to Clayy

---2016/08/04 08:02:10---
Darb has given 1 Abyssal Whip to Kaneki
Darb has given 1 Proselyte Hauberk to Kaneki
Darb has given 1 Helm Of Neitiznot to Kaneki
Darb has given 1 Proselyte Cuisse to Kaneki

---2016/08/04 08:11:14---
Darb has received 1 Karil'S Leathertop from Sluge
Darb has received 1 Karil'S Leatherskirt from Sluge
Darb has received 1 Draconic Visage from Sluge
Darb has received 1 Heavy Ballista from Sluge

---2016/08/04 08:36:59---
Darb has received 1 Karil'S Leathertop from Sluge
Darb has received 1 Karil'S Leatherskirt from Sluge
Darb has received 1 Draconic Visage from Sluge
Darb has received 1 Heavy Ballista from Sluge

---2016/08/04 08:37:44---
Darb has given 1 Abyssal Whip to Kaneki

---2016/08/04 23:58:38---
Darb has received 1 Kq Head from Kaneki

---2016/08/04 23:58:38---
Darb has given 1 Abyssal Head to Kaneki

---2016/08/05 09:14:38---
Darb has received 15000000 Coins from Kittyhello

---2016/08/05 09:14:38---
Darb has given 1 Bludgeon Spine to Kittyhello

---2016/08/06 01:53:45---
Darb has given 2 Ring Of Wealth to Kaneki

---2016/08/06 01:55:42---
Darb has given 10 Dragon Javelin to Kaneki

---2016/08/06 02:18:03---
Darb has received 1 Shark from Kaneki

---2016/08/06 06:32:15---
Darb has received 1 Verac'S Plateskirt from Kaneki

---2016/08/06 06:34:50---
Darb has given 1 Anti-Dragon Shield to Exp
Darb has given 1 Draconic Visage to Exp

---2016/08/06 06:34:50---
Darb has received 1 Dragonfire Shield from Exp

---2016/08/06 06:44:14---
Darb has given 2 Shark to Kaneki

---2016/08/06 07:04:41---
Darb has received 1 Shark from Defence Pro1

---2016/08/06 07:06:19---
Darb has received 4 Shark from Kaneki

---2016/08/06 07:15:29---
Darb has given 1 Godsword Shard 2 to Kaneki

---2016/08/06 07:19:10---
Darb has given 1 Prayer Potion(4) to Defence Pro1

---2016/08/06 07:21:15---
Darb has received 2 Shark from Kaneki

---2016/08/06 07:26:18---
Darb has given 2 Prayer Potion(4) to Defence Pro1

---2016/08/06 07:28:08---
Darb has received 1 Shark from Kaneki

---2016/08/06 07:32:32---
Darb has received 5 Shark from I Need Claws

---2016/08/06 07:37:18---
Darb has given 1 Bandos Boots to Kaneki

---2016/08/06 07:39:03---
Darb has received 2 Chilli Potato from Defence Pro1

---2016/08/06 07:41:17---
Darb has given 1 Godsword Shard 3 to Defence Pro1

---2016/08/06 07:48:29---
Darb has received 4 Shark from Kaneki

---2016/08/06 07:50:17---
Darb has received 1 Chilli Potato from Kaneki

---2016/08/06 07:57:10---
Darb has given 1 Bandos Boots to Defence Pro1

---2016/08/06 08:02:13---
Darb has given 1 Prayer Potion(2) to Defence Pro1

---2016/08/06 08:03:40---
Darb has received 1 Chilli Potato from Kaneki

---2016/08/06 08:03:51---
Darb has received 1 Shark from Defence Pro1
Darb has received 2 Chilli Potato from Defence Pro1

---2016/08/06 08:11:28---
Darb has given 1 Super Restore(4) to Defence Pro1

---2016/08/06 08:11:39---
Darb has received 2 Shark from Defence Pro1

---2016/08/06 08:13:08---
Darb has received 2 Shark from Defence Pro1

---2016/08/06 08:20:37---
Darb has received 1 Godsword Shard 2 from Kaneki

---2016/08/06 08:20:37---
Darb has given 1 Abyssal Dagger to Kaneki
Darb has given 1 Godsword Shard 1 to Kaneki
Darb has given 1 Godsword Shard 3 to Kaneki

---2016/08/06 18:51:05---
Darb has given 1 Abyssal Dagger to Inflexion
Darb has given 10000000 Coins to Inflexion
Darb has given 1 $5 Bond to Inflexion

---2016/08/06 18:51:05---
Darb has received 1 Toxic Blowpipe (Empty) from Inflexion

---2016/08/06 19:04:34---
Darb has given 6 Mysterious Emblem to Inflexion
Darb has given 9 Mysterious Emblem (Tier 2) to Inflexion

---2016/08/06 19:04:34---
Darb has received 13000000 Coins from Inflexion

---2016/08/06 19:06:30---
Darb has given 1 Proselyte Hauberk to Slamuel
Darb has given 1 Proselyte Cuisse to Slamuel
Darb has given 1 Helm Of Neitiznot to Slamuel
Darb has given 1 Abyssal Bludgeon to Slamuel

---2016/08/06 19:07:00---
Darb has given 50 Super Combat Potion(4) to Slamuel

---2016/08/07 08:14:33---
Darb has received 3 Anglerfish from I Need Claws
