
---2016/07/20 07:58:24---
Dill has received 1 Blue Headband from Bearisaur

---2016/07/20 10:55:02---
Dill has received 1 Dharok'S Platebody from Shreadmaster

---2016/07/20 11:01:05---
Dill has given 100000 Coins to Shannon
Dill has given 1 Monkfish to Shannon

---2016/07/20 11:01:05---
Dill has received 2 Tooth Half Of Key from Shannon

---2016/07/20 22:11:15---
Dill has received 1 Toxic Blowpipe from Floid

---2016/07/20 22:11:15---
Dill has given 500000000 Coins to Floid

---2016/07/20 22:11:57---
Dill has received 2000 Zulrah'S Scales from Floid

---2016/07/20 23:07:31---
Dill has received 3 Chaos Rune from Its Pidgey
Dill has received 1 Fire Rune from Its Pidgey
Dill has received 1 Mind Rune from Its Pidgey

---2016/07/21 01:17:04---
Dill has received 5 Loop Half Of Key from Dalby

---2016/07/21 01:17:04---
Dill has given 100000000 Coins to Dalby

---2016/07/21 01:17:31---
Dill has received 2 Tooth Half Of Key from Zypo

---2016/07/21 01:17:31---
Dill has given 20000000 Coins to Zypo

---2016/07/21 01:30:44---
Dill has given 1 Armadyl Helmet to Gibby
Dill has given 1 Armadyl Chestplate to Gibby
Dill has given 1 Armadyl Chainskirt to Gibby
Dill has given 1 Toxic Blowpipe to Gibby

---2016/07/21 01:31:56---
Dill has received 1 Shark from Gibby

---2016/07/21 01:31:56---
Dill has given 2000 Dragon Dart to Gibby

---2016/07/21 02:20:18---
Dill has received 1 Armadyl Helmet from Gibby
Dill has received 1 Dragonfire Shield from Gibby
Dill has received 1 Armadyl Chestplate from Gibby
Dill has received 1 Armadyl Chainskirt from Gibby
Dill has received 1 Amulet Of Fury from Gibby
Dill has received 1 Toxic Blowpipe from Gibby

---2016/07/21 02:29:00---
Dill has received 809731 Coins from Starxz
Dill has received 1 Spade from Starxz

---2016/07/21 02:29:00---
Dill has given 1147483396 Saradomin Godsword to Starxz

---2016/07/21 02:29:48---
Dill has received 1 Death Talisman from Starxz
Dill has received 1 Dragon Scimitar from Starxz
Dill has received 10 Saradomin Godsword from Starxz

---2016/07/21 02:29:48---
Dill has given 1 Book Of War to Starxz
Dill has given 1 Shark to Starxz

---2016/07/21 02:31:35---
Dill has given 1 Abyssal Whip to Starxz

---2016/07/21 02:40:57---
Dill has given 1 Dragonfire Shield to Gibby

---2016/07/21 02:42:12---
Dill has given 1 Dragon Boots to Gibby
Dill has given 1 Dharok'S Platebody to Gibby
Dill has given 1 Dragon Platelegs to Gibby
Dill has given 1 Amulet Of Fury to Gibby
Dill has given 1 Gilded Platebody to Gibby
Dill has given 1 3rd Age Full Helmet to Gibby
Dill has given 1 Torag'S Platelegs to Gibby

---2016/07/21 02:42:52---
Dill has given 1 Bandos Tassets to Gibby

---2016/07/21 02:43:53---
Dill has given 1 Rapier to Gibby

---2016/07/21 02:46:26---
Dill has given 1 Toxic Blowpipe to Tuckah
Dill has given 2375 Dragon Dart to Tuckah

---2016/07/21 02:46:26---
Dill has received 1220399438 Coins from Tuckah

---2016/07/21 02:49:32---
Dill has given 1 Armadyl Helmet to Tuckah
Dill has given 1 Armadyl Chestplate to Tuckah
Dill has given 1 Armadyl Chainskirt to Tuckah
Dill has given 1 Bandos Tassets to Tuckah
Dill has given 1 3rd Age Full Helmet to Tuckah

---2016/07/21 02:52:03---
Dill has given 2147483647 Coins to Relax
Dill has given 1 3rd Age Full Helmet to Relax

---2016/07/21 02:52:03---
Dill has received 2107702610 Coins from Relax

---2016/07/21 02:53:25---
Dill has given 1000 3rd Age Full Helmet to Relax

---2016/07/21 02:54:44---
Dill has given 20000 Armadyl Chestplate to Relax
Dill has given 1000000000 Purple Partyhat to Relax
Dill has given 20000 3rd Age Longsword to Relax
Dill has given 1000000000 Bandos Tassets to Relax
Dill has given 1000000000 3rd Age Full Helmet to Relax

---2016/07/21 02:57:12---
Dill has given 1 Armadyl Chainskirt to Relax

---2016/07/21 02:57:33---
Dill has given 1147483635 Bandos Tassets to White

---2016/07/21 02:57:33---
Dill has received 1 Elite Box from White

---2016/07/21 02:58:39---
Dill has given 1 3rd Age Longsword to Gibby
