
---2016/08/01 06:34:31---
Ehhhzylo has received 1 Rune Armour Set (Lg) from Tuckah
Ehhhzylo has received 65 Shark from Tuckah
Ehhhzylo has received 2 Lava Dragon Bones from Tuckah
Ehhhzylo has received 37 Dragon Bones from Tuckah

---2016/08/01 06:34:31---
Ehhhzylo has given 1 Monkfish to Tuckah

---2016/08/02 07:29:30---
Ehhhzylo has given 1 Mystery Box to Jesusfcksyou

---2016/08/02 07:29:30---
Ehhhzylo has received 3000000 Coins from Jesusfcksyou

---2016/08/02 21:48:49---
Ehhhzylo has received 1 Damaged Unholy Book from Ehhzylo
Ehhhzylo has received 1 Rune Crossbow from Ehhzylo
Ehhhzylo has received 1382725 Coins from Ehhzylo
Ehhhzylo has received 1 Dragonstone Amulet from Ehhzylo
Ehhhzylo has received 300 Fire Rune from Ehhzylo
Ehhhzylo has received 97 Monkfish from Ehhzylo
Ehhhzylo has received 100 Mind Rune from Ehhzylo
Ehhhzylo has received 1 Dragonstone from Ehhzylo
Ehhhzylo has received 100 Chaos Rune from Ehhzylo
Ehhhzylo has received 250 Iron Arrow from Ehhzylo
Ehhhzylo has received 1 Rune Scimitar from Ehhzylo
Ehhhzylo has received 4 Super Combat Potion(4) from Ehhzylo
Ehhhzylo has received 1 Super Combat Potion(4) from Ehhzylo
Ehhhzylo has received 1 Splitbark Helm from Ehhzylo
Ehhhzylo has received 1 Loop Half Of Key from Ehhzylo
Ehhhzylo has received 100 Rune Arrow from Ehhzylo
Ehhhzylo has received 1 Beginner Wand from Ehhzylo
Ehhhzylo has received 1 Dragon Med Helm from Ehhzylo
Ehhhzylo has received 1 Dragon Med Helm from Ehhzylo
Ehhhzylo has received 2 Shield Left Half from Ehhzylo
Ehhhzylo has received 1 Black Skirt (T) from Ehhzylo

---2016/08/02 22:35:23---
Ehhhzylo has received 1 Abyssal Bludgeon from Jackson

---2016/08/02 22:40:59---
Ehhhzylo has received 1 Zamorakian Hasta from N3r0
Ehhhzylo has received 10648105 Coins from N3r0

---2016/08/02 22:40:59---
Ehhhzylo has given 1 Abyssal Bludgeon to N3r0

---2016/08/02 22:41:23---
Ehhhzylo has given 1 Zamorakian Hasta to Purerangsaw

---2016/08/02 22:41:23---
Ehhhzylo has received 15000000 Coins from Purerangsaw

---2016/08/03 00:15:57---
Ehhhzylo has received 1 Ring Of Wealth from H0ly

---2016/08/03 00:15:57---
Ehhhzylo has given 1000000 Coins to H0ly

---2016/08/03 00:28:50---
Ehhhzylo has received 1 Abyssal Whip from Tinky Winky

---2016/08/03 00:28:50---
Ehhhzylo has given 10000000 Coins to Tinky Winky

---2016/08/03 01:07:13---
Ehhhzylo has received 7 Super Restore(3) from Defence Pro2
Ehhhzylo has received 4 Super Restore(2) from Defence Pro2
Ehhhzylo has received 1 Super Restore(1) from Defence Pro2

---2016/08/03 01:07:13---
Ehhhzylo has given 9 Monkfish to Defence Pro2

---2016/08/03 01:22:31---
Ehhhzylo has received 19 Babydragon Bones from Ehhzylo
Ehhhzylo has received 99 Lava Dragon Bones from Ehhzylo

---2016/08/03 06:37:02---
Ehhhzylo has received 1 Training Bow from Defence Pro1

---2016/08/03 07:41:07---
Ehhhzylo has received 1 Rune Warhammer from Defence Pro2
Ehhhzylo has received 1 Elemental Shield from Defence Pro2
Ehhhzylo has received 1 Blue D'Hide Chaps from Defence Pro2

---2016/08/03 07:41:07---
Ehhhzylo has given 2 Super Restore(4) to Defence Pro2

---2016/08/03 07:55:20---
Ehhhzylo has given 1 Ancient Chaps to Defence Pro2

---2016/08/03 07:56:46---
Ehhhzylo has given 1 Golden Key to The Bros 2

---2016/08/03 07:56:46---
Ehhhzylo has received 25000000 Coins from The Bros 2

---2016/08/03 07:58:15---
Ehhhzylo has received 10000000 Coins from The Bros 2

---2016/08/03 07:58:15---
Ehhhzylo has given 1 Mystery Box to The Bros 2

---2016/08/03 09:38:36---
Ehhhzylo has received 7 Tooth Half Of Key from Defence Pro1

---2016/08/03 09:45:07---
Ehhhzylo has received 1 Amulet Of Power from Defence Pro1

---2016/08/03 10:02:47---
Ehhhzylo has given 1 Golden Key to The Bros 2

---2016/08/03 10:02:47---
Ehhhzylo has received 25000000 Coins from The Bros 2

---2016/08/03 10:04:26---
Ehhhzylo has received 1 Tooth Half Of Key from Defence Pro2

---2016/08/03 10:26:59---
Ehhhzylo has given 1 Proselyte Cuisse to Defence Pro1

---2016/08/03 10:29:45---
Ehhhzylo has received 1 Dragon Boots from Defence Pro1

---2016/08/03 10:56:34---
Ehhhzylo has received 1 Rope from Bedd

---2016/08/03 11:28:46---
Ehhhzylo has received 1 Diamond from Defence Pro1

---2016/08/03 11:30:11---
Ehhhzylo has given 1 Diamond to James Bond

---2016/08/03 12:10:10---
Ehhhzylo has given 1 Ring Mould to James Bond

---2016/08/03 12:12:04---
Ehhhzylo has received 1 Diamond Ring from James Bond

---2016/08/03 12:12:04---
Ehhhzylo has given 1000000 Coins to James Bond

---2016/08/03 12:19:02---
Ehhhzylo has received 1 Dragon Chainbody from James Bond
Ehhhzylo has received 1 Red Dragon Mask from James Bond

---2016/08/03 14:41:40---
Ehhhzylo has received 5000000 Coins from Trapper

---2016/08/03 14:41:40---
Ehhhzylo has given 1 Crystal Bow Full to Trapper

---2016/08/03 16:13:31---
Ehhhzylo has received 1 Rune Warhammer from James Bond

---2016/08/03 16:15:49---
Ehhhzylo has received 1000000 Coins from James Bond

---2016/08/03 16:15:49---
Ehhhzylo has given 1 Rune Warhammer to James Bond

---2016/08/03 16:19:53---
Ehhhzylo has received 5000000 Coins from Trapper

---2016/08/03 16:19:53---
Ehhhzylo has given 1 Crystal Seed to Trapper

---2016/08/03 16:22:30---
Ehhhzylo has received 20 Dragon Bones from Trapper

---2016/08/03 18:06:13---
Ehhhzylo has received 1500000 Coins from Inflexion

---2016/08/03 18:06:13---
Ehhhzylo has given 1 Mysterious Emblem to Inflexion
Ehhhzylo has given 1 Mysterious Emblem (Tier 2) to Inflexion

---2016/08/04 05:37:06---
Ehhhzylo has given 15000000 Coins to Ushio

---2016/08/04 05:37:06---
Ehhhzylo has received 1 Dragonfire Shield from Ushio

---2016/08/04 06:12:11---
Ehhhzylo has given 1 Super Restore(4) to Jake Xd
Ehhhzylo has given 2 Vial to Jake Xd

---2016/08/04 06:29:23---
Ehhhzylo has received 16000000 Coins from Billy Mays

---2016/08/04 06:29:23---
Ehhhzylo has given 1 Golden Key to Billy Mays

---2016/08/04 06:29:33---
Ehhhzylo has received 15000000 Coins from Sluge

---2016/08/04 06:29:33---
Ehhhzylo has given 1 Golden Key to Sluge

---2016/08/04 06:38:32---
Ehhhzylo has given 1 Golden Key to Tuckah

---2016/08/04 06:38:32---
Ehhhzylo has received 12500000 Coins from Tuckah

---2016/08/04 07:29:35---
Ehhhzylo has received 250 Lava Dragon Bones from Kittyhello

---2016/08/04 07:29:35---
Ehhhzylo has given 2490350 Coins to Kittyhello

---2016/08/04 07:59:31---
Ehhhzylo has received 52 Lava Dragon Bones from Rekt

---2016/08/04 08:12:25---
Ehhhzylo has received 1 Amulet Of Fury from Tor

---2016/08/04 08:12:25---
Ehhhzylo has given 2000000 Coins to Tor

---2016/08/04 08:39:02---
Ehhhzylo has received 1 Karil'S Leathertop from Ehhzylo
Ehhhzylo has received 3 Karil'S Leatherskirt from Ehhzylo
Ehhhzylo has received 1 Crystal Halberd Full from Ehhzylo
Ehhhzylo has received 2 Odium Shard 1 from Ehhzylo
Ehhhzylo has received 1 Malediction Shard 3 from Ehhzylo
Ehhhzylo has received 1 Warrior Ring from Ehhzylo

---2016/08/04 08:57:40---
Ehhhzylo has received 5 Golden Key from Bigboy
Ehhhzylo has received 1 Kraken Tentacle from Bigboy
Ehhhzylo has received 300 Lava Dragon Bones from Bigboy

---2016/08/04 09:25:50---
Ehhhzylo has received 1 Tanzanite Fang from Derek

---2016/08/04 09:26:13---
Ehhhzylo has given 2 Golden Key to Derek123
Ehhhzylo has given 90000000 Coins to Derek123

---2016/08/04 09:26:59---
Ehhhzylo has given 1 Tanzanite Fang to Exp

---2016/08/04 09:27:20---
Ehhhzylo has received 1 Toxic Blowpipe (Empty) from Exp

---2016/08/04 09:29:50---
Ehhhzylo has given 1 Kraken Tentacle to Mark Donalds

---2016/08/04 09:29:50---
Ehhhzylo has received 35000000 Coins from Mark Donalds

---2016/08/04 09:36:00---
Ehhhzylo has given 1 Golden Key to Derek
Ehhhzylo has given 1 Toxic Blowpipe (Empty) to Derek

---2016/08/04 09:36:26---
Ehhhzylo has received 1 Golden Key from Derek
Ehhhzylo has received 1 Toxic Blowpipe (Empty) from Derek

---2016/08/04 09:38:45---
Ehhhzylo has given 3 Golden Key to The Bros 2
Ehhhzylo has given 10000000 Coins to The Bros 2

---2016/08/04 09:38:45---
Ehhhzylo has received 1 $5 Bond from The Bros 2

---2016/08/04 09:41:00---
Ehhhzylo has given 2 Elite Box to Exp

---2016/08/04 09:41:18---
Ehhhzylo has received 2 Dragon Boots from Exp

---2016/08/04 10:03:57---
Ehhhzylo has received 4000000 Coins from Beyblades

---2016/08/04 10:03:57---
Ehhhzylo has given 1 Odium Shard 1 to Beyblades

---2016/08/04 10:20:00---
Ehhhzylo has received 2 Loop Half Of Key from Defence Pro1

---2016/08/04 10:20:24---
Ehhhzylo has given 1 Mystery Box to Defence Pro1

---2016/08/04 10:36:55---
Ehhhzylo has given 100000 Coins to Lier
Ehhhzylo has given 6 Zul-Andra Teleport to Lier

---2016/08/04 10:42:28---
Ehhhzylo has received 2 Shark from Kaneki

---2016/08/04 10:42:28---
Ehhhzylo has given 5000000 Coins to Kaneki
Ehhhzylo has given 128 Lava Dragon Bones to Kaneki
Ehhhzylo has given 1 Rope to Kaneki

---2016/08/04 13:27:24---
Ehhhzylo has given 1 Pure Essence to Defence Pro2

---2016/08/05 04:41:38---
Ehhhzylo has received 1 Dragonfire Shield from Martin

---2016/08/05 04:41:38---
Ehhhzylo has given 1 Anti-Dragon Shield to Martin
Ehhhzylo has given 1 Draconic Visage to Martin

---2016/08/05 04:49:23---
Ehhhzylo has given 1 Uncharged Trident to Sluge

---2016/08/05 04:49:23---
Ehhhzylo has received 16000000 Coins from Sluge

---2016/08/05 06:58:58---
Ehhhzylo has received 2000000 Coins from Defence Pro1

---2016/08/05 06:58:58---
Ehhhzylo has given 1 Uncut Onyx to Defence Pro1

---2016/08/05 09:12:35---
Ehhhzylo has given 1 Crystal Bow Full to The Bros 2

---2016/08/05 09:12:35---
Ehhhzylo has received 3898328 Coins from The Bros 2
Ehhhzylo has received 1 Dragonfire Shield from The Bros 2

---2016/08/05 10:05:53---
Ehhhzylo has received 3 Shark from Kaneki

---2016/08/05 10:05:53---
Ehhhzylo has given 20 Rope to Kaneki

---2016/08/05 10:13:42---
Ehhhzylo has given 15000000 Coins to Defence Pro1

---2016/08/05 10:32:29---
Ehhhzylo has given 1 Dragonfire Shield to Omerata

---2016/08/05 10:32:29---
Ehhhzylo has received 8000000 Coins from Omerata

---2016/08/05 10:50:40---
Ehhhzylo has received 5 Loop Half Of Key from The Bros 2

---2016/08/05 10:50:40---
Ehhhzylo has given 2500000 Coins to The Bros 2

---2016/08/05 11:14:14---
Ehhhzylo has received 1358 Zulrah'S Scales from Trustrup

---2016/08/05 11:14:14---
Ehhhzylo has given 540000 Coins to Trustrup

---2016/08/05 11:32:09---
Ehhhzylo has given 1 Crystal Bow Full to Ehhzylo

---2016/08/05 11:32:09---
Ehhhzylo has received 1 Tooth Half Of Key from Ehhzylo

---2016/08/05 11:34:55---
Ehhhzylo has given 120 Dragon Bones to Defence Pro1

---2016/08/05 11:35:16---
Ehhhzylo has given 35 Wyvern Bones to Ehhzylo

---2016/08/05 21:41:08---
Ehhhzylo has given 1 Mysterious Emblem to Inflexion
Ehhhzylo has given 2 Mysterious Emblem (Tier 2) to Inflexion

---2016/08/05 21:41:08---
Ehhhzylo has received 2500000 Coins from Inflexion

---2016/08/05 21:42:21---
Ehhhzylo has given 9000000 Coins to Inflexion

---2016/08/05 21:42:21---
Ehhhzylo has received 6000 Zulrah'S Scales from Inflexion

---2016/08/05 22:06:03---
Ehhhzylo has given 47183 Zulrah'S Scales to Tehdark12

---2016/08/05 22:06:03---
Ehhhzylo has received 47000000 Coins from Tehdark12

---2016/08/05 22:14:32---
Ehhhzylo has received 45000000 Coins from Inflexion

---2016/08/05 22:14:32---
Ehhhzylo has given 3 Golden Key to Inflexion

---2016/08/05 22:18:29---
Ehhhzylo has received 8000000 Coins from Ewaz

---2016/08/05 22:18:29---
Ehhhzylo has given 1 Dragonfire Shield to Ewaz

---2016/08/05 22:27:15---
Ehhhzylo has received 3 Shark from Jake Xd
Ehhhzylo has received 10000000 Coins from Jake Xd

---2016/08/05 22:27:15---
Ehhhzylo has given 5 Credits Scroll to Jake Xd
Ehhhzylo has given 30 Dragon Bones to Jake Xd

---2016/08/05 22:28:19---
Ehhhzylo has received 7500000 Coins from Inflexion

---2016/08/05 22:28:19---
Ehhhzylo has given 4 Credits Scroll to Inflexion

---2016/08/05 23:06:33---
Ehhhzylo has received 14000000 Coins from Defence Pro1

---2016/08/05 23:06:33---
Ehhhzylo has given 1 Chaos Rune to Defence Pro1

---2016/08/05 23:08:27---
Ehhhzylo has received 487390 Coins from Faze Rug

---2016/08/05 23:08:27---
Ehhhzylo has given 1 Rune Package to Faze Rug

---2016/08/06 01:14:16---
Ehhhzylo has given 1 Karil'S Leatherskirt to Duracell33

---2016/08/06 01:14:16---
Ehhhzylo has received 5000000 Coins from Duracell33

---2016/08/06 02:32:18---
Ehhhzylo has given 1 Monkey Nuts to Defence Pro1

---2016/08/06 02:33:34---
Ehhhzylo has given 1 Rope to Defence Pro1

---2016/08/06 02:46:39---
Ehhhzylo has received 1 Torag'S Platelegs from Faze Rug

---2016/08/06 02:46:39---
Ehhhzylo has given 3000000 Coins to Faze Rug

---2016/08/06 02:55:51---
Ehhhzylo has given 1 Crystal Bow Full to Faze Rug

---2016/08/06 08:37:30---
Ehhhzylo has received 1 Credits Scroll from Faze Rug

---2016/08/06 08:37:30---
Ehhhzylo has given 1566147 Coins to Faze Rug
Ehhhzylo has given 1 Rune Boots to Faze Rug

---2016/08/06 12:33:50---
Ehhhzylo has given 1 Toxic Blowpipe to Kaneki

---2016/08/06 12:34:07---
Ehhhzylo has received 1 Toxic Blowpipe from Kaneki

---2016/08/06 12:34:16---
Ehhhzylo has given 1 Toxic Blowpipe to Kaneki

---2016/08/06 12:51:59---
Ehhhzylo has received 60000000 Coins from The Bros 2

---2016/08/06 12:51:59---
Ehhhzylo has given 4 Golden Key to The Bros 2

---2016/08/06 23:40:36---
Ehhhzylo has received 48000000 Coins from Inflexion

---2016/08/06 23:40:36---
Ehhhzylo has given 1 Zenyte Shard to Inflexion

---2016/08/07 01:16:10---
Ehhhzylo has received 1 Dragon Chainbody from Tyson
Ehhhzylo has received 1 Dragon 2h Sword from Tyson
Ehhhzylo has received 1 Black Cane from Tyson
Ehhhzylo has received 1 Decorative Quiver from Tyson

---2016/08/07 01:16:10---
Ehhhzylo has given 1 Abyssal Whip to Tyson

---2016/08/07 01:21:54---
Ehhhzylo has received 3500000 Coins from Xhax

---2016/08/07 01:21:54---
Ehhhzylo has given 1 Karil'S Leatherskirt to Xhax

---2016/08/07 02:35:48---
Ehhhzylo has received 1 Elite Box from Kaneki
Ehhhzylo has received 1 Toxic Blowpipe from Kaneki

---2016/08/07 02:42:01---
Ehhhzylo has given 1 Toxic Blowpipe to Kaneki

---2016/08/07 02:42:15---
Ehhhzylo has received 1 Toxic Blowpipe from Kaneki

---2016/08/07 02:52:57---
Ehhhzylo has given 1 Toxic Blowpipe to Kaneki

---2016/08/07 03:16:16---
Ehhhzylo has given 1 Crystal Halberd Full to Hanybal

---2016/08/07 03:16:16---
Ehhhzylo has received 9000000 Coins from Hanybal

---2016/08/07 03:52:43---
Ehhhzylo has received 1 Toxic Blowpipe from Kaneki

---2016/08/07 04:03:31---
Ehhhzylo has given 6 Dragon Bolts (E) to Defence Pro1

---2016/08/07 04:11:27---
Ehhhzylo has given 124 Dragon Bones to Faze Rug

---2016/08/07 04:22:50---
Ehhhzylo has given 6 Crystal Seed to Matt

---2016/08/07 04:22:50---
Ehhhzylo has received 36000000 Coins from Matt

---2016/08/07 05:09:10---
Ehhhzylo has given 1 Amulet Of Glory(4) to Defence Pro1

---2016/08/07 05:32:06---
Ehhhzylo has received 1 Primordial Boots from Nightraptor

---2016/08/07 05:32:06---
Ehhhzylo has given 45000000 Coins to Nightraptor

---2016/08/07 05:33:40---
Ehhhzylo has given 1 Amulet Of Glory(4) to Kaneki

---2016/08/07 05:45:31---
Ehhhzylo has received 1 Gilded Scimitar from Kaneki

---2016/08/07 05:45:49---
Ehhhzylo has given 1 Primordial Boots to Views

---2016/08/07 05:45:49---
Ehhhzylo has received 60168911 Coins from Views

---2016/08/07 06:00:07---
Ehhhzylo has received 1 Bandos Chestplate from Ewaz
Ehhhzylo has received 1 Bandos Tassets from Ewaz
Ehhhzylo has received 1 Mysterious Emblem from Ewaz
Ehhhzylo has received 1 Mysterious Emblem (Tier 2) from Ewaz

---2016/08/07 06:00:07---
Ehhhzylo has given 180000000 Coins to Ewaz

---2016/08/07 06:30:31---
Ehhhzylo has given 1 Toxic Blowpipe to Faze Rug
Ehhhzylo has given 8419 Dragon Dart to Faze Rug

---2016/08/07 06:40:37---
Ehhhzylo has received 8391 Dragon Dart from Faze Rug
Ehhhzylo has received 1 Toxic Blowpipe from Faze Rug

---2016/08/07 06:56:07---
Ehhhzylo has received 20000000 Coins from Ewaz

---2016/08/07 06:56:07---
Ehhhzylo has given 1 Golden Key to Ewaz

---2016/08/07 07:40:49---
Ehhhzylo has received 1 Serpentine Helm (Uncharged) from Exp

---2016/08/07 07:40:49---
Ehhhzylo has given 25000000 Coins to Exp

---2016/08/07 08:00:04---
Ehhhzylo has received 1 Serpentine Visage from Faze Rug

---2016/08/07 08:01:49---
Ehhhzylo has given 1 Serpentine Helm (Uncharged) to Faze Rug

---2016/08/07 08:05:15---
Ehhhzylo has received 6682 Zulrah'S Scales from Faze Rug

---2016/08/07 08:05:15---
Ehhhzylo has given 4000000 Coins to Faze Rug

---2016/08/07 08:08:59---
Ehhhzylo has received 1 Credits Scroll from Faze Rug

---2016/08/07 08:08:59---
Ehhhzylo has given 1500000 Coins to Faze Rug

---2016/08/07 08:36:42---
Ehhhzylo has given 1 Amulet Of Glory(2) to Faze Rug

---2016/08/07 08:38:17---
Ehhhzylo has given 1 Amulet Of Power to Faze Rug
Ehhhzylo has given 1 Diamond Ring to Faze Rug

---2016/08/07 08:43:14---
Ehhhzylo has received 1 Amulet Of Power from Faze Rug
Ehhhzylo has received 1 Diamond Ring from Faze Rug

---2016/08/07 08:53:03---
Ehhhzylo has given 1 Loop Half Of Key to Faze Rug

---2016/08/07 08:57:25---
Ehhhzylo has given 1 Bandos Chestplate to Kaneki
Ehhhzylo has given 1 Bandos Tassets to Kaneki

---2016/08/07 09:25:49---
Ehhhzylo has received 1 Bandos Chestplate from Kaneki
Ehhhzylo has received 1 Bandos Tassets from Kaneki

---2016/08/07 10:39:08---
Ehhhzylo has given 3000000 Coins to Faze Rug

---2016/08/07 10:40:50---
Ehhhzylo has given 1 Shark to Defence Pro1

---2016/08/07 10:43:45---
Ehhhzylo has received 1500000 Coins from Faze Rug

---2016/08/07 10:43:45---
Ehhhzylo has given 1 Slayer Bell to Faze Rug

---2016/08/07 11:14:13---
Ehhhzylo has given 1 Slayer Bell to Faze Rug

---2016/08/07 11:35:56---
Ehhhzylo has received 1 Slayer Bell from Organic

---2016/08/07 11:35:56---
Ehhhzylo has given 2000000 Coins to Organic

---2016/08/07 12:13:18---
Ehhhzylo has given 437 Dragon Dart to Kaneki

---2016/08/07 12:14:41---
Ehhhzylo has given 1 Serpentine Helm to Kaneki
Ehhhzylo has given 1 Dragonfire Shield to Kaneki
Ehhhzylo has given 1 Abyssal Whip to Kaneki
Ehhhzylo has given 1 Bandos Chestplate to Kaneki
Ehhhzylo has given 1 Bandos Tassets to Kaneki

---2016/08/07 12:15:15---
Ehhhzylo has received 1 Serpentine Helm from Kaneki
Ehhhzylo has received 1 Dragonfire Shield from Kaneki
Ehhhzylo has received 1 Abyssal Whip from Kaneki
Ehhhzylo has received 1 Bandos Chestplate from Kaneki
Ehhhzylo has received 1 Bandos Tassets from Kaneki

---2016/08/07 12:38:45---
Ehhhzylo has received 10 Bronze Bar from Boats

---2016/08/07 12:38:45---
Ehhhzylo has given 15 Silver Ore to Boats

---2016/08/07 12:45:00---
Ehhhzylo has received 13 Iron Bar from Boats

---2016/08/07 12:45:00---
Ehhhzylo has given 2 Tin Ore to Boats
Ehhhzylo has given 4 Iron Ore to Boats

---2016/08/07 12:54:13---
Ehhhzylo has received 1 Zenyte Shard from Boats
Ehhhzylo has received 1 Uncut Onyx from Boats
Ehhhzylo has received 1 Chisel from Boats
Ehhhzylo has received 1 Necklace Mould from Boats

---2016/08/07 12:56:09---
Ehhhzylo has given 45000000 Coins to Boats
Ehhhzylo has given 1 Uncut Onyx to Boats

---2016/08/07 13:02:55---
Ehhhzylo has received 1 Ring Of Wealth from Kaneki

---2016/08/07 14:23:00---
Ehhhzylo has received 1 Unstrung Heavy Ballista from Boats

---2016/08/07 15:12:05---
Ehhhzylo has received 60000000 Coins from The Bros 2

---2016/08/07 15:12:05---
Ehhhzylo has given 3 Golden Key to The Bros 2

---2016/08/07 15:30:32---
Ehhhzylo has received 1 Guthan'S Warspear from Komasan

---2016/08/07 15:30:32---
Ehhhzylo has given 3000000 Coins to Komasan

---2016/08/07 15:31:22---
Ehhhzylo has given 1 Snakeskin Boots to Kaneki

---2016/08/07 15:31:45---
Ehhhzylo has given 1 Heavy Ballista to Kaneki

---2016/08/07 16:09:30---
Ehhhzylo has received 20000000 Coins from The Bros 2

---2016/08/07 16:09:30---
Ehhhzylo has given 1 Golden Key to The Bros 2

---2016/08/07 16:35:20---
Ehhhzylo has received 3000000 Coins from Inflexion

---2016/08/07 16:35:20---
Ehhhzylo has given 2 Mysterious Emblem to Inflexion
Ehhhzylo has given 2 Mysterious Emblem (Tier 2) to Inflexion

---2016/08/07 16:42:18---
Ehhhzylo has received 1 Heavy Ballista from Kaneki

---2016/08/08 04:51:21---
Ehhhzylo has given 5000342 Coins to Komasan

---2016/08/08 04:51:21---
Ehhhzylo has received 1 Monkey Tail from Komasan

---2016/08/08 04:56:27---
Ehhhzylo has received 1 Karil'S Leatherskirt from Komasan
Ehhhzylo has received 1 Guthan'S Platebody from Komasan

---2016/08/08 05:04:19---
Ehhhzylo has given 1 Dragon Boots to Faze Rug
Ehhhzylo has given 1 Amulet Of Torture to Faze Rug
Ehhhzylo has given 1 Serpentine Helm to Faze Rug
Ehhhzylo has given 1 Dragonfire Shield to Faze Rug
Ehhhzylo has given 1 Bandos Chestplate to Faze Rug
Ehhhzylo has given 1 Bandos Tassets to Faze Rug

---2016/08/08 05:21:43---
Ehhhzylo has received 1 Dragon Boots from Faze Rug
Ehhhzylo has received 1 Amulet Of Torture from Faze Rug
Ehhhzylo has received 1 Serpentine Helm from Faze Rug
Ehhhzylo has received 1 Dragonfire Shield from Faze Rug
Ehhhzylo has received 1 Bandos Chestplate from Faze Rug
Ehhhzylo has received 1 Bandos Tassets from Faze Rug

---2016/08/08 09:24:01---
Ehhhzylo has received 1 Guthan'S Chainskirt from Even

---2016/08/08 09:24:01---
Ehhhzylo has given 2500356 Coins to Even

---2016/08/08 09:41:47---
Ehhhzylo has given 2500000 Coins to Nick

---2016/08/08 09:41:47---
Ehhhzylo has received 1 Guthan'S Helm from Nick

---2016/08/08 22:24:25---
Ehhhzylo has received 30000000 Coins from Diehappy

---2016/08/08 22:24:25---
Ehhhzylo has given 1 Heavy Ballista to Diehappy

---2016/08/08 22:26:34---
Ehhhzylo has received 1 Dragon Boots from Billy Mays
Ehhhzylo has received 1 Dark Infinity Colour Kit from Billy Mays
Ehhhzylo has received 5842200 Coins from Billy Mays
Ehhhzylo has received 1 Mysterious Emblem (Tier 2) from Billy Mays
Ehhhzylo has received 1 Archers Ring from Billy Mays

---2016/08/08 22:26:34---
Ehhhzylo has given 6844 Zulrah'S Scales to Billy Mays

---2016/08/08 22:29:43---
Ehhhzylo has received 1000000 Coins from Inflexion

---2016/08/08 22:29:43---
Ehhhzylo has given 1 Mysterious Emblem (Tier 2) to Inflexion

---2016/08/08 23:16:49---
Ehhhzylo has received 20000000 Coins from Inflexion

---2016/08/08 23:16:49---
Ehhhzylo has given 1 Golden Key to Inflexion

---2016/08/08 23:35:49---
Ehhhzylo has given 1 Green Dragonhide Set to Thewhtkid
Ehhhzylo has given 700 Shark to Thewhtkid
Ehhhzylo has given 1 Blue Dragonhide Set to Thewhtkid
Ehhhzylo has given 1 Mystic Hat (Dark) to Thewhtkid
Ehhhzylo has given 1 Ancient Staff to Thewhtkid
Ehhhzylo has given 1 Dragon Halberd to Thewhtkid
Ehhhzylo has given 40 Super Attack(4) to Thewhtkid
Ehhhzylo has given 1 Red Dragonhide Set to Thewhtkid
Ehhhzylo has given 1 Mystic Robe Top (Dark) to Thewhtkid
Ehhhzylo has given 1 Black Dragonhide Set to Thewhtkid
Ehhhzylo has given 1 Mystic Robe Bottom (Dark) to Thewhtkid
Ehhhzylo has given 40 Super Strength(4) to Thewhtkid
Ehhhzylo has given 20 Super Defence(4) to Thewhtkid
Ehhhzylo has given 60 Super Restore(4) to Thewhtkid
Ehhhzylo has given 1 Maple Shortbow to Thewhtkid
Ehhhzylo has given 1 Magic Shortbow to Thewhtkid
Ehhhzylo has given 1 Rune Crossbow to Thewhtkid
Ehhhzylo has given 3000000 Coins to Thewhtkid
Ehhhzylo has given 500 Fire Rune to Thewhtkid
Ehhhzylo has given 500 Water Rune to Thewhtkid
Ehhhzylo has given 500 Earth Rune to Thewhtkid
Ehhhzylo has given 500 Mind Rune to Thewhtkid
Ehhhzylo has given 100 Iron Arrow to Thewhtkid
Ehhhzylo has given 1 Snakeskin Boots to Thewhtkid
Ehhhzylo has given 200 Runite Bolts to Thewhtkid
Ehhhzylo has given 400 Rune Arrow to Thewhtkid
Ehhhzylo has given 1 Dragon Dagger to Thewhtkid

---2016/08/08 23:38:27---
Ehhhzylo has given 1 Amulet Of Glory(4) to Thewhtkid
Ehhhzylo has given 1 Climbing Boots to Thewhtkid
Ehhhzylo has given 1 Rune Boots to Thewhtkid
Ehhhzylo has given 1 Dragon Chainbody to Thewhtkid
Ehhhzylo has given 1 Ring Of Recoil to Thewhtkid
Ehhhzylo has given 1 Dragon Platelegs to Thewhtkid

---2016/08/08 23:39:01---
Ehhhzylo has given 99000 Coins to Thewhtkid
Ehhhzylo has given 1 Rune Claws to Thewhtkid

---2016/08/08 23:42:21---
Ehhhzylo has received 10500000 Coins from Inflexion

---2016/08/08 23:42:21---
Ehhhzylo has given 7000 Zulrah'S Scales to Inflexion

---2016/08/08 23:45:56---
Ehhhzylo has received 4 Credits Scroll from Dr Buttsecks

---2016/08/08 23:45:56---
Ehhhzylo has given 8000000 Coins to Dr Buttsecks

---2016/08/08 23:46:49---
Ehhhzylo has given 1 Elite Box to Inflexion

---2016/08/08 23:47:48---
Ehhhzylo has received 1 Dragon Boots from Inflexion

---2016/08/08 23:59:05---
Ehhhzylo has received 2 Tooth Half Of Key from Faze Rug

---2016/08/09 08:58:52---
Ehhhzylo has received 8000000 Coins from Dad

---2016/08/09 08:58:52---
Ehhhzylo has given 1 Dragon Boots to Dad

---2016/08/09 09:50:12---
Ehhhzylo has given 800000 Coins to Rolex

---2016/08/09 10:43:23---
Ehhhzylo has received 70000000 Coins from The Bros 2

---2016/08/09 10:43:23---
Ehhhzylo has given 1 Heavy Ballista to The Bros 2
Ehhhzylo has given 1 Zenyte Shard to The Bros 2

---2016/08/09 10:49:53---
Ehhhzylo has received 20000000 Coins from The Bros 2

---2016/08/09 10:49:53---
Ehhhzylo has given 1 3rd Age Vambraces to The Bros 2

---2016/08/09 10:56:29---
Ehhhzylo has given 85 Zulrah'S Scales to Keyzer

---2016/08/09 11:22:23---
Ehhhzylo has received 60000000 Coins from The Bros 2

---2016/08/09 11:22:23---
Ehhhzylo has given 3 Golden Key to The Bros 2

---2016/08/09 12:37:56---
Ehhhzylo has given 1 Dragon Boots to P0rn0

---2016/08/09 12:37:56---
Ehhhzylo has received 7000000 Coins from P0rn0

---2016/08/09 22:30:58---
Ehhhzylo has received 1 Dragon Claws from Deadkid
Ehhhzylo has received 1 Armadyl Chestplate from Deadkid
Ehhhzylo has received 1 Armadyl Chainskirt from Deadkid

---2016/08/09 22:30:58---
Ehhhzylo has given 90000000 Coins to Deadkid

---2016/08/09 22:31:48---
Ehhhzylo has received 65000000 Coins from Faze Rug

---2016/08/09 22:31:48---
Ehhhzylo has given 1 Armadyl Chestplate to Faze Rug
Ehhhzylo has given 1 Armadyl Chainskirt to Faze Rug

---2016/08/09 22:33:42---
Ehhhzylo has received 1 Abyssal Tentacle from Deadkid

---2016/08/09 22:33:42---
Ehhhzylo has given 45000000 Coins to Deadkid

---2016/08/09 22:37:27---
Ehhhzylo has received 1 Credits Scroll from Faze Rug

---2016/08/09 22:37:27---
Ehhhzylo has given 1500000 Coins to Faze Rug

---2016/08/09 22:41:48---
Ehhhzylo has given 205000000 Coins to Deadkid

---2016/08/09 22:41:48---
Ehhhzylo has received 1 Armadyl Helmet from Deadkid
Ehhhzylo has received 1 Armadyl Chestplate from Deadkid
Ehhhzylo has received 1 Armadyl Chainskirt from Deadkid
Ehhhzylo has received 1 Toxic Blowpipe (Empty) from Deadkid

---2016/08/09 22:43:53---
Ehhhzylo has given 1 Pegasian Crystal to Deadkid

---2016/08/09 22:43:53---
Ehhhzylo has received 15000000 Coins from Deadkid

---2016/08/09 22:48:38---
Ehhhzylo has given 15000000 Coins to Faze Rug

---2016/08/09 22:48:38---
Ehhhzylo has received 11702 Zulrah'S Scales from Faze Rug

---2016/08/09 22:55:07---
Ehhhzylo has received 20000000 Coins from Faze Rug
Ehhhzylo has received 1 Volcanic Abyssal Whip from Faze Rug

---2016/08/10 00:06:59---
Ehhhzylo has received 8 Tooth Half Of Key from Mthd

---2016/08/10 00:06:59---
Ehhhzylo has given 4000000 Coins to Mthd

---2016/08/10 01:04:29---
Ehhhzylo has given 1 Toxic Blowpipe (Empty) to Boats

---2016/08/10 01:04:29---
Ehhhzylo has received 130000000 Coins from Boats

---2016/08/10 01:40:35---
Ehhhzylo has given 1 Rune Warhammer to Thewhtkid

---2016/08/10 03:04:15---
Ehhhzylo has received 192 Runite Bar from Chase Legend

---2016/08/10 03:04:15---
Ehhhzylo has given 7500000 Coins to Chase Legend

---2016/08/10 03:55:23---
Ehhhzylo has received 81 Adamantite Bar from Anthony123
Ehhhzylo has received 25 Runite Bar from Anthony123

---2016/08/10 03:55:23---
Ehhhzylo has given 3300000 Coins to Anthony123

---2016/08/10 03:57:17---
Ehhhzylo has received 105 Adamantite Bar from Ushio

---2016/08/10 03:57:17---
Ehhhzylo has given 1200000 Coins to Ushio

---2016/08/10 04:09:14---
Ehhhzylo has given 900000 Coins to Jake Xd

---2016/08/10 04:09:14---
Ehhhzylo has received 31 Runite Bar from Jake Xd

---2016/08/10 04:21:15---
Ehhhzylo has received 625 Coal from Anthony123

---2016/08/10 04:21:15---
Ehhhzylo has given 9375000 Coins to Anthony123

---2016/08/10 04:38:54---
Ehhhzylo has given 191400000 Coins to Tehdark12
Ehhhzylo has given 1 Dharok'S Greataxe to Tehdark12

---2016/08/10 04:38:54---
Ehhhzylo has received 1 Rapier from Tehdark12

---2016/08/10 05:03:26---
Ehhhzylo has given 1 Abyssal Tentacle to Dad

---2016/08/10 05:03:26---
Ehhhzylo has received 60000000 Coins from Dad

---2016/08/10 05:04:11---
Ehhhzylo has received 110000000 Coins from Dad

---2016/08/10 05:04:11---
Ehhhzylo has given 1 Armadyl Helmet to Dad
Ehhhzylo has given 1 Armadyl Chestplate to Dad
Ehhhzylo has given 1 Armadyl Chainskirt to Dad

---2016/08/10 05:09:57---
Ehhhzylo has received 1 Infernal Pickaxe from Views

---2016/08/10 05:55:17---
Ehhhzylo has received 69000000 Coins from Tyson

---2016/08/10 05:55:17---
Ehhhzylo has given 1 Dragon Claws to Tyson

---2016/08/10 06:03:44---
Ehhhzylo has received 20000000 Coins from Sa M56

---2016/08/10 06:03:44---
Ehhhzylo has given 1 Volcanic Abyssal Whip to Sa M56

---2016/08/10 06:08:27---
Ehhhzylo has given 1 Infernal Pickaxe to Views

---2016/08/10 06:27:30---
Ehhhzylo has given 18000 Zulrah'S Scales to Views

---2016/08/10 06:27:30---
Ehhhzylo has received 38000000 Coins from Views

---2016/08/10 06:36:53---
Ehhhzylo has given 1 Abyssal Whip to Exp

---2016/08/10 06:38:05---
Ehhhzylo has given 10188614 Coins to Exp

---2016/08/10 07:48:52---
Ehhhzylo has given 1 Toxic Blowpipe to Spoilmilk

---2016/08/10 07:48:52---
Ehhhzylo has received 200000000 Coins from Spoilmilk

---2016/08/10 09:08:41---
Ehhhzylo has received 1 Primordial Boots from Dad

---2016/08/10 09:08:41---
Ehhhzylo has given 30000000 Coins to Dad

---2016/08/10 22:23:08---
Ehhhzylo has received 1 Eternal Crystal from Rush3du

---2016/08/10 22:23:08---
Ehhhzylo has given 20000000 Coins to Rush3du

---2016/08/10 22:26:14---
Ehhhzylo has received 1 Toxic Blowpipe from Jake Xd

---2016/08/10 22:26:14---
Ehhhzylo has given 190000000 Coins to Jake Xd

---2016/08/11 00:20:13---
Ehhhzylo has received 11208335 Coins from Im Predz

---2016/08/11 00:20:13---
Ehhhzylo has given 1 Monkey Tail to Im Predz

---2016/08/11 01:48:48---
Ehhhzylo has given 1200000 Coins to Libervm

---2016/08/11 01:48:48---
Ehhhzylo has received 25 Runite Ore from Libervm
Ehhhzylo has received 25 Adamantite Bar from Libervm

---2016/08/11 02:16:33---
Ehhhzylo has given 7000000 Coins to Spinz50

---2016/08/11 02:16:33---
Ehhhzylo has received 1 Dharok'S Platebody from Spinz50
Ehhhzylo has received 1 Dharok'S Platelegs from Spinz50
Ehhhzylo has received 1 Dharok'S Helm from Spinz50
Ehhhzylo has received 1 Dharok'S Greataxe from Spinz50

---2016/08/11 03:41:49---
Ehhhzylo has received 1 Bludgeon Claw from Dr Buttsecks

---2016/08/11 03:41:49---
Ehhhzylo has given 10000000 Coins to Dr Buttsecks

---2016/08/11 03:42:17---
Ehhhzylo has given 4 Golden Key to Matt

---2016/08/11 03:42:17---
Ehhhzylo has received 60000000 Coins from Matt

---2016/08/11 05:43:51---
Ehhhzylo has received 12000000 Coins from Natsu5623

---2016/08/11 05:43:51---
Ehhhzylo has given 1 Crystal Bow Full to Natsu5623

---2016/08/11 05:48:37---
Ehhhzylo has received 1 Uncut Onyx from Keyzer

---2016/08/11 05:54:04---
Ehhhzylo has received 1 Ball Of Wool from Keyzer

---2016/08/11 05:56:06---
Ehhhzylo has given 11000000 Coins to Keyzer
Ehhhzylo has given 1 Amulet Of Fury to Keyzer

---2016/08/11 06:32:49---
Ehhhzylo has received 15 Runite Ore from Keyzer
Ehhhzylo has received 25 Adamantite Bar from Keyzer

---2016/08/11 06:35:44---
Ehhhzylo has given 1 Abyssal Whip to Keyzer

---2016/08/11 08:05:35---
Ehhhzylo has received 15000000 Coins from Billy Mays

---2016/08/11 08:05:35---
Ehhhzylo has given 1 Abyssal Whip to Billy Mays

---2016/08/11 08:21:10---
Ehhhzylo has received 1 Rune Warhammer from Bay

---2016/08/11 08:30:32---
Ehhhzylo has received 391 Coal from Yeezy
Ehhhzylo has received 50 Adamantite Bar from Yeezy

---2016/08/11 08:30:32---
Ehhhzylo has given 10300000 Coins to Yeezy

---2016/08/11 08:32:35---
Ehhhzylo has given 25000000 Coins to Billy Mays

---2016/08/11 08:32:35---
Ehhhzylo has received 30 Runite Ore from Billy Mays
Ehhhzylo has received 281 Coal from Billy Mays
Ehhhzylo has received 376 Adamantite Bar from Billy Mays

---2016/08/11 11:10:40---
Ehhhzylo has received 13 Mithril Ore from Tyson
Ehhhzylo has received 35 Adamantite Ore from Tyson
Ehhhzylo has received 200 Iron Ore from Tyson
Ehhhzylo has received 31 Adamantite Bar from Tyson

---2016/08/11 11:10:40---
Ehhhzylo has given 2345000 Coins to Tyson

---2016/08/11 11:22:07---
Ehhhzylo has given 5000000 Coins to Organic

---2016/08/11 11:22:07---
Ehhhzylo has received 1 Malediction Shard 1 from Organic

---2016/08/11 11:34:59---
Ehhhzylo has received 120 Adamantite Bar from Kaneki

---2016/08/11 12:57:52---
Ehhhzylo has received 2666 Pure Essence from Ushio

---2016/08/11 12:57:52---
Ehhhzylo has given 8000000 Coins to Ushio

---2016/08/11 13:38:54---
Ehhhzylo has given 610 Pure Essence to Rolex

---2016/08/11 22:31:52---
Ehhhzylo has received 700 Magic Logs from Mthd

---2016/08/11 22:31:52---
Ehhhzylo has given 3500000 Coins to Mthd

---2016/08/11 22:38:59---
Ehhhzylo has given 10000000 Coins to Zulrah

---2016/08/11 22:38:59---
Ehhhzylo has received 2000 Magic Logs from Zulrah

---2016/08/11 22:43:02---
Ehhhzylo has received 2000 Magic Logs from Zulrah

---2016/08/11 22:43:02---
Ehhhzylo has given 10000000 Coins to Zulrah

---2016/08/11 23:15:03---
Ehhhzylo has received 1 Infernal Pickaxe from Views

---2016/08/11 23:21:27---
Ehhhzylo has given 5000000 Coins to Anthony123

---2016/08/11 23:21:27---
Ehhhzylo has received 1 Uncut Onyx from Anthony123

---2016/08/11 23:23:21---
Ehhhzylo has received 54000000 Coins from Spoilmilk

---2016/08/11 23:23:21---
Ehhhzylo has given 1 Amulet Of Torture to Spoilmilk

---2016/08/11 23:33:10---
Ehhhzylo has given 1 Uncut Onyx to Views

---2016/08/11 23:33:10---
Ehhhzylo has received 1 Amulet Of Fury from Views

---2016/08/11 23:38:35---
Ehhhzylo has given 1 Karil'S Leathertop to Spoilmilk
Ehhhzylo has given 1 Karil'S Leatherskirt to Spoilmilk

---2016/08/11 23:38:35---
Ehhhzylo has received 15000000 Coins from Spoilmilk

---2016/08/12 20:57:21---
Ehhhzylo has received 2 Golden Key from Anthony123

---2016/08/12 20:57:21---
Ehhhzylo has given 30000000 Coins to Anthony123

---2016/08/12 21:00:10---
Ehhhzylo has given 20000000 Coins to Deadkid

---2016/08/12 21:00:10---
Ehhhzylo has received 1 Dragon Claws from Deadkid

---2016/08/12 21:06:58---
Ehhhzylo has received 150 Steel Arrow from Deadkid

---2016/08/12 21:06:58---
Ehhhzylo has given 1 Coins to Deadkid

---2016/08/12 21:15:06---
Ehhhzylo has received 45000000 Coins from Luuckie

---2016/08/12 21:15:06---
Ehhhzylo has given 1 Zenyte Shard to Luuckie

---2016/08/12 21:36:40---
Ehhhzylo has given 1 Infernal Pickaxe to Views

---2016/08/12 21:37:01---
Ehhhzylo has received 3 Tooth Half Of Key from Defence Pro1

---2016/08/12 21:42:32---
Ehhhzylo has received 1 Santa Hat from Defence Pro1

---2016/08/12 21:42:32---
Ehhhzylo has given 110000000 Coins to Defence Pro1

---2016/08/12 21:51:21---
Ehhhzylo has received 1 Dragon Platelegs from Doodat11

---2016/08/12 21:56:19---
Ehhhzylo has received 5000000 Coins from King Pking

---2016/08/12 21:56:19---
Ehhhzylo has given 1 Dragon Boots to King Pking

---2016/08/12 21:56:55---
Ehhhzylo has received 1 Golden Key from Faze Rug

---2016/08/12 21:56:55---
Ehhhzylo has given 15000000 Coins to Faze Rug

---2016/08/17 17:31:44---
Ehhhzylo has received 40000000 Coins from Defence Pro1

---2016/08/17 18:12:20---
Ehhhzylo has received 5000000 Coins from Defence Pro1

---2016/08/17 18:12:20---
Ehhhzylo has given 1 Mystery Box to Defence Pro1

---2016/08/17 18:20:52---
Ehhhzylo has received 17000000 Coins from Defence Pro1

---2016/08/17 18:26:24---
Ehhhzylo has given 1 Gold Elegant Shirt to Defence Pro1

---2016/08/17 20:11:25---
Ehhhzylo has received 24000001 Coins from Defence Pro1

---2016/08/17 21:48:59---
Ehhhzylo has given 1 Rapier to The Bros 2

---2016/08/17 21:48:59---
Ehhhzylo has received 400000000 Coins from The Bros 2

---2016/08/17 22:00:34---
Ehhhzylo has given 35150274 Coins to Crow

---2016/08/17 22:00:34---
Ehhhzylo has received 1 Toxic Staff Of The Dead from Crow

---2016/08/18 08:47:42---
Ehhhzylo has received 1 Magic Fang from Lolwut

---2016/08/18 08:47:42---
Ehhhzylo has given 20000000 Coins to Lolwut

---2016/08/18 08:57:54---
Ehhhzylo has received 80000000 Coins from Ads

---2016/08/18 08:57:54---
Ehhhzylo has given 1 Toxic Staff Of The Dead to Ads

---2016/08/18 09:50:02---
Ehhhzylo has received 15000000 Coins from Xloud

---2016/08/18 09:50:02---
Ehhhzylo has given 1 Unstrung Heavy Ballista to Xloud

---2016/08/18 10:26:32---
Ehhhzylo has received 1 Gold Elegant Shirt from Defence Pro1
Ehhhzylo has received 1 Gold Elegant Legs from Defence Pro1

---2016/08/18 10:47:57---
Ehhhzylo has received 1 Legendary Box from Derek

---2016/08/18 10:57:24---
Ehhhzylo has given 40000000 Coins to Get Nasty

---2016/08/18 10:57:24---
Ehhhzylo has received 1 Infernal Pickaxe from Get Nasty

---2016/08/18 11:18:43---
Ehhhzylo has received 2 Tooth Half Of Key from Defence Pro1

---2016/08/18 11:54:34---
Ehhhzylo has received 1 Rapier from Purerangsaw

---2016/08/18 11:54:34---
Ehhhzylo has given 321000000 Coins to Purerangsaw

---2016/08/18 12:32:41---
Ehhhzylo has received 1 Malediction Shard 3 from Pink Panther

---2016/08/18 12:32:41---
Ehhhzylo has given 25000000 Coins to Pink Panther

---2016/08/18 12:33:51---
Ehhhzylo has given 1 Cooked Karambwan to Get Nasty

---2016/08/18 14:11:15---
Ehhhzylo has received 1 Runite Bolts from Defence Pro1

---2016/08/18 14:11:23---
Ehhhzylo has received 1 Runite Bolts from Defence Pro1

---2016/08/18 14:11:23---
Ehhhzylo has given 1 Runite Bolts to Defence Pro1

---2016/08/18 14:12:38---
Ehhhzylo has received 1 Ahrim'S Hood from Defence Pro1

---2016/08/18 14:13:30---
Ehhhzylo has given 9000000 Coins to Pantera

---2016/08/18 14:13:30---
Ehhhzylo has received 1 Ahrim'S Staff from Pantera
Ehhhzylo has received 1 Torag'S Hammers from Pantera

---2016/08/18 14:16:53---
Ehhhzylo has received 1 Karil'S Coif from Iron Pvm
Ehhhzylo has received 1 Karil'S Crossbow from Iron Pvm

---2016/08/18 14:16:53---
Ehhhzylo has given 5000000 Coins to Iron Pvm

---2016/08/18 14:18:25---
Ehhhzylo has given 3000000 Coins to Main Rhoads

---2016/08/18 14:18:25---
Ehhhzylo has received 1 Verac'S Brassard from Main Rhoads

---2016/08/18 14:20:25---
Ehhhzylo has given 4000000 Coins to Fraqz Ok

---2016/08/18 14:20:25---
Ehhhzylo has received 1 Guthan'S Warspear from Fraqz Ok
Ehhhzylo has received 1 Karil'S Coif from Fraqz Ok

---2016/08/18 14:21:47---
Ehhhzylo has given 5000000 Coins to Hanybal

---2016/08/18 14:21:47---
Ehhhzylo has received 1 Karil'S Leathertop from Hanybal
Ehhhzylo has received 1 Guthan'S Platebody from Hanybal

---2016/08/18 14:22:22---
Ehhhzylo has received 1 Guthan'S Chainskirt from Main Rhoads
Ehhhzylo has received 1 Torag'S Platelegs from Main Rhoads

---2016/08/18 14:22:22---
Ehhhzylo has given 4000000 Coins to Main Rhoads

---2016/08/18 14:24:21---
Ehhhzylo has received 1 Dharok'S Helm from Iron Omerta

---2016/08/18 14:24:21---
Ehhhzylo has given 4000001 Coins to Iron Omerta

---2016/08/18 14:26:37---
Ehhhzylo has given 10000000 Coins to Pantera

---2016/08/18 14:26:37---
Ehhhzylo has received 1 Verac'S Helm from Pantera
Ehhhzylo has received 1 Guthan'S Helm from Pantera
Ehhhzylo has received 1 Verac'S Plateskirt from Pantera
Ehhhzylo has received 1 Karil'S Crossbow from Pantera

---2016/08/18 14:27:14---
Ehhhzylo has received 1 Ahrim'S Hood from Inb4 Drop
Ehhhzylo has received 1 Ahrim'S Staff from Inb4 Drop

---2016/08/18 14:27:14---
Ehhhzylo has given 3000000 Coins to Inb4 Drop

---2016/08/18 14:27:45---
Ehhhzylo has given 1 Crystal Halberd Full to Fe Squad

---2016/08/18 14:27:45---
Ehhhzylo has received 15000000 Coins from Fe Squad

---2016/08/18 14:48:18---
Ehhhzylo has given 37000000 Coins to Eirik H

---2016/08/18 19:48:09---
Ehhhzylo has received 1 Zamorakian Hasta from Defence Pro1

---2016/08/18 19:54:45---
Ehhhzylo has received 1 Verac'S Brassard from Defence Pro1

---2016/08/18 19:56:08---
Ehhhzylo has received 1 Cooked Karambwan from Defence Pro1

---2016/08/18 20:14:21---
Ehhhzylo has given 1 Terror Dog to Defence Pro1

---2016/08/18 20:14:21---
Ehhhzylo has received 50000000 Coins from Defence Pro1

---2016/08/18 20:14:33---
Ehhhzylo has given 50000000 Coins to Defence Pro1

---2016/08/18 20:14:33---
Ehhhzylo has received 1 Terror Dog from Defence Pro1

---2016/08/18 20:14:41---
Ehhhzylo has given 1 Terror Dog to Defence Pro1

---2016/08/18 20:14:41---
Ehhhzylo has received 50000000 Coins from Defence Pro1

---2016/08/18 20:34:35---
Ehhhzylo has received 1 Fishing Tome from Defence Pro1

---2016/08/18 20:36:20---
Ehhhzylo has given 2 Credits Scroll to Defence Pro1

---2016/08/18 20:36:35---
Ehhhzylo has received 1 Mystery Box from Defence Pro1

---2016/08/18 20:36:56---
Ehhhzylo has given 1 Firemaking Tome to Defence Pro1

---2016/08/18 20:59:52---
Ehhhzylo has received 1 Monkey Nuts from Defence Pro1

---2016/08/18 21:01:32---
Ehhhzylo has given 1 Firemaking Tome to Defence Pro1

---2016/08/18 21:13:17---
Ehhhzylo has given 5 Crystal Key to Defence Pro1

---2016/08/18 21:13:50---
Ehhhzylo has received 50 Raw Shark from Defence Pro1
Ehhhzylo has received 1 Rune Crossbow from Defence Pro1
Ehhhzylo has received 1 Snakeskin Body from Defence Pro1
Ehhhzylo has received 1 Infinity Top from Defence Pro1
Ehhhzylo has received 2 Snakeskin Chaps from Defence Pro1
Ehhhzylo has received 1 Archer Helm from Defence Pro1
Ehhhzylo has received 1 Dragonstone Amulet from Defence Pro1
Ehhhzylo has received 1 Rune Platebody from Defence Pro1
Ehhhzylo has received 1 Snakeskin Vambraces from Defence Pro1
Ehhhzylo has received 1 Loop Half Of Key from Defence Pro1
Ehhhzylo has received 1 Helm Of Neitiznot from Defence Pro1

---2016/08/18 22:22:33---
Ehhhzylo has received 1 Dharok'S Platelegs from Whatbruv
Ehhhzylo has received 1 Dharok'S Greataxe from Whatbruv

---2016/08/18 22:22:33---
Ehhhzylo has given 5000000 Coins to Whatbruv

---2016/08/18 22:30:14---
Ehhhzylo has received 1 Tanzanite Fang from Dopey

---2016/08/18 22:53:56---
Ehhhzylo has given 1 Tanzanite Fang to Derek
Ehhhzylo has given 2 Toxic Blowpipe (Empty) to Derek

---2016/08/18 22:54:04---
Ehhhzylo has given 1 Toxic Blowpipe (Empty) to Derek

---2016/08/18 23:04:27---
Ehhhzylo has received 1 Toxic Blowpipe (Empty) from Derek

---2016/08/18 23:46:32---
Ehhhzylo has given 1 Credits Scroll to Zenyte

---2016/08/19 00:32:19---
Ehhhzylo has received 1 Karil'S Leatherskirt from Parazino

---2016/08/19 00:32:19---
Ehhhzylo has given 3000000 Coins to Parazino

---2016/08/19 00:49:24---
Ehhhzylo has received 1 Omega Egg from Thc

---2016/08/19 00:49:24---
Ehhhzylo has given 17083839 Coins to Thc

---2016/08/19 00:52:10---
Ehhhzylo has given 1 Guthan'S Helm to Thc

---2016/08/19 16:13:55---
Ehhhzylo has given 1 Credits Scroll to Defence Pro1

---2016/08/19 16:14:37---
Ehhhzylo has received 1 Elite Box from Defence Pro1

---2016/08/19 16:14:47---
Ehhhzylo has given 1 Seers Ring to Defence Pro1

---2016/08/19 17:09:33---
Ehhhzylo has received 1 Infinity Bottoms from Defence Pro1

---2016/08/19 17:11:37---
Ehhhzylo has given 2 Archers Ring to Defence Pro1
Ehhhzylo has given 1 Warrior Ring to Defence Pro1

---2016/08/19 17:23:15---
Ehhhzylo has given 3 Mysterious Emblem to Defence Pro1
Ehhhzylo has given 3 Mysterious Emblem (Tier 2) to Defence Pro1

---2016/08/19 17:25:29---
Ehhhzylo has given 45000000 Coins to Nick

---2016/08/19 17:25:29---
Ehhhzylo has received 1124 Death Rune from Nick
Ehhhzylo has received 1124 Chaos Rune from Nick
Ehhhzylo has received 1 Trident Of The Swamp from Nick
Ehhhzylo has received 2500 Zulrah'S Scales from Nick
Ehhhzylo has received 5620 Fire Rune from Nick

---2016/08/19 17:59:40---
Ehhhzylo has received 125000000 Coins from Jlaw12

---2016/08/19 17:59:40---
Ehhhzylo has given 1 Toxic Blowpipe (Empty) to Jlaw12

---2016/08/19 20:14:30---
Ehhhzylo has given 1 Karil'S Leatherskirt to Zenyte

---2016/08/19 22:05:19---
Ehhhzylo has received 1 Verac'S Helm from Hanybal
Ehhhzylo has received 17 Crystal Key from Hanybal

---2016/08/19 22:05:19---
Ehhhzylo has given 19000000 Coins to Hanybal

---2016/08/19 22:06:15---
Ehhhzylo has given 1 Ecumenical Key to Defence Pro2

---2016/08/19 22:08:00---
Ehhhzylo has given 1 Ecumenical Key to Defence Pro2

---2016/08/19 22:13:50---
Ehhhzylo has received 1 Blue Halloween Mask from Defence Pro2

---2016/08/19 22:14:13---
Ehhhzylo has given 1 $5 Bond to The Bros 2

---2016/08/19 22:14:13---
Ehhhzylo has received 110000000 Coins from The Bros 2

---2016/08/19 22:15:27---
Ehhhzylo has given 1 Santa Hat to Defence Pro2

---2016/08/19 22:18:49---
Ehhhzylo has given 1 Blue Halloween Mask to Defence Pro2

---2016/08/19 22:18:49---
Ehhhzylo has received 1 Santa Hat from Defence Pro2

---2016/08/19 22:28:39---
Ehhhzylo has given 1 Karil'S Leathertop to The Bros 2
Ehhhzylo has given 1 Karil'S Leatherskirt to The Bros 2

---2016/08/19 22:28:39---
Ehhhzylo has received 20000000 Coins from The Bros 2

---2016/08/19 23:19:19---
Ehhhzylo has given 1 Raw Shark to Chase Legend

---2016/08/19 23:19:19---
Ehhhzylo has received 1 Onyx from Chase Legend

---2016/08/19 23:22:42---
Ehhhzylo has given 1 Amulet Of Fury to Chase Legend

---2016/08/20 00:34:19---
Ehhhzylo has received 1 Armadyl Chainskirt from Ear

---2016/08/20 00:34:19---
Ehhhzylo has given 35000000 Coins to Ear

---2016/08/20 00:39:20---
Ehhhzylo has given 50065421 Coins to Matt

---2016/08/20 00:39:20---
Ehhhzylo has received 1 Necklace Of Anguish from Matt

---2016/08/20 03:51:34---
Ehhhzylo has given 3 Tarromin Potion (Unf) to Zylos Mule
Ehhhzylo has given 1 Crystal Shield Full to Zylos Mule
Ehhhzylo has given 1 Toolkit to Zylos Mule
Ehhhzylo has given 2 Ranarr Potion (Unf) to Zylos Mule
Ehhhzylo has given 1380 Bolt Rack to Zylos Mule
Ehhhzylo has given 1 Dragon Chainbody to Zylos Mule
Ehhhzylo has given 18 Crushed Nest to Zylos Mule
Ehhhzylo has given 3 Toktz-Ket-Xil to Zylos Mule
Ehhhzylo has given 1 Weeds to Zylos Mule
Ehhhzylo has given 2 Abyssal Head to Zylos Mule
Ehhhzylo has given 4 Kq Head to Zylos Mule
Ehhhzylo has given 1 Penguin Mask to Zylos Mule
Ehhhzylo has given 2 Crystal Seed to Zylos Mule
Ehhhzylo has given 107 Red Chinchompa to Zylos Mule
Ehhhzylo has given 27 Wine Of Zamorak to Zylos Mule
Ehhhzylo has given 203 Black Chinchompa to Zylos Mule
Ehhhzylo has given 2 Dragon Platelegs to Zylos Mule
Ehhhzylo has given 1 Dragon Full Helm Ornament Kit to Zylos Mule
Ehhhzylo has given 11 Helm Of Neitiznot to Zylos Mule
Ehhhzylo has given 3 Toadflax Potion (Unf) to Zylos Mule
Ehhhzylo has given 1 Gold Elegant Shirt to Zylos Mule
Ehhhzylo has given 1 Gold Elegant Legs to Zylos Mule

---2016/08/20 04:53:19---
Ehhhzylo has given 1 Armadyl Chainskirt to Rat

---2016/08/20 04:53:19---
Ehhhzylo has received 40000000 Coins from Rat

---2016/08/20 05:21:02---
Ehhhzylo has received 1 Green Partyhat from Rat

---2016/08/20 05:21:02---
Ehhhzylo has given 350000000 Coins to Rat

---2016/08/20 05:27:56---
Ehhhzylo has given 1300 Magic Logs to Defence Pro1

---2016/08/20 05:27:56---
Ehhhzylo has received 6000000 Coins from Defence Pro1

---2016/08/20 06:02:20---
Ehhhzylo has received 150 Raw Shark from Keyzer
Ehhhzylo has received 93 Super Combat Potion(4) from Keyzer
Ehhhzylo has received 1 Slayer Bell from Keyzer
Ehhhzylo has received 600 Magic Logs from Keyzer

---2016/08/20 06:02:20---
Ehhhzylo has given 2 Raw Dark Crab to Keyzer

---2016/08/20 06:29:26---
Ehhhzylo has received 23 Credits Scroll from Jlaw12

---2016/08/20 06:29:26---
Ehhhzylo has given 68000000 Coins to Jlaw12

---2016/08/20 06:34:31---
Ehhhzylo has given 20000001 Coins to Ehhzylo

---2016/08/20 06:41:18---
Ehhhzylo has received 20103878 Coins from Ehhzylo

---2016/08/20 06:42:09---
Ehhhzylo has given 1000 Uncut Dragonstone to Ehhzylo

---2016/08/20 07:38:41---
Ehhhzylo has given 1 Mysterious Emblem to Defence Pro1
Ehhhzylo has given 1 Mysterious Emblem (Tier 2) to Defence Pro1

---2016/08/20 08:02:05---
Ehhhzylo has received 125452000 Coins from Ehhzylo

---2016/08/20 09:28:13---
Ehhhzylo has given 1000 Magic Logs to Da Jon

---2016/08/20 10:53:50---
Ehhhzylo has received 1 Grimy Torstol from Defence Pro1

---2016/08/20 12:05:05---
Ehhhzylo has received 100 Grimy Toadflax from Chase Legend

---2016/08/20 12:05:05---
Ehhhzylo has given 2500000 Coins to Chase Legend

---2016/08/20 12:05:27---
Ehhhzylo has given 242 Dragon Dart to Chase Legend

---2016/08/20 12:32:36---
Ehhhzylo has received 3 Grimy Ranarr Weed from Zenyte
Ehhhzylo has received 25 Torstol from Zenyte

---2016/08/20 12:32:36---
Ehhhzylo has given 10000000 Coins to Zenyte

---2016/08/20 13:02:08---
Ehhhzylo has received 25 Torstol from Zenyte

---2016/08/20 22:39:44---
Ehhhzylo has given 5000000 Coins to Stanced

---2016/08/20 22:43:36---
Ehhhzylo has received 1 Amulet Of Torture from Faze Rug
Ehhhzylo has received 202000000 Coins from Faze Rug

---2016/08/21 01:08:02---
Ehhhzylo has received 1 Amulet Of Fury from Thc
Ehhhzylo has received 1 Zenyte Shard from Thc

---2016/08/21 01:08:20---
Ehhhzylo has given 1 Amulet Of Torture to Thc

---2016/08/21 01:22:22---
Ehhhzylo has given 269 Torstol to Defence Pro1

---2016/08/21 01:52:30---
Ehhhzylo has received 1 Karil'S Leathertop from Onlythink

---2016/08/21 01:52:30---
Ehhhzylo has given 3000000 Coins to Onlythink

---2016/08/21 01:53:43---
Ehhhzylo has received 1 Torag'S Platebody from Onlythink

---2016/08/21 01:53:43---
Ehhhzylo has given 3000000 Coins to Onlythink

---2016/08/21 01:57:32---
Ehhhzylo has received 1 Ahrim'S Robetop from Onlythink
Ehhhzylo has received 1 Ahrim'S Robeskirt from Onlythink

---2016/08/21 01:57:32---
Ehhhzylo has given 7000000 Coins to Onlythink

---2016/08/21 01:58:21---
Ehhhzylo has received 1 Dharok'S Platebody from Onlythink

---2016/08/21 01:58:21---
Ehhhzylo has given 4000000 Coins to Onlythink

---2016/08/21 01:59:10---
Ehhhzylo has received 1 Verac'S Flail from Onlythink

---2016/08/21 01:59:10---
Ehhhzylo has given 1 Guthan'S Warspear to Onlythink

---2016/08/21 06:44:55---
Ehhhzylo has given 1 Infernal Pickaxe to Defence Pro1

---2016/08/21 06:55:41---
Ehhhzylo has given 1 Verac'S Brassard to Pantera

---2016/08/21 07:22:39---
Ehhhzylo has received 1 Infernal Pickaxe from Defence Pro1

---2016/08/21 07:24:15---
Ehhhzylo has given 1 Infernal Pickaxe to Defence Pro1

---2016/08/21 07:37:15---
Ehhhzylo has received 2 Credits Scroll from Defence Pro1

---2016/08/21 07:37:44---
Ehhhzylo has received 40000000 Coins from Iron Pvm

---2016/08/21 07:37:44---
Ehhhzylo has given 1 Amulet Of Torture to Iron Pvm

---2016/08/21 07:47:42---
Ehhhzylo has given 1 Ranging Potion(3) to Defence Pro2

---2016/08/21 12:37:34---
Ehhhzylo has given 125000000 Coins to The Bros 2

---2016/08/21 12:37:34---
Ehhhzylo has received 1 Armadyl Chestplate from The Bros 2
Ehhhzylo has received 1 Armadyl Chainskirt from The Bros 2

---2016/08/21 13:35:14---
Ehhhzylo has received 1 Armadyl Helmet from Chase Legend

---2016/08/21 13:35:14---
Ehhhzylo has given 25000000 Coins to Chase Legend

---2016/08/21 14:03:28---
Ehhhzylo has received 5 Crystal Key from Hanybal

---2016/08/21 14:03:28---
Ehhhzylo has given 5000000 Coins to Hanybal

---2016/08/21 22:28:08---
Ehhhzylo has received 2000000 Coins from Stelios

---2016/08/21 22:28:08---
Ehhhzylo has given 40 Super Combat Potion(4) to Stelios

---2016/08/21 23:00:58---
Ehhhzylo has given 1 Armadyl Helmet to Faze Rug
Ehhhzylo has given 20000000 Coins to Faze Rug
Ehhhzylo has given 1 Armadyl Chestplate to Faze Rug
Ehhhzylo has given 1 Armadyl Chainskirt to Faze Rug

---2016/08/21 23:13:01---
Ehhhzylo has received 6 Crystal Key from Meradj10

---2016/08/21 23:13:01---
Ehhhzylo has given 7000000 Coins to Meradj10

---2016/08/22 05:09:43---
Ehhhzylo has received 5000005 Coins from Rat

---2016/08/22 05:09:43---
Ehhhzylo has given 100 Dragon Javelin to Rat

---2016/08/22 05:27:55---
Ehhhzylo has given 1 Dark Infinity Colour Kit to Zylos Mule
Ehhhzylo has given 582 Red Chinchompa to Zylos Mule
Ehhhzylo has given 466 Black Chinchompa to Zylos Mule
Ehhhzylo has given 680 Monkfish to Zylos Mule

---2016/08/22 06:05:22---
Ehhhzylo has given 1 Credits Scroll to Pksir

---2016/08/22 07:32:15---
Ehhhzylo has given 1 Rune Warhammer to Pksir
Ehhhzylo has given 1 Elemental Shield to Pksir
Ehhhzylo has given 1 Blue D'Hide Chaps to Pksir

---2016/08/22 07:50:38---
Ehhhzylo has received 1 Armadyl Helmet from Faze Rug
Ehhhzylo has received 1 Armadyl Chestplate from Faze Rug
Ehhhzylo has received 1 Armadyl Chainskirt from Faze Rug

---2016/08/22 08:28:11---
Ehhhzylo has received 17771 Zulrah'S Scales from Zenyte

---2016/08/22 08:28:11---
Ehhhzylo has given 25000000 Coins to Zenyte

---2016/08/22 08:37:54---
Ehhhzylo has received 14359 Zulrah'S Scales from I Play A Lot

---2016/08/22 08:37:54---
Ehhhzylo has given 20000000 Coins to I Play A Lot

---2016/08/22 08:41:03---
Ehhhzylo has received 2209 Zulrah'S Scales from Faze Rug

---2016/08/22 08:55:14---
Ehhhzylo has given 3000000 Coins to Zenyte

---2016/08/22 08:55:14---
Ehhhzylo has received 2166 Zulrah'S Scales from Zenyte

---2016/08/22 09:06:45---
Ehhhzylo has given 3500000 Coins to Zenyte

---2016/08/22 09:06:45---
Ehhhzylo has received 2 Credits Scroll from Zenyte

---2016/08/22 09:11:09---
Ehhhzylo has given 1 Serpentine Helm to Revs Box

---2016/08/22 09:11:09---
Ehhhzylo has received 30000000 Coins from Revs Box

---2016/08/22 10:00:15---
Ehhhzylo has received 25000000 Coins from Exp

---2016/08/22 10:00:15---
Ehhhzylo has given 1 Dark Infinity Hat to Exp
Ehhhzylo has given 1 Dark Infinity Top to Exp
Ehhhzylo has given 1 Dark Infinity Bottoms to Exp

---2016/08/22 14:25:46---
Ehhhzylo has received 2 Mysterious Emblem (Tier 2) from D4rk K0

---2016/08/22 14:25:46---
Ehhhzylo has given 2400000 Coins to D4rk K0

---2016/08/22 16:05:15---
Ehhhzylo has given 1 Abyssal Dagger to Inflexion

---2016/08/22 16:05:15---
Ehhhzylo has received 30000000 Coins from Inflexion

---2016/08/22 23:25:06---
Ehhhzylo has given 11010 Zulrah'S Scales to 262654386914

---2016/08/22 23:25:06---
Ehhhzylo has received 20000000 Coins from 262654386914

---2016/08/23 15:52:39---
Ehhhzylo has received 45000000 Coins from Bay

---2016/08/23 15:52:39---
Ehhhzylo has given 1 Heavy Ballista to Bay

---2016/08/23 16:04:17---
Ehhhzylo has received 20000000 Coins from Xloud

---2016/08/23 16:04:17---
Ehhhzylo has given 1 Dark Crab to Xloud
Ehhhzylo has given 2000 Dragon Dart to Xloud

---2016/08/24 05:34:40---
Ehhhzylo has received 144000000 Coins from The Bros 2

---2016/08/24 05:34:40---
Ehhhzylo has given 1 Amulet Of Torture to The Bros 2
Ehhhzylo has given 22012 Zulrah'S Scales to The Bros 2
Ehhhzylo has given 1 Necklace Of Anguish to The Bros 2

---2016/08/24 05:46:33---
Ehhhzylo has received 40000000 Coins from The Bros 2

---2016/08/24 05:46:33---
Ehhhzylo has given 1 Zamorakian Hasta to The Bros 2

---2016/08/24 06:16:27---
Ehhhzylo has given 3350000 Coins to King Casper
Ehhhzylo has given 320 Dragon Bones to King Casper

---2016/08/24 06:20:26---
Ehhhzylo has given 30 Dragon Bones to King Casper

---2016/08/26 12:47:57---
Ehhhzylo has received 1 Infernal Pickaxe from Defence Pro2

---2016/08/26 12:59:39---
Ehhhzylo has given 20000000 Coins to Spartan Milf

---2016/08/26 15:44:06---
Ehhhzylo has given 2 Crystal Seed to Ehhzylo
Ehhhzylo has given 1 White Cavalier to Ehhzylo
Ehhhzylo has given 70 Snakeskin to Ehhzylo
Ehhhzylo has given 1000 Swamp Tar to Ehhzylo
Ehhhzylo has given 1 Green D'Hide Chaps (T) to Ehhzylo
Ehhhzylo has given 1 Magic Seed to Ehhzylo
Ehhhzylo has given 1 Saradomin Full Helm to Ehhzylo
Ehhhzylo has given 2 Abyssal Head to Ehhzylo
Ehhhzylo has given 1 Black Dragon Mask to Ehhzylo
Ehhhzylo has given 1 Clue Hunter Trousers to Ehhzylo
Ehhhzylo has given 50 Mahogany Plank to Ehhzylo

---2016/08/26 16:01:53---
Ehhhzylo has received 1 Black Skirt (T) from Ads

---2016/08/26 16:07:01---
Ehhhzylo has received 1 Black Skirt (G) from Ads

---2016/08/28 12:10:06---
Ehhhzylo has given 69 Zulrah'S Scales to Inflexion

---2016/08/28 12:38:21---
Ehhhzylo has received 8000 Dragon Dart from Fissure

---2016/08/28 12:40:19---
Ehhhzylo has given 1 Dark Crab to Fissure
Ehhhzylo has given 100 Coins to Fissure

---2016/08/28 12:40:19---
Ehhhzylo has received 1 White Partyhat from Fissure

---2016/08/28 12:46:37---
Ehhhzylo has received 1 3rd Age Kiteshield from Fissure
Ehhhzylo has received 1 3rd Age Platelegs from Fissure
Ehhhzylo has received 1 3rd Age Platebody from Fissure
Ehhhzylo has received 1 3rd Age Full Helmet from Fissure

---2016/08/28 12:50:50---
Ehhhzylo has received 1 3rd Age Robe Top from Fissure
Ehhhzylo has received 1 3rd Age Robe from Fissure
Ehhhzylo has received 1 3rd Age Mage Hat from Fissure
Ehhhzylo has received 1 3rd Age Amulet from Fissure

---2016/08/28 12:51:16---
Ehhhzylo has received 1 Elysian Spirit Shield from Fissure

---2016/08/28 12:53:06---
Ehhhzylo has received 1 Blue Partyhat from Fissure

---2016/08/28 12:59:41---
Ehhhzylo has given 2 Karil'S Leathertop to Zylos Mule
Ehhhzylo has given 1 Karil'S Leatherskirt to Zylos Mule
Ehhhzylo has given 2 Torag'S Helm to Zylos Mule
Ehhhzylo has given 1 Torag'S Hammers to Zylos Mule
Ehhhzylo has given 2 Torag'S Platebody to Zylos Mule
Ehhhzylo has given 2 Torag'S Platelegs to Zylos Mule
Ehhhzylo has given 2 Verac'S Helm to Zylos Mule
Ehhhzylo has given 2 Verac'S Flail to Zylos Mule
Ehhhzylo has given 2 Verac'S Brassard to Zylos Mule
Ehhhzylo has given 1 Verac'S Plateskirt to Zylos Mule
Ehhhzylo has given 10 Loop Half Of Key to Zylos Mule
Ehhhzylo has given 2 Ahrim'S Hood to Zylos Mule
Ehhhzylo has given 2 Ahrim'S Staff to Zylos Mule
Ehhhzylo has given 2 Ahrim'S Robetop to Zylos Mule
Ehhhzylo has given 1 3rd Age Amulet to Zylos Mule
Ehhhzylo has given 2 Ahrim'S Robeskirt to Zylos Mule
Ehhhzylo has given 2 Dharok'S Helm to Zylos Mule
Ehhhzylo has given 2 Dharok'S Greataxe to Zylos Mule
Ehhhzylo has given 1 3rd Age Full Helmet to Zylos Mule
Ehhhzylo has given 2 Dharok'S Platebody to Zylos Mule
Ehhhzylo has given 1 3rd Age Kiteshield to Zylos Mule
Ehhhzylo has given 2 Dharok'S Platelegs to Zylos Mule
Ehhhzylo has given 2 Guthan'S Helm to Zylos Mule
Ehhhzylo has given 2 Guthan'S Warspear to Zylos Mule
Ehhhzylo has given 2 Guthan'S Platebody to Zylos Mule
Ehhhzylo has given 2 Guthan'S Chainskirt to Zylos Mule
Ehhhzylo has given 2 Karil'S Coif to Zylos Mule
Ehhhzylo has given 2 Karil'S Crossbow to Zylos Mule

---2016/08/28 13:14:38---
Ehhhzylo has given 1 3rd Age Mage Hat to Nick
Ehhhzylo has given 8000 Dragon Dart to Nick

---2016/08/28 13:24:29---
Ehhhzylo has given 1 Blue Partyhat to Nick
Ehhhzylo has given 1 3rd Age Robe Top to Nick
Ehhhzylo has given 1 3rd Age Robe to Nick
Ehhhzylo has given 1 White Partyhat to Nick
Ehhhzylo has given 1 3rd Age Platelegs to Nick
Ehhhzylo has given 1 3rd Age Platebody to Nick

---2016/08/28 13:25:28---
Ehhhzylo has given 1 Elysian Spirit Shield to Nick

---2016/08/28 16:59:20---
Ehhhzylo has given 350000000 Coins to Nick Ger

---2016/08/28 16:59:20---
Ehhhzylo has received 1 White Partyhat from Nick Ger

---2016/08/28 17:00:46---
Ehhhzylo has received 20000000 Coins from Matt

---2016/08/28 17:00:46---
Ehhhzylo has given 10000 Zulrah'S Scales to Matt

---2016/08/29 00:19:49---
Ehhhzylo has received 1 Gilded Platelegs from Saradomin

---2016/08/29 00:26:28---
Ehhhzylo has given 1 Gilded Platelegs to Nick

---2016/08/29 00:38:00---
Ehhhzylo has received 50000000 Coins from Combat Drops

---2016/08/29 00:38:00---
Ehhhzylo has given 1 Bludgeon Claw to Combat Drops

---2016/08/29 12:46:56---
Ehhhzylo has given 100 Coins to Nick Ger

---2016/08/29 12:46:56---
Ehhhzylo has received 1 Ring Of The Drops from Nick Ger

---2016/08/29 12:58:20---
Ehhhzylo has given 1 Ring Of The Drops to Derek

---2016/08/30 20:17:18---
Ehhhzylo has given 1 Crystal Bow Full to Jeremy

---2016/08/30 21:15:10---
Ehhhzylo has received 50 Dragon Dart from Jeremy

---2016/08/30 21:15:10---
Ehhhzylo has given 400000 Coins to Jeremy

---2016/08/30 21:26:06---
Ehhhzylo has received 3 Crystal Key from Jeremy

---2016/08/30 21:26:06---
Ehhhzylo has given 3 Shark to Jeremy
Ehhhzylo has given 3000000 Coins to Jeremy

---2016/09/01 16:14:56---
Ehhhzylo has received 1 Onions(1) from 6969
