
---2016/08/09 11:19:55---
Eirik H has received 65000000 Coins from Ads

---2016/08/09 16:32:54---
Eirik H has received 35000000 Coins from Trapper

---2016/08/09 16:32:54---
Eirik H has given 1 Zamorakian Spear to Trapper

---2016/08/18 14:48:18---
Eirik H has received 37000000 Coins from Ehhhzylo
