
---2016/06/30 03:55:15---
Extfallen has received 1 Amulet Of Power from Talent
Extfallen has received 1 Diamond Ring from Talent

---2016/06/30 04:02:03---
Extfallen has given 1 Amulet Of Power to Zulrah
Extfallen has given 1 Diamond Ring to Zulrah

---2016/06/30 10:12:24---
Extfallen has given 25000 Coins to Nert

---2016/06/30 20:37:24---
Extfallen has received 750000 Coins from Derek

---2016/06/30 20:37:24---
Extfallen has given 1 Dharok'S Helm 0 to Derek

---2016/07/01 13:03:30---
Extfallen has given 1 Dragon Boots to Zulrah

---2016/07/01 13:03:30---
Extfallen has received 7000000 Coins from Zulrah

---2016/07/02 07:10:31---
Extfallen has given 1 Amulet Of Power to Bounce Up

---2016/07/02 07:42:09---
Extfallen has received 983000 Coins from Bounce Up

---2016/07/02 07:42:09---
Extfallen has given 1 Dragon Platelegs to Bounce Up

---2016/07/02 23:22:14---
Extfallen has given 1 Shark to Pressure

---2016/07/02 23:22:14---
Extfallen has received 1 Proselyte Hauberk from Pressure

---2016/07/02 23:37:53---
Extfallen has received 1 Dragon Boots from Pressure

---2016/07/03 06:46:09---
Extfallen has given 1000000 Coins to Euforia

---2016/07/03 06:46:09---
Extfallen has received 1 Karil'S Leathertop from Euforia

---2016/07/03 07:50:29---
Extfallen has received 1 Gold Bar from Nick

---2016/07/03 20:24:13---
Extfallen has given 2500000 Coins to Inflexion

---2016/07/03 20:24:13---
Extfallen has received 1 Karil'S Leathertop from Inflexion
Extfallen has received 1 Karil'S Leatherskirt from Inflexion

---2016/07/04 05:51:36---
Extfallen has received 1 Mystery Box from Jamian

---2016/07/04 07:54:10---
Extfallen has received 1 Ring Of Wealth from Slime

---2016/07/04 08:35:38---
Extfallen has received 1 Gold Bar from Slime

---2016/07/04 08:38:00---
Extfallen has received 1 Uncut Onyx from Bounce Up

---2016/07/04 08:40:53---
Extfallen has given 1 Amulet Of Fury to Bounce Up

---2016/07/04 08:40:53---
Extfallen has received 1 Frozen Whip Mix from Bounce Up
Extfallen has received 1 Red Elegant Shirt from Bounce Up

---2016/07/04 10:04:24---
Extfallen has received 1 Rapier from Nick

---2016/07/04 10:04:24---
Extfallen has given 45274407 Coins to Nick

---2016/07/05 09:42:31---
Extfallen has received 1 Abyssal Dagger from Bounce Up

---2016/07/05 10:39:37---
Extfallen has given 5 Shark to Bounce Up

---2016/07/05 10:40:23---
Extfallen has received 2 Shark from Bounce Up

---2016/07/05 10:46:14---
Extfallen has given 2 Shark to Bounce Up

---2016/07/05 10:53:01---
Extfallen has given 5 Shark to Bounce Up

---2016/07/05 11:02:32---
Extfallen has received 1 Dragon Boots from Bounce Up
Extfallen has received 1 Karil'S Leathertop from Bounce Up
Extfallen has received 1 Abyssal Dagger from Bounce Up
Extfallen has received 1 Ring Of Wealth from Bounce Up

---2016/07/06 11:03:13---
Extfallen has received 250002 Coins from Night Wisdom
Extfallen has received 5 Super Combat Potion(4) from Night Wisdom

---2016/07/06 11:04:15---
Extfallen has received 19990000 Coins from Bounce Up

---2016/07/06 11:04:15---
Extfallen has given 1 Abyssal Dagger to Bounce Up

---2016/07/06 11:43:02---
Extfallen has received 1 Abyssal Dagger from Bounce Up

---2016/07/06 11:49:18---
Extfallen has received 1 Guthan'S Chainskirt from Bounce Up

---2016/07/06 11:49:18---
Extfallen has given 19000000 Coins to Bounce Up

---2016/07/06 11:58:05---
Extfallen has received 1 Uncut Onyx from Bounce Up

---2016/07/06 12:02:06---
Extfallen has received 3 Gold Bar from Nick

---2016/07/06 12:04:51---
Extfallen has given 1 Amulet Of Fury to Bounce Up

---2016/07/06 12:20:51---
Extfallen has given 1 Karil'S Leathertop to White
Extfallen has given 1 Karil'S Leatherskirt to White
Extfallen has given 1 Dragon Claws to White

---2016/07/06 12:20:51---
Extfallen has received 1 Trident Of The Swamp from White

---2016/07/06 12:33:50---
Extfallen has received 1 Dragonfire Shield from Bounce Up

---2016/07/06 12:54:10---
Extfallen has given 1 Dragonfire Shield to Bounce Up

---2016/07/06 12:59:31---
Extfallen has received 4861 Fire Rune from The Bros 2

---2016/07/06 13:01:44---
Extfallen has received 1 Infinity Hat from Bounce Up
Extfallen has received 1 Mage'S Book from Bounce Up

---2016/07/06 13:01:44---
Extfallen has given 1 Master Wand to Bounce Up

---2016/07/06 13:09:25---
Extfallen has received 1 Green Elegant Shirt from Bounce Up
Extfallen has received 1 Green Elegant Legs from Bounce Up

---2016/07/06 13:09:53---
Extfallen has received 1 Gold Elegant Shirt from Bounce Up

---2016/07/06 13:09:53---
Extfallen has given 1 Green Elegant Shirt to Bounce Up
Extfallen has given 1 Green Elegant Legs to Bounce Up

---2016/07/06 13:10:16---
Extfallen has given 1 Gold Elegant Shirt to Bounce Up

---2016/07/06 13:11:59---
Extfallen has received 1 Diamond Ring from The Bros 2

---2016/07/07 05:28:03---
Extfallen has received 1 Ahrim'S Robetop 0 from Michael
Extfallen has received 1 Ahrim'S Robeskirt 0 from Michael

---2016/07/07 05:29:43---
Extfallen has received 1 Zamorak Page 1 from Michael
Extfallen has received 1 Zamorak Page 2 from Michael
Extfallen has received 1 Zamorak Page 3 from Michael
Extfallen has received 1 Zamorak Page 4 from Michael

---2016/07/07 05:33:43---
Extfallen has received 1 Frozen Abyssal Whip from 99whipping

---2016/07/07 05:33:43---
Extfallen has given 5 Crystal Key to 99whipping

---2016/07/07 05:39:09---
Extfallen has given 2 Crystal Key to 99whipping

---2016/07/07 05:39:09---
Extfallen has received 2 Frozen Whip Mix from 99whipping
Extfallen has received 4000000 Coins from 99whipping
Extfallen has received 9 Loop Half Of Key from 99whipping

---2016/07/07 05:40:34---
Extfallen has received 1 Black Wizard Robe (G) from 99whipping
Extfallen has received 1 Black Skirt (G) from 99whipping

---2016/07/07 05:40:34---
Extfallen has given 4000000 Coins to 99whipping

---2016/07/07 12:16:11---
Extfallen has received 1 Karil'S Leatherskirt from The Bros 2

---2016/07/07 12:17:38---
Extfallen has given 1 Serpentine Helm to The Bros 2

---2016/07/07 12:47:00---
Extfallen has received 1 Robin Hood Hat from Bounce Up

---2016/07/07 13:23:42---
Extfallen has received 1 Slayer Bell from Bounce Up

---2016/07/07 13:53:17---
Extfallen has received 1 Gilded Platelegs from White

---2016/07/07 13:53:17---
Extfallen has given 1 Frozen Abyssal Whip to White

---2016/07/07 14:07:59---
Extfallen has received 1 Serpentine Helm from The Bros 2

---2016/07/07 14:08:14---
Extfallen has given 1 Robin Hood Hat to Bounce Up

---2016/07/07 23:25:41---
Extfallen has given 300 Yew Longbow (U) to Kefun

---2016/07/08 01:31:53---
Extfallen has given 20000000 Coins to The Bros 2

---2016/07/08 01:31:53---
Extfallen has received 1 Primordial Boots from The Bros 2

---2016/07/08 02:28:01---
Extfallen has received 308000 Coins from Nocturne
Extfallen has received 1 Dragon Scimitar from Nocturne
Extfallen has received 1 Crystal Key from Nocturne

---2016/07/08 02:45:08---
Extfallen has given 1 Frozen Whip Mix to Bruce Lee
Extfallen has given 660 Bolt Rack to Bruce Lee
Extfallen has given 1 Crystal Key to Bruce Lee
Extfallen has given 1 Karil'S Crossbow to Bruce Lee

---2016/07/08 02:49:14---
Extfallen has given 1 Amulet Of Fury to 99whipping
Extfallen has given 1 Ring Of Wealth to 99whipping

---2016/07/08 02:56:18---
Extfallen has given 1 Dragon Boots to Pug
Extfallen has given 1 Frozen Whip Mix to Pug
Extfallen has given 1 Torag'S Helm to Pug

---2016/07/08 02:56:44---
Extfallen has given 1 Dragon Boots to Kefun
Extfallen has given 1 Guthan'S Chainskirt to Kefun
Extfallen has given 1 Dharok'S Helm to Kefun

---2016/07/08 03:13:29---
Extfallen has given 1 Rapier to Dbz

---2016/07/08 03:13:29---
Extfallen has received 50000000 Coins from Dbz

---2016/07/08 05:25:43---
Extfallen has given 1 Dragon Boots to Bay

---2016/07/08 05:25:43---
Extfallen has received 5000000 Coins from Bay

---2016/07/08 07:09:18---
Extfallen has received 4 Shark from Bounce Up

---2016/07/08 07:23:49---
Extfallen has received 2 Shark from Bounce Up
Extfallen has received 1 Chilli Potato from Bounce Up
Extfallen has received 1 Prayer Potion(1) from Bounce Up

---2016/07/08 07:26:07---
Extfallen has received 2 Shark from Bounce Up
Extfallen has received 2 Chilli Potato from Bounce Up

---2016/07/08 07:50:32---
Extfallen has received 2 Shark from Bounce Up
Extfallen has received 1 Prayer Potion(3) from Bounce Up

---2016/07/08 07:52:33---
Extfallen has received 2 Shark from Bounce Up
Extfallen has received 1 Chilli Potato from Bounce Up

---2016/07/08 08:02:11---
Extfallen has received 1 Dragonfire Shield from Bounce Up

---2016/07/08 08:28:18---
Extfallen has received 5 Shark from Bounce Up

---2016/07/08 08:39:01---
Extfallen has received 1 Prayer Potion(4) from Bounce Up

---2016/07/08 08:43:41---
Extfallen has given 1 Bandos Tassets to Bounce Up

---2016/07/08 08:44:04---
Extfallen has received 1 Bandos Tassets from Bounce Up

---2016/07/08 08:56:29---
Extfallen has received 3 Shark from Bounce Up

---2016/07/08 08:58:35---
Extfallen has received 1 Prayer Potion(1) from Bounce Up

---2016/07/08 09:01:36---
Extfallen has given 1 Bandos Chestplate to Bounce Up

---2016/07/08 09:06:02---
Extfallen has given 1 Dragonfire Shield to Bounce Up

---2016/07/08 09:09:16---
Extfallen has given 1 Dragon Pickaxe to The Bros 2

---2016/07/08 09:09:16---
Extfallen has received 20000000 Coins from The Bros 2

---2016/07/08 11:55:28---
Extfallen has given 1 Bandos Tassets to Bounce Up

---2016/07/08 11:56:01---
Extfallen has given 1 Red Dragon Mask to Bounce Up

---2016/07/08 11:56:38---
Extfallen has received 1 Bandos Tassets from Bounce Up

---2016/07/08 11:58:21---
Extfallen has received 1 Ranger Boots from Bounce Up
Extfallen has received 1 Armadyl Chestplate from Bounce Up
Extfallen has received 1 Robin Hood Hat from Bounce Up
Extfallen has received 1 Toxic Blowpipe from Bounce Up

---2016/07/08 11:58:21---
Extfallen has given 1 Abyssal Dagger to Bounce Up
Extfallen has given 1 Serpentine Helm to Bounce Up
Extfallen has given 1 Primordial Boots to Bounce Up
Extfallen has given 1 Bandos Tassets to Bounce Up

---2016/07/08 11:58:51---
Extfallen has given 1 Toxic Blowpipe to Bounce Up

---2016/07/08 11:59:10---
Extfallen has received 9575 Zulrah'S Scales from Bounce Up
Extfallen has received 1 Toxic Blowpipe (Empty) from Bounce Up
Extfallen has received 8941 Dragon Dart from Bounce Up

---2016/07/08 12:07:35---
Extfallen has received 2 Shark from Bounce Up

---2016/07/08 12:19:29---
Extfallen has given 2 Shark to Bounce Up
Extfallen has given 3 Chilli Potato to Bounce Up

---2016/07/08 12:27:44---
Extfallen has given 8 Shark to Bounce Up

---2016/07/08 12:40:39---
Extfallen has given 4 Shark to Bounce Up

---2016/07/08 12:44:16---
Extfallen has received 1 Abyssal Dagger from Bounce Up
Extfallen has received 1 Serpentine Helm from Bounce Up
Extfallen has received 1 Dragonfire Shield from Bounce Up
Extfallen has received 1 Primordial Boots from Bounce Up
Extfallen has received 1 Bandos Chestplate from Bounce Up

---2016/07/08 12:44:16---
Extfallen has given 1 Ranger Boots to Bounce Up
Extfallen has given 1 Armadyl Chestplate to Bounce Up
Extfallen has given 1 Robin Hood Hat to Bounce Up
Extfallen has given 10958 Zulrah'S Scales to Bounce Up
Extfallen has given 1 Toxic Blowpipe (Empty) to Bounce Up
Extfallen has given 10242 Dragon Dart to Bounce Up

---2016/07/08 12:45:32---
Extfallen has received 15 Super Combat Potion(4) from Bounce Up
Extfallen has received 4 Super Combat Potion(3) from Bounce Up
Extfallen has received 9 Super Combat Potion(2) from Bounce Up
Extfallen has received 7 Super Combat Potion(1) from Bounce Up

---2016/07/08 13:31:51---
Extfallen has given 6 Shark to Bounce Up

---2016/07/08 13:41:08---
Extfallen has given 5 Shark to Bounce Up

---2016/07/08 13:50:41---
Extfallen has given 1 Abyssal Dagger to Bounce Up
Extfallen has given 1 Dragonfire Shield to Bounce Up

---2016/07/08 21:44:28---
Extfallen has received 1 Abyssal Dagger from Bounce Up

---2016/07/09 13:17:06---
Extfallen has received 100000000 Coins from The Bros 2

---2016/07/09 13:17:06---
Extfallen has given 1 Abyssal Dagger to The Bros 2

---2016/07/09 14:53:34---
Extfallen has given 2 Loop Half Of Key to Floid

---2016/07/09 14:53:34---
Extfallen has received 2 Tooth Half Of Key from Floid

---2016/07/09 15:38:25---
Extfallen has received 1 Crystal Bow Full from Bounce Up

---2016/07/09 16:28:53---
Extfallen has received 1 Kraken Tentacle from Bounce Up

---2016/07/09 16:32:03---
Extfallen has given 1 Crystal Bow Full to Bounce Up
Extfallen has given 1 Bandos Chestplate to Bounce Up

---2016/07/10 01:23:42---
Extfallen has received 1 Crystal Bow Full from Bounce Up

---2016/07/10 03:39:44---
Extfallen has received 1000000 Coins from Bounce Up

---2016/07/10 03:48:27---
Extfallen has received 1 Dragonfire Shield from Bounce Up
Extfallen has received 1 Bandos Chestplate from Bounce Up

---2016/07/10 04:02:16---
Extfallen has given 1 Dragonfire Shield to Bounce Up
Extfallen has given 1 Bandos Chestplate to Bounce Up

---2016/07/10 04:05:39---
Extfallen has received 1 Kraken Tentacle from Goten

---2016/07/10 04:06:39---
Extfallen has received 1 Abyssal Dagger from Nathan

---2016/07/10 04:06:39---
Extfallen has given 55000000 Coins to Nathan

---2016/07/10 04:08:42---
Extfallen has received 1 Bandos Chestplate from Bounce Up

---2016/07/10 04:08:42---
Extfallen has given 1 Kraken Tentacle to Bounce Up

---2016/07/10 12:00:36---
Extfallen has received 1 Dragonfire Shield from Bounce Up
Extfallen has received 1 Blue Halloween Mask from Bounce Up

---2016/07/10 12:01:30---
Extfallen has received 1 Red Halloween Mask from Bounce Up

---2016/07/10 12:02:15---
Extfallen has given 1 Red Halloween Mask to Bounce Up
Extfallen has given 1 Blue Halloween Mask to Bounce Up

---2016/07/10 12:02:58---
Extfallen has received 1 Red Halloween Mask from Bounce Up

---2016/07/10 12:04:13---
Extfallen has received 1 Dragon Claws from Bounce Up

---2016/07/10 12:05:18---
Extfallen has given 1 Dragon Claws to Bounce Up

---2016/07/10 12:47:55---
Extfallen has given 1 Bandos Chestplate to Bounce Up

---2016/07/10 13:22:34---
Extfallen has received 100 Zulrah'S Scales from Bounce Up

---2016/07/10 16:23:33---
Extfallen has given 8000000 Coins to Nick

---2016/07/10 16:23:33---
Extfallen has received 365 Raw Shark from Nick
Extfallen has received 406 Raw Dark Crab from Nick

---2016/07/10 16:32:52---
Extfallen has received 319 Raw Shark from Bounce Up
Extfallen has received 32 Raw Anchovies from Bounce Up
Extfallen has received 43 Raw Swordfish from Bounce Up
Extfallen has received 109 Raw Tuna from Bounce Up
Extfallen has received 53 Raw Monkfish from Bounce Up
Extfallen has received 71 Raw Shrimps from Bounce Up

---2016/07/10 16:42:03---
Extfallen has received 63 Dark Crab from Bounce Up

---2016/07/10 16:48:46---
Extfallen has received 1 Dragon Boots from Bounce Up

---2016/07/10 16:49:08---
Extfallen has received 1 Amulet Of Fury from Bounce Up

---2016/07/10 16:53:10---
Extfallen has received 15000000 Coins from Bounce Up

---2016/07/10 17:01:36---
Extfallen has received 67669467 Coins from Bounce Up

---2016/07/10 17:02:13---
Extfallen has received 1 Dragon Boots from Bounce Up

---2016/07/10 17:07:39---
Extfallen has given 1 Abyssal Whip to Mr Barrows

---2016/07/10 17:07:39---
Extfallen has received 10000000 Coins from Mr Barrows

---2016/07/10 17:21:08---
Extfallen has given 1 Abyssal Whip to Mr Barrows

---2016/07/10 17:21:08---
Extfallen has received 10000000 Coins from Mr Barrows

---2016/07/10 17:24:26---
Extfallen has given 25000000 Coins to Bounce Up
Extfallen has given 1 Santa Hat to Bounce Up

---2016/07/10 17:25:19---
Extfallen has given 10000000 Coins to Mr Barrows
Extfallen has given 1 Abyssal Whip to Mr Barrows

---2016/07/10 17:25:19---
Extfallen has received 2 Amulet Of Fury from Mr Barrows

---2016/07/10 17:25:59---
Extfallen has given 1 Amulet Of Fury to Bounce Up

---2016/07/10 17:27:47---
Extfallen has given 1 Berserker Ring to Bounce Up

---2016/07/11 01:27:02---
Extfallen has given 1020000 Coins to Zulrah

---2016/07/11 01:27:02---
Extfallen has received 102 Raw Shark from Zulrah

---2016/07/11 06:46:19---
Extfallen has given 83 Raw Shark to Bounce Up
Extfallen has given 32 Raw Anchovies to Bounce Up
Extfallen has given 43 Raw Swordfish to Bounce Up
Extfallen has given 109 Raw Tuna to Bounce Up
Extfallen has given 53 Raw Monkfish to Bounce Up
Extfallen has given 71 Raw Shrimps to Bounce Up

---2016/07/11 12:25:01---
Extfallen has given 3 Dark Crab to Bounce Up

---2016/07/11 12:39:01---
Extfallen has received 1 Armadyl Chestplate from Bounce Up

---2016/07/11 12:53:27---
Extfallen has given 1 Dark Crab to Bounce Up

---2016/07/11 15:20:07---
Extfallen has given 9000000 Coins to The Bros 2

---2016/07/11 15:20:07---
Extfallen has received 260 Raw Anglerfish from The Bros 2
Extfallen has received 275 Raw Dark Crab from The Bros 2

---2016/07/11 16:09:49---
Extfallen has given 4 Dark Crab to Bounce Up

---2016/07/12 01:46:43---
Extfallen has received 87 Lava Dragon Bones from Bones

---2016/07/12 01:46:43---
Extfallen has given 12000000 Coins to Bones

---2016/07/12 02:13:46---
Extfallen has received 1 Dragonfire Shield from Michael
Extfallen has received 1 Crystal Halberd Full from Michael
Extfallen has received 2 Volcanic Abyssal Whip from Michael
Extfallen has received 1 Frozen Abyssal Whip from Michael
Extfallen has received 1 Rapier from Michael
Extfallen has received 1 Infernal Pickaxe from Michael

---2016/07/12 02:25:22---
Extfallen has received 2 Dharok'S Platebody from Michael
Extfallen has received 1 Dragon Full Helm (G) from Michael
Extfallen has received 1 Crystal Shield Full from Michael
Extfallen has received 2 Dharok'S Platelegs from Michael
Extfallen has received 1 Dragonfire Shield from Michael
Extfallen has received 1 Slayer Helmet (I) from Michael
Extfallen has received 2 Dharok'S Helm from Michael
Extfallen has received 1 Dragon Chainbody (G) from Michael
Extfallen has received 2 Dharok'S Greataxe from Michael
Extfallen has received 1 Dragon Platelegs (G) from Michael

---2016/07/12 03:15:29---
Extfallen has given 1 Volcanic Abyssal Whip to Gyazo

---2016/07/12 03:26:38---
Extfallen has given 1 Dragonfire Shield to Euforia

---2016/07/12 03:26:38---
Extfallen has received 15000000 Coins from Euforia

---2016/07/12 03:47:41---
Extfallen has received 50000000 Coins from Legend

---2016/07/12 05:01:52---
Extfallen has received 1 Dragonfire Shield from Euforia

---2016/07/12 05:01:52---
Extfallen has given 15000000 Coins to Euforia

---2016/07/12 05:26:59---
Extfallen has given 1 Slayer Helmet (I) to Bounce Up

---2016/07/12 08:04:01---
Extfallen has given 1 Dharok'S Platebody to Euforia
Extfallen has given 1 Dharok'S Platelegs to Euforia
Extfallen has given 1 Dharok'S Helm to Euforia
Extfallen has given 1 Dharok'S Greataxe to Euforia

---2016/07/12 08:04:01---
Extfallen has received 20000000 Coins from Euforia

---2016/07/12 12:22:56---
Extfallen has given 1 Abyssal Tentacle to Bounce Up
Extfallen has given 1 Primordial Boots to Bounce Up

---2016/07/13 13:38:07---
Extfallen has given 105 Babydragon Bones to Facebook

---2016/07/13 13:38:20---
Extfallen has received 1 Monkfish from Life

---2016/07/13 13:38:20---
Extfallen has given 104 Babydragon Bones to Life

---2016/07/13 13:39:16---
Extfallen has received 1 Monkfish from Life

---2016/07/13 13:39:16---
Extfallen has given 1 Dragon Boots to Life

---2016/07/13 13:40:45---
Extfallen has given 1 Dragon Boots to Facebook

---2016/07/13 13:55:07---
Extfallen has given 1 Primordial Boots to Bounce Up
Extfallen has given 1 Amulet Of Fury to Bounce Up
Extfallen has given 1 Bandos Tassets to Bounce Up

---2016/07/13 13:57:47---
Extfallen has given 22000000 Coins to Bounce Up

---2016/07/13 15:20:19---
Extfallen has given 1 Abyssal Head to V3leh0

---2016/07/13 15:35:13---
Extfallen has received 1 Armadyl Chainskirt from Dabs

---2016/07/13 15:35:13---
Extfallen has given 60000000 Coins to Dabs

---2016/07/14 00:05:47---
Extfallen has received 35000000 Coins from Mr Barrows

---2016/07/14 00:05:47---
Extfallen has given 1 Dragonfire Shield to Mr Barrows
Extfallen has given 1 Volcanic Abyssal Whip to Mr Barrows
Extfallen has given 1 Frozen Abyssal Whip to Mr Barrows

---2016/07/14 01:22:13---
Extfallen has given 1 Ring Of Wealth to Dalby

---2016/07/14 01:25:04---
Extfallen has given 500 Nature Rune to Dalby
Extfallen has given 2500 Fire Rune to Dalby

---2016/07/14 03:54:59---
Extfallen has received 1 Slayer Helmet (I) from Bounce Up

---2016/07/14 04:42:12---
Extfallen has received 5 Shark from Bounce Up

---2016/07/15 01:03:55---
Extfallen has received 1 Uncut Onyx from Dalby

---2016/07/15 01:04:43---
Extfallen has received 1 Coins from Inflexion
Extfallen has received 1 Gold Bar from Inflexion

---2016/07/15 01:12:17---
Extfallen has received 11000000 Coins from Inflexion

---2016/07/15 01:12:17---
Extfallen has given 1 Karil'S Leathertop to Inflexion
Extfallen has given 1 Karil'S Leatherskirt to Inflexion
Extfallen has given 1 Gilded Platelegs to Inflexion

---2016/07/15 01:13:08---
Extfallen has received 1 Dragon Warhammer from Pfraru

---2016/07/15 01:13:08---
Extfallen has given 1 Monkey Tail to Pfraru

---2016/07/15 01:19:32---
Extfallen has given 1 Amulet Of Fury to Dalby

---2016/07/15 01:35:44---
Extfallen has received 64000064 Coins from Serci

---2016/07/15 01:35:44---
Extfallen has given 1 Dragonfire Shield to Serci
Extfallen has given 1 Rapier to Serci

---2016/07/15 02:11:17---
Extfallen has received 1 $5 Bond from Mark Donalds

---2016/07/15 02:11:17---
Extfallen has given 30000000 Coins to Mark Donalds

---2016/07/15 02:41:30---
Extfallen has given 75 Dark Crab to Inflexion

---2016/07/15 02:44:06---
Extfallen has given 1 Abyssal Dagger to Inflexion
Extfallen has given 1 Armadyl Chestplate to Inflexion
Extfallen has given 1 Armadyl Chainskirt to Inflexion

---2016/07/15 02:48:35---
Extfallen has received 1 Abyssal Tentacle from Inflexion

---2016/07/15 05:43:33---
Extfallen has given 1 Abyssal Tentacle to Bounce Up

---2016/07/15 05:48:38---
Extfallen has given 1 Trident Of The Swamp to Relax

---2016/07/15 06:23:46---
Extfallen has received 1 Abyssal Dagger from Bounce Up
Extfallen has received 1 Serpentine Helm from Bounce Up
Extfallen has received 1 Primordial Boots from Bounce Up
Extfallen has received 1 Bandos Chestplate from Bounce Up
Extfallen has received 1 Bandos Tassets from Bounce Up

---2016/07/16 02:03:18---
Extfallen has given 1 Dragon Med Helm to Shreadmaster

---2016/07/16 02:04:28---
Extfallen has given 1 Black Wizard Robe (G) to Shreadmaster
Extfallen has given 1 Black Wizard Robe (T) to Shreadmaster
Extfallen has given 1 Black Wizard Hat (T) to Shreadmaster
Extfallen has given 1 Gilded Platebody to Shreadmaster
Extfallen has given 1 Black Skirt (G) to Shreadmaster
Extfallen has given 1 Black Skirt (T) to Shreadmaster

---2016/07/16 02:20:12---
Extfallen has given 1 Abyssal Dagger to Inflexion
Extfallen has given 1 Serpentine Helm to Inflexion
Extfallen has given 1 Bandos Chestplate to Inflexion

---2016/08/01 06:11:58---
Extfallen has received 1 Crystal Seed from Dalby
