
---2016/07/13 13:38:07---
Facebook has received 105 Babydragon Bones from Extfallen

---2016/07/13 13:40:45---
Facebook has received 1 Dragon Boots from Extfallen

---2016/07/27 17:30:38---
Facebook has given 1 Uncut Onyx to Ushio

---2016/07/27 17:30:38---
Facebook has received 1 Amulet Of Fury from Ushio

---2016/07/27 18:28:14---
Facebook has given 3 Tooth Half Of Key to Tuckah

---2016/07/27 18:28:14---
Facebook has received 1500000 Coins from Tuckah

---2016/07/27 19:06:48---
Facebook has given 1500000 Coins to Tuckah

---2016/07/27 19:06:48---
Facebook has received 1 Ahrim'S Robetop from Tuckah

---2016/07/28 06:11:59---
Facebook has received 10 Cosmic Rune from Derek

---2016/07/28 06:42:45---
Facebook has received 1 Dragonfire Shield from Derek123

---2016/07/31 04:43:28---
Facebook has given 9528 Zulrah'S Scales to Inflexion

---2016/07/31 04:43:28---
Facebook has received 14292000 Coins from Inflexion

---2016/07/31 04:48:27---
Facebook has given 4000000 Coins to Duracell33

---2016/07/31 04:48:27---
Facebook has received 1 Karil'S Leathertop from Duracell33

---2016/07/31 05:37:04---
Facebook has given 1 Dragonfire Shield to Hunter

---2016/07/31 05:37:04---
Facebook has received 15000000 Coins from Hunter

---2016/07/31 10:37:19---
Facebook has given 10000 Zulrah'S Scales to Hunter

---2016/07/31 10:37:19---
Facebook has received 15000000 Coins from Hunter

---2016/08/02 16:32:11---
Facebook has given 1 Dharok'S Greataxe to Jesusfcksyou

---2016/08/02 16:32:11---
Facebook has received 4000000 Coins from Jesusfcksyou

---2016/08/04 13:03:38---
Facebook has received 7064 Zulrah'S Scales from Beyblades
Facebook has received 1 Abyssal Whip from Beyblades
Facebook has received 1 Amulet Of Fury from Beyblades
Facebook has received 1 Odium Shard 2 from Beyblades
Facebook has received 1 Archers Ring from Beyblades

---2016/08/04 13:03:38---
Facebook has given 1 Heavy Ballista to Beyblades

---2016/08/04 14:42:55---
Facebook has given 1 Abyssal Whip to Omerata

---2016/08/04 14:42:55---
Facebook has received 15000000 Coins from Omerata

---2016/08/04 15:09:50---
Facebook has given 70774145 Coins to Beyblades
Facebook has given 1 Zenyte Shard to Beyblades
Facebook has given 1 Odium Shard 2 to Beyblades
Facebook has given 1 Monkey Tail to Beyblades

---2016/08/04 15:09:50---
Facebook has received 1 Toxic Blowpipe from Beyblades

---2016/08/04 15:29:40---
Facebook has received 5000000 Coins from Beyblades

---2016/08/04 15:29:40---
Facebook has given 1 Amulet Of Fury to Beyblades

---2016/08/06 13:19:49---
Facebook has given 1 Kbd Heads to Deadkid

---2016/08/06 15:47:13---
Facebook has given 1 Amulet Of Power to Doodat11
Facebook has given 1 Diamond Ring to Doodat11

---2016/08/06 15:50:16---
Facebook has received 1 Amulet Of Power from Doodat11
Facebook has received 1 Diamond Ring from Doodat11

---2016/08/06 16:18:47---
Facebook has received 1 Uncut Onyx from Doodat11
Facebook has received 1 Ball Of Wool from Doodat11

---2016/08/06 16:19:43---
Facebook has given 1 Amulet Of Fury to Doodat11

---2016/08/06 16:20:04---
Facebook has received 1 Infinity Top from Doodat11

---2016/08/07 03:41:47---
Facebook has received 1 Dharok'S Platebody from Qp
Facebook has received 4 Shield Right Half from Qp
Facebook has received 1 Master Wand from Qp
Facebook has received 934 Shark from Qp
Facebook has received 481 Prayer Potion(4) from Qp
Facebook has received 18907671 Coins from Qp
Facebook has received 30 Super Combat Potion(4) from Qp
Facebook has received 31 Zul-Andra Teleport from Qp
Facebook has received 64 Monkfish from Qp
Facebook has received 1 Loop Half Of Key from Qp
Facebook has received 1 Shield Left Half from Qp

---2016/08/07 03:42:37---
Facebook has given 4 Shield Right Half to Alexander
Facebook has given 10 Super Restore(4) to Alexander
Facebook has given 1 Dharok'S Platebody to Alexander
Facebook has given 934 Shark to Alexander
Facebook has given 1 Master Wand to Alexander
Facebook has given 18907671 Coins to Alexander
Facebook has given 481 Prayer Potion(4) to Alexander
Facebook has given 30 Super Combat Potion(4) to Alexander
Facebook has given 31 Zul-Andra Teleport to Alexander
Facebook has given 64 Monkfish to Alexander
Facebook has given 1 Loop Half Of Key to Alexander
Facebook has given 1 Shield Left Half to Alexander

---2016/08/07 03:55:43---
Facebook has given 1 Abyssal Head to Anthony123

---2016/08/08 12:49:32---
Facebook has received 1 Infinity Bottoms from Dalby

---2016/08/08 12:49:32---
Facebook has given 4000000 Coins to Dalby

---2016/08/10 06:47:45---
Facebook has given 20000 Zulrah'S Scales to Views

---2016/08/10 06:47:45---
Facebook has received 40000000 Coins from Views

---2016/08/10 09:54:07---
Facebook has given 1 Crystal Bow Full to Rolex

---2016/08/10 11:17:18---
Facebook has given 1 Crystal Halberd Full to The Bros 2

---2016/08/10 11:17:18---
Facebook has received 15000000 Coins from The Bros 2

---2016/08/12 04:15:57---
Facebook has given 1 Amulet Of Fury to Boats

---2016/08/12 04:15:57---
Facebook has received 2 Onyx from Boats

---2016/08/12 04:18:40---
Facebook has given 1 Smouldering Stone to Anthony123

---2016/08/12 04:18:40---
Facebook has received 10000000 Coins from Anthony123

---2016/08/13 03:05:27---
Facebook has given 55000000 Coins to I Need Claws

---2016/08/13 03:05:27---
Facebook has received 1 Pegasian Crystal from I Need Claws

---2016/08/15 03:58:31---
Facebook has received 50000000 Coins from Range Owns6

---2016/08/15 03:58:31---
Facebook has given 1 Amulet Of Torture to Range Owns6

---2016/08/15 04:03:33---
Facebook has received 30000000 Coins from Dwiz

---2016/08/15 04:03:33---
Facebook has given 1 Heavy Ballista to Dwiz

---2016/08/15 04:04:04---
Facebook has given 1 Heavy Ballista to Matt

---2016/08/15 04:04:04---
Facebook has received 30000000 Coins from Matt

---2016/08/15 04:07:39---
Facebook has received 1 Armadyl Chainskirt from Range Owns6

---2016/08/15 04:07:39---
Facebook has given 55000000 Coins to Range Owns6

---2016/08/15 05:39:17---
Facebook has given 1 Slayer Bell to Pksir

---2016/08/15 05:47:44---
Facebook has given 10000000 Coins to Pksir

---2016/08/15 05:50:27---
Facebook has given 1 Ahrim'S Staff 0 to Graco
Facebook has given 1 Dharok'S Platelegs 0 to Graco
Facebook has given 1 Ahrim'S Hood 0 to Graco
Facebook has given 1 Torag'S Platelegs 0 to Graco
Facebook has given 1 Ahrim'S Robeskirt 0 to Graco

---2016/08/15 06:06:33---
Facebook has given 1 Monkey Nuts to Defence Pro1

---2016/08/15 06:11:11---
Facebook has received 1 Ring Mould from Pksir
Facebook has received 1 Amulet Mould from Pksir

---2016/08/15 06:11:11---
Facebook has given 1 Amulet Of Power to Pksir
Facebook has given 1 Diamond Ring to Pksir

---2016/08/15 08:41:52---
Facebook has given 1 Pegasian Boots to Graco

---2016/08/15 08:41:52---
Facebook has received 110000000 Coins from Graco

---2016/08/15 08:52:32---
Facebook has given 120000000 Coins to Views

---2016/08/15 08:52:32---
Facebook has received 1 Armadyl Chestplate from Views
