
---2016/08/09 21:15:15---
Fade has received 1 Shark from Insanityk

---2016/08/17 00:59:01---
Fade has given 1 Abyssal Bludgeon to John

---2016/08/17 00:59:01---
Fade has received 50000000 Coins from John
