
---2016/06/30 00:02:22---
Farshooter23 has received 250000 Coins from Bars

---2016/06/30 00:27:27---
Farshooter23 has received 250000 Coins from Barz

---2016/06/30 00:28:07---
Farshooter23 has received 250000 Coins from Barzs

---2016/06/30 00:28:38---
Farshooter23 has received 250000 Coins from Barzs1

---2016/06/30 00:29:22---
Farshooter23 has given 1000000 Coins to Zulrah

---2016/06/30 00:29:22---
Farshooter23 has received 1 Ring Of Wealth from Zulrah

---2016/08/03 02:26:39---
Farshooter23 has received 1 Crystal Bow Full from Staines

---2016/08/03 02:26:39---
Farshooter23 has given 1 Kbd Heads to Staines
