
---2016/07/20 21:02:15---
Fez has given 2 Nature Rune to Tor
Fez has given 2147483646 Red Halloween Mask to Tor
Fez has given 2147483646 3rd Age Cloak to Tor
Fez has given 2147483646 3rd Age Bow to Tor
Fez has given 2147483646 Bandos Tassets to Tor
Fez has given 2147483644 3rd Age Full Helmet to Tor
Fez has given 2147483646 3rd Age Range Coif to Tor

---2016/07/23 10:01:31---
Fez has received 2750000 Coins from Shreadmaster

---2016/07/23 10:01:31---
Fez has given 1835 Zulrah'S Scales to Shreadmaster

---2016/07/23 10:02:10---
Fez has given 501000 Coins to Shreadmaster

---2016/07/23 10:02:10---
Fez has received 1 Ring Of Wealth from Shreadmaster

---2016/07/23 10:55:52---
Fez has given 3629 Zulrah'S Scales to Shreadmaster

---2016/07/23 10:55:52---
Fez has received 5400000 Coins from Shreadmaster

---2016/07/24 02:24:47---
Fez has received 846000 Coins from Duracell33

---2016/07/24 02:24:47---
Fez has given 423 Pure Essence to Duracell33

---2016/07/24 05:01:48---
Fez has received 1 Amulet Of Power from Hellbent

---2016/07/24 05:02:18---
Fez has received 1 Banana from Zypo

---2016/07/24 05:10:40---
Fez has received 1 Diamond Ring from Uzi

---2016/07/24 05:48:44---
Fez has given 2138 Zulrah'S Scales to Zulrah

---2016/07/24 05:48:44---
Fez has received 3207000 Coins from Zulrah

---2016/07/24 05:51:45---
Fez has received 1 Book On Baxtorian from Tor

---2016/07/24 05:51:45---
Fez has given 1 Dragon Pickaxe Upgrade Kit to Tor
Fez has given 11665275 Coins to Tor
Fez has given 1 Abyssal Whip to Tor
Fez has given 17 Zul-Andra Teleport to Tor
Fez has given 1 Dragon Full Helm Ornament Kit to Tor

---2016/07/24 05:59:18---
Fez has received 10 Prayer Potion(4) from Tor

---2016/07/24 06:13:55---
Fez has received 1 Amulet Of Fury from Tor

---2016/07/24 06:13:55---
Fez has given 1 Impling Jar to Tor
Fez has given 1 Onyx to Tor

---2016/07/24 07:16:27---
Fez has received 1 Dragon Pickaxe Upgrade Kit from Tor
Fez has received 11700000 Coins from Tor
Fez has received 1 Abyssal Whip from Tor
Fez has received 17 Zul-Andra Teleport from Tor
Fez has received 1 Dragon Full Helm Ornament Kit from Tor

---2016/07/24 07:16:27---
Fez has given 1 Book On Baxtorian to Tor

---2016/07/24 21:56:09---
Fez has given 1 Dragon Pickaxe Upgrade Kit to Zulrah
Fez has given 20132595 Coins to Zulrah
Fez has given 1 Abyssal Whip to Zulrah
Fez has given 1 Slayer Bell to Zulrah
Fez has given 2 Onyx to Zulrah

---2016/07/24 21:56:09---
Fez has received 1 Book On Baxtorian from Zulrah

---2016/07/24 22:29:55---
Fez has given 1 Dragon Pickaxe Upgrade Kit to Zulrah
Fez has given 17685044 Coins to Zulrah
Fez has given 1 Abyssal Whip to Zulrah
Fez has given 2 Onyx to Zulrah

---2016/07/24 22:29:55---
Fez has received 1 Book On Baxtorian from Zulrah

---2016/07/26 08:47:13---
Fez has received 14190855 Coins from Kittyhello

---2016/07/26 08:47:13---
Fez has given 12632 Zulrah'S Scales to Kittyhello

---2016/07/26 09:12:25---
Fez has given 3000000 Coins to Lol Omg

---2016/07/26 09:12:25---
Fez has received 1 Dragon Boots from Lol Omg

---2016/07/26 21:48:09---
Fez has given 1 Crystal Shield Full to Kefun

---2016/07/27 23:33:41---
Fez has received 1 Donator Boss Book from Bruce Lee

---2016/07/27 23:34:21---
Fez has given 1 Donator Boss Book to Bruce Lee

---2016/07/28 00:19:06---
Fez has received 10000000 Coins from Zulrah

---2016/07/28 00:19:06---
Fez has given 1 Magic Fang to Zulrah

---2016/07/28 07:03:35---
Fez has received 1 Dharok'S Platelegs from Derek

---2016/07/28 07:04:28---
Fez has received 1 Dharok'S Platebody from Derek123
Fez has received 1 Dharok'S Helm from Derek123
Fez has received 1 Dharok'S Greataxe from Derek123

---2016/07/28 07:56:24---
Fez has received 20 Crystal Key from Lawendy

---2016/07/28 07:56:24---
Fez has given 22304573 Coins to Lawendy

---2016/07/29 22:55:41---
Fez has given 2194620 Coins to Tuckah
Fez has given 5000 Zulrah'S Scales to Tuckah

---2016/07/29 22:55:41---
Fez has received 242 Anglerfish from Tuckah

---2016/07/30 02:14:10---
Fez has received 6000000 Coins from Bruce Lee

---2016/07/30 02:14:10---
Fez has given 1 Malediction Shard 1 to Bruce Lee

---2016/07/30 05:27:26---
Fez has given 1 Loop Half Of Key to Wcec

---2016/07/30 05:27:26---
Fez has received 1 Tooth Half Of Key from Wcec

---2016/07/30 23:10:52---
Fez has given 501000 Coins to Soft

---2016/07/30 23:11:53---
Fez has received 501000 Coins from Soft

---2016/07/30 23:19:48---
Fez has given 1 Dragon Boots to Lucifer

---2016/07/31 00:29:07---
Fez has received 500000 Coins from Purerangsaw

---2016/07/31 00:29:07---
Fez has given 33 Adamantite Bar to Purerangsaw

---2016/07/31 00:51:06---
Fez has received 2000000 Coins from Bob Marley

---2016/07/31 00:51:06---
Fez has given 3100 Rune Javelin to Bob Marley

---2016/07/31 01:35:08---
Fez has given 13742580 Coins to Spinz50
Fez has given 126 Dragon Bones to Spinz50

---2016/07/31 02:04:45---
Fez has given 15231 Zulrah'S Scales to Mike

---2016/07/31 02:04:45---
Fez has received 15000000 Coins from Mike

---2016/07/31 21:37:19---
Fez has given 2 Shark to Kefun

---2016/07/31 22:01:50---
Fez has given 1584 Pure Essence to Purerangsaw
Fez has given 9 Runite Ore to Purerangsaw
Fez has given 20 Adamantite Bar to Purerangsaw
Fez has given 876 Magic Logs to Purerangsaw
Fez has given 99 Silver Ore to Purerangsaw
Fez has given 449 Yew Logs to Purerangsaw
Fez has given 79 Black Dragon Leather to Purerangsaw

---2016/07/31 22:01:50---
Fez has received 3000000 Coins from Purerangsaw

---2016/08/01 02:41:14---
Fez has received 1 Amulet Of Fury from Ushio
Fez has received 1 Ring Of Wealth from Ushio

---2016/08/01 02:41:14---
Fez has given 5000000 Coins to Ushio

---2016/08/01 21:54:40---
Fez has given 5000000 Coins to Ushio

---2016/08/01 21:54:40---
Fez has received 500 Anglerfish from Ushio

---2016/08/01 23:30:20---
Fez has received 60000000 Coins from Dabs

---2016/08/01 23:31:43---
Fez has given 90000000 Coins to Zulrah

---2016/08/01 23:31:43---
Fez has received 1 Toxic Blowpipe (Empty) from Zulrah

---2016/08/01 23:58:46---
Fez has given 1 Donator Boss Book to Billy Mays

---2016/08/01 23:58:46---
Fez has received 20000000 Coins from Billy Mays

---2016/08/02 19:14:58---
Fez has received 1 Karil'S Leathertop from Martin

---2016/08/06 00:59:09---
Fez has given 1000000 Coins to Uzi

---2016/08/06 00:59:09---
Fez has received 1 Ring Of Wealth from Uzi

---2016/08/06 22:55:20---
Fez has given 1 Crystal Shield Full to Not Hyped
Fez has given 119 Anglerfish to Not Hyped
Fez has given 1 Crystal Halberd Full to Not Hyped
Fez has given 1 Dragon Chainbody to Not Hyped
Fez has given 39 Zul-Andra Teleport to Not Hyped
Fez has given 1 Ring Of Wealth to Not Hyped
Fez has given 1 Dharok'S Helm to Not Hyped
Fez has given 1 Dharok'S Greataxe to Not Hyped
Fez has given 1 Dharok'S Platebody to Not Hyped
Fez has given 1 Dharok'S Platelegs to Not Hyped
Fez has given 1 Crystal Bow Full to Not Hyped
Fez has given 87 Dragon Bones to Not Hyped
Fez has given 1 Bandos Boots to Not Hyped
Fez has given 1 Toxic Blowpipe to Not Hyped

---2016/08/12 08:38:07---
Fez has given 27 Saradomin Brew(3) to New Dude42
Fez has given 1 Karil'S Leathertop to New Dude42
Fez has given 891 Shark to New Dude42
Fez has given 1595002 Coins to New Dude42
Fez has given 938 Coal to New Dude42
Fez has given 34 Ranging Potion(4) to New Dude42
Fez has given 1 Saradomin Bracers to New Dude42
Fez has given 21 Super Restore(3) to New Dude42
Fez has given 1 Verac'S Brassard to New Dude42
Fez has given 1 Guthan'S Warspear to New Dude42
Fez has given 1 Saradomin Coif to New Dude42
Fez has given 28 Super Combat Potion(4) to New Dude42
Fez has given 1 Tooth Half Of Key to New Dude42
Fez has given 1 Bandos Boots to New Dude42
Fez has given 1500 Dragon Dart to New Dude42

---2016/08/15 12:30:41---
Fez has given 1 Damaged Unholy Book to New Dude42
