
---2016/08/07 19:25:17---
Forse1111111 has given 1 Amulet Of Glory(4) to Nerez3
Forse1111111 has given 250000 Coins to Nerez3
Forse1111111 has given 1 Rune Scimitar to Nerez3
Forse1111111 has given 5 Super Combat Potion(4) to Nerez3
Forse1111111 has given 1 Dragon Scimitar to Nerez3
Forse1111111 has given 100 Monkfish to Nerez3
Forse1111111 has given 100 Rune Arrow to Nerez3
