
---2016/08/09 19:46:01---
Fraqz Ok has given 319 Zulrah'S Scales to The Bros 2

---2016/08/09 19:46:01---
Fraqz Ok has received 640000 Coins from The Bros 2

---2016/08/09 19:50:53---
Fraqz Ok has given 195 Zulrah'S Scales to The Bros 2

---2016/08/09 19:50:53---
Fraqz Ok has received 400000 Coins from The Bros 2

---2016/08/09 20:05:44---
Fraqz Ok has received 1 Diamond from Views
Fraqz Ok has received 20000000 Coins from Views

---2016/08/09 20:05:44---
Fraqz Ok has given 1 Magic Fang to Views

---2016/08/09 20:12:30---
Fraqz Ok has given 877 Zulrah'S Scales to The Bros 2

---2016/08/09 20:12:30---
Fraqz Ok has received 1754000 Coins from The Bros 2

---2016/08/09 20:30:17---
Fraqz Ok has received 1 Karil'S Leatherskirt from Views

---2016/08/09 20:38:48---
Fraqz Ok has given 5000000 Coins to Views

---2016/08/09 20:38:49---
Fraqz Ok has received 1 Amulet Of Fury from Views

---2016/08/09 20:41:15---
Fraqz Ok has given 1236 Zulrah'S Scales to Views

---2016/08/09 20:48:38---
Fraqz Ok has received 13 Lava Dragon Bones from Views

---2016/08/09 21:11:13---
Fraqz Ok has received 1 Shark from Vihtic

---2016/08/09 21:11:13---
Fraqz Ok has given 1000000 Coins to Vihtic

---2016/08/09 21:16:48---
Fraqz Ok has received 5784000 Coins from Views

---2016/08/09 21:16:48---
Fraqz Ok has given 2892 Zulrah'S Scales to Views

---2016/08/09 22:07:32---
Fraqz Ok has given 2500000 Coins to Views

---2016/08/09 22:36:36---
Fraqz Ok has given 1 Mystery Box to Views

---2016/08/09 22:36:58---
Fraqz Ok has received 1 $5 Bond from Views

---2016/08/09 22:37:31---
Fraqz Ok has given 1 Odium Shard 2 to Views

---2016/08/09 22:41:44---
Fraqz Ok has received 10000000 Coins from Trapper
Fraqz Ok has received 1 Pegasian Boots from Trapper

---2016/08/09 22:41:44---
Fraqz Ok has given 1 $5 Bond to Trapper

---2016/08/09 22:44:17---
Fraqz Ok has received 55000000 Coins from Views

---2016/08/09 22:44:17---
Fraqz Ok has given 1 Pegasian Boots to Views

---2016/08/09 23:02:42---
Fraqz Ok has given 1214 Zulrah'S Scales to Views
Fraqz Ok has given 1 Dragon Bones to Views
Fraqz Ok has given 29 Dragon Bones to Views

---2016/08/09 23:02:42---
Fraqz Ok has received 1 Uncut Emerald from Views

---2016/08/09 23:21:45---
Fraqz Ok has received 10000000 Coins from Views

---2016/08/09 23:42:12---
Fraqz Ok has given 1 Coins to Tuckah

---2016/08/09 23:46:50---
Fraqz Ok has received 16000000 Coins from Views

---2016/08/09 23:52:42---
Fraqz Ok has received 5000000 Coins from Views

---2016/08/09 23:54:08---
Fraqz Ok has received 1 Toxic Blowpipe (Empty) from Luuckie

---2016/08/09 23:54:08---
Fraqz Ok has given 120000000 Coins to Luuckie

---2016/08/10 02:03:59---
Fraqz Ok has given 1 Toxic Blowpipe to Im Predz

---2016/08/10 02:07:05---
Fraqz Ok has given 1 Verac'S Plateskirt to Views

---2016/08/10 02:07:24---
Fraqz Ok has received 1 Bludgeon Spine from Views

---2016/08/10 15:00:41---
Fraqz Ok has given 1 Karil'S Leatherskirt to Im Predz

---2016/08/10 16:36:11---
Fraqz Ok has received 1 Toxic Blowpipe from Im Predz

---2016/08/10 16:49:05---
Fraqz Ok has received 47 Dark Crab from Zulrah
Fraqz Ok has received 59 Anglerfish from Zulrah

---2016/08/10 16:49:05---
Fraqz Ok has given 59 Raw Anglerfish to Zulrah
Fraqz Ok has given 47 Raw Dark Crab to Zulrah

---2016/08/10 17:06:53---
Fraqz Ok has received 7860000 Coins from Views

---2016/08/10 17:06:53---
Fraqz Ok has given 3930 Zulrah'S Scales to Views

---2016/08/10 17:46:50---
Fraqz Ok has received 135000000 Coins from Iron Sound

---2016/08/10 17:46:50---
Fraqz Ok has given 1 Toxic Blowpipe (Empty) to Iron Sound

---2016/08/10 17:49:28---
Fraqz Ok has given 15000000 Coins to Inflexion
Fraqz Ok has given 4380 Zulrah'S Scales to Inflexion

---2016/08/10 21:02:08---
Fraqz Ok has received 12296285 Coins from Im Predz

---2016/08/11 00:18:23---
Fraqz Ok has given 1879148 Coins to Im Predz

---2016/08/11 01:08:43---
Fraqz Ok has received 20004883 Coins from Im Predz

---2016/08/11 01:14:22---
Fraqz Ok has received 5000000 Coins from Im Predz

---2016/08/11 02:00:57---
Fraqz Ok has given 20763000 Coins to Tuckah

---2016/08/11 02:00:57---
Fraqz Ok has received 1 Crystal Halberd Full from Tuckah

---2016/08/11 04:21:53---
Fraqz Ok has received 1 Toxic Blowpipe (Empty) from Views

---2016/08/11 04:22:13---
Fraqz Ok has received 4000 Zulrah'S Scales from Views

---2016/08/11 04:35:18---
Fraqz Ok has received 250 Anglerfish from Ushio

---2016/08/11 04:35:18---
Fraqz Ok has given 2500000 Coins to Ushio

---2016/08/11 04:45:21---
Fraqz Ok has given 1 Magic Logs to Tuckah

---2016/08/11 04:48:22---
Fraqz Ok has given 16393 Zulrah'S Scales to Views
Fraqz Ok has given 1 Toxic Blowpipe (Empty) to Views

---2016/08/11 04:49:02---
Fraqz Ok has received 24000000 Coins from Views

---2016/08/17 11:41:38---
Fraqz Ok has given 100 Anglerfish to Im Predz

---2016/08/17 12:21:39---
Fraqz Ok has received 1 Toxic Blowpipe (Empty) from The Bros 2

---2016/08/17 12:21:39---
Fraqz Ok has given 160000000 Coins to The Bros 2

---2016/08/17 13:19:45---
Fraqz Ok has given 1 Toxic Blowpipe to Im Predz

---2016/08/18 14:17:47---
Fraqz Ok has received 1 Toxic Blowpipe from Im Predz

---2016/08/18 14:20:25---
Fraqz Ok has received 4000000 Coins from Ehhhzylo

---2016/08/18 14:20:25---
Fraqz Ok has given 1 Guthan'S Warspear to Ehhhzylo
Fraqz Ok has given 1 Karil'S Coif to Ehhhzylo

---2016/08/18 14:28:53---
Fraqz Ok has received 3000000 Coins from Inb4 Drop

---2016/08/18 14:28:53---
Fraqz Ok has given 3 Tooth Half Of Key to Inb4 Drop
Fraqz Ok has given 3 Loop Half Of Key to Inb4 Drop

---2016/08/19 12:42:53---
Fraqz Ok has given 1 Toxic Blowpipe to Im Predz

---2016/08/19 13:10:46---
Fraqz Ok has received 1 Toxic Blowpipe from Im Predz

---2016/08/22 17:06:06---
Fraqz Ok has received 10000 Zulrah'S Scales from Im Predz

---2016/08/22 17:06:06---
Fraqz Ok has given 1 Bludgeon Spine to Im Predz
