
---2016/07/31 10:11:09---
Fubu has received 4 Cosmic Rune from 1 Defence

---2016/08/01 03:45:31---
Fubu has received 1 Heavy Ballista from Billy Mays
Fubu has received 150 Dragon Javelin from Billy Mays

---2016/08/01 09:14:32---
Fubu has received 1 Amulet Of Fury from The Bros 2

---2016/08/01 09:14:32---
Fubu has given 5000000 Coins to The Bros 2

---2016/08/03 02:33:09---
Fubu has received 30000000 Coins from Martin

---2016/08/03 02:34:32---
Fubu has received 1 Primordial Boots from Bruce Lee

---2016/08/03 02:34:32---
Fubu has given 30000000 Coins to Bruce Lee

---2016/08/03 02:35:10---
Fubu has given 1 Primordial Boots to Martin

---2016/08/04 15:12:22---
Fubu has given 1 Unstrung Heavy Ballista to Beyblades

---2016/08/04 15:12:22---
Fubu has received 10000000 Coins from Beyblades
