
---2016/08/18 10:43:02---
Google God has received 1 Legendary Box from Derek

---2016/08/18 10:50:26---
Google God has received 1 Legendary Box from Derek

---2016/08/18 11:00:47---
Google God has given 1 Black Santa Hat to Strong

---2016/08/18 11:01:12---
Google God has given 5250000 Coins to Strong
