
---2016/07/05 19:32:02---
Green Blaze has given 1 Dharok'S Greataxe 0 to The Bros 2

---2016/07/05 19:32:02---
Green Blaze has received 5000000 Coins from The Bros 2

---2016/07/12 20:53:54---
Green Blaze has received 1 Ring Of Wealth from V3leh0
Green Blaze has received 1 Dragon Dagger from V3leh0

---2016/07/30 22:26:39---
Green Blaze has given 10 Dragon Bolts (E) to Cx

---2016/07/30 22:27:28---
Green Blaze has received 10 Dragon Bolts (E) from Cx

---2016/07/30 22:30:43---
Green Blaze has given 1 Dragon Scimitar to Cx

---2016/07/30 22:31:02---
Green Blaze has received 1 Dragon Scimitar from Cx

---2016/07/30 22:38:31---
Green Blaze has given 1 Shark to Cx

---2016/07/31 19:21:38---
Green Blaze has given 2 Black D'Hide Chaps to Cx
Green Blaze has given 50 Shark to Cx
Green Blaze has given 3000000 Coins to Cx
Green Blaze has given 2 Black D'Hide Body to Cx
Green Blaze has given 2 Black D'Hide Vamb to Cx
Green Blaze has given 6 Magic Shortbow to Cx

---2016/08/04 20:26:04---
Green Blaze has received 1 Mystery Box from Cx
