
---2016/09/01 10:51:59---
Inheritedrs has received 1 Birthday Present from Pony

---2016/09/01 11:00:57---
Inheritedrs has given 1 Legendary Box to Pony

---2016/09/01 11:01:29---
Inheritedrs has received 15 Legendary Box from Pony
