
---2016/07/17 12:03:04---
Invis has given 1000 Fire Rune to Nuckle
Invis has given 1000 Water Rune to Nuckle
Invis has given 1000 Air Rune to Nuckle
Invis has given 1000 Earth Rune to Nuckle
Invis has given 1000 Mind Rune to Nuckle
Invis has given 1000 Body Rune to Nuckle
Invis has given 1000 Death Rune to Nuckle
Invis has given 1000 Nature Rune to Nuckle
Invis has given 1000 Chaos Rune to Nuckle
Invis has given 1000 Astral Rune to Nuckle
Invis has given 1000 Law Rune to Nuckle
Invis has given 1000 Cosmic Rune to Nuckle
Invis has given 1000 Blood Rune to Nuckle
Invis has given 1000 Soul Rune to Nuckle
Invis has given 1 Loop Half Of Key to Nuckle

---2016/07/17 12:03:04---
Invis has received 1 Crystal Bow Full from Nuckle
Invis has received 1 Ring Of Wealth from Nuckle

---2016/07/17 12:06:38---
Invis has received 1 Climbing Boots from Nuckle

---2016/07/17 12:06:38---
Invis has given 5 Super Combat Potion(4) to Nuckle

---2016/07/17 12:47:05---
Invis has given 1 Loop Half Of Key to Nuckle

---2016/07/17 20:23:21---
Invis has given 1 Crystal Bow Full to Nuckle
Invis has given 1 Ring Of Wealth to Nuckle

---2016/07/17 20:40:55---
Invis has received 1 Crystal Bow Full from Nuckle

---2016/07/17 20:48:49---
Invis has received 2 Ring Of Recoil from Nuckle

---2016/07/18 00:04:45---
Invis has received 1 Heavy Ballista from Pfraru

---2016/07/18 00:13:25---
Invis has given 1 Heavy Ballista to Nuckle

---2016/07/18 00:33:06---
Invis has given 14 Mystery Box to Nuckle
Invis has given 1 Tooth Half Of Key to Nuckle

---2016/07/18 02:26:32---
Invis has received 1 Heavy Ballista from Nuckle
Invis has received 1 Ring Of Wealth from Nuckle
Invis has received 1000 Dragon Javelin from Nuckle

---2016/07/18 03:26:24---
Invis has given 2 Loop Half Of Key to Nuckle
Invis has given 1 Ring Of Wealth to Nuckle

---2016/07/18 05:00:29---
Invis has received 1 Ring Of Wealth from Nuckle

---2016/07/18 05:01:04---
Invis has received 1 Uncut Onyx from Nuckle

---2016/07/18 05:03:30---
Invis has given 1 Ball Of Wool to Shannon

---2016/07/18 05:04:06---
Invis has received 1 Ball Of Wool from Shannon

---2016/07/18 05:20:29---
Invis has received 1 Gold Bar from Nuckle

---2016/07/18 05:34:37---
Invis has given 1 Onyx Amulet to Nuckle

---2016/07/18 05:47:45---
Invis has given 1 Heavy Ballista to Nuckle
Invis has given 978 Dragon Javelin to Nuckle

---2016/07/18 05:47:45---
Invis has received 2 Swordfish from Nuckle

---2016/07/18 20:25:19---
Invis has given 30 Dragon Bones to Nuckle
Invis has given 2 Loop Half Of Key to Nuckle

---2016/07/18 22:03:46---
Invis has received 1 Gold Bar from Nuckle

---2016/07/18 22:04:58---
Invis has given 1 Diamond Ring to Nuckle

---2016/07/19 10:08:14---
Invis has received 2 Uncut Onyx from Nuckle

---2016/07/19 10:47:37---
Invis has received 2 Gold Bar from Nuckle

---2016/07/19 10:53:37---
Invis has given 2 Onyx Amulet to Nuckle

---2016/07/19 11:39:57---
Invis has received 1 Amulet Of Fury from Nuckle

---2016/07/19 14:32:25---
Invis has received 1 Gold Bar from Nuckle

---2016/07/19 14:34:12---
Invis has given 1 Diamond Ring to Nuckle

---2016/07/19 14:40:37---
Invis has received 1 Shield Right Half from Nuckle

---2016/07/19 23:30:13---
Invis has received 1 Toxic Blowpipe (Empty) from Nuckle

---2016/07/19 23:30:13---
Invis has given 8691 Zulrah'S Scales to Nuckle

---2016/07/19 23:30:42---
Invis has given 1 Toxic Blowpipe (Empty) to Nuckle

---2016/07/20 03:20:02---
Invis has given 12 Zul-Andra Teleport to Nuckle

---2016/07/20 11:48:52---
Invis has received 1 Anti-Dragon Shield from Nuckle
Invis has received 1 Draconic Visage from Nuckle

---2016/07/20 11:49:14---
Invis has given 1 Anti-Dragon Shield to Nuckle
Invis has given 1 Draconic Visage to Nuckle
