
---2016/08/08 15:57:47---
Libervm has given 2 Loop Half Of Key to Xhax

---2016/08/08 15:57:47---
Libervm has received 3000000 Coins from Xhax

---2016/08/08 15:58:20---
Libervm has given 1 Malediction Shard 3 to Pantera

---2016/08/08 15:58:20---
Libervm has received 10000000 Coins from Pantera

---2016/08/08 16:29:29---
Libervm has received 3000000 Coins from Even

---2016/08/08 16:29:29---
Libervm has given 1 Mysterious Emblem to Even

---2016/08/08 17:04:50---
Libervm has received 1 Crystal Bow Full from The Bros 2

---2016/08/08 17:04:50---
Libervm has given 8000000 Coins to The Bros 2

---2016/08/09 01:36:50---
Libervm has given 1 Onyx to Inflexion

---2016/08/09 01:37:40---
Libervm has received 1 Amulet Of Fury from Inflexion

---2016/08/09 15:19:16---
Libervm has received 5000005 Coins from Trollepoten

---2016/08/09 15:19:16---
Libervm has given 1 Onyx to Trollepoten

---2016/08/09 15:20:56---
Libervm has given 5000005 Coins to Trollepoten

---2016/08/09 15:20:56---
Libervm has received 1 Amulet Of Fury from Trollepoten

---2016/08/09 15:22:20---
Libervm has given 2968 Zulrah'S Scales to The Bros 2

---2016/08/09 15:22:20---
Libervm has received 4452000 Coins from The Bros 2

---2016/08/09 15:27:12---
Libervm has received 6000000 Coins from Datsik

---2016/08/09 15:27:12---
Libervm has given 1 Amulet Of Fury to Datsik

---2016/08/09 21:56:53---
Libervm has given 8 Crystal Key to Matt

---2016/08/09 21:56:53---
Libervm has received 8000000 Coins from Matt

---2016/08/09 21:58:21---
Libervm has given 1500000 Coins to Tuckah

---2016/08/09 21:58:21---
Libervm has received 3 Loop Half Of Key from Tuckah

---2016/08/09 21:59:20---
Libervm has received 3000000 Coins from Zulrah

---2016/08/09 21:59:20---
Libervm has given 3 Crystal Key to Zulrah

---2016/08/10 01:41:41---
Libervm has given 4 Mystery Box to Tyson

---2016/08/10 01:41:41---
Libervm has received 16000000 Coins from Tyson

---2016/08/10 01:56:05---
Libervm has received 1 Rune Warhammer from Doodat11
Libervm has received 1 Elemental Shield from Doodat11
Libervm has received 1 Blue D'Hide Chaps from Doodat11

---2016/08/10 01:56:24---
Libervm has received 1 Amulet Of Power from Shreadmaster
Libervm has received 1 Diamond Ring from Shreadmaster

---2016/08/10 02:52:26---
Libervm has given 381 Lava Dragon Bones to Trapper

---2016/08/10 02:52:26---
Libervm has received 10000000 Coins from Trapper

---2016/08/10 02:56:23---
Libervm has given 1 Credits Scroll to Inflexion

---2016/08/10 02:56:23---
Libervm has received 1500000 Coins from Inflexion

---2016/08/10 02:57:09---
Libervm has given 3 Mystery Box to Deadkid

---2016/08/10 02:57:09---
Libervm has received 15000000 Coins from Deadkid

---2016/08/10 02:59:22---
Libervm has received 4500000 Coins from Dad

---2016/08/10 02:59:22---
Libervm has given 1 Onyx to Dad

---2016/08/10 13:15:19---
Libervm has received 5000000 Coins from Ushio

---2016/08/10 13:15:47---
Libervm has given 10000000 Coins to Martijn

---2016/08/10 13:15:47---
Libervm has received 1 Monkey Tail from Martijn

---2016/08/10 13:24:46---
Libervm has given 4500000 Coins to Trollepoten

---2016/08/10 13:24:46---
Libervm has received 500 Dragon Javelin from Trollepoten
Libervm has received 500 Rune Javelin from Trollepoten

---2016/08/10 14:49:47---
Libervm has given 9000 Zulrah'S Scales to 1

---2016/08/10 14:49:47---
Libervm has received 18000000 Coins from 1

---2016/08/10 14:58:21---
Libervm has given 5 Crystal Key to White

---2016/08/10 14:58:21---
Libervm has received 5000000 Coins from White

---2016/08/10 15:01:36---
Libervm has given 1 Crystal Bow Full to Datsik

---2016/08/10 15:01:36---
Libervm has received 6000000 Coins from Datsik

---2016/08/10 15:09:09---
Libervm has given 4 Crystal Key to White

---2016/08/10 15:09:09---
Libervm has received 6000000 Coins from White

---2016/08/10 17:34:32---
Libervm has received 8000000 Coins from Views

---2016/08/10 17:34:32---
Libervm has given 4000 Zulrah'S Scales to Views

---2016/08/10 17:45:40---
Libervm has given 35 Uncut Dragonstone to Inflexion

---2016/08/10 17:46:26---
Libervm has given 1 Chisel to Inflexion

---2016/08/10 17:48:40---
Libervm has received 35 Dragonstone from Inflexion
Libervm has received 1 Chisel from Inflexion

---2016/08/10 17:53:37---
Libervm has received 3000000 Coins from Bruce Lee

---2016/08/10 17:53:37---
Libervm has given 3 Crystal Key to Bruce Lee

---2016/08/10 18:11:42---
Libervm has received 30000000 Coins from Theblkkid

---2016/08/10 18:11:42---
Libervm has given 1 Heavy Ballista to Theblkkid
Libervm has given 250 Dragon Javelin to Theblkkid

---2016/08/10 20:18:52---
Libervm has given 1 Black Helm (H1) to Doodat11
Libervm has given 1 Black Helm (H2) to Doodat11
Libervm has given 1 Black Helm (H3) to Doodat11
Libervm has given 1 Black Helm (H4) to Doodat11

---2016/08/10 20:30:26---
Libervm has received 1 Heavy Ballista from Rat

---2016/08/10 20:30:26---
Libervm has given 29000000 Coins to Rat

---2016/08/10 21:03:58---
Libervm has given 6500 Zulrah'S Scales to Views

---2016/08/10 21:03:58---
Libervm has received 13000000 Coins from Views

---2016/08/11 01:48:48---
Libervm has received 1200000 Coins from Ehhhzylo

---2016/08/11 01:48:48---
Libervm has given 25 Runite Ore to Ehhhzylo
Libervm has given 25 Adamantite Bar to Ehhhzylo

---2016/08/11 01:54:53---
Libervm has received 10000000 Coins from Billy Mays

---2016/08/11 01:54:53---
Libervm has given 1 Guthan'S Helm to Billy Mays
Libervm has given 1 Guthan'S Chainskirt to Billy Mays

---2016/08/11 02:13:37---
Libervm has given 2 Onyx to Bruce Lee

---2016/08/11 02:13:37---
Libervm has received 10000000 Coins from Bruce Lee

---2016/08/11 02:14:08---
Libervm has given 160000000 Coins to Tuckah
Libervm has given 1 Heavy Ballista to Tuckah

---2016/08/11 02:14:08---
Libervm has received 1 Toxic Blowpipe (Empty) from Tuckah

---2016/08/11 02:18:13---
Libervm has received 2097 Dragon Dart from Tuckah

---2016/08/11 02:19:08---
Libervm has given 4000000 Coins to Tuckah

---2016/08/11 02:19:08---
Libervm has received 2000 Zulrah'S Scales from Tuckah

---2016/08/11 02:21:15---
Libervm has received 4500000 Coins from Nick

---2016/08/11 02:21:15---
Libervm has given 1500 Magic Logs to Nick

---2016/08/13 12:19:26---
Libervm has received 10000000 Coins from Trollepoten

---2016/08/13 12:19:26---
Libervm has given 1 Bludgeon Axon to Trollepoten
