
---2016/08/15 03:22:24---
Lolwut has received 1 Dragon Boots from Range Owns6
Lolwut has received 1 Guthan'S Helm from Range Owns6
Lolwut has received 1 Amulet Of Fury from Range Owns6

---2016/08/15 12:31:59---
Lolwut has received 10000000 Coins from Trollepoten

---2016/08/15 12:31:59---
Lolwut has given 1 Bludgeon Claw to Trollepoten

---2016/08/15 13:40:02---
Lolwut has given 1 Zenyte Shard to Soft
Lolwut has given 1 Amulet Of Fury to Soft

---2016/08/15 13:40:12---
Lolwut has received 1 Amulet Of Torture from Soft

---2016/08/15 14:22:21---
Lolwut has given 9909888 Coins to Ushio
Lolwut has given 1 Heavy Ballista to Ushio

---2016/08/15 14:22:21---
Lolwut has received 1 Donator Boss Book from Ushio

---2016/08/15 14:23:59---
Lolwut has given 3000 Pure Essence to Soft

---2016/08/15 14:23:59---
Lolwut has received 15000000 Coins from Soft

---2016/08/15 14:57:46---
Lolwut has received 2 Master Wand from 1

---2016/08/15 15:08:14---
Lolwut has received 1 Infernal Pickaxe from 1

---2016/08/16 23:48:18---
Lolwut has received 18000000 Coins from Skill Vision
Lolwut has received 1 Tyrannical Ring from Skill Vision
Lolwut has received 1 Bludgeon Axon from Skill Vision

---2016/08/16 23:48:18---
Lolwut has given 1 Infernal Pickaxe to Skill Vision

---2016/08/17 00:11:42---
Lolwut has given 1 Heavy Ballista to Skill Vision

---2016/08/17 00:11:42---
Lolwut has received 22000000 Coins from Skill Vision

---2016/08/17 00:21:29---
Lolwut has given 1 Slayer Bell to Jameson

---2016/08/17 01:49:08---
Lolwut has given 15000000 Coins to N

---2016/08/17 01:49:08---
Lolwut has received 1 Dragonfire Shield from N
Lolwut has received 1 Malediction Shard 1 from N

---2016/08/17 10:49:00---
Lolwut has given 2000000 Coins to Thc

---2016/08/17 10:49:00---
Lolwut has received 1 Ring Of Wealth from Thc

---2016/08/17 10:59:26---
Lolwut has given 15000000 Coins to Defence Pro1

---2016/08/17 10:59:26---
Lolwut has received 1 Bludgeon Spine from Defence Pro1

---2016/08/17 12:11:53---
Lolwut has given 1 Abyssal Whip to Im Predz

---2016/08/17 12:11:53---
Lolwut has received 10000000 Coins from Im Predz

---2016/08/18 04:36:05---
Lolwut has given 1 Yellow Egg to Icantrush

---2016/08/18 04:36:05---
Lolwut has received 1 Poisoned Worms from Icantrush

---2016/08/18 06:40:26---
Lolwut has given 6000000 Coins to Soft

---2016/08/18 06:40:26---
Lolwut has received 11 Tooth Half Of Key from Soft

---2016/08/18 08:21:14---
Lolwut has given 1 Amulet Of Torture to Matthias

---2016/08/18 08:21:14---
Lolwut has received 1 Ranger Boots from Matthias

---2016/08/18 08:29:16---
Lolwut has received 1 Amulet Of Fury from Skill Vision

---2016/08/18 08:29:16---
Lolwut has given 10000000 Coins to Skill Vision

---2016/08/18 08:39:30---
Lolwut has given 1 Tyrannical Ring to Ads
Lolwut has given 1 Abyssal Bludgeon to Ads

---2016/08/18 08:39:30---
Lolwut has received 75000000 Coins from Ads

---2016/08/18 08:41:49---
Lolwut has received 1 Guthix Dragonhide from Ads

---2016/08/18 08:44:45---
Lolwut has given 26440 Zulrah'S Scales to The Bros 2

---2016/08/18 08:44:45---
Lolwut has received 65000000 Coins from The Bros 2

---2016/08/18 08:47:42---
Lolwut has given 1 Magic Fang to Ehhhzylo

---2016/08/18 08:47:42---
Lolwut has received 20000000 Coins from Ehhhzylo

---2016/08/18 08:56:41---
Lolwut has received 1826771 Coins from Emisnoo

---2016/08/18 08:56:41---
Lolwut has given 180 Dragon Bones to Emisnoo

---2016/08/18 09:02:56---
Lolwut has given 1 Dragonfire Shield to Ushio

---2016/08/18 09:02:56---
Lolwut has received 20000000 Coins from Ushio

---2016/08/18 09:55:52---
Lolwut has given 350 Dragon Dart to Pksir

---2016/08/18 09:55:52---
Lolwut has received 1500000 Coins from Pksir

---2016/08/18 10:59:25---
Lolwut has given 10000000 Coins to Iron Omerta

---2016/08/18 10:59:25---
Lolwut has received 1 Mystery Box from Iron Omerta

---2016/08/18 10:59:48---
Lolwut has given 10000000 Coins to Iron Omerta

---2016/08/18 10:59:48---
Lolwut has received 1 Mystery Box from Iron Omerta

---2016/08/18 11:00:12---
Lolwut has given 20000000 Coins to Hanybal

---2016/08/18 11:00:12---
Lolwut has received 2 Mystery Box from Hanybal

---2016/08/18 11:10:39---
Lolwut has given 1 Pegasian Boots to Insanityk

---2016/08/18 11:10:39---
Lolwut has received 100000000 Coins from Insanityk

---2016/08/18 11:12:09---
Lolwut has given 110000000 Coins to Inb4 Drop

---2016/08/18 11:12:09---
Lolwut has received 1 Bandos Tassets from Inb4 Drop

---2016/08/18 11:18:25---
Lolwut has received 2 Mystery Box from Faze Rug

---2016/08/18 11:18:25---
Lolwut has given 10000000 Coins to Faze Rug

---2016/08/18 11:24:35---
Lolwut has given 65000000 Coins to Iron Mathias

---2016/08/18 11:24:35---
Lolwut has received 1 Amulet Of Torture from Iron Mathias

---2016/08/18 11:36:46---
Lolwut has given 15000000 Coins to Iron Pvm

---2016/08/18 11:36:46---
Lolwut has received 1 Dragonfire Shield from Iron Pvm
