
---2016/08/23 12:54:17---
My Lahme has received 893 Shark from Anthony123

---2016/08/23 12:54:31---
My Lahme has received 150000 Coins from I Play A Lot

---2016/08/23 13:02:16---
My Lahme has given 893 Shark to Study
