
---2016/08/17 10:00:24---
Omna has given 207 Zulrah'S Scales to The Bros 2

---2016/08/17 10:00:24---
Omna has received 400000 Coins from The Bros 2

---2016/08/17 10:35:02---
Omna has given 2000 Zulrah'S Scales to The Bros 2

---2016/08/17 10:35:02---
Omna has received 4000000 Coins from The Bros 2

---2016/08/17 10:37:58---
Omna has received 1 Karil'S Leathertop from The Bros 2
Omna has received 1 Karil'S Leatherskirt from The Bros 2

---2016/08/17 11:23:41---
Omna has given 2000 Zulrah'S Scales to The Bros 2

---2016/08/17 11:23:41---
Omna has received 4000000 Coins from The Bros 2

---2016/08/18 08:07:50---
Omna has given 6500 Zulrah'S Scales to Skill Vision

---2016/08/18 08:07:50---
Omna has received 13000000 Coins from Skill Vision

---2016/08/18 11:29:24---
Omna has given 4 Tooth Half Of Key to Skill Vision

---2016/08/18 11:29:24---
Omna has received 3200000 Coins from Skill Vision

---2016/08/21 01:32:06---
Omna has received 1 Guthan'S Chainskirt from Turbomali712

---2016/08/21 04:00:10---
Omna has received 191 Cosmic Rune from Thc

---2016/08/21 04:50:27---
Omna has received 1 Slayer Bell from Range Owns6

---2016/08/21 05:00:11---
Omna has given 5 Tooth Half Of Key to Bryan1

---2016/08/21 05:00:11---
Omna has received 2500000 Coins from Bryan1

---2016/08/21 22:28:28---
Omna has given 20 Super Combat Potion(4) to Stelios

---2016/08/21 22:28:28---
Omna has received 500000 Coins from Stelios
