
---2016/07/11 00:28:01---
Pfraru has received 200 Big Bones from Ziggy

---2016/07/11 00:43:46---
Pfraru has received 260000 Coins from Derek

---2016/07/11 00:57:29---
Pfraru has received 500000 Coins from Derek

---2016/07/11 01:55:58---
Pfraru has received 3 Loop Half Of Key from Tor

---2016/07/11 15:11:54---
Pfraru has received 250 Shark from Michael

---2016/07/11 15:29:08---
Pfraru has received 1 Loop Half Of Key from Bounce Up

---2016/07/11 15:34:17---
Pfraru has received 1 Loop Half Of Key from Bounce Up

---2016/07/11 15:36:24---
Pfraru has given 1 Black Skirt (T) to Bounce Up

---2016/07/11 16:10:58---
Pfraru has received 5000000 Coins from Nathan

---2016/07/11 16:40:59---
Pfraru has received 1 Tooth Half Of Key from Jackson

---2016/07/11 17:05:33---
Pfraru has received 1 Dragon Full Helm from Bounce Up

---2016/07/11 17:08:20---
Pfraru has received 1 Guthan'S Helm from Jackson
Pfraru has received 1 Guthan'S Warspear from Jackson
Pfraru has received 1 Guthan'S Platebody from Jackson
Pfraru has received 1 Guthan'S Chainskirt from Jackson

---2016/07/11 17:08:20---
Pfraru has given 1 Dragon Full Helm to Jackson

---2016/07/11 17:14:12---
Pfraru has received 1 Dragon Claws from Bounce Up

---2016/07/11 17:43:15---
Pfraru has received 45000000 Coins from Mr Barrows

---2016/07/11 17:43:15---
Pfraru has given 1 Dragon Claws to Mr Barrows

---2016/07/11 17:43:39---
Pfraru has received 5000000 Coins from Mr Barrows

---2016/07/11 17:43:39---
Pfraru has given 1 Master Wand to Mr Barrows

---2016/07/11 20:52:17---
Pfraru has received 1118 Zulrah'S Scales from V3leh0

---2016/07/11 20:52:17---
Pfraru has given 1100000 Coins to V3leh0

---2016/07/11 21:21:59---
Pfraru has given 1 Infinity Boots to Mr Barrows
Pfraru has given 1 Mage'S Book to Mr Barrows

---2016/07/11 21:21:59---
Pfraru has received 8000000 Coins from Mr Barrows

---2016/07/11 22:58:11---
Pfraru has given 50313800 Coins to Mr Barrows
Pfraru has given 1 Guthan'S Helm to Mr Barrows
Pfraru has given 1 Guthan'S Warspear to Mr Barrows
Pfraru has given 1 Guthan'S Platebody to Mr Barrows
Pfraru has given 1 Tooth Half Of Key to Mr Barrows
Pfraru has given 1 Guthan'S Chainskirt to Mr Barrows

---2016/07/11 22:58:11---
Pfraru has received 32000 Zulrah'S Scales from Mr Barrows

---2016/07/11 23:20:24---
Pfraru has received 6047 Zulrah'S Scales from Mr Barrows

---2016/07/12 13:59:58---
Pfraru has given 300 Fire Rune to The Bros 2

---2016/07/12 13:59:58---
Pfraru has received 1000000 Coins from The Bros 2

---2016/07/12 19:05:07---
Pfraru has received 1 Abyssal Whip from Bruce Lee

---2016/07/12 19:05:07---
Pfraru has given 1 Magic Fang to Bruce Lee

---2016/07/12 19:40:38---
Pfraru has given 2 Uncut Diamond to E
Pfraru has given 1 Ring Mould to E
Pfraru has given 1 Chisel to E
Pfraru has given 1 Amulet Mould to E
Pfraru has given 1 Necklace Mould to E
Pfraru has given 2 Ball Of Wool to E

---2016/07/12 19:43:23---
Pfraru has received 2 Gold Bar from Matt

---2016/07/12 19:43:53---
Pfraru has received 2 Gold Bar from Matt

---2016/07/12 19:44:18---
Pfraru has given 4 Gold Bar to E

---2016/07/12 19:45:40---
Pfraru has received 1 Diamond Amulet from E
Pfraru has received 1 Diamond Ring from E

---2016/07/12 19:50:05---
Pfraru has received 10 Cosmic Rune from Matt
Pfraru has received 100 Earth Rune from Matt

---2016/07/12 19:50:35---
Pfraru has given 1 Diamond Amulet to Matt
Pfraru has given 1 Cosmic Rune to Matt
Pfraru has given 10 Earth Rune to Matt

---2016/07/12 19:51:03---
Pfraru has received 1 Amulet Of Power from Matt

---2016/07/12 20:35:39---
Pfraru has received 1 Karil'S Leathertop from Dabs
Pfraru has received 2 Dharok'S Platebody 0 from Dabs
Pfraru has received 1 Karil'S Leatherskirt from Dabs
Pfraru has received 20000000 Coins from Dabs
Pfraru has received 1 Abyssal Tentacle from Dabs
Pfraru has received 1 Primordial Boots from Dabs
Pfraru has received 1 Verac'S Plateskirt from Dabs
Pfraru has received 1 Guthan'S Platebody 0 from Dabs
Pfraru has received 1 Guthan'S Chainskirt 0 from Dabs

---2016/07/12 20:35:39---
Pfraru has given 1 Monkey Tail to Dabs

---2016/07/12 20:36:18---
Pfraru has given 2 Dharok'S Platebody 0 to Brendan
Pfraru has given 1 Guthan'S Platebody 0 to Brendan
Pfraru has given 1 Guthan'S Chainskirt 0 to Brendan

---2016/07/12 20:36:35---
Pfraru has given 5000000 Coins to Brendan

---2016/07/12 20:50:56---
Pfraru has received 1 Dragonfire Shield from Bruce Lee

---2016/07/12 20:50:56---
Pfraru has given 1 Karil'S Leatherskirt to Bruce Lee
Pfraru has given 10000000 Coins to Bruce Lee
Pfraru has given 1 Abyssal Whip to Bruce Lee

---2016/07/12 23:27:12---
Pfraru has received 1 Rapier from Pressure

---2016/07/12 23:27:12---
Pfraru has given 1 Abyssal Tentacle to Pressure
Pfraru has given 1 Monkey Tail to Pressure

---2016/07/12 23:34:32---
Pfraru has given 1 Dragonfire Shield to Pressure

---2016/07/12 23:35:23---
Pfraru has received 15000000 Coins from Pressure
Pfraru has received 1 Dragonfire Shield from Pressure

---2016/07/12 23:35:23---
Pfraru has given 1 Shark to Pressure

---2016/07/12 23:35:34---
Pfraru has given 15000000 Coins to Pressure

---2016/07/12 23:36:20---
Pfraru has given 1 Dragonfire Shield to Pressure

---2016/07/12 23:37:26---
Pfraru has received 1 Dragonfire Shield from Pressure

---2016/07/12 23:43:03---
Pfraru has given 1 Dragonfire Shield to Pressure

---2016/07/12 23:43:45---
Pfraru has received 1 Dragonfire Shield from Pressure

---2016/07/13 00:20:01---
Pfraru has given 1 Dragonfire Shield to Inflexion
Pfraru has given 2314075 Coins to Inflexion
Pfraru has given 1 Crystal Bow Full to Inflexion
Pfraru has given 1 Primordial Boots to Inflexion
Pfraru has given 1 Black Cane to Inflexion
Pfraru has given 1 Mysterious Emblem (Tier 2) to Inflexion

---2016/07/13 15:38:12---
Pfraru has given 124 Adamantite Bar to Nick
Pfraru has given 68 Runite Bar to Nick

---2016/07/13 15:38:12---
Pfraru has received 4000000 Coins from Nick

---2016/07/13 15:39:48---
Pfraru has received 500000 Coins from Nick

---2016/07/13 15:39:48---
Pfraru has given 400 Magic Logs to Nick

---2016/07/13 15:54:44---
Pfraru has received 40000000 Coins from Dabs

---2016/07/13 15:54:44---
Pfraru has given 1 Rapier to Dabs

---2016/07/13 18:12:43---
Pfraru has received 10000000 Coins from Mr Barrows

---2016/07/13 18:12:43---
Pfraru has given 1 Monkey Tail to Mr Barrows

---2016/07/13 23:26:17---
Pfraru has received 1 Abyssal Whip from Jackson

---2016/07/13 23:26:17---
Pfraru has given 12000000 Coins to Jackson

---2016/07/14 01:53:05---
Pfraru has given 36686844 Coins to Bay

---2016/07/14 02:08:02---
Pfraru has given 1 Fury Ornament Kit to Kefun

---2016/07/14 02:08:02---
Pfraru has received 8000000 Coins from Kefun

---2016/07/14 02:13:00---
Pfraru has received 15000000 Coins from Kittyhello

---2016/07/14 02:13:00---
Pfraru has given 1 Abyssal Whip to Kittyhello

---2016/07/14 02:17:34---
Pfraru has received 2500000 Coins from Nick

---2016/07/14 02:17:34---
Pfraru has given 1 Mysterious Emblem (Tier 2) to Nick

---2016/07/14 14:45:05---
Pfraru has received 90000000 Coins from Flamestar
Pfraru has received 1 Trident Of The Swamp from Flamestar

---2016/07/14 14:45:05---
Pfraru has given 1 Zenyte Shard to Flamestar

---2016/07/14 14:51:14---
Pfraru has given 5000000 Coins to Flamestar

---2016/07/14 14:51:14---
Pfraru has received 5000 Zulrah'S Scales from Flamestar

---2016/07/14 23:16:16---
Pfraru has given 8 Prayer Potion(4) to Fjtheboss
Pfraru has given 2 Ranging Potion(2) to Fjtheboss
Pfraru has given 20 Saradomin Brew(4) to Fjtheboss

---2016/07/15 00:48:34---
Pfraru has received 1 Dragon Claws from Legend

---2016/07/15 01:00:40---
Pfraru has given 40000000 Coins to Dalby

---2016/07/15 01:00:40---
Pfraru has received 1 $5 Bond from Dalby

---2016/07/15 01:09:22---
Pfraru has received 1 Red Halloween Mask from Serci
Pfraru has received 1 Dragon Warhammer from Serci

---2016/07/15 01:09:22---
Pfraru has given 1 Trident Of The Swamp to Serci

---2016/07/15 01:13:08---
Pfraru has given 1 Dragon Warhammer to Extfallen

---2016/07/15 01:13:08---
Pfraru has received 1 Monkey Tail from Extfallen

---2016/07/15 02:00:33---
Pfraru has received 1 Dragon Warhammer from Goten
Pfraru has received 1 Abyssal Bludgeon from Goten

---2016/07/15 02:42:31---
Pfraru has given 3000000 Coins to Fjtheboss
Pfraru has given 1 Torag'S Helm to Fjtheboss
Pfraru has given 1 Torag'S Platebody to Fjtheboss
Pfraru has given 1 Torag'S Platelegs to Fjtheboss

---2016/07/15 12:52:32---
Pfraru has received 750000 Coins from The Bros 2

---2016/07/15 12:52:32---
Pfraru has given 2240 Rune Javelin to The Bros 2

---2016/07/15 15:01:59---
Pfraru has given 50000000 Coins to White

---2016/07/15 15:05:35---
Pfraru has received 25000000 Coins from White

---2016/07/15 15:05:35---
Pfraru has given 1 Red Halloween Mask to White

---2016/07/15 15:41:47---
Pfraru has given 30000000 Coins to Bay

---2016/07/15 15:48:51---
Pfraru has received 36704000 Coins from Inflexion

---2016/07/15 15:48:51---
Pfraru has given 1 Dragon Claws to Inflexion
Pfraru has given 899 Zulrah'S Scales to Inflexion
Pfraru has given 69 Adamantite Bar to Inflexion
Pfraru has given 92 Runite Bar to Inflexion

---2016/07/15 15:55:13---
Pfraru has received 1 Golden Key from Olleking

---2016/07/15 15:55:13---
Pfraru has given 1 Karil'S Leathertop to Olleking
Pfraru has given 9000000 Coins to Olleking
Pfraru has given 1 Verac'S Plateskirt to Olleking

---2016/07/15 18:33:53---
Pfraru has given 15000000 Coins to Olleking

---2016/07/15 18:33:53---
Pfraru has received 1 Unsired from Olleking

---2016/07/17 01:35:43---
Pfraru has given 1 Abyssal Bludgeon to Slime

---2016/07/17 01:36:52---
Pfraru has received 1 Abyssal Bludgeon from Slime

---2016/07/17 03:29:54---
Pfraru has received 1 $5 Bond from Jamian

---2016/07/18 00:04:45---
Pfraru has given 1 Heavy Ballista to Invis

---2016/07/18 00:05:44---
Pfraru has given 1 Dragon Warhammer to Kefun

---2016/07/18 00:06:37---
Pfraru has given 1 Abyssal Bludgeon to Relax

---2016/07/18 00:18:23---
Pfraru has given 1 Bandos Chestplate to Serci

---2016/07/18 00:27:50---
Pfraru has received 1 Dragonstone Ring from Kittyhello

---2016/07/18 00:29:16---
Pfraru has received 26 Cosmic Rune from Kittyhello

---2016/07/18 00:29:32---
Pfraru has given 1 Ring Of Wealth to Kittyhello

---2016/07/18 00:34:30---
Pfraru has given 7079008 Coins to Shreadmaster
Pfraru has given 1 Bandos Boots to Shreadmaster

---2016/07/18 00:36:39---
Pfraru has given 502 Shark to Shreadmaster

---2016/07/18 01:27:25---
Pfraru has given 1 Bandos Boots to Crazyman

---2016/07/18 14:41:24---
Pfraru has received 1 Dragon Plateskirt from Soft
Pfraru has received 10 Iron 2h Sword from Soft

---2016/07/18 15:56:36---
Pfraru has given 47 Dragon Bones to Cows Love Me

---2016/07/18 19:39:20---
Pfraru has received 1 Redwood Log from Camelcrusher

---2016/07/20 22:47:54---
Pfraru has received 1 Blue Halloween Mask from Roger
Pfraru has received 1 3rd Age Wand from Roger
Pfraru has received 1 3rd Age Bow from Roger
Pfraru has received 1 3rd Age Platelegs from Roger
Pfraru has received 1 3rd Age Platebody from Roger
Pfraru has received 1 Red Partyhat from Roger
Pfraru has received 1 3rd Age Full Helmet from Roger
Pfraru has received 1 3rd Age Kiteshield from Roger
Pfraru has received 1 Elysian Spirit Shield from Roger
Pfraru has received 1 Blue Partyhat from Roger
Pfraru has received 1 Green Partyhat from Roger
Pfraru has received 1 3rd Age Cloak from Roger
Pfraru has received 1 Purple Partyhat from Roger
Pfraru has received 1 Abyssal Whip from Roger
Pfraru has received 1 White Partyhat from Roger
Pfraru has received 1 Santa Hat from Roger
Pfraru has received 1 Saradomin Godsword from Roger

---2016/07/20 22:51:07---
Pfraru has received 1000000000 Saradomin Godsword from Kingnobbling

---2016/07/20 23:18:48---
Pfraru has received 500 Death Rune from Zulrah
Pfraru has received 500 Astral Rune from Zulrah
Pfraru has received 500 Earth Rune from Zulrah

---2016/07/21 00:38:33---
Pfraru has given 1 3rd Age Cloak to Duracell33
Pfraru has given 1 3rd Age Bow to Duracell33
Pfraru has given 1 Red Partyhat to Duracell33

---2016/07/22 02:59:22---
Pfraru has received 10 Clue Box from Goten
Pfraru has received 20 Mystery Box from Goten

---2016/07/22 03:28:22---
Pfraru has given 20 Lava Dragon Bones to Hi Bro 34

---2016/07/23 18:02:13---
Pfraru has given 42 Anglerfish to Derek
Pfraru has given 2 Dragon Dart to Derek

---2016/07/23 19:26:48---
Pfraru has received 270000 Coins from Derek

---2016/07/23 19:59:07---
Pfraru has received 1 Dharok'S Platebody from Derek
Pfraru has received 1 Dharok'S Platelegs from Derek
Pfraru has received 1 Dharok'S Helm from Derek
Pfraru has received 1 Dharok'S Greataxe from Derek

---2016/07/23 20:04:46---
Pfraru has given 1 Shark to X

---2016/07/23 20:04:46---
Pfraru has received 25000000 Coins from X

---2016/07/23 20:18:13---
Pfraru has given 25000000 Coins to X
Pfraru has given 1 Dharok'S Helm to X

---2016/07/23 20:18:51---
Pfraru has given 1 Dragon Scimitar to X
Pfraru has given 1 Dragon Dagger to X

---2016/07/23 20:20:33---
Pfraru has received 1 Flax from Apex

---2016/07/23 20:30:25---
Pfraru has given 1 Dharok'S Platebody to Derek123
Pfraru has given 1 Dharok'S Platelegs to Derek123
Pfraru has given 1 Dharok'S Helm to Derek123
Pfraru has given 1 Dharok'S Greataxe to Derek123

---2016/07/23 20:44:10---
Pfraru has given 1000000 Coins to Kefun

---2016/07/23 20:44:10---
Pfraru has received 2 Loop Half Of Key from Kefun

---2016/07/23 20:44:24---
Pfraru has received 1 Tooth Half Of Key from Floid

---2016/07/23 20:44:24---
Pfraru has given 500000 Coins to Floid

---2016/07/24 03:06:06---
Pfraru has given 24095174 Coins to White

---2016/07/24 03:06:06---
Pfraru has received 1 Book On Baxtorian from White

---2016/07/24 12:17:54---
Pfraru has received 1 Diamond Ring from The Bros 2

---2016/07/24 13:30:59---
Pfraru has received 2 Cosmic Rune from Soft

---2016/07/24 16:50:40---
Pfraru has received 1 Toxic Blowpipe (Empty) from Apex

---2016/07/24 16:51:25---
Pfraru has received 1000 Zulrah'S Scales from Apex

---2016/07/25 00:27:06---
Pfraru has received 1000 Zulrah'S Scales from Ushio

---2016/07/25 00:27:06---
Pfraru has given 1 Dragon Chainbody to Ushio

---2016/07/25 00:45:42---
Pfraru has given 1 Toxic Blowpipe to Apex

---2016/07/25 00:53:58---
Pfraru has received 1000000 Coins from Kangaroo

---2016/07/25 00:54:27---
Pfraru has received 1000000 Coins from Kangaroo

---2016/07/25 16:15:47---
Pfraru has received 1 Black Cane from Shreadmaster

---2016/07/25 16:16:03---
Pfraru has given 1 Black Cane to Hellbent
