
---2016/08/19 20:56:19---
Rachel has received 1700000 Coins from Stanced

---2016/08/19 20:56:19---
Rachel has given 300 Dragon Dart to Stanced

---2016/08/19 21:44:00---
Rachel has received 750000 Coins from Thc

---2016/08/19 21:44:00---
Rachel has given 150 Dragon Dart to Thc

---2016/08/22 23:08:34---
Rachel has received 3 Tooth Half Of Key from Dad

---2016/08/22 23:08:34---
Rachel has given 3 Loop Half Of Key to Dad

---2016/08/22 23:10:26---
Rachel has given 1 Dragonstone to Study

---2016/08/22 23:10:26---
Rachel has received 2000 Coins from Study

---2016/08/22 23:12:55---
Rachel has received 1500000 Coins from Turbomali712

---2016/08/22 23:12:55---
Rachel has given 3 Tooth Half Of Key to Turbomali712

---2016/08/23 16:00:28---
Rachel has received 4000000 Coins from Thc

---2016/08/23 16:00:28---
Rachel has given 1 Ahrim'S Robetop to Thc

---2016/08/27 23:41:33---
Rachel has received 1 Bunny Ears from Iron Pvm

---2016/08/27 23:41:33---
Rachel has given 40000000 Coins to Iron Pvm

---2016/08/29 16:58:07---
Rachel has given 4000000 Coins to Iron Pvm

---2016/08/29 16:58:07---
Rachel has received 2 Slayer Tome from Iron Pvm

---2016/08/30 02:12:07---
Rachel has received 10000000 Coins from Numa

---2016/08/30 02:12:07---
Rachel has given 1 Malediction Shard 1 to Numa

---2016/08/30 03:00:59---
Rachel has received 2500000 Coins from Combat Drops

---2016/08/30 03:00:59---
Rachel has given 250 Dragon Dart to Combat Drops
