
---2016/07/02 02:09:07---
Rat has received 711 Dragon Bones from Matt

---2016/07/03 16:33:21---
Rat has received 500000 Coins from Euforia
Rat has received 77 Dragon Bones from Euforia

---2016/07/03 16:41:12---
Rat has received 500000 Coins from Inflexion

---2016/07/04 02:45:08---
Rat has received 1000 Dragon Dart from Inflexion

---2016/07/04 03:26:36---
Rat has received 1 Trident Of The Swamp from Inflexion

---2016/07/04 21:39:56---
Rat has received 1 Amulet Of Power from Hellbent
Rat has received 1 Diamond Ring from Hellbent

---2016/08/10 18:08:02---
Rat has received 7 Cooked Karambwan from Deadkid

---2016/08/10 18:09:26---
Rat has received 1 Heavy Ballista from Deadkid
Rat has received 29 Dragon Javelin from Deadkid

---2016/08/10 18:10:31---
Rat has received 1 Crystal Halberd Full from Deadkid

---2016/08/10 18:24:54---
Rat has received 1 Dragon Boots from Theblkkid

---2016/08/10 20:20:28---
Rat has given 1 Dragon Boots to Matt

---2016/08/10 20:20:28---
Rat has received 3000000 Coins from Matt

---2016/08/10 20:22:56---
Rat has received 60000000 Coins from Zulrah

---2016/08/10 20:22:56---
Rat has given 1 Dragon Warhammer to Zulrah

---2016/08/10 20:30:26---
Rat has given 1 Heavy Ballista to Libervm

---2016/08/10 20:30:26---
Rat has received 29000000 Coins from Libervm

---2016/08/10 23:48:14---
Rat has received 40000000 Coins from Trapper

---2016/08/10 23:48:14---
Rat has given 1 Trident Of The Swamp to Trapper

---2016/08/11 04:46:59---
Rat has received 1 Dragon Plateskirt from 1

---2016/08/11 21:49:09---
Rat has given 130000000 Coins to Inflexion

---2016/08/12 15:48:16---
Rat has received 1 Unstrung Heavy Ballista from Da Jon
Rat has received 1 Slayer Bell from Da Jon

---2016/08/12 21:55:07---
Rat has received 150000000 Coins from Deadkid

---2016/08/12 22:40:32---
Rat has given 150000000 Coins to Inflexion

---2016/08/13 03:26:42---
Rat has received 1 Crystal Shield Full from Bedd
Rat has received 1 Abyssal Whip from Bedd
Rat has received 1 Bludgeon Claw from Bedd
Rat has received 1 3rd Age Range Coif from Bedd
Rat has received 1 Torag'S Armour Set from Bedd

---2016/08/13 03:26:42---
Rat has given 5 Monkfish to Bedd

---2016/08/13 04:53:16---
Rat has given 1 Abyssal Whip to Graco

---2016/08/13 04:53:16---
Rat has received 13000000 Coins from Graco

---2016/08/13 18:47:13---
Rat has received 515878 Coins from Dad

---2016/08/13 18:49:11---
Rat has given 5000000 Coins to Dad
Rat has given 1 3rd Age Range Coif to Dad

---2016/08/14 03:32:38---
Rat has received 1 Barrel from Dead Dbag

---2016/08/14 17:19:08---
Rat has given 1 Rapier to Thug

---2016/08/14 17:20:54---
Rat has received 1 Rapier from Thug

---2016/08/15 19:24:43---
Rat has given 1 Black Wizard Robe (G) to Strong
Rat has given 1 Black D'Hide Chaps to Strong
Rat has given 1 Climbing Boots to Strong
Rat has given 10747670 Coins to Strong
Rat has given 1 Crystal Halberd Full to Strong
Rat has given 1 Black Wizard Hat (G) to Strong
Rat has given 1 Rapier to Strong
Rat has given 1 Combat Bracelet(4) to Strong
Rat has given 1 Doctors' Gown to Strong
Rat has given 1 Healer Hat to Strong
Rat has given 1 Crystal Bow Full to Strong
Rat has given 1 Unstrung Heavy Ballista to Strong
Rat has given 1 Decorative Armour to Strong
Rat has given 1028 Dragon Javelin to Strong
Rat has given 828 Dragon Dart to Strong
Rat has given 1 Black Skirt (T) to Strong

---2016/08/19 11:29:16---
Rat has received 444000000 Coins from Strong
Rat has received 1 Decorative Armour from Strong
Rat has received 1 Decorative Armour from Strong
Rat has received 1 Decorative Armour from Strong

---2016/08/19 11:50:34---
Rat has received 150000000 Coins from Skill Vision

---2016/08/19 11:51:10---
Rat has given 300000000 Coins to Skill Vision

---2016/08/19 11:51:24---
Rat has received 150000000 Coins from Skill Vision

---2016/08/19 11:51:59---
Rat has given 300000000 Coins to Skill Vision

---2016/08/19 11:52:17---
Rat has received 144000000 Coins from Skill Vision

---2016/08/19 11:53:26---
Rat has received 288085025 Coins from Skill Vision

---2016/08/19 11:54:10---
Rat has received 90000000 Coins from Skill Vision

---2016/08/19 11:55:09---
Rat has given 360000000 Coins to Skill Vision

---2016/08/19 11:55:23---
Rat has received 150000000 Coins from Skill Vision

---2016/08/19 11:56:35---
Rat has given 1 Crystal Shield Full to Skill Vision
Rat has given 456085025 Coins to Skill Vision
Rat has given 1 Black Wizard Hat (G) to Skill Vision
Rat has given 1 Dragon Chainbody Ornament Kit to Skill Vision
Rat has given 1 Dragon Plate/Skirt Ornament Kit to Skill Vision
Rat has given 1 Bludgeon Claw to Skill Vision
Rat has given 1 Torag'S Armour Set to Skill Vision

---2016/08/19 12:39:20---
Rat has received 240000000 Coins from Skill Vision

---2016/08/20 04:46:30---
Rat has given 200000000 Coins to Ads

---2016/08/19 17:34:03---
Rat has received 75000000 Coins from Ear

---2016/08/19 17:35:32---
Rat has given 75000000 Coins to Matt

---2016/08/19 19:12:16---
Rat has given 400000000 Coins to Ear

---2016/08/19 20:25:06---
Rat has given 85000000 Coins to Bay

---2016/08/20 01:25:11---
Rat has received 1 Master Wand from Iron Mathias
Rat has received 200411 Coins from Iron Mathias

---2016/08/20 02:28:25---
Rat has given 50000000 Coins to Hanybal

---2016/08/20 02:28:25---
Rat has received 10 Mystery Box from Hanybal

---2016/08/20 02:29:16---
Rat has given 15000000 Coins to Hanybal

---2016/08/20 02:29:16---
Rat has received 3 Mystery Box from Hanybal

---2016/08/20 02:58:09---
Rat has received 2 Amulet Of Torture from Ear
Rat has received 1 Dragon Claws from Ear
Rat has received 2 Rapier from Ear
Rat has received 2 Primordial Boots from Ear
Rat has received 2 Bandos Chestplate from Ear
Rat has received 2 Bandos Tassets from Ear
Rat has received 5 Toxic Blowpipe (Empty) from Ear

---2016/08/20 03:12:05---
Rat has received 1 3rd Age Robe Top from Derek123
Rat has received 1 3rd Age Robe from Derek123
Rat has received 1 Abyssal Tentacle from Derek123
Rat has received 2 3rd Age Wand from Derek123
Rat has received 1 Yellow Partyhat from Derek123
Rat has received 1 Blue Partyhat from Derek123
Rat has received 1 Green Partyhat from Derek123
Rat has received 1 Purple Partyhat from Derek123
Rat has received 1 White Partyhat from Derek123
Rat has received 1 Bandos Chestplate from Derek123
Rat has received 2 Arcane Spirit Shield from Derek123
Rat has received 1 Bandos Tassets from Derek123
Rat has received 1 Santa Hat from Derek123
Rat has received 1 Black Santa Hat from Derek123

---2016/08/20 03:27:14---
Rat has received 1 Bandos Chestplate from Bruce Lee
Rat has received 1 Bandos Tassets from Bruce Lee

---2016/08/20 03:29:00---
Rat has received 1 Bandos Chestplate from Bruce Lee
Rat has received 1 Bandos Tassets from Bruce Lee

---2016/08/20 03:31:57---
Rat has received 1 Eternal Boots from Bruce Lee
Rat has received 1 Armadyl Chestplate from Bruce Lee
Rat has received 1 Primordial Boots from Bruce Lee

---2016/08/20 03:32:58---
Rat has received 10000000 Coins from Graco

---2016/08/20 03:56:22---
Rat has received 1 Dragon Pickaxe Upgrade Kit from Stef
Rat has received 1 Occult Necklace from Stef
Rat has received 1 Serpentine Helm from Stef
Rat has received 1 Light Infinity Hat from Stef
Rat has received 2 Magic Fang from Stef
Rat has received 13243 Zulrah'S Scales from Stef
Rat has received 44 Bones To Peaches from Stef
Rat has received 1 Abyssal Bludgeon from Stef
Rat has received 1 Abyssal Dagger from Stef
Rat has received 2 Smouldering Stone from Stef
Rat has received 1 Magic Shortbow Scroll from Stef
Rat has received 2 Eternal Boots from Stef
Rat has received 1 Ring Of Stone from Stef
Rat has received 1 Tormented Bracelet from Stef
Rat has received 1 Berserker Necklace from Stef
Rat has received 1 Heavy Ballista from Stef
Rat has received 1 Amulet Of Drops from Stef
Rat has received 1 Bludgeon Claw from Stef
Rat has received 15530 Dragon Dart from Stef
Rat has received 1 Smoke Battlestaff from Stef

---2016/08/20 04:00:27---
Rat has given 1 Primordial Boots to Trapper

---2016/08/20 04:00:27---
Rat has received 60000000 Coins from Trapper

---2016/08/20 04:05:31---
Rat has given 8000000 Coins to Corbsterhd

---2016/08/20 04:05:31---
Rat has received 1 Monkey Tail from Corbsterhd

---2016/08/20 04:06:48---
Rat has given 1 Verac'S Flail to Corbsterhd

---2016/08/20 04:31:46---
Rat has received 1 Fremennik Shield from Defence Pro2

---2016/08/20 04:31:46---
Rat has given 999999 Coins to Defence Pro2

---2016/08/20 04:37:31---
Rat has received 1 Dragon Boots from Ear
Rat has received 1 Serpentine Helm from Ear
Rat has received 1 Ahrim'S Robetop from Ear
Rat has received 1 Ahrim'S Robeskirt from Ear
Rat has received 2 Pegasian Crystal from Ear
Rat has received 2 Smouldering Stone from Ear
Rat has received 2 Dragonfire Shield from Ear
Rat has received 1 Malediction Ward from Ear
Rat has received 1 Odium Ward from Ear
Rat has received 2 Abyssal Whip from Ear
Rat has received 3 Heavy Ballista from Ear
Rat has received 1 Amulet Of Fury from Ear
Rat has received 1 Steam Battlestaff from Ear

---2016/08/20 04:53:19---
Rat has received 1 Armadyl Chainskirt from Ehhhzylo

---2016/08/20 04:53:19---
Rat has given 40000000 Coins to Ehhhzylo

---2016/08/20 05:00:25---
Rat has given 1 Toxic Blowpipe (Empty) to H0ly

---2016/08/20 05:00:25---
Rat has received 160000000 Coins from H0ly

---2016/08/20 05:19:48---
Rat has received 400000000 Coins from Tuckah

---2016/08/20 05:19:48---
Rat has given 1 White Partyhat to Tuckah

---2016/08/20 05:21:02---
Rat has given 1 Green Partyhat to Ehhhzylo

---2016/08/20 05:21:02---
Rat has received 350000000 Coins from Ehhhzylo

---2016/08/20 18:06:37---
Rat has given 1 Yellow Partyhat to Zulrah

---2016/08/20 18:06:37---
Rat has received 355000000 Coins from Zulrah

---2016/08/20 18:24:27---
Rat has given 1 Primordial Boots to Rolex

---2016/08/20 18:24:27---
Rat has received 60000000 Coins from Rolex
Rat has received 4 Mystery Box from Rolex

---2016/08/20 18:37:14---
Rat has given 102000000 Coins to Rolex

---2016/08/20 18:37:14---
Rat has received 1 $5 Bond from Rolex
Rat has received 246 Dragon Bones from Rolex

---2016/08/20 18:54:39---
Rat has received 300000000 Coins from Rolex

---2016/08/20 18:54:39---
Rat has given 1 Rapier to Rolex

---2016/08/20 18:57:20---
Rat has given 180000000 Coins to Skill Vision

---2016/08/20 18:57:20---
Rat has received 1 Ring Of The Drops from Skill Vision
Rat has received 1 Gloves Of Drops from Skill Vision

---2016/08/20 19:18:45---
Rat has given 1096989521 Coins to Nates Mule

---2016/08/20 19:25:01---
Rat has received 1 Crystal Halberd Full from Icantrush

---2016/08/20 19:41:40---
Rat has given 1 Crystal Halberd Full to Icantrush

---2016/08/20 20:37:53---
Rat has received 5000 Coins from Masqueradea

---2016/08/20 21:34:58---
Rat has given 190000000 Coins to Bay

---2016/08/20 21:34:58---
Rat has received 1 $10 Bond from Bay

---2016/08/20 21:38:21---
Rat has received 330000000 Coins from Bay

---2016/08/20 21:38:21---
Rat has given 1 Purple Partyhat to Bay

---2016/08/21 01:36:37---
Rat has received 1 $5 Bond from Soft

---2016/08/21 01:36:37---
Rat has given 90000000 Coins to Soft

---2016/08/21 01:44:18---
Rat has received 1 3rd Age Full Helmet from Onlythink

---2016/08/21 01:44:18---
Rat has given 40000000 Coins to Onlythink

---2016/08/21 02:19:40---
Rat has given 400000000 Coins to Graco

---2016/08/21 02:22:41---
Rat has received 400000000 Coins from Graco

---2016/08/21 04:14:20---
Rat has received 22447 Blood Money from Onlythink

---2016/08/21 04:36:56---
Rat has received 50 Dragon Javelin from Onlythink

---2016/08/21 04:36:56---
Rat has given 3000000 Coins to Onlythink

---2016/08/21 14:26:17---
Rat has given 1 Bandos Chestplate to The Bros 2
Rat has given 1 Bandos Tassets to The Bros 2

---2016/08/21 14:26:17---
Rat has received 151314679 Coins from The Bros 2
Rat has received 17919 Zulrah'S Scales from The Bros 2
Rat has received 1 Toxic Blowpipe (Empty) from The Bros 2

---2016/08/22 00:33:44---
Rat has received 1 Bandos Chestplate from Matt
Rat has received 1 Bandos Tassets from Matt

---2016/08/22 00:33:44---
Rat has given 500000000 Coins to Matt

---2016/08/22 00:44:10---
Rat has received 347000000 Coins from Nates Mule

---2016/08/22 01:01:18---
Rat has given 250000000 Coins to Purerangsaw

---2016/08/22 01:01:18---
Rat has received 2 $5 Bond from Purerangsaw

---2016/08/22 01:04:29---
Rat has received 251000000 Coins from Nates Mule

---2016/08/22 01:09:51---
Rat has given 1 Dragonfire Shield to Pksir

---2016/08/22 01:09:51---
Rat has received 1 Dragon Chainbody Ornament Kit from Pksir

---2016/08/22 01:11:16---
Rat has given 10000000 Coins to Pksir

---2016/08/22 01:11:16---
Rat has received 1 Dragon Platelegs from Pksir

---2016/08/22 01:13:35---
Rat has given 7000000 Coins to Mule
Rat has given 1 Heavy Ballista to Mule

---2016/08/22 01:13:35---
Rat has received 1 Dragon Plate/Skirt Ornament Kit from Mule

---2016/08/22 01:16:53---
Rat has given 1 Santa Hat to Stelios

---2016/08/22 01:17:16---
Rat has received 1 Santa Hat from Stelios

---2016/08/22 01:18:42---
Rat has given 1 Dragon Boots to Shy Glizzy
Rat has given 1 Abyssal Whip to Shy Glizzy
Rat has given 1 Toktz-Ket-Xil to Shy Glizzy

---2016/08/22 01:20:15---
Rat has received 1 Dharok'S Platebody from Rolex
Rat has received 1 Dharok'S Platelegs from Rolex

---2016/08/22 01:20:15---
Rat has given 15000000 Coins to Rolex

---2016/08/22 01:22:48---
Rat has given 1 Dharok'S Platebody to Shy Glizzy
Rat has given 1 Dharok'S Platelegs to Shy Glizzy
Rat has given 15000000 Coins to Shy Glizzy

---2016/08/22 01:25:21---
Rat has received 47000000 Coins from Nates Mule

---2016/08/22 01:28:06---
Rat has given 1 Abyssal Whip to Im Predz

---2016/08/22 01:28:43---
Rat has given 1 Bandos Chestplate to Im Predz
Rat has given 1 Bandos Tassets to Im Predz

---2016/08/22 01:28:43---
Rat has received 1 Abyssal Whip from Im Predz

---2016/08/22 01:32:37---
Rat has given 1 Bludgeon Claw to Im Predz

---2016/08/22 01:33:11---
Rat has received 3 Credits Scroll from Rolexill

---2016/08/22 01:35:18---
Rat has received 4 Credits Scroll from Zakob
Rat has received 127 Adamantite Ore from Zakob
Rat has received 478 Coal from Zakob
Rat has received 1 Uncut Onyx from Zakob

---2016/08/22 01:37:37---
Rat has given 7 Credits Scroll to Rolex
Rat has given 127 Adamantite Ore to Rolex
Rat has given 478 Coal to Rolex
Rat has given 1 Uncut Onyx to Rolex

---2016/08/22 02:46:02---
Rat has given 192 Dragon Bones to Shy Glizzy

---2016/08/22 03:04:59---
Rat has given 1 Heavy Ballista to Onlythink

---2016/08/22 04:39:55---
Rat has received 452239521 Coins from Nates Mule

---2016/08/22 04:43:30---
Rat has received 125000000 Coins from Range Owns6

---2016/08/22 04:43:30---
Rat has given 1 Amulet Of Drops to Range Owns6

---2016/08/22 05:08:32---
Rat has given 573468391 Coins to Nates Mule

---2016/08/22 05:09:43---
Rat has given 5000005 Coins to Ehhhzylo

---2016/08/22 05:09:43---
Rat has received 100 Dragon Javelin from Ehhhzylo

---2016/08/22 19:11:45---
Rat has received 175000000 Coins from Skill Vision

---2016/08/22 19:12:22---
Rat has given 350000000 Coins to Skill Vision

---2016/08/22 19:12:44---
Rat has received 100000000 Coins from Skill Vision
Rat has received 1 Amulet Of Drops from Skill Vision

---2016/08/22 19:14:07---
Rat has received 1 Berserker Ring from Skill Vision
Rat has received 1 Amulet Of Torture from Skill Vision
Rat has received 250000000 Coins from Skill Vision
Rat has received 1 Serpentine Helm from Skill Vision
Rat has received 1 Godsword Blade from Skill Vision
Rat has received 1 Primordial Boots from Skill Vision
Rat has received 1 Bandos Chestplate from Skill Vision
Rat has received 1 Bandos Tassets from Skill Vision

---2016/08/22 19:15:18---
Rat has given 1 Berserker Ring to Skill Vision
Rat has given 1 Amulet Of Torture to Skill Vision
Rat has given 1 Serpentine Helm to Skill Vision
Rat has given 300000000 Coins to Skill Vision
Rat has given 1 Godsword Blade to Skill Vision
Rat has given 1 Primordial Boots to Skill Vision
Rat has given 1 Bandos Chestplate to Skill Vision
Rat has given 1 Bandos Tassets to Skill Vision
Rat has given 3 Toxic Blowpipe (Empty) to Skill Vision

---2016/08/22 19:18:11---
Rat has received 130000000 Coins from Nates Mule

---2016/08/22 20:24:58---
Rat has received 20000000 Coins from D4rk K0

---2016/08/22 20:24:58---
Rat has given 1 Smouldering Stone to D4rk K0

---2016/08/22 20:58:27---
Rat has received 1 Dragon Full Helm Ornament Kit from Dad

---2016/08/22 20:58:27---
Rat has given 10000000 Coins to Dad

---2016/08/22 21:30:45---
Rat has received 1 Toxic Blowpipe (Empty) from Skill Vision

---2016/08/22 21:32:45---
Rat has received 1 Toxic Blowpipe (Empty) from Skill Vision

---2016/08/22 21:36:20---
Rat has received 1 Rapier from Skill Vision

---2016/08/22 21:38:38---
Rat has received 100000000 Coins from Skill Vision

---2016/08/28 12:03:12---
Rat has given 1 Amulet Of Torture to 262654386914
Rat has given 1 3rd Age Robe Top to 262654386914
Rat has given 1 Serpentine Helm to 262654386914
Rat has given 2147483647 Coins to 262654386914
Rat has given 1 Dragon Claws to 262654386914
Rat has given 1 3rd Age Robe to 262654386914
Rat has given 1 3rd Age Wand to 262654386914
Rat has given 2 Rapier to 262654386914
Rat has given 1 Toxic Staff Of The Dead to 262654386914
Rat has given 1 Abyssal Bludgeon to 262654386914
Rat has given 1 Abyssal Dagger to 262654386914
Rat has given 1 Blue Partyhat to 262654386914
Rat has given 1 Dragonfire Shield to 262654386914
Rat has given 1 Primordial Boots to 262654386914
Rat has given 1 Bandos Chestplate to 262654386914
Rat has given 1 Dragon Full Helm Ornament Kit to 262654386914
Rat has given 1 Bandos Tassets to 262654386914
Rat has given 1 Santa Hat to 262654386914
Rat has given 2 Toxic Blowpipe (Empty) to 262654386914
Rat has given 1 Black Santa Hat to 262654386914

---2016/08/28 12:04:38---
Rat has given 1 Damaged Unholy Book to 262654386914
Rat has given 1 Amulet Of Torture to 262654386914
Rat has given 1 3rd Age Wand to 262654386914
Rat has given 1 3rd Age Full Helmet to 262654386914
Rat has given 3 Eternal Boots to 262654386914
Rat has given 1 Armadyl Chestplate to 262654386914
Rat has given 1 Rangers' Tunic to 262654386914
Rat has given 1 Armadyl Chainskirt to 262654386914
Rat has given 1 Ring Of The Drops to 262654386914
Rat has given 3 Bandos Chestplate to 262654386914
Rat has given 2 Arcane Spirit Shield to 262654386914
Rat has given 3 Bandos Tassets to 262654386914
Rat has given 1 Toxic Blowpipe (Empty) to 262654386914
Rat has given 1 Toxic Blowpipe to 262654386914
Rat has given 1 Dragon Chainbody (G) to 262654386914
Rat has given 1 Dragon Platelegs (G) to 262654386914

---2016/08/28 12:05:19---
Rat has given 1 Golden Key to 262654386914
Rat has given 1 Black H'Ween Mask to 262654386914
Rat has given 1 Quest Point Cape (T) to 262654386914
