
---2016/07/15 05:48:38---
Relax has received 1 Trident Of The Swamp from Extfallen

---2016/07/17 04:05:37---
Relax has given 1 Anti-Dragon Shield to Shreadmaster
Relax has given 1 Draconic Visage to Shreadmaster

---2016/07/17 04:05:54---
Relax has received 1 Anti-Dragon Shield from Shreadmaster
Relax has received 1 Draconic Visage from Shreadmaster

---2016/07/17 04:07:11---
Relax has given 1 Anti-Dragon Shield to Matt
Relax has given 1 Draconic Visage to Matt

---2016/07/17 04:07:11---
Relax has received 2 Shark from Matt

---2016/07/17 04:07:30---
Relax has received 1 Dragonfire Shield from Matt

---2016/07/17 18:19:42---
Relax has given 2000000 Coins to Olleking

---2016/07/17 18:19:42---
Relax has received 2000 Zulrah'S Scales from Olleking

---2016/07/17 18:23:28---
Relax has received 1 Ahrim'S Robetop from Inflexion
Relax has received 1 Ahrim'S Robeskirt from Inflexion

---2016/07/17 23:33:08---
Relax has given 1 Ahrim'S Robetop to Inflexion
Relax has given 1 Ahrim'S Robeskirt to Inflexion

---2016/07/18 00:06:37---
Relax has received 1 Abyssal Bludgeon from Pfraru

---2016/07/18 14:41:37---
Relax has received 1 Rune Sq Shield from Soft
Relax has received 2 Steel Bar from Soft
Relax has received 1 Black Cane from Soft
Relax has received 2 Varrock Teleport from Soft
Relax has received 1 Slayer Bell from Soft
Relax has received 10 Feather from Soft
Relax has received 1 Loop Half Of Key from Soft

---2016/07/18 18:20:43---
Relax has received 2147000000 Coins from Masquerade

---2016/07/18 18:26:48---
Relax has given 2000000000 Coins to Inflexion

---2016/07/18 19:04:08---
Relax has received 1 Redwood Log from Camelcrusher

---2016/07/21 02:35:07---
Relax has received 9341 Saradomin Godsword from Starxz

---2016/07/21 02:40:41---
Relax has given 140000000 Coins to Tuckah

---2016/07/21 02:40:41---
Relax has received 500000000 Coins from Tuckah
Relax has received 23 Purple Partyhat from Tuckah

---2016/07/21 02:44:01---
Relax has received 4000 Saradomin Godsword from Tuckah

---2016/07/21 02:44:25---
Relax has received 8000 Saradomin Godsword from Tuckah

---2016/07/21 02:45:14---
Relax has given 1 Saradomin Godsword to Tuckah

---2016/07/21 02:45:14---
Relax has received 100000 Saradomin Godsword from Tuckah

---2016/07/21 02:48:58---
Relax has given 1 Purple Partyhat to Shreadmaster

---2016/07/21 02:52:03---
Relax has received 2147483647 Coins from Dill
Relax has received 1 3rd Age Full Helmet from Dill

---2016/07/21 02:52:03---
Relax has given 2107702610 Coins to Dill

---2016/07/21 02:53:25---
Relax has received 1000 3rd Age Full Helmet from Dill

---2016/07/21 02:54:44---
Relax has received 20000 Armadyl Chestplate from Dill
Relax has received 1000000000 Purple Partyhat from Dill
Relax has received 20000 3rd Age Longsword from Dill
Relax has received 1000000000 Bandos Tassets from Dill
Relax has received 1000000000 3rd Age Full Helmet from Dill

---2016/07/21 02:57:12---
Relax has received 1 Armadyl Chainskirt from Dill

---2016/07/21 03:01:06---
Relax has given 2147483647 Coins to Wafes
Relax has given 1 Armadyl Chestplate to Wafes
Relax has given 1 Bandos Tassets to Wafes
Relax has given 1 3rd Age Full Helmet to Wafes
Relax has given 1 Saradomin Godsword to Wafes

---2016/07/21 03:02:27---
Relax has given 1 Dragon Dagger to Adele

---2016/07/21 03:15:31---
Relax has received 59 Saradomin Godsword from Starxz

---2016/07/21 03:16:09---
Relax has received 112000000 Saradomin Godsword from Starxz

---2016/07/21 03:22:06---
Relax has received 140000 Elysian Spirit Shield from Tuckah

---2016/07/21 03:22:59---
Relax has given 1 3rd Age Longsword to Tuckah

---2016/07/21 03:22:59---
Relax has received 200000 Elysian Spirit Shield from Tuckah

---2016/07/21 03:24:00---
Relax has given 12 Elysian Spirit Shield to Hehe Xd

---2016/07/21 03:24:00---
Relax has received 1 Elysian Spirit Shield from Hehe Xd
Relax has received 1 Red Halloween Mask from Hehe Xd
Relax has received 1 Green Partyhat from Hehe Xd
Relax has received 1 Armadyl Chestplate from Hehe Xd
Relax has received 1 3rd Age Cloak from Hehe Xd
Relax has received 1 3rd Age Wand from Hehe Xd
Relax has received 1 3rd Age Bow from Hehe Xd
Relax has received 1 White Partyhat from Hehe Xd
Relax has received 1 Bandos Tassets from Hehe Xd
Relax has received 1 Saradomin Godsword from Hehe Xd
Relax has received 1 3rd Age Full Helmet from Hehe Xd

---2016/07/21 03:35:45---
Relax has received 6 Monkfish from Ussj Trunks

---2016/07/21 03:35:45---
Relax has given 2130540000 Coins to Ussj Trunks
Relax has given 1 Armadyl Chestplate to Ussj Trunks
Relax has given 6 Purple Partyhat to Ussj Trunks
Relax has given 1 3rd Age Longsword to Ussj Trunks
Relax has given 1 Bandos Tassets to Ussj Trunks
Relax has given 1 Saradomin Godsword to Ussj Trunks

---2016/07/21 03:59:19---
Relax has given 1 Elysian Spirit Shield to Wafes

---2016/07/21 04:00:29---
Relax has received 2146744958 Coins from Pvm Nepo

---2016/07/21 04:00:29---
Relax has given 1 Red Halloween Mask to Pvm Nepo
Relax has given 1 Elysian Spirit Shield to Pvm Nepo
Relax has given 2063379955 Coins to Pvm Nepo
Relax has given 1 Armadyl Chestplate to Pvm Nepo
Relax has given 1 Purple Partyhat to Pvm Nepo
Relax has given 1 Bandos Tassets to Pvm Nepo
Relax has given 1 3rd Age Longsword to Pvm Nepo
Relax has given 1 Saradomin Godsword to Pvm Nepo
Relax has given 1 3rd Age Full Helmet to Pvm Nepo

---2016/07/22 20:38:22---
Relax has given 70000000 Coins to The Bros 2
Relax has given 1 Abyssal Bludgeon to The Bros 2

---2016/07/22 20:38:22---
Relax has received 1 Toxic Blowpipe (Empty) from The Bros 2

---2016/07/22 21:21:30---
Relax has received 1509 Zulrah'S Scales from Laura46

---2016/07/22 21:21:30---
Relax has given 3000000 Coins to Laura46

---2016/07/22 21:26:04---
Relax has received 12500 Zulrah'S Scales from Derek

---2016/07/22 21:26:04---
Relax has given 25000000 Coins to Derek
