
---2016/06/30 20:59:57---
Slime has received 2 Loop Half Of Key from Inflexion

---2016/06/30 20:59:57---
Slime has given 2 Tooth Half Of Key to Inflexion

---2016/07/01 08:04:42---
Slime has received 1 Infinity Gloves from Bounce Up

---2016/07/01 08:06:26---
Slime has received 1 Amulet Of Glory(4) from Bounce Up
Slime has received 1 Climbing Boots from Bounce Up
Slime has received 1 Rune Platebody from Bounce Up
Slime has received 1 Rune Platelegs from Bounce Up
Slime has received 1 Dragon Scimitar from Bounce Up
Slime has received 1 Helm Of Neitiznot from Bounce Up

---2016/07/01 08:06:39---
Slime has received 1 Loop Half Of Key from Ominous

---2016/07/01 08:06:39---
Slime has given 1 Loop Half Of Key to Ominous

---2016/07/01 08:06:50---
Slime has received 1 Rune Full Helm from Bounce Up

---2016/07/01 08:07:30---
Slime has given 1 Amulet Of Glory(4) to Bounce Up
Slime has given 1 Climbing Boots to Bounce Up
Slime has given 1 Dragon Scimitar to Bounce Up
Slime has given 1 Helm Of Neitiznot to Bounce Up

---2016/07/01 08:10:19---
Slime has given 1 Rune Kiteshield to Bounce Up
Slime has given 1 Rune Platebody to Bounce Up
Slime has given 1 Rune Platelegs to Bounce Up
Slime has given 1 Rune Full Helm to Bounce Up

---2016/07/01 08:15:43---
Slime has received 1 Rune Platelegs from Bounce Up
Slime has received 1 Rune Platebody from Bounce Up
Slime has received 1 Rune Full Helm from Bounce Up

---2016/07/01 08:16:26---
Slime has received 1 Rune Kiteshield from Bounce Up

---2016/07/01 08:17:02---
Slime has given 4 Prayer Potion(4) to Bounce Up

---2016/07/01 08:17:17---
Slime has given 1 Rune Kiteshield to Bounce Up
Slime has given 1 Rune Platelegs to Bounce Up
Slime has given 1 Rune Platebody to Bounce Up
Slime has given 1 Rune Full Helm to Bounce Up

---2016/07/01 08:53:14---
Slime has received 1 Tooth Half Of Key from Bounce Up

---2016/07/01 08:54:06---
Slime has given 1 Shield Right Half to Bounce Up

---2016/07/01 08:56:57---
Slime has received 45 Death Rune from Bounce Up

---2016/07/01 09:32:58---
Slime has given 1 Rune Warhammer to Bounce Up
Slime has given 1 Elemental Shield to Bounce Up
Slime has given 1 Blue D'Hide Chaps to Bounce Up

---2016/07/01 09:48:05---
Slime has received 11 Shark from Bounce Up

---2016/07/01 09:48:05---
Slime has given 10000 Coins to Bounce Up

---2016/07/01 09:52:08---
Slime has received 60000 Coins from Bounce Up

---2016/07/01 10:04:01---
Slime has given 2 Tzhaar-Ket-Om to Bounce Up
Slime has given 1 Amulet Of Glory(4) to Bounce Up
Slime has given 1 Super Restore(4) to Bounce Up
Slime has given 1 Climbing Boots to Bounce Up
Slime has given 1 Super Defence(2) to Bounce Up
Slime has given 1 Ring Of Recoil to Bounce Up
Slime has given 1 Rune Platebody to Bounce Up
Slime has given 1 Rune Platelegs to Bounce Up
Slime has given 1 Rune Shield (H1) to Bounce Up
Slime has given 1 Dragon Scimitar to Bounce Up
Slime has given 1 Helm Of Neitiznot to Bounce Up
Slime has given 1 Dragon Dagger to Bounce Up

---2016/07/01 10:05:59---
Slime has received 1 Tzhaar-Ket-Om from Bounce Up

---2016/07/01 10:49:49---
Slime has given 3 Cosmic Rune to Bounce Up

---2016/07/01 10:51:37---
Slime has received 3 Cosmic Rune from Bounce Up
Slime has received 1 Staff Of Earth from Bounce Up
Slime has received 2 Dragonstone Ring from Bounce Up

---2016/07/01 10:54:28---
Slime has given 2 Ring Of Wealth to Bounce Up

---2016/07/01 10:56:28---
Slime has received 1 Dragonstone Ring from Bounce Up

---2016/07/01 10:57:52---
Slime has given 19932 Coins to Bounce Up

---2016/07/01 11:02:44---
Slime has given 1 Zul-Andra Teleport to Bounce Up

---2016/07/01 11:06:26---
Slime has given 1 Zul-Andra Teleport to Bounce Up

---2016/07/01 11:09:59---
Slime has given 1 Zul-Andra Teleport to Bounce Up

---2016/07/01 11:12:59---
Slime has given 1 Zul-Andra Teleport to Bounce Up

---2016/07/01 11:16:31---
Slime has given 1 Zul-Andra Teleport to Bounce Up

---2016/07/01 11:20:07---
Slime has given 1 Zul-Andra Teleport to Bounce Up

---2016/07/01 11:24:07---
Slime has given 195000 Coins to Bounce Up

---2016/07/01 11:25:36---
Slime has received 1 Rune Crossbow from Bounce Up
Slime has received 11 Runite Bolts from Bounce Up

---2016/07/01 11:27:26---
Slime has received 2 Zul-Andra Teleport from Bounce Up

---2016/07/01 11:34:46---
Slime has received 158941 Coins from Bounce Up

---2016/07/01 11:39:32---
Slime has received 150000 Coins from Bounce Up

---2016/07/01 11:46:43---
Slime has received 150000 Coins from Bounce Up

---2016/07/01 11:50:38---
Slime has received 4 Zul-Andra Teleport from Bounce Up

---2016/07/01 11:59:20---
Slime has given 199 Zulrah'S Scales to Bounce Up

---2016/07/01 12:43:59---
Slime has received 11 Shark from Bounce Up

---2016/07/01 13:27:21---
Slime has received 1 Amulet Of Glory(4) from Bounce Up
Slime has received 1 Black D'Hide Chaps from Bounce Up
Slime has received 1 Dragon Spear from Bounce Up
Slime has received 1 Rune Longsword from Bounce Up
Slime has received 1 Black D'Hide Body from Bounce Up
Slime has received 100 Rune Arrow from Bounce Up
Slime has received 1 Helm Of Neitiznot from Bounce Up
Slime has received 1 Shield Left Half from Bounce Up
Slime has received 1711 Iron Knife from Bounce Up

---2016/07/01 13:27:21---
Slime has given 10 Shark to Bounce Up
Slime has given 1 Prayer Potion(4) to Bounce Up

---2016/07/01 13:53:16---
Slime has received 1 Dragonstone Ring from Bounce Up

---2016/07/01 13:58:14---
Slime has received 1 Rune Plateskirt from Tez

---2016/07/01 14:22:29---
Slime has received 5 Zul-Andra Teleport from Bounce Up

---2016/07/01 14:27:21---
Slime has received 34 Runite Bolts from Inflexion

---2016/07/01 14:40:56---
Slime has received 5194 Zulrah'S Scales from Bounce Up

---2016/07/01 14:41:42---
Slime has given 5434 Zulrah'S Scales to Bounce Up
Slime has given 1 Toxic Blowpipe (Empty) to Bounce Up

---2016/07/01 14:51:00---
Slime has received 5467 Zulrah'S Scales from Bounce Up
Slime has received 56 Rune Dart from Bounce Up
Slime has received 1 Toxic Blowpipe (Empty) from Bounce Up

---2016/07/01 14:51:40---
Slime has given 34 Runite Bolts to Bounce Up

---2016/07/01 15:00:22---
Slime has given 5963 Zulrah'S Scales to Bounce Up
Slime has given 101 Rune Dart to Bounce Up
Slime has given 1 Toxic Blowpipe (Empty) to Bounce Up

---2016/07/01 15:00:56---
Slime has received 39 Runite Bolts from Bounce Up

---2016/07/01 22:41:00---
Slime has received 2 Tooth Half Of Key from Bounce Up

---2016/07/01 23:17:42---
Slime has received 1 Karil'S Leathertop from Bounce Up
Slime has received 1 Karil'S Leatherskirt from Bounce Up
Slime has received 10093 Zulrah'S Scales from Bounce Up
Slime has received 1 Toxic Blowpipe (Empty) from Bounce Up
Slime has received 909 Dragon Dart from Bounce Up

---2016/07/01 23:18:18---
Slime has given 1 Karil'S Leathertop to Bounce Up
Slime has given 1 Karil'S Leatherskirt to Bounce Up
Slime has given 10093 Zulrah'S Scales to Bounce Up
Slime has given 1 Toxic Blowpipe (Empty) to Bounce Up
Slime has given 909 Dragon Dart to Bounce Up

---2016/07/01 23:27:58---
Slime has received 1 Karil'S Leathertop from Bounce Up
Slime has received 1 Karil'S Leatherskirt from Bounce Up
Slime has received 10258 Zulrah'S Scales from Bounce Up
Slime has received 1 Toxic Blowpipe (Empty) from Bounce Up
Slime has received 862 Dragon Dart from Bounce Up

---2016/07/01 23:28:31---
Slime has received 10 Zul-Andra Teleport from Bounce Up

---2016/07/01 23:39:05---
Slime has given 16 Runite Bolts to Bounce Up
Slime has given 1 Dragon Scimitar to Bounce Up

---2016/07/02 00:04:52---
Slime has received 1000 Dragon Dart from Bounce Up

---2016/07/02 00:05:07---
Slime has given 1 Pink Headband to Bounce Up
Slime has given 1 Gilded Platebody to Bounce Up
Slime has given 1 Rune Shield (H2) to Bounce Up

---2016/07/02 00:43:31---
Slime has given 100 Magic Logs to Drifta

---2016/07/02 00:43:31---
Slime has received 500000 Coins from Drifta

---2016/07/02 00:51:09---
Slime has given 1 Rune Warhammer to Inflexion

---2016/07/02 01:29:40---
Slime has received 1800000 Coins from Saint

---2016/07/02 01:29:40---
Slime has given 180 Dragon Bones to Saint

---2016/07/02 02:18:48---
Slime has given 100 Dragon Dart to Bounce Up

---2016/07/02 02:39:56---
Slime has given 1 Karil'S Leathertop to Bounce Up
Slime has given 1 Karil'S Leatherskirt to Bounce Up
Slime has given 16349 Zulrah'S Scales to Bounce Up
Slime has given 1 Toxic Blowpipe (Empty) to Bounce Up

---2016/07/02 02:40:59---
Slime has given 703 Dragon Dart to Bounce Up

---2016/07/02 04:05:18---
Slime has received 1 Hammer from Xp Over Gf

---2016/07/02 04:06:34---
Slime has given 1 Hammer to Xp Over Gf

---2016/07/02 05:00:22---
Slime has received 1 Verac'S Helm from Dr Buttsecks

---2016/07/02 05:00:22---
Slime has given 1000000 Coins to Dr Buttsecks
Slime has given 60 Dragon Bones to Dr Buttsecks
Slime has given 301 Magic Logs to Dr Buttsecks
Slime has given 1 Loop Half Of Key to Dr Buttsecks

---2016/07/02 05:26:27---
Slime has received 1 Karil'S Leathertop from Bounce Up
Slime has received 1 Karil'S Leatherskirt from Bounce Up
Slime has received 14092 Zulrah'S Scales from Bounce Up
Slime has received 1 Toxic Blowpipe (Empty) from Bounce Up
Slime has received 824 Dragon Dart from Bounce Up

---2016/07/02 07:13:48---
Slime has received 2 Shark from Dr Buttsecks

---2016/07/02 07:13:48---
Slime has given 1 Amulet Of Power to Dr Buttsecks
Slime has given 1 Diamond Ring to Dr Buttsecks

---2016/07/02 07:23:52---
Slime has received 1 Amulet Of Power from Dr Buttsecks
Slime has received 1 Diamond Ring from Dr Buttsecks

---2016/07/02 07:26:21---
Slime has given 1 Diamond Ring to Dr Buttsecks

---2016/07/02 07:30:34---
Slime has received 5250000 Coins from Derek
Slime has received 1 Dharok'S Helm 0 from Derek

---2016/07/02 07:30:34---
Slime has given 1 Dragon Axe to Derek

---2016/07/02 07:37:15---
Slime has received 1 Dark Bow from Bounce Up

---2016/07/02 08:01:01---
Slime has given 2 Tooth Half Of Key to Bounce Up

---2016/07/02 08:01:59---
Slime has received 1 Infinity Top from Bounce Up

---2016/07/02 08:28:34---
Slime has given 1 Tooth Half Of Key to Bounce Up

---2016/07/02 08:43:58---
Slime has given 1 Dark Bow to Bounce Up

---2016/07/02 09:06:50---
Slime has given 1 Draconic Visage to Bounce Up

---2016/07/02 09:08:12---
Slime has received 1 Draconic Visage from Bounce Up

---2016/07/02 09:08:58---
Slime has given 1 Infinity Boots to Bounce Up

---2016/07/02 09:10:42---
Slime has given 15911 Zulrah'S Scales to Bounce Up
Slime has given 1 Draconic Visage to Bounce Up
Slime has given 1 Toxic Blowpipe (Empty) to Bounce Up
Slime has given 847 Dragon Dart to Bounce Up

---2016/07/02 09:16:10---
Slime has received 1 Draconic Visage from Bounce Up
Slime has received 16295 Zulrah'S Scales from Bounce Up
Slime has received 1 Toxic Blowpipe (Empty) from Bounce Up
Slime has received 847 Dragon Dart from Bounce Up

---2016/07/02 09:17:43---
Slime has given 100 Magic Logs to Derek

---2016/07/02 09:17:43---
Slime has received 150000 Coins from Derek

---2016/07/02 09:55:31---
Slime has given 4000000 Coins to Bounce Up

---2016/07/02 09:56:47---
Slime has given 1 Karil'S Coif 0 to Bounce Up
Slime has given 2 Ahrim'S Hood to Bounce Up
Slime has given 1 Dharok'S Helm 0 to Bounce Up
Slime has given 1 Draconic Visage to Bounce Up
Slime has given 1 Guthan'S Platebody 0 to Bounce Up
Slime has given 1 Torag'S Helm to Bounce Up
Slime has given 1 Torag'S Hammers to Bounce Up
Slime has given 1 Toxic Blowpipe (Empty) to Bounce Up
Slime has given 1 Torag'S Platelegs 0 to Bounce Up
Slime has given 847 Dragon Dart to Bounce Up

---2016/07/02 09:57:32---
Slime has given 22333 Zulrah'S Scales to Nick

---2016/07/02 10:05:06---
Slime has received 23000 Zulrah'S Scales from Nick

---2016/07/02 10:10:25---
Slime has received 4000000 Coins from Bounce Up
Slime has received 2 Ahrim'S Hood from Bounce Up
Slime has received 1 Karil'S Coif 0 from Bounce Up
Slime has received 1 Dharok'S Helm 0 from Bounce Up
Slime has received 1 Draconic Visage from Bounce Up
Slime has received 1 Guthan'S Platebody 0 from Bounce Up
Slime has received 1 Torag'S Helm from Bounce Up
Slime has received 1 Torag'S Hammers from Bounce Up
Slime has received 1 Toxic Blowpipe (Empty) from Bounce Up
Slime has received 1 Torag'S Platelegs 0 from Bounce Up
Slime has received 847 Dragon Dart from Bounce Up

---2016/07/02 10:14:50---
Slime has received 1 Rune Pickaxe from Bounce Up

---2016/07/02 10:14:50---
Slime has given 1 Toxic Blowpipe (Empty) to Bounce Up
Slime has given 847 Dragon Dart to Bounce Up

---2016/07/02 10:59:37---
Slime has given 1 Infinity Top to Bounce Up

---2016/07/02 11:06:13---
Slime has received 1 Dark Bow from Bounce Up
Slime has received 394 Rune Arrow from Bounce Up

---2016/07/02 11:07:04---
Slime has received 171 Dragon Dart from Bounce Up

---2016/07/02 13:33:01---
Slime has received 1 Dragon Pickaxe from Bounce Up

---2016/07/02 13:46:13---
Slime has given 1 Black D'Hide Chaps to Bounce Up
Slime has given 1 Archer Helm to Bounce Up
Slime has given 1 Black D'Hide Body to Bounce Up
Slime has given 1 Black D'Hide Vamb to Bounce Up

---2016/07/02 14:25:30---
Slime has given 1 Cosmic Rune to Bay

---2016/07/02 14:33:14---
Slime has received 10 Runite Ore from Drifta
Slime has received 25 Adamantite Bar from Drifta
Slime has received 2 Runite Bar from Drifta

---2016/07/02 14:39:22---
Slime has received 15758 Zulrah'S Scales from Bounce Up
Slime has received 1 Toxic Blowpipe (Empty) from Bounce Up
Slime has received 429 Dragon Dart from Bounce Up

---2016/07/02 14:50:23---
Slime has given 300 Dragon Dart to Wicked

---2016/07/02 14:54:12---
Slime has given 1 Dark Bow to Bounce Up

---2016/07/02 15:03:34---
Slime has given 400000 Coins to Bounce Up

---2016/07/02 15:10:19---
Slime has given 584 Rune Arrow to Bounce Up

---2016/07/02 15:30:42---
Slime has received 1 Dharok'S Platebody 0 from Bounce Up

---2016/07/02 16:39:07---
Slime has given 1 Amulet Of Power to Bounce Up
Slime has given 1 Diamond Ring to Bounce Up

---2016/07/02 17:38:28---
Slime has given 250000 Coins to Four
Slime has given 1 Karil'S Coif 0 to Four
Slime has given 1 Ahrim'S Hood to Four

---2016/07/02 17:38:28---
Slime has received 1 Dharok'S Greataxe 0 from Four

---2016/07/02 19:27:14---
Slime has received 1 Shield Right Half from Wicked
Slime has received 1 Shield Left Half from Wicked

---2016/07/02 19:27:41---
Slime has given 1 Dragon Sq Shield to Wicked

---2016/07/03 04:11:28---
Slime has received 1 Primordial Boots from Bounce Up

---2016/07/03 04:11:28---
Slime has given 16383 Zulrah'S Scales to Bounce Up
Slime has given 1 Toxic Blowpipe (Empty) to Bounce Up
Slime has given 729 Dragon Dart to Bounce Up

---2016/07/03 04:53:27---
Slime has received 1 Abyssal Dagger from Bounce Up

---2016/07/03 04:56:28---
Slime has received 1 Dragon Platelegs from Bounce Up

---2016/07/03 05:57:51---
Slime has received 1 Infinity Hat from Bounce Up

---2016/07/03 06:02:04---
Slime has received 1 Zamorak Page 4 from Bounce Up
Slime has received 1 Guthix Page 1 from Bounce Up

---2016/07/03 06:03:36---
Slime has received 1 Toxic Blowpipe (Empty) from Bounce Up
Slime has received 202 Dragon Dart from Bounce Up

---2016/07/03 06:03:36---
Slime has given 1 Abyssal Dagger to Bounce Up

---2016/07/03 06:04:03---
Slime has received 1 Archers Ring from Bounce Up

---2016/07/03 06:04:03---
Slime has given 1 Primordial Boots to Bounce Up

---2016/07/03 06:44:19---
Slime has received 1 Dragon Claws from Bounce Up

---2016/07/03 06:44:19---
Slime has given 20 Impling Jar to Bounce Up

---2016/07/03 06:59:38---
Slime has given 1 Dragon Claws to Bounce Up

---2016/07/03 08:55:39---
Slime has received 1000000 Coins from Nick

---2016/07/03 08:55:39---
Slime has given 10 Zul-Andra Teleport to Nick

---2016/07/03 09:00:07---
Slime has given 3 Zul-Andra Teleport to The Bros 2

---2016/07/03 09:04:42---
Slime has given 1 Red Elegant Shirt to Bounce Up
Slime has given 1 A Powdered Wig to Bounce Up
Slime has given 1 Bandos Robe Top to Bounce Up
Slime has given 1 Brown Headband to Bounce Up
Slime has given 1 Bronze Plateskirt (T) to Bounce Up
Slime has given 1 Black Beret to Bounce Up
Slime has given 1 Pantaloons to Bounce Up
Slime has given 1 Guthix Robe Top to Bounce Up
Slime has given 1 Bronze Kiteshield (T) to Bounce Up

---2016/07/03 09:07:25---
Slime has given 1 Toxic Blowpipe (Empty) to Bounce Up
Slime has given 326 Dragon Dart to Bounce Up

---2016/07/03 09:07:25---
Slime has received 1 Abyssal Dagger from Bounce Up
Slime has received 1 Frozen Abyssal Whip from Bounce Up
Slime has received 1 Primordial Boots from Bounce Up

---2016/07/03 09:08:05---
Slime has given 16383 Zulrah'S Scales to Bounce Up

---2016/07/03 09:11:11---
Slime has received 1 Antipoison(4) from Bounce Up

---2016/07/03 09:31:11---
Slime has received 1 Dark Bow from Bounce Up

---2016/07/03 09:42:02---
Slime has received 5703000 Coins from Soft

---2016/07/03 09:42:02---
Slime has given 3802 Pure Essence to Soft

---2016/07/03 09:55:56---
Slime has given 1 Antipoison(4) to Dr Buttsecks

---2016/07/03 09:55:56---
Slime has received 1 Prayer Potion(4) from Dr Buttsecks

---2016/07/03 12:12:22---
Slime has given 1 Frozen Abyssal Whip to Bounce Up
Slime has given 1 Primordial Boots to Bounce Up

---2016/07/03 12:12:41---
Slime has given 1 Abyssal Dagger to Bounce Up

---2016/07/03 12:19:06---
Slime has given 1 Highwayman Mask to Bounce Up
Slime has given 1 Green Elegant Legs to Bounce Up

---2016/07/03 12:20:46---
Slime has given 1 Black Cane to Bounce Up

---2016/07/03 12:21:21---
Slime has received 2 Saradomin Page 2 from Bounce Up
Slime has received 1 Guthix Page 4 from Bounce Up

---2016/07/03 18:07:06---
Slime has given 1 Antipoison(3) to Derek

---2016/07/03 18:07:06---
Slime has received 3 Shark from Derek

---2016/07/03 20:07:09---
Slime has given 1 Abyssal Whip to Zulrah

---2016/07/03 20:07:09---
Slime has received 74 Runite Ore from Zulrah
Slime has received 83 Coal from Zulrah
Slime has received 1001 Yew Logs from Zulrah

---2016/07/03 20:11:49---
Slime has received 272 Coal from Euforia
Slime has received 100 Silver Ore from Euforia

---2016/07/03 20:11:49---
Slime has given 500181 Coins to Euforia

---2016/07/03 20:42:29---
Slime has received 2 Uncut Diamond from Shreadmaster
Slime has received 1 Ring Mould from Shreadmaster
Slime has received 1 Amulet Mould from Shreadmaster

---2016/07/03 20:42:52---
Slime has given 1 Amulet Of Power to Shreadmaster
Slime has given 1 Diamond Ring to Shreadmaster

---2016/07/03 21:33:46---
Slime has received 500000 Coins from Hellbent

---2016/07/03 21:36:14---
Slime has given 1 Ring Of Wealth to Hellbent

---2016/07/03 21:43:52---
Slime has received 1 Iron Kiteshield (T) from Euforia

---2016/07/04 05:32:07---
Slime has received 30000000 Coins from Inflexion

---2016/07/04 05:32:07---
Slime has given 1 Bludgeon Claw to Inflexion

---2016/07/04 05:38:03---
Slime has received 30000000 Coins from Inflexion

---2016/07/04 05:38:03---
Slime has given 1 Bludgeon Claw to Inflexion

---2016/07/04 05:39:54---
Slime has given 2 Loop Half Of Key to Moocowoinks

---2016/07/04 05:39:54---
Slime has received 2 Tooth Half Of Key from Moocowoinks

---2016/07/04 05:47:47---
Slime has received 1 Abyssal Dagger from Bounce Up
Slime has received 1 Rapier from Bounce Up
Slime has received 1 Primordial Boots from Bounce Up

---2016/07/04 06:11:30---
Slime has received 45 Runite Ore from Inflexion
Slime has received 100 Coal from Inflexion
Slime has received 100 Silver Ore from Inflexion

---2016/07/04 06:11:30---
Slime has given 500 Yew Logs to Inflexion

---2016/07/04 06:12:24---
Slime has given 353 Bow String to Inflexion
Slime has given 409 Yew Longbow (U) to Inflexion
Slime has given 52 Oak Longbow (U) to Inflexion
Slime has given 32 Maple Longbow (U) to Inflexion

---2016/07/04 07:01:11---
Slime has received 16022 Zulrah'S Scales from Bounce Up
Slime has received 1 Toxic Blowpipe (Empty) from Bounce Up
Slime has received 1000 Dragon Dart from Bounce Up

---2016/07/04 07:01:11---
Slime has given 1 Abyssal Dagger to Bounce Up
Slime has given 1 Rapier to Bounce Up
Slime has given 1 Primordial Boots to Bounce Up

---2016/07/04 07:01:44---
Slime has received 1 Dragon Warhammer from Bounce Up

---2016/07/04 07:02:27---
Slime has received 1 Black Cane from Bounce Up
Slime has received 1 Iron Platebody (G) from Bounce Up
Slime has received 1 Iron Platelegs (G) from Bounce Up

---2016/07/04 07:04:10---
Slime has received 2 Saradomin Page 1 from Bounce Up
Slime has received 1 Zamorak Page 4 from Bounce Up
Slime has received 1 Guthix Page 2 from Bounce Up

---2016/07/04 07:04:57---
Slime has given 1 Dragon Warhammer to Bounce Up

---2016/07/04 07:54:10---
Slime has given 1 Ring Of Wealth to Extfallen

---2016/07/04 08:08:01---
Slime has received 1 Bandos Coif from Bounce Up

---2016/07/04 08:35:38---
Slime has given 1 Gold Bar to Extfallen

---2016/07/04 09:33:33---
Slime has given 1 Dragon Pickaxe to Bounce Up

---2016/07/04 09:57:51---
Slime has received 1 Ring Mould from The Bros 2

---2016/07/04 10:02:10---
Slime has received 1 Amulet Of Power from Nick

---2016/07/04 10:02:39---
Slime has given 1 Amulet Of Power to The Bros 2
Slime has given 1 Diamond Ring to The Bros 2

---2016/07/04 10:05:50---
Slime has received 1 Abyssal Dagger from Bounce Up
Slime has received 1 Rapier from Bounce Up
Slime has received 1 Primordial Boots from Bounce Up
Slime has received 1 Amulet Of Fury from Bounce Up

---2016/07/04 10:05:50---
Slime has given 1 Toxic Blowpipe (Empty) to Bounce Up

---2016/07/04 10:27:37---
Slime has received 1 Dragon Boots from Nick
Slime has received 1 Guthix Page 3 from Nick

---2016/07/04 10:27:37---
Slime has given 1 Infinity Hat to Nick

---2016/07/04 10:32:25---
Slime has given 2000000 Coins to I Am Mox

---2016/07/04 10:35:38---
Slime has received 1 Dragon Boots from Bounce Up
Slime has received 1 Abyssal Whip from Bounce Up
Slime has received 1 Toxic Blowpipe (Empty) from Bounce Up

---2016/07/04 10:35:38---
Slime has given 1 Abyssal Dagger to Bounce Up
Slime has given 1 Rapier to Bounce Up
Slime has given 1 Primordial Boots to Bounce Up
Slime has given 1 Amulet Of Fury to Bounce Up

---2016/07/04 10:49:34---
Slime has given 1525 Bolt Rack to Nick

---2016/07/04 12:05:56---
Slime has given 1544 Pure Essence to Soft

---2016/07/04 12:05:56---
Slime has received 2316000 Coins from Soft

---2016/07/04 13:12:12---
Slime has received 1 Rapier from Bounce Up
Slime has received 1 Primordial Boots from Bounce Up

---2016/07/04 13:12:39---
Slime has given 1 Toxic Blowpipe (Empty) to Bounce Up

---2016/07/04 13:19:06---
Slime has received 1 Toxic Blowpipe (Empty) from Bounce Up

---2016/07/04 13:21:05---
Slime has given 1 Rapier to Bounce Up
Slime has given 1 Primordial Boots to Bounce Up

---2016/07/04 13:22:56---
Slime has given 1 Abyssal Whip to The Bros 2

---2016/07/04 13:23:57---
Slime has received 1 Rapier from Nick

---2016/07/04 13:23:57---
Slime has given 1 Toxic Blowpipe (Empty) to Nick

---2016/07/04 13:24:08---
Slime has received 1 Toxic Blowpipe (Empty) from Nick

---2016/07/04 13:24:14---
Slime has given 1 Toxic Blowpipe (Empty) to Nick

---2016/07/04 13:31:41---
Slime has received 1 Super Combat Potion(2) from Nick

---2016/07/04 13:32:00---
Slime has given 1 Super Combat Potion(1) to Nick

---2016/07/04 13:54:55---
Slime has received 1 Toxic Blowpipe (Empty) from Nick

---2016/07/04 13:54:55---
Slime has given 1 Rapier to Nick

---2016/07/04 22:40:48---
Slime has received 1 Amulet Of Power from Shreadmaster

---2016/07/04 23:05:49---
Slime has received 1 Super Combat Potion(4) from Nick

---2016/07/04 23:15:15---
Slime has given 1 Shark to Nick

---2016/07/04 23:15:15---
Slime has received 1 Warrior Ring from Nick

---2016/07/04 23:15:42---
Slime has given 1 Shark to Nick

---2016/07/04 23:15:42---
Slime has received 20 Anglerfish from Nick

---2016/07/04 23:30:12---
Slime has received 1 Dharok'S Helm from Inflexion

---2016/07/04 23:35:08---
Slime has received 1 Rapier from Nick

---2016/07/04 23:36:24---
Slime has given 102 Mithril Ore to Nick
Slime has given 100 Adamantite Ore to Nick
Slime has given 7 Steel Bar to Nick
Slime has given 229 Runite Ore to Nick
Slime has given 924 Coal to Nick
Slime has given 100 Iron Ore to Nick
Slime has given 35 Adamantite Bar to Nick
Slime has given 7 Runite Bar to Nick
Slime has given 100 Gold Ore to Nick

---2016/07/04 23:51:58---
Slime has given 1 Amulet Of Power to Shreadmaster

---2016/07/05 00:08:10---
Slime has received 100 Green Dragonhide from Nick

---2016/07/05 00:38:14---
Slime has given 134 Yew Shortbow (U) to Nick
Slime has given 404 Magic Logs to Nick
Slime has given 49 Yew Logs to Nick

---2016/07/05 00:40:28---
Slime has given 476 Pure Essence to Nick

---2016/07/05 00:56:21---
Slime has given 1 Toxic Blowpipe (Empty) to Nick

---2016/07/05 02:38:12---
Slime has received 2 Dragonstone Ring from Nick

---2016/07/05 03:00:14---
Slime has received 1 Dharok'S Helm 0 from Zulrah

---2016/07/05 03:00:14---
Slime has given 158 Raw Shark to Zulrah
Slime has given 258 Pure Essence to Zulrah
Slime has given 1 Torag'S Hammers 0 to Zulrah
Slime has given 1 Dragon Sq Shield to Zulrah
Slime has given 1 Saradomin Chaps to Zulrah
Slime has given 1 Saradomin Coif to Zulrah
Slime has given 1 Dragon Platelegs to Zulrah
Slime has given 1 Torag'S Helm to Zulrah
Slime has given 1 Mage'S Book to Zulrah
Slime has given 1 Infinity Gloves to Zulrah
Slime has given 1 Archers Ring to Zulrah
Slime has given 1 Dragon Med Helm to Zulrah

---2016/07/05 03:00:48---
Slime has received 250000 Coins from Zulrah

---2016/07/05 03:06:30---
Slime has received 1 Dragon Boots from Nick

---2016/07/05 03:25:48---
Slime has received 1 Karil'S Crossbow from Nick

---2016/07/05 03:26:27---
Slime has given 1 Karil'S Crossbow to Nick

---2016/07/05 05:01:28---
Slime has given 7000000 Coins to Derek

---2016/07/05 05:03:39---
Slime has given 14000000 Coins to Derek

---2016/07/05 05:05:29---
Slime has received 21000000 Coins from Derek
Slime has received 1 Abyssal Whip from Derek

---2016/07/05 05:45:39---
Slime has given 1 Primordial Boots to Bounce Up

---2016/07/05 06:17:38---
Slime has received 1 Smouldering Stone from Craze

---2016/07/05 06:17:38---
Slime has given 8000000 Coins to Craze
Slime has given 1 Dark Bow to Craze
Slime has given 1 Archers Ring to Craze

---2016/07/05 06:18:48---
Slime has received 8000000 Coins from Craze

---2016/07/05 06:18:48---
Slime has given 1 Smouldering Stone to Craze

---2016/07/05 07:02:16---
Slime has received 1 Toxic Blowpipe (Empty) from Bounce Up

---2016/07/05 07:03:31---
Slime has received 1 Dragon Boots from Nick
Slime has received 1 Dharok'S Helm from Nick

---2016/07/05 07:03:58---
Slime has received 1 Ring Of Wealth from Nick

---2016/07/05 07:14:04---
Slime has given 1 Rapier to Nick

---2016/07/05 07:20:04---
Slime has given 1 Dragon Boots to Bounce Up
Slime has given 5000000 Coins to Bounce Up

---2016/07/05 07:29:09---
Slime has given 1 Toxic Blowpipe (Empty) to Nick

---2016/07/05 07:31:17---
Slime has received 1 Toxic Blowpipe (Empty) from Nick

---2016/07/05 07:33:29---
Slime has received 117 Coal from Bounce Up
Slime has received 1 Tooth Half Of Key from Bounce Up
Slime has received 110 Magic Logs from Bounce Up
Slime has received 300 Teak Logs from Bounce Up

---2016/07/05 07:33:29---
Slime has given 1 Karil'S Leathertop to Bounce Up
Slime has given 1 Karil'S Leatherskirt to Bounce Up

---2016/07/05 07:37:10---
Slime has given 117 Coal to Nick
Slime has given 110 Magic Logs to Nick
Slime has given 300 Teak Logs to Nick

---2016/07/05 07:40:02---
Slime has received 1 Red Halloween Mask from The Bros 2

---2016/07/05 07:40:02---
Slime has given 6000000 Coins to The Bros 2
Slime has given 1 Toxic Blowpipe (Empty) to The Bros 2

---2016/07/05 07:42:07---
Slime has given 21942 Zulrah'S Scales to The Bros 2

---2016/07/05 07:42:39---
Slime has received 5559 Zulrah'S Scales from The Bros 2

---2016/07/05 07:44:43---
Slime has received 1500000 Coins from Derek

---2016/07/05 07:44:43---
Slime has given 1 Black Cane to Derek

---2016/07/05 07:49:47---
Slime has received 1 Rogue Top from Derek
Slime has received 1 Rogue Trousers from Derek

---2016/07/05 07:50:06---
Slime has received 1 Rogue Gloves from Derek

---2016/07/05 07:51:05---
Slime has received 1 Mage'S Book from Derek
Slime has received 1 Fremennik Blade from Derek

---2016/07/05 07:54:12---
Slime has received 1 Dragon Boots from Bounce Up

---2016/07/05 07:54:12---
Slime has given 6000000 Coins to Bounce Up

---2016/07/05 08:00:22---
Slime has given 1 Rogue Top to Derek
Slime has given 1 Rogue Trousers to Derek
Slime has given 1 Rogue Gloves to Derek
Slime has given 1 Mage'S Book to Derek
Slime has given 1 Fremennik Blade to Derek

---2016/07/05 08:13:13---
Slime has received 15824 Zulrah'S Scales from The Bros 2
Slime has received 1 Toxic Blowpipe (Empty) from The Bros 2

---2016/07/05 21:48:47---
Slime has received 1 $10 Bond from Nick

---2016/07/05 21:48:47---
Slime has given 1 Toxic Blowpipe (Empty) to Nick

---2016/07/05 21:52:14---
Slime has given 1 Zamorak Chaps to Derek

---2016/07/05 21:53:16---
Slime has given 1 Armadyl Chaps to Derek

---2016/07/05 21:55:51---
Slime has given 1 Guthan'S Platebody to Garrett
Slime has given 6 Loop Half Of Key to Garrett

---2016/07/05 21:56:34---
Slime has given 1 Anti-Dragon Shield to Nick
Slime has given 1 Draconic Visage to Nick

---2016/07/05 21:57:06---
Slime has received 1 Dragonfire Shield from Nick

---2016/07/05 21:58:01---
Slime has given 68 Shark to Generalmac
Slime has given 24 Prayer Potion(4) to Generalmac

---2016/07/05 21:59:45---
Slime has received 1 Infernal Axe from Nick

---2016/07/05 22:33:46---
Slime has received 90 Dragon Bones from Nick

---2016/07/05 22:33:46---
Slime has given 1 Infernal Axe to Nick

---2016/07/05 23:01:25---
Slime has given 400000 Coins to Kerrang

---2016/07/05 23:11:08---
Slime has given 1 Occult Necklace to Derek

---2016/07/05 23:11:08---
Slime has received 300 Babydragon Bones from Derek
Slime has received 120 Dragon Bones from Derek

---2016/07/06 07:32:18---
Slime has received 9000000 Coins from Inflexion

---2016/07/06 07:32:18---
Slime has given 1 Dragon Boots to Inflexion
Slime has given 1 Torag'S Platebody 0 to Inflexion
Slime has given 1 Torag'S Hammers to Inflexion
Slime has given 1 Torag'S Helm 0 to Inflexion
Slime has given 1 Torag'S Platelegs 0 to Inflexion

---2016/07/06 08:14:22---
Slime has received 1 Toxic Blowpipe (Empty) from Nick

---2016/07/06 09:25:49---
Slime has given 1 Toxic Blowpipe (Empty) to Nick

---2016/07/06 09:46:06---
Slime has given 1 Ahrim'S Robetop to Nick

---2016/07/06 09:46:06---
Slime has received 1 Infinity Top from Nick
Slime has received 1 Beaver from Nick

---2016/07/06 10:37:05---
Slime has given 10000000 Coins to The Bros 2

---2016/07/06 10:37:05---
Slime has received 1 Amulet Of Fury from The Bros 2

---2016/07/06 10:42:28---
Slime has received 1 Loop Half Of Key from Nick

---2016/07/06 11:25:47---
Slime has given 3 Shark to Nick

---2016/07/06 11:25:47---
Slime has received 3 Super Restore(4) from Nick
Slime has received 30 Anglerfish from Nick
Slime has received 2 Super Combat Potion(4) from Nick

---2016/07/06 12:09:35---
Slime has received 400 Death Rune from Nick
Slime has received 200 Blood Rune from Nick
Slime has received 600 Water Rune from Nick

---2016/07/06 12:15:31---
Slime has received 2 Anchovy Pizza from Jackson
Slime has received 1 1/2 Anchovy Pizza from Jackson

---2016/07/06 12:35:41---
Slime has given 1 Shark to Nick

---2016/07/06 12:35:41---
Slime has received 24 Dark Crab from Nick

---2016/07/06 12:41:37---
Slime has given 500000 Coins to Jackson

---2016/07/06 23:07:18---
Slime has given 1 Abyssal Whip to Kerrang

---2016/07/06 23:34:56---
Slime has received 256 Zulrah'S Scales from Kerrang

---2016/07/07 00:02:27---
Slime has received 1 Toxic Blowpipe (Empty) from Nick

---2016/07/07 00:53:55---
Slime has given 1 Ecumenical Key to Nick

---2016/07/07 01:06:26---
Slime has received 2 Super Restore(4) from Jackson

---2016/07/07 01:06:26---
Slime has given 2 Shark to Jackson

---2016/07/07 01:23:45---
Slime has given 1 Toxic Blowpipe (Empty) to Nick

---2016/07/07 08:35:11---
Slime has received 50 Raw Shark from Nathan
Slime has received 100 Uncut Diamond from Nathan
Slime has received 15000000 Coins from Nathan
Slime has received 1 Magic Seed from Nathan
Slime has received 5 Ranarr Seed from Nathan

---2016/07/07 08:35:11---
Slime has given 1 Amulet Of Fury to Nathan

---2016/07/07 09:19:39---
Slime has given 1 Elemental Shield to Nathan

---2016/07/07 09:23:57---
Slime has given 1 Ring Of Wealth to Nathan

---2016/07/07 09:27:24---
Slime has given 1 Diamond Ring to Nathan

---2016/07/07 09:33:27---
Slime has received 1 Ring Of Wealth from Nathan

---2016/07/07 09:50:27---
Slime has received 1 Karil'S Crossbow from Nathan

---2016/07/07 09:50:27---
Slime has given 1 Ring Of Wealth to Nathan

---2016/07/07 09:52:13---
Slime has received 1 Shield Right Half from Nathan
Slime has received 1 Shield Left Half from Nathan

---2016/07/07 09:53:10---
Slime has received 1 Karil'S Leathertop 0 from Nathan

---2016/07/07 09:53:10---
Slime has given 1 Dragon Sq Shield to Nathan

---2016/07/07 10:20:30---
Slime has given 627 Pure Essence to Nick

---2016/07/07 11:23:28---
Slime has given 1 Karil'S Leathertop 0 to Jackson

---2016/07/07 11:31:48---
Slime has received 1 Ecumenical Key from Nick

---2016/07/07 12:13:56---
Slime has received 1 Abyssal Bludgeon from Nick

---2016/07/07 12:15:28---
Slime has received 2 Super Combat Potion(4) from Nick

---2016/07/07 12:17:29---
Slime has given 1 Ecumenical Key to Nick

---2016/07/07 12:20:27---
Slime has given 190 Dragon Dart to Jackson

---2016/07/07 12:43:57---
Slime has given 1 Sea Turtle to Nick

---2016/07/07 12:43:57---
Slime has received 2 Monkfish from Nick

---2016/07/07 12:47:54---
Slime has given 1 Super Combat Potion(3) to Jackson

---2016/07/07 12:48:09---
Slime has received 1 Super Combat Potion(2) from Jackson

---2016/07/07 13:03:36---
Slime has given 5000000 Coins to Jackson

---2016/07/07 13:03:36---
Slime has received 1 Verac'S Plateskirt from Jackson

---2016/07/07 13:27:56---
Slime has given 1 Super Restore(3) to Nick
Slime has given 1 Saradomin Brew(4) to Nick

---2016/07/07 13:38:27---
Slime has received 1 Gilded Kiteshield from Nick
Slime has received 100000000 Coins from Nick
Slime has received 1 Gilded Platebody from Nick
Slime has received 1 Gilded Platelegs from Nick
Slime has received 1 Gilded Plateskirt from Nick
Slime has received 1 Gilded Full Helm from Nick

---2016/07/07 13:43:02---
Slime has given 1 Gilded Kiteshield to Nick
Slime has given 100000000 Coins to Nick
Slime has given 1 Gilded Platebody to Nick
Slime has given 2 Gilded Platelegs to Nick
Slime has given 1 Gilded Plateskirt to Nick
Slime has given 1 Gilded Full Helm to Nick
Slime has given 1 Abyssal Bludgeon to Nick

---2016/07/07 13:43:23---
Slime has received 1 Gilded Platelegs from Nick

---2016/07/07 14:40:39---
Slime has received 1 Big Pirate Hat from Nick

---2016/07/07 14:41:08---
Slime has given 1 Big Pirate Hat to Nick
Slime has given 1 Pirate'S Hat to Nick

---2016/07/07 14:43:42---
Slime has received 1 Black Wizard Hat (G) from Nick
Slime has received 1 Black Skirt (G) from Nick

---2016/07/07 14:46:05---
Slime has received 125 Dragon Bones from Nick
Slime has received 1 Black D'Hide Chaps (G) from Nick

---2016/07/07 14:52:03---
Slime has received 1 Gilded Boots from Nick

---2016/07/08 01:33:01---
Slime has received 1 Bandos Chestplate from Nick
Slime has received 1 Bandos Tassets from Nick

---2016/07/08 01:34:09---
Slime has given 1 Bandos Chestplate to Nick
Slime has given 1 Bandos Tassets to Nick

---2016/07/08 07:23:04---
Slime has received 1 Teak Logs from Nick

---2016/07/08 09:13:58---
Slime has received 1 Eternal Boots from Derek

---2016/07/08 09:23:21---
Slime has given 1 Eternal Boots to Nick

---2016/07/08 10:33:23---
Slime has received 63 Yew Logs from Tor

---2016/07/08 10:35:26---
Slime has given 188 Babydragon Bones to Rotterdammer

---2016/07/08 11:41:03---
Slime has received 1 Bludgeon Claw from Shreadmaster

---2016/07/08 11:41:03---
Slime has given 20000000 Coins to Shreadmaster
Slime has given 3 Loop Half Of Key to Shreadmaster

---2016/07/08 15:14:54---
Slime has received 1 Rapier from Nick

---2016/07/09 03:36:42---
Slime has given 1471 Pure Essence to Nick

---2016/07/09 03:38:35---
Slime has received 200 Dark Crab from Nick
Slime has received 300 Anglerfish from Nick
Slime has received 100 Sea Turtle from Nick

---2016/07/09 03:38:58---
Slime has received 14 Dragon Bones from Nick

---2016/07/09 04:41:44---
Slime has given 1 Gilded Plateskirt to Shreadmaster

---2016/07/09 06:37:22---
Slime has received 250 Anglerfish from Tor

---2016/07/09 06:37:22---
Slime has given 1 Dark Cavalier to Tor
Slime has given 1 Black Wizard Robe (T) to Tor
Slime has given 1 Zamorak Robe Legs to Tor
Slime has given 1 Black Wizard Hat (T) to Tor
Slime has given 1 Red Dragon Mask to Tor
Slime has given 1 Iron Platebody (G) to Tor
Slime has given 1 Iron Platelegs (G) to Tor

---2016/07/09 06:43:16---
Slime has given 1 Book Of Darkness to Tor

---2016/07/09 06:43:42---
Slime has given 1 Blue Beret to Tor

---2016/07/09 06:43:51---
Slime has given 1 Black Skirt (T) to Tor

---2016/07/09 07:52:14---
Slime has given 1 Rapier to Nick

---2016/07/09 09:53:18---
Slime has given 1 Rune Shield (H5) to Brendan
Slime has given 1 Rune Boots to Brendan
Slime has given 1 Rune Platebody to Brendan
Slime has given 1 Rune Platelegs to Brendan
Slime has given 1 Dragon Scimitar to Brendan
Slime has given 1 Rune Full Helm to Brendan
Slime has given 1 Helm Of Neitiznot to Brendan

---2016/07/09 09:54:15---
Slime has given 1 Diamond Ring to Nathan

---2016/07/09 09:54:42---
Slime has received 1 Bones from Brendan

---2016/07/09 10:40:56---
Slime has received 2000 Magic Logs from Nick

---2016/07/09 10:40:56---
Slime has given 1048 Pure Essence to Nick

---2016/07/09 12:32:01---
Slime has given 1000000 Coins to Brendan

---2016/07/10 01:00:00---
Slime has given 550000 Coins to Brendan

---2016/07/10 01:00:00---
Slime has received 2479 Zulrah'S Scales from Brendan

---2016/07/10 01:59:59---
Slime has given 750 Big Bones to Corey

---2016/07/10 03:44:53---
Slime has received 1 Rapier from Nick

---2016/07/10 03:45:16---
Slime has received 1 Abyssal Dagger from Nick

---2016/07/10 06:01:17---
Slime has given 230 Big Bones to Clue Mule

---2016/07/10 06:21:49---
Slime has given 1 Abyssal Whip to Brendan

---2016/07/10 06:41:11---
Slime has given 1 Ring Of Wealth to Tuot

---2016/07/10 06:41:11---
Slime has received 1 Ring Mould from Tuot
Slime has received 1 Uncut Dragonstone from Tuot

---2016/07/10 07:18:39---
Slime has received 1 Dark Crab from Nick

---2016/07/10 07:18:39---
Slime has given 1 Abyssal Dagger to Nick

---2016/07/10 07:19:43---
Slime has given 1 Zamorakian Spear to Nick

---2016/07/10 08:20:55---
Slime has given 1 Dragonfire Shield to Derek

---2016/07/10 08:25:15---
Slime has given 1 Amulet Of Fury to Bounce Up

---2016/07/10 08:27:12---
Slime has given 30000000 Coins to Bounce Up

---2016/07/10 08:28:08---
Slime has received 1 Dragonfire Shield from Bounce Up
Slime has received 1 Dragon Claws from Bounce Up

---2016/07/10 08:32:31---
Slime has given 1 Red Halloween Mask to Bounce Up
Slime has given 10000000 Coins to Bounce Up
Slime has given 1 Dragonfire Shield to Bounce Up
Slime has given 1 Dragon Claws to Bounce Up
Slime has given 1 Robin Hood Hat to Bounce Up

---2016/07/10 08:37:24---
Slime has given 1 Blue Halloween Mask to Bounce Up

---2016/07/10 08:37:24---
Slime has received 1 Amulet Of Fury from Bounce Up

---2016/07/10 08:39:46---
Slime has received 10000000 Coins from Bounce Up

---2016/07/10 08:39:46---
Slime has given 1 Crystal Bow Full to Bounce Up

---2016/07/10 08:41:34---
Slime has received 2000000 Coins from Bounce Up

---2016/07/10 08:41:34---
Slime has given 1 Purple Elegant Legs to Bounce Up

---2016/07/10 08:47:00---
Slime has given 1 Karil'S Leatherskirt 0 to Floid

---2016/07/10 08:47:00---
Slime has received 2000000 Coins from Floid

---2016/07/10 08:53:38---
Slime has received 1 Abyssal Whip from Brendan

---2016/07/10 08:58:24---
Slime has given 1 Dharok'S Platebody 0 to Brendan
Slime has given 1 Dharok'S Helm 0 to Brendan
Slime has given 1 Dharok'S Platelegs 0 to Brendan

---2016/07/10 08:59:21---
Slime has given 1 Dharok'S Greataxe 0 to Brendan

---2016/07/10 09:01:14---
Slime has received 1500000 Coins from Nathan

---2016/07/10 09:01:14---
Slime has given 1 Karil'S Leatherskirt 0 to Nathan

---2016/07/10 09:05:39---
Slime has received 3000000 Coins from Floid

---2016/07/10 09:05:39---
Slime has given 1 Dharok'S Platebody to Floid

---2016/07/10 10:47:54---
Slime has received 132 Dragon Bones from Nick

---2016/07/10 10:49:04---
Slime has received 1 Zamorakian Spear from Nick

---2016/07/10 11:19:24---
Slime has received 1 Amulet Of Glory(4) from Nick
Slime has received 1 Rune Crossbow from Nick
Slime has received 1 Dragon Dagger(P++) from Nick
Slime has received 1 Zamorak D'Hide from Nick
Slime has received 1 Infinity Boots from Nick
Slime has received 1 Mage'S Book from Nick
Slime has received 1 Infinity Gloves from Nick
Slime has received 24 Dragon Bolts (E) from Nick

---2016/07/10 11:21:31---
Slime has received 1000 Death Rune from Nick
Slime has received 1000 Blood Rune from Nick
Slime has received 1000 Water Rune from Nick

---2016/07/10 11:35:20---
Slime has received 1 Amulet Of Glory(4) from Nick
Slime has received 1 Rune Crossbow from Nick
Slime has received 1 Zamorak D'Hide from Nick
Slime has received 1 Infinity Boots from Nick
Slime has received 1 Mage'S Book from Nick
Slime has received 1 Infinity Gloves from Nick
Slime has received 11 Dragon Bolts (E) from Nick

---2016/07/10 11:44:41---
Slime has given 1 Rapier to Nick
Slime has given 1 Abyssal Tentacle to Nick

---2016/07/10 11:49:13---
Slime has received 1 Vial from Nick
Slime has received 1 Abyssal Tentacle from Nick

---2016/07/10 11:50:34---
Slime has received 1 Armadyl Helmet from Nick
Slime has received 1 Armadyl Chestplate from Nick

---2016/07/10 11:51:54---
Slime has given 1 Armadyl Helmet to Nick

---2016/07/10 13:34:02---
Slime has received 1 Super Restore(2) from Nick

---2016/07/10 13:35:05---
Slime has received 1 Prayer Potion(3) from Nick

---2016/07/10 13:46:29---
Slime has given 1 Dharok'S Greataxe 0 to Kerrang

---2016/07/10 13:46:29---
Slime has received 2000000 Coins from Kerrang

---2016/07/10 13:47:43---
Slime has received 1 Tooth Half Of Key from Floid

---2016/07/10 13:47:43---
Slime has given 1 Loop Half Of Key to Floid

---2016/07/10 14:24:22---
Slime has given 3 Sea Turtle to Nick

---2016/07/10 14:24:22---
Slime has received 1 Ring Of Wealth from Nick
Slime has received 1 Black D'Hide Chaps (G) from Nick

---2016/07/10 15:00:56---
Slime has given 1 Dragon Dagger to Nick

---2016/07/10 15:04:08---
Slime has received 5000000 Coins from Nick

---2016/07/10 15:38:44---
Slime has given 2000000 Coins to Nick

---2016/07/10 15:40:30---
Slime has received 3000000 Coins from Nick

---2016/07/10 15:48:52---
Slime has given 1 Armadyl Chestplate to Nick

---2016/07/10 16:26:12---
Slime has received 152 Mithril Ore from Nick
Slime has received 377 Pure Essence from Nick
Slime has received 15 Adamantite Ore from Nick
Slime has received 10 Runite Ore from Nick
Slime has received 837 Vial Of Water from Nick
Slime has received 1231 Coal from Nick
Slime has received 42 Crushed Nest from Nick
Slime has received 3139 Magic Logs from Nick
Slime has received 345 Yew Logs from Nick
Slime has received 67 Dwarf Weed from Nick
Slime has received 11 Wine Of Zamorak from Nick
Slime has received 48 Mithril Bar from Nick
Slime has received 207 Grimy Cadantine from Nick
Slime has received 27 Iron Ore from Nick
Slime has received 75 Toadflax Potion (Unf) from Nick
Slime has received 2 Runite Bar from Nick

---2016/07/10 16:27:02---
Slime has received 6000006 Coins from Nick

---2016/07/10 16:27:02---
Slime has given 1 Guthan'S Helm 0 to Nick

---2016/07/10 16:30:09---
Slime has received 60000 Coins from Nick

---2016/07/10 16:40:13---
Slime has received 1 Dragon Boots from Nick
Slime has received 1 Abyssal Tentacle from Nick
Slime has received 1 Ahrim'S Robetop from Nick
Slime has received 1 Amulet Of Fury from Nick
Slime has received 1 Ahrim'S Robeskirt from Nick
Slime has received 1 Helm Of Neitiznot from Nick
Slime has received 1 Staff Of The Dead from Nick

---2016/07/10 16:40:25---
Slime has received 1 Mage'S Book from Nick

---2016/07/11 01:42:51---
Slime has given 2500 Bolt Rack to 99whipping

---2016/07/11 02:06:07---
Slime has received 1 Mystery Box from Legend

---2016/07/11 02:07:33---
Slime has received 1 Saradomin Full Helm from E

---2016/07/11 02:07:33---
Slime has given 1 Crystal Key to E

---2016/07/11 04:35:24---
Slime has given 1 Abyssal Whip to Kefun

---2016/07/11 04:41:55---
Slime has received 1 Zamorakian Spear from Legend
Slime has received 12000000 Coins from Legend

---2016/07/11 04:54:48---
Slime has received 1 Abyssal Whip from Kefun

---2016/07/11 05:00:09---
Slime has received 15500 Coins from Nick

---2016/07/11 05:21:13---
Slime has given 1 Infinity Top to Nick
Slime has given 1 Infinity Hat to Nick

---2016/07/11 05:32:14---
Slime has received 30000000 Coins from Legend

---2016/07/11 08:13:06---
Slime has received 4246 Bolt Rack from Nick
Slime has received 1 Black D'Hide Body from Nick
Slime has received 1 Ahrim'S Robetop from Nick
Slime has received 1 Infinity Boots from Nick
Slime has received 1 Mage'S Book from Nick
Slime has received 1 Ahrim'S Robeskirt from Nick
Slime has received 1 Infinity Gloves from Nick
Slime has received 985 Water Rune from Nick
Slime has received 1 Helm Of Neitiznot from Nick
Slime has received 2971 Death Rune from Nick
Slime has received 1000 Blood Rune from Nick
Slime has received 1 Karil'S Crossbow from Nick
Slime has received 1 Dragon Dagger from Nick

---2016/07/11 08:40:35---
Slime has given 647634996 Coins to Nick

---2016/07/11 08:40:57---
Slime has received 39000000 Coins from Nick

---2016/07/11 08:43:49---
Slime has given 1 Abyssal Whip to Nick

---2016/07/11 08:46:41---
Slime has given 10000000 Coins to Nick

---2016/07/11 08:47:17---
Slime has received 1 Rapier from Nick

---2016/07/11 08:53:50---
Slime has received 20000000 Coins from Kefun

---2016/07/11 08:54:56---
Slime has given 1 Rapier to Nick

---2016/07/11 09:01:58---
Slime has received 1 Abyssal Whip from Nick

---2016/07/11 09:04:21---
Slime has given 15000000 Coins to Kefun

---2016/07/11 09:08:19---
Slime has received 1 Dragon Boots from Kefun
Slime has received 1 Verac'S Helm from Kefun
Slime has received 1 Dragonfire Shield from Kefun
Slime has received 1 Abyssal Tentacle from Kefun
Slime has received 1 Verac'S Plateskirt from Kefun
Slime has received 1 Amulet Of Fury from Kefun

---2016/07/11 09:13:32---
Slime has given 1 Dragonfire Shield to Kefun

---2016/07/11 09:17:22---
Slime has received 1 Dragonfire Shield from Kefun

---2016/07/11 09:42:19---
Slime has received 1 Shark from Jackson

---2016/07/11 09:42:19---
Slime has given 1 Dragonfire Shield to Jackson

---2016/07/11 09:42:50---
Slime has received 1 Dragonfire Shield from Jackson

---2016/07/11 09:50:12---
Slime has given 1 Verac'S Brassard 0 to Nathan
Slime has given 1 Verac'S Plateskirt 0 to Nathan
Slime has given 1 Torag'S Platelegs 0 to Nathan

---2016/07/11 09:50:12---
Slime has received 3000000 Coins from Nathan

---2016/07/11 10:30:35---
Slime has given 1 Dragonfire Shield to Jackson

---2016/07/11 10:46:08---
Slime has received 125 Adamantite Ore from Nick

---2016/07/11 10:49:47---
Slime has received 125 Adamantite Ore from Nick

---2016/07/11 10:50:05---
Slime has given 75 Adamantite Ore to Kefun

---2016/07/11 10:53:19---
Slime has received 1 Dragon Boots from Nick
Slime has received 175 Adamantite Ore from Nick
Slime has received 100 Green Dragonhide from Nick
Slime has received 1 Ring Of Wealth from Nick
Slime has received 1 Helm Of Neitiznot from Nick

---2016/07/11 10:56:11---
Slime has received 1 Abyssal Dagger from Nick
Slime has received 1 Abyssal Bludgeon from Nick

---2016/07/11 11:04:22---
Slime has received 1 Serpentine Helm from Nick
Slime has received 1 Primordial Boots from Nick
Slime has received 1 Bandos Chestplate from Nick
Slime has received 1 Bandos Tassets from Nick

---2016/07/11 11:17:27---
Slime has received 293 Pure Essence from Nick

---2016/07/11 11:19:20---
Slime has received 150 Teak Logs from Nick

---2016/07/11 11:19:20---
Slime has given 1 Shark to Nick

---2016/07/11 11:23:42---
Slime has given 3 Shark to Nick
Slime has given 1 Prayer Potion(4) to Nick

---2016/07/11 11:53:51---
Slime has received 125 Adamantite Ore from Nick

---2016/07/11 12:06:11---
Slime has given 1 Abyssal Dagger to Nick
Slime has given 1 Serpentine Helm to Nick
Slime has given 1 Primordial Boots to Nick
Slime has given 1 Bandos Chestplate to Nick
Slime has given 1 Bandos Tassets to Nick
Slime has given 1 Abyssal Bludgeon to Nick

---2016/07/11 12:15:32---
Slime has received 1 Elite Box from Kefun

---2016/07/11 12:16:31---
Slime has given 1 Guthan'S Platebody 0 to Kefun

---2016/07/11 12:16:52---
Slime has received 1 Elite Box from Kefun

---2016/07/11 12:17:18---
Slime has given 1 Ahrim'S Staff 0 to Kefun

---2016/07/11 12:23:25---
Slime has given 1693 Magic Logs to Kefun
Slime has given 286 Yew Logs to Kefun

---2016/07/11 12:25:44---
Slime has received 286 Yew Logs from Kefun

---2016/07/11 12:30:45---
Slime has received 1 Mystery Box from Kefun

---2016/07/11 12:31:01---
Slime has given 1 Karil'S Leathertop 0 to Kefun

---2016/07/12 00:08:46---
Slime has given 1 Super Restore(4) to Nick
Slime has given 4 Shark to Nick
Slime has given 1 Ranging Potion(2) to Nick

---2016/07/12 00:08:46---
Slime has received 2 Shark from Nick

---2016/07/12 01:13:14---
Slime has received 10000 Zulrah'S Scales from Tor

---2016/07/12 01:13:55---
Slime has received 2000 Zulrah'S Scales from Tor

---2016/07/12 01:16:27---
Slime has given 1 Totem to Tor
Slime has given 50131 Zulrah'S Scales to Tor
Slime has given 1 Chisel to Tor

---2016/07/12 01:17:09---
Slime has received 1 Totem from Tor
Slime has received 50186 Zulrah'S Scales from Tor
Slime has received 1 Chisel from Tor

---2016/07/12 01:18:06---
Slime has given 1 Serpentine Visage to Tor

---2016/07/12 01:32:11---
Slime has received 4 Mystic Earth Staff from Nick
Slime has received 2 Dragon Spear from Nick
Slime has received 1 Rune Sq Shield from Nick
Slime has received 750 Grapes from Nick
Slime has received 1 Rune Boots from Nick
Slime has received 1 Rune Plateskirt from Nick
Slime has received 5 Rune 2h Sword from Nick
Slime has received 3 Rune Platebody from Nick
Slime has received 47 Dragon Bolt Tips from Nick
Slime has received 1 Farseer Helm from Nick
Slime has received 1 Rune Axe from Nick
Slime has received 3 Rune Kiteshield from Nick
Slime has received 70 Snakeskin from Nick
Slime has received 1000 Swamp Tar from Nick
Slime has received 80 Coconut from Nick
Slime has received 1 Rune Longsword from Nick
Slime has received 4 Rune Platelegs from Nick
Slime has received 2 Mystic Robe Top from Nick
Slime has received 5 Dragon Med Helm from Nick
Slime has received 1 Rune Battleaxe from Nick
Slime has received 2 Shield Left Half from Nick

---2016/07/12 01:37:43---
Slime has given 1 Dragon Dagger to Matt

---2016/07/12 06:28:07---
Slime has given 1 Ahrim'S Staff to Derek

---2016/07/12 07:39:28---
Slime has received 10000 Zulrah'S Scales from Matt

---2016/07/12 07:39:28---
Slime has given 152 Mithril Ore to Matt
Slime has given 459 Adamantite Ore to Matt
Slime has given 25 Runite Ore to Matt
Slime has given 1626 Coal to Matt
Slime has given 48 Mithril Bar to Matt
Slime has given 227 Iron Ore to Matt
Slime has given 100 Silver Ore to Matt
Slime has given 12 Runite Bar to Matt
Slime has given 100 Gold Ore to Matt

---2016/07/12 08:39:41---
Slime has received 250000 Coins from Noobic Hairs

---2016/07/12 09:08:58---
Slime has given 42000000 Coins to Euforia

---2016/07/12 09:18:28---
Slime has given 1 Zamorak Chaps to Tor

---2016/07/12 09:19:58---
Slime has received 1 Prayer Potion(4) from Tor

---2016/07/12 09:19:58---
Slime has given 1 Dragon Sq Shield (G) to Tor
Slime has given 1 Gilded Boots to Tor

---2016/07/12 09:20:40---
Slime has given 1 Red Cavalier to Tor

---2016/07/12 09:21:17---
Slime has received 1 Zamorak D'Hide from Tor
Slime has received 1 Dragon Sq Shield (G) from Tor
Slime has received 1 Red Cavalier from Tor
Slime has received 1 Zamorak Chaps from Tor
Slime has received 1 Gilded Boots from Tor

---2016/07/12 09:21:29---
Slime has received 1 Zamorak Bracers from Tor

---2016/07/12 09:47:09---
Slime has given 1105830067 Coins to Nick

---2016/07/12 09:52:39---
Slime has received 1 Magic Fang from Nick

---2016/07/12 11:17:29---
Slime has received 199 Rune Javelin from Tor

---2016/07/12 11:17:29---
Slime has given 3 Anglerfish to Tor

---2016/07/12 23:08:42---
Slime has received 10000000 Coins from Nj Casey

---2016/07/12 23:08:42---
Slime has given 1 Abyssal Whip to Nj Casey

---2016/07/13 03:06:06---
Slime has given 2 Anglerfish to Dabs
Slime has given 2 Manta Ray to Dabs

---2016/07/13 03:11:42---
Slime has received 500 Runite Bolts (Unf) from Dustin
Slime has received 500 Feather from Dustin

---2016/07/13 03:13:44---
Slime has given 480 Runite Bolts to Dustin
Slime has given 20 Dragon Bolts (E) to Dustin

---2016/07/13 03:37:42---
Slime has received 1 Loop Half Of Key from Dustin

---2016/07/13 03:37:42---
Slime has given 6 Tooth Half Of Key to Dustin

---2016/07/13 03:38:50---
Slime has received 1 Dragon Boots from Dabs
Slime has received 1 Bandos Bracers from Dabs
Slime has received 2 Vial from Dabs
Slime has received 1 Armadyl Chainskirt from Dabs
Slime has received 1 Black D'Hide Body from Dabs
Slime has received 1 Amulet Of Fury from Dabs
Slime has received 1 Ring Of Wealth from Dabs
Slime has received 12 Dragon Bolts (E) from Dabs
Slime has received 1 Bones from Dabs
Slime has received 1 Dragon Dart from Dabs

---2016/07/13 05:13:35---
Slime has given 1 Super Restore(4) to Dabs
Slime has given 1 Saradomin Brew(4) to Dabs

---2016/07/13 06:09:00---
Slime has received 2 Prayer Potion(4) from Bruce Lee
Slime has received 1 Rune Platebody from Bruce Lee

---2016/07/13 06:09:00---
Slime has given 3 Anglerfish to Bruce Lee
Slime has given 1 Shark to Bruce Lee

---2016/07/13 06:13:41---
Slime has given 1 Prayer Potion(2) to Dabs

---2016/07/13 06:29:35---
Slime has given 24 Dragon Dart to Bruce Lee

---2016/07/13 06:31:15---
Slime has received 50 Dragon Dart from Bruce Lee

---2016/07/13 06:31:15---
Slime has given 1 Dragon Dart to Bruce Lee

---2016/07/13 06:49:06---
Slime has received 1 Shield Right Half from Ibas
Slime has received 1 Shield Left Half from Ibas

---2016/07/13 06:49:37---
Slime has given 1 Dragon Sq Shield to Ibas

---2016/07/13 07:23:26---
Slime has given 6 Anglerfish to Dabs

---2016/07/13 08:18:13---
Slime has received 125000000 Coins from Derek

---2016/07/13 08:18:13---
Slime has given 1 Armadyl Chestplate to Derek
Slime has given 1 Armadyl Chainskirt to Derek

---2016/07/13 08:18:34---
Slime has given 50000000 Coins to Bruce Lee

---2016/07/13 08:18:50---
Slime has given 1 Armadyl Chestplate to Bruce Lee

---2016/07/13 08:20:47---
Slime has received 15000000 Coins from Dustin

---2016/07/13 08:20:47---
Slime has given 1 Amulet Of Fury to Dustin

---2016/07/13 08:22:37---
Slime has received 1 Armadyl Godsword from Dabs

---2016/07/13 08:22:37---
Slime has given 25000000 Coins to Dabs

---2016/07/13 08:30:05---
Slime has given 1 Armadyl Godsword to Dabs

---2016/07/13 08:33:55---
Slime has received 1 Armadyl Chaps from Bruce Lee

---2016/07/13 08:33:55---
Slime has given 1 Verac'S Flail to Bruce Lee

---2016/07/13 08:59:00---
Slime has received 1 $5 Bond from Goten

---2016/07/13 09:05:17---
Slime has given 1 Dharok'S Platelegs to Yeezy
Slime has given 1 Dharok'S Helm to Yeezy
Slime has given 1 Helm Of Neitiznot to Yeezy
Slime has given 1 Dharok'S Greataxe to Yeezy

---2016/07/13 09:05:34---
Slime has given 1 Bandos Boots to Yeezy

---2016/07/13 09:07:55---
Slime has received 1 Primordial Boots from Dabs
Slime has received 1 Armadyl Godsword from Dabs

---2016/07/13 09:11:29---
Slime has given 1 Armadyl Godsword to Bounce Up

---2016/07/13 09:13:20---
Slime has given 1 Primordial Boots to Dabs

---2016/07/13 09:22:20---
Slime has received 11 Shark from Dabs

---2016/07/13 09:47:12---
Slime has given 1 Diamond Ring to Dabs

---2016/07/13 09:49:49---
Slime has given 1 Adamant Shield (H1) to Nick
Slime has given 1 Black Helm (H5) to Nick
Slime has given 1 Adamant Helm (H4) to Nick

---2016/07/13 09:55:17---
Slime has given 1 Adamant Platebody to Nick
Slime has given 1 Zamorak Kiteshield to Nick
Slime has given 1 Black Headband to Nick
Slime has given 1 Magic Longbow to Nick
Slime has given 1 Adamant Helm (H4) to Nick

---2016/07/13 10:11:32---
Slime has received 5 Anglerfish from Nick

---2016/07/13 10:24:50---
Slime has received 169 Raw Anglerfish from Bruce Lee
Slime has received 5 Super Restore(4) from Bruce Lee
Slime has received 280094 Coins from Bruce Lee
Slime has received 1 Rune Platebody from Bruce Lee
Slime has received 1 Granite Maul from Bruce Lee
Slime has received 1 Dragon Dagger from Bruce Lee

---2016/07/13 10:25:30---
Slime has received 169 Anglerfish from Nick

---2016/07/13 10:25:30---
Slime has given 169 Raw Anglerfish to Nick
Slime has given 1 Raw Anglerfish to Nick

---2016/07/13 11:22:43---
Slime has received 1 Monkey Tail from V3leh0

---2016/07/13 11:22:43---
Slime has given 15000000 Coins to V3leh0

---2016/07/13 12:14:51---
Slime has received 1 Ranger Boots from Nick

---2016/07/13 12:19:44---
Slime has received 42637134 Coins from Bones

---2016/07/13 12:23:26---
Slime has received 1 Dragon Full Helm from Bones

---2016/07/13 12:24:34---
Slime has received 1 Torag'S Hammers 0 from Bones

---2016/07/13 12:25:25---
Slime has received 1 Dragon Full Helm Ornament Kit from Dabs

---2016/07/13 12:26:13---
Slime has given 1 Dragon Full Helm (G) to Dabs

---2016/07/13 12:26:28---
Slime has received 1 Frozen Abyssal Whip from Bones
Slime has received 1 Dragon Platelegs from Bones

---2016/07/13 12:56:45---
Slime has given 1 Frozen Abyssal Whip to Life

---2016/07/13 13:48:27---
Slime has received 1 Godsword Shard 2 from Dabs

---2016/07/13 14:26:16---
Slime has received 1 Godsword Shard 3 from Dabs

---2016/07/13 14:26:16---
Slime has given 1 Anglerfish to Dabs

---2016/07/13 14:27:33---
Slime has received 1 Heavy Ballista from Dabs

---2016/07/13 14:28:28---
Slime has received 3000 Rune Javelin from Dabs

---2016/07/13 15:36:11---
Slime has received 30000000 Coins from Dabs

---2016/07/13 15:36:31---
Slime has received 1 Pegasian Boots from Nick
Slime has received 1 Armadyl Chainskirt from Nick

---2016/07/13 15:36:31---
Slime has given 1 Ranger Boots to Nick
Slime has given 1 Rune Sword to Nick

---2016/07/13 15:37:59---
Slime has given 1 Rune Helm (H2) to Nick

---2016/07/13 15:41:57---
Slime has received 1 Armadyl Helmet from Nick

---2016/07/13 15:55:43---
Slime has given 1 Armadyl Helmet to Nick
Slime has given 1 Pegasian Boots to Nick
Slime has given 1 Armadyl Chainskirt to Nick

---2016/07/13 22:44:09---
Slime has received 2000000 Coins from Mr Barrows

---2016/07/13 22:44:09---
Slime has given 1 Dragon Boots to Mr Barrows

---2016/07/13 22:48:56---
Slime has given 1 Ring Of Wealth to Inflexion

---2016/07/14 00:21:35---
Slime has received 1 Sea Turtle from Mr Barrows

---2016/07/14 00:21:35---
Slime has given 1 Karil'S Crossbow to Mr Barrows

---2016/07/14 06:34:36---
Slime has received 4 Shark from Shade

---2016/07/14 06:34:36---
Slime has given 2 Super Restore(4) to Shade
Slime has given 2 Saradomin Brew(4) to Shade

---2016/07/14 06:55:48---
Slime has received 15000000 Coins from Bounce Up
Slime has received 1 Saradomin Sword from Bounce Up

---2016/07/14 06:55:48---
Slime has given 1 Armadyl Chestplate to Bounce Up

---2016/07/14 08:52:02---
Slime has received 5000000 Coins from Mbox

---2016/07/14 08:52:02---
Slime has given 1 Dharok'S Helm to Mbox

---2016/07/14 09:37:08---
Slime has received 1 Abyssal Bludgeon from Nick

---2016/07/14 09:39:43---
Slime has received 1 Primordial Boots from Nick

---2016/07/14 09:45:41---
Slime has given 4 Super Restore(4) to Cum Mule
Slime has given 18 Anglerfish to Cum Mule
Slime has given 2 Super Combat Potion(4) to Cum Mule
Slime has given 3 Saradomin Brew(4) to Cum Mule

---2016/07/14 09:47:29---
Slime has given 821 Big Bones to Cum Mule

---2016/07/14 09:50:44---
Slime has received 4 Super Restore(4) from Cum Mule
Slime has received 18 Anglerfish from Cum Mule
Slime has received 789 Big Bones from Cum Mule
Slime has received 3 Saradomin Brew(4) from Cum Mule

---2016/07/14 10:05:09---
Slime has received 1 Super Restore(4) from No Exp Waste
Slime has received 500 Rune Dart from No Exp Waste

---2016/07/14 10:06:03---
Slime has received 1 Super Restore(4) from No Exp Waste

---2016/07/14 10:06:03---
Slime has given 481 Rune Dart to No Exp Waste

---2016/07/14 10:45:57---
Slime has given 1 Godsword Shard 1 to Nick

---2016/07/14 10:56:54---
Slime has received 2 Super Restore(4) from Nick

---2016/07/14 11:23:03---
Slime has received 1 Saradomin Brew(1) from Nick
Slime has received 2 Saradomin Brew(4) from Nick

---2016/07/14 12:47:11---
Slime has received 1 Infernal Axe from Nick

---2016/07/14 13:15:59---
Slime has given 1 Dragonfire Shield to Dabs

---2016/07/14 13:15:59---
Slime has received 1499 Pure Essence from Dabs
Slime has received 374 Magic Logs from Dabs
Slime has received 107 Adamantite Bar from Dabs
Slime has received 66 Runite Bar from Dabs

---2016/07/14 13:50:27---
Slime has given 1 Master Wand to V3leh0

---2016/07/14 13:54:07---
Slime has received 1 Master Wand from V3leh0

---2016/07/14 13:56:59---
Slime has received 1 Slave Boots from Fjtheboss
Slime has received 1 Oak Shortbow from Fjtheboss

---2016/07/14 13:56:59---
Slime has given 1 Dragon Boots to Fjtheboss
Slime has given 1 Dragon Platelegs to Fjtheboss

---2016/07/14 13:57:38---
Slime has given 1 Amulet Of Glory(4) to Fjtheboss
Slime has given 1 Black D'Hide Chaps to Fjtheboss
Slime has given 1 Black D'Hide Body to Fjtheboss
Slime has given 1 Snakeskin Boots to Fjtheboss
Slime has given 1 Dragon Med Helm to Fjtheboss
Slime has given 1 Magic Shortbow to Fjtheboss

---2016/07/14 14:01:30---
Slime has given 1 Dwarven Rock Cake to Fjtheboss

---2016/07/14 14:03:08---
Slime has given 1 Verac'S Helm to Fjtheboss
Slime has given 1 Dharok'S Platelegs to Fjtheboss
Slime has given 1 Guthan'S Platebody to Fjtheboss
Slime has given 1 Dharok'S Greataxe to Fjtheboss

---2016/07/14 14:17:55---
Slime has given 1 Abyssal Bludgeon to Nick

---2016/07/14 23:33:57---
Slime has given 1250000 Coins to Olleking

---2016/07/14 23:33:57---
Slime has received 1589 Zulrah'S Scales from Olleking

---2016/07/14 23:53:18---
Slime has given 1 Ring Of Wealth to Fjtheboss

---2016/07/15 02:00:35---
Slime has given 1 Abyssal Tentacle to Fjtheboss

---2016/07/15 02:18:18---
Slime has received 60000000 Coins from Inflexion

---2016/07/15 02:18:18---
Slime has given 1 Armadyl Chestplate to Inflexion

---2016/07/15 02:35:24---
Slime has given 388 Big Bones to Fjtheboss
Slime has given 4 Dragon Bones to Fjtheboss

---2016/07/15 02:42:49---
Slime has received 1 Abyssal Tentacle from Fjtheboss

---2016/07/15 02:43:13---
Slime has given 1 Abyssal Tentacle to Fjtheboss

---2016/07/15 03:41:33---
Slime has given 40 Dark Crab to Fjtheboss
Slime has given 350 Shark to Fjtheboss

---2016/07/15 03:53:54---
Slime has given 3 Anglerfish to Fjtheboss
Slime has given 1 Saradomin Brew(4) to Fjtheboss

---2016/07/15 04:15:43---
Slime has given 1 Super Restore(4) to Fjtheboss
Slime has given 1 Shark to Fjtheboss
Slime has given 3 Anglerfish to Fjtheboss
Slime has given 2 Summer Pie to Fjtheboss
Slime has given 1 Saradomin Brew(4) to Fjtheboss

---2016/07/15 04:23:22---
Slime has given 1 Super Restore(3) to Fjtheboss
Slime has given 1 Saradomin Brew(4) to Fjtheboss

---2016/07/15 04:33:55---
Slime has given 1 Super Restore(4) to Fjtheboss

---2016/07/15 04:48:47---
Slime has given 1 Amulet Of Power to Fjtheboss
Slime has given 1 Diamond Ring to Fjtheboss

---2016/07/15 04:53:28---
Slime has received 1 Enchanted Hat from Fjtheboss

---2016/07/15 04:57:22---
Slime has given 1 Amulet Of Fury to Fjtheboss
Slime has given 950 Dragon Dart to Fjtheboss

---2016/07/15 06:26:44---
Slime has received 102 Adamantite Bar from Mithril Jr

---2016/07/15 06:26:44---
Slime has given 3000000 Coins to Mithril Jr

---2016/07/15 07:12:35---
Slime has given 44 Dark Crab to Fjtheboss
Slime has given 15 Anglerfish to Fjtheboss

---2016/07/15 07:14:32---
Slime has received 1 Dark Crab from Fjtheboss

---2016/07/15 07:14:32---
Slime has given 1 Armadyl Chaps to Fjtheboss

---2016/07/15 07:44:45---
Slime has received 1 Godsword Shard 3 from Fjtheboss

---2016/07/15 07:47:24---
Slime has given 1 Infernal Axe to Nick

---2016/07/15 07:50:18---
Slime has received 1 Smouldering Stone from Nick

---2016/07/15 08:37:16---
Slime has given 1 Heavy Ballista to Fjtheboss
Slime has given 450 Rune Javelin to Fjtheboss

---2016/07/15 09:10:06---
Slime has received 1 Zamorak D'Hide from Fjtheboss
Slime has received 1 Zamorak Chaps from Fjtheboss

---2016/07/15 09:26:36---
Slime has received 1 Dragon Boots from Fjtheboss
Slime has received 1 Rune Platelegs from Fjtheboss
Slime has received 1 Barrelchest Anchor from Fjtheboss
Slime has received 1 Granite Maul from Fjtheboss
Slime has received 1 Dragon Scimitar from Fjtheboss

---2016/07/15 09:35:18---
Slime has received 1 Tzhaar-Ket-Om from Fjtheboss
Slime has received 1 Dragon Boots from Fjtheboss
Slime has received 1 Rune Platelegs from Fjtheboss
Slime has received 1 Helm Of Neitiznot from Fjtheboss

---2016/07/15 09:35:52---
Slime has received 1 Dragon Dagger from Fjtheboss

---2016/07/15 09:37:35---
Slime has received 1 Amulet Of Fury from Fjtheboss

---2016/07/15 09:43:15---
Slime has received 1 Tzhaar-Ket-Om from Fjtheboss
Slime has received 1 Dragon Boots from Fjtheboss
Slime has received 1 Rapier from Fjtheboss
Slime has received 1 Rune Platelegs from Fjtheboss
Slime has received 1 Amulet Of Fury from Fjtheboss
Slime has received 1 Helm Of Neitiznot from Fjtheboss
Slime has received 1 Dragon Dagger from Fjtheboss

---2016/07/15 09:44:53---
Slime has given 67 Big Bones to Peter
Slime has given 7 Dragon Bones to Peter

---2016/07/15 09:50:28---
Slime has given 1 Dragon Boots to Fjtheboss
Slime has given 1 Verac'S Helm to Fjtheboss
Slime has given 1 Black D'Hide Chaps to Fjtheboss
Slime has given 1 Shark to Fjtheboss
Slime has given 1 Black D'Hide Body to Fjtheboss
Slime has given 1 Amulet Of Fury to Fjtheboss
Slime has given 1 Black D'Hide Vamb to Fjtheboss
Slime has given 1 Helm Of Neitiznot to Fjtheboss
Slime has given 425 Rune Javelin to Fjtheboss

---2016/07/15 09:56:38---
Slime has received 1 Serpentine Helm from Fjtheboss
Slime has received 1 Primordial Boots from Fjtheboss
Slime has received 1 Bandos Chestplate from Fjtheboss
Slime has received 1 Amulet Of Fury from Fjtheboss
Slime has received 1 Bandos Tassets from Fjtheboss

---2016/07/15 09:57:59---
Slime has given 1 Armadyl Chestplate to Fjtheboss
Slime has given 1 Toxic Blowpipe to Fjtheboss

---2016/07/15 09:58:58---
Slime has received 1 Diamond Ring from Fjtheboss

---2016/07/15 10:01:10---
Slime has given 30 Dragon Dart to Fjtheboss

---2016/07/15 11:14:26---
Slime has received 1 Armadyl Chestplate from Fjtheboss
Slime has received 1 Toxic Blowpipe from Fjtheboss

---2016/07/15 11:43:27---
Slime has received 1 Abyssal Tentacle from Fjtheboss
Slime has received 1 Heavy Ballista from Fjtheboss
Slime has received 1 Amulet Of Fury from Fjtheboss

---2016/07/15 11:43:27---
Slime has given 1 Anglerfish to Fjtheboss

---2016/07/15 11:43:52---
Slime has received 800 Zulrah'S Scales from The Bros 2

---2016/07/15 11:43:52---
Slime has given 1 Anglerfish to The Bros 2

---2016/07/15 11:45:25---
Slime has received 39 Zul-Andra Teleport from The Bros 2

---2016/07/15 12:00:21---
Slime has received 1 White Cavalier from The Bros 2

---2016/07/15 12:50:06---
Slime has received 125 Adamantite Ore from The Bros 2
Slime has received 34 Runite Bar from The Bros 2

---2016/07/15 12:50:06---
Slime has given 1500000 Coins to The Bros 2

---2016/07/15 12:51:28---
Slime has received 3 Shark from Fjtheboss

---2016/07/15 12:51:28---
Slime has given 1 Armadyl Chestplate to Fjtheboss
Slime has given 2071 Zulrah'S Scales to Fjtheboss
Slime has given 1 Toxic Blowpipe (Empty) to Fjtheboss
Slime has given 2150 Dragon Dart to Fjtheboss

---2016/07/15 12:53:55---
Slime has received 1 Shark from Fjtheboss

---2016/07/15 12:53:55---
Slime has given 1 Amulet Of Fury to Fjtheboss

---2016/07/15 12:59:07---
Slime has given 1 Heavy Ballista to Fjtheboss
Slime has given 450 Rune Javelin to Fjtheboss

---2016/07/15 13:22:38---
Slime has given 1 Dragonfire Shield to Fjtheboss
Slime has given 1 Abyssal Tentacle to Fjtheboss

---2016/07/15 13:24:02---
Slime has given 1 Antifire Potion(4) to Fjtheboss

---2016/07/15 13:29:03---
Slime has received 1 Dragonfire Shield from Fjtheboss
Slime has received 1 Armadyl Chestplate from Fjtheboss
Slime has received 1 Abyssal Tentacle from Fjtheboss
Slime has received 1 Heavy Ballista from Fjtheboss
Slime has received 1 Amulet Of Fury from Fjtheboss
Slime has received 1 Toxic Blowpipe from Fjtheboss

---2016/07/15 13:51:56---
Slime has given 1 Amulet Of Power to Apex
Slime has given 1 Diamond Ring to Apex

---2016/07/15 13:51:56---
Slime has received 1000000 Coins from Apex

---2016/07/16 01:00:58---
Slime has received 1 Trident Of The Swamp from Mr Barrows
Slime has received 1 Magic Fang from Mr Barrows

---2016/07/16 01:00:58---
Slime has given 1 Toxic Staff Of The Dead to Mr Barrows

---2016/07/16 01:03:23---
Slime has received 10 Weeds from Derek

---2016/07/16 01:03:23---
Slime has given 1 Armadyl Chestplate to Derek
Slime has given 1 Magic Fang to Derek
Slime has given 1 Heavy Ballista to Derek
Slime has given 1 Toxic Blowpipe to Derek
Slime has given 750 Rune Javelin to Derek

---2016/07/16 01:04:05---
Slime has received 1 Magic Fang from Fjtheboss

---2016/07/16 01:17:27---
Slime has given 1 Ecumenical Key to Fjtheboss

---2016/07/16 01:24:17---
Slime has received 1 Ecumenical Key from Fjtheboss

---2016/07/16 06:30:12---
Slime has given 1 Abyssal Tentacle to Fjtheboss
Slime has given 1 Amulet Of Fury to Fjtheboss

---2016/07/16 06:47:24---
Slime has received 1 Zamorakian Spear from Fjtheboss
Slime has received 1 Rune Platelegs from Fjtheboss
Slime has received 1 Primordial Boots from Fjtheboss
Slime has received 1 Dragon Scimitar from Fjtheboss

---2016/07/16 06:48:21---
Slime has received 1 Armadyl Chestplate from Fjtheboss
Slime has received 1 Abyssal Tentacle from Fjtheboss
Slime has received 1 Amulet Of Fury from Fjtheboss
Slime has received 1 Heavy Ballista from Fjtheboss
Slime has received 1 Toxic Blowpipe from Fjtheboss

---2016/07/16 07:01:47---
Slime has received 100 Zulrah'S Scales from Matt

---2016/07/16 07:14:15---
Slime has received 925 Zulrah'S Scales from Dustin

---2016/07/16 07:33:36---
Slime has given 199 Big Bones to Evol
Slime has given 14 Dragon Bones to Evol

---2016/07/16 08:29:00---
Slime has received 1 Godsword Shard 2 from Dustin

---2016/07/16 10:29:49---
Slime has given 1 Armadyl Chestplate to Fjtheboss
Slime has given 1 Amulet Of Fury to Fjtheboss
Slime has given 1 Toxic Blowpipe to Fjtheboss

---2016/07/16 10:39:59---
Slime has given 29 Zul-Andra Teleport to Fjtheboss

---2016/07/16 11:25:50---
Slime has received 1999 Zulrah'S Scales from Fjtheboss

---2016/07/16 11:53:34---
Slime has received 80000000 Coins from The Bros 2

---2016/07/16 11:53:34---
Slime has given 1 Heavy Ballista to The Bros 2

---2016/07/16 12:03:00---
Slime has received 1 Armadyl Chestplate from Fjtheboss
Slime has received 1 Amulet Of Fury from Fjtheboss
Slime has received 1 Toxic Blowpipe from Fjtheboss

---2016/07/16 12:46:27---
Slime has received 1 Heavy Ballista from The Bros 2

---2016/07/16 12:46:27---
Slime has given 80000000 Coins to The Bros 2

---2016/07/16 12:46:34---
Slime has given 1 Armadyl Chestplate to Fjtheboss
Slime has given 1 Heavy Ballista to Fjtheboss
Slime has given 1 Toxic Blowpipe to Fjtheboss

---2016/07/16 12:52:33---
Slime has received 10000000 Coins from Fjtheboss

---2016/07/16 12:52:33---
Slime has given 1 Amulet Of Fury to Fjtheboss

---2016/07/17 01:29:35---
Slime has received 1 Toxic Blowpipe (Empty) from Nick

---2016/07/17 01:35:43---
Slime has received 1 Abyssal Bludgeon from Pfraru

---2016/07/17 01:36:52---
Slime has given 1 Abyssal Bludgeon to Pfraru

---2016/07/17 03:55:42---
Slime has received 1 Super Combat Potion(4) from Wafes

---2016/07/17 05:09:36---
Slime has received 1 Mud Pie from Yeezy

---2016/07/17 05:09:36---
Slime has given 1 Abyssal Whip to Yeezy

---2016/07/17 05:24:32---
Slime has received 1 Abyssal Dagger from Inflexion

---2016/07/17 05:24:32---
Slime has given 20000000 Coins to Inflexion

---2016/07/17 05:26:02---
Slime has given 35000000 Coins to Inflexion

---2016/07/17 05:26:02---
Slime has received 1 Armadyl Chainskirt from Inflexion

---2016/07/17 05:34:52---
Slime has received 3000000 Coins from Ziggy

---2016/07/17 05:34:52---
Slime has given 1 Ahrim'S Robeskirt to Ziggy

---2016/07/17 05:35:06---
Slime has received 1 Abyssal Whip from Yeezy

---2016/07/17 05:35:42---
Slime has given 1 Armadyl D'Hide to Fjtheboss

---2016/07/17 05:35:42---
Slime has received 1 Heavy Ballista from Fjtheboss

---2016/07/17 05:36:16---
Slime has received 1 Armadyl Chestplate from Fjtheboss

---2016/07/17 05:51:44---
Slime has received 1 Cleaning Cloth from Basslayer360
Slime has received 1 Volcanic Abyssal Whip from Basslayer360

---2016/07/17 05:52:24---
Slime has given 1 Cleaning Cloth to Basslayer360
Slime has given 1 Volcanic Abyssal Whip to Basslayer360

---2016/07/17 06:06:58---
Slime has given 2243 Zulrah'S Scales to Fjtheboss

---2016/07/17 06:08:22---
Slime has given 1 Totem to Fjtheboss

---2016/07/17 06:51:05---
Slime has received 1 Crystal Halberd Full from Shannon

---2016/07/17 06:51:05---
Slime has given 2000000 Coins to Shannon

---2016/07/17 07:12:23---
Slime has given 3 Anglerfish to Fjtheboss
Slime has given 15 Anglerfish to Fjtheboss

---2016/07/17 08:05:08---
Slime has given 3000 Zulrah'S Scales to Fjtheboss

---2016/07/17 08:26:28---
Slime has received 125 Adamantite Ore from Nick

---2016/07/17 08:31:37---
Slime has received 70000000 Coins from The Bros 2

---2016/07/17 08:31:37---
Slime has given 1 Armadyl Chainskirt to The Bros 2

---2016/07/17 09:11:43---
Slime has given 10 Shark to Fjtheboss

---2016/07/17 09:41:19---
Slime has received 1 Armadyl Helmet from The Bros 2

---2016/07/17 09:43:01---
Slime has received 3000 Pure Essence from The Bros 2

---2016/07/17 10:31:57---
Slime has given 649 Dragon Javelin to Nathan

---2016/07/17 11:07:16---
Slime has given 1 Armadyl Helmet to Fjtheboss
Slime has given 1 Armadyl Chestplate to Fjtheboss

---2016/07/17 11:21:11---
Slime has given 108 Dragon Bones to Blank

---2016/07/17 11:42:28---
Slime has given 1 Ring Of Wealth to Blank

---2016/07/17 11:43:37---
Slime has received 1 Ring Of Wealth from Blank

---2016/07/17 11:45:08---
Slime has given 500000 Coins to Cahit

---2016/07/17 22:10:25---
Slime has received 1 Bandos Tassets from Dabs

---2016/07/17 22:13:53---
Slime has given 1 Toxic Blowpipe (Empty) to Serci

---2016/07/17 22:13:53---
Slime has received 120000000 Coins from Serci
Slime has received 1 Dragonfire Shield from Serci

---2016/07/17 22:17:11---
Slime has given 30000000 Coins to Dabs

---2016/07/17 23:49:15---
Slime has received 1 Guthan'S Helm from Mr Barrows
Slime has received 1 Guthan'S Warspear from Mr Barrows
Slime has received 1 Guthan'S Platebody from Mr Barrows
Slime has received 1 Guthan'S Chainskirt from Mr Barrows

---2016/07/17 23:49:15---
Slime has given 15000000 Coins to Mr Barrows

---2016/07/18 00:29:16---
Slime has received 1 Uncut Onyx from Bruce Lee

---2016/07/18 00:33:01---
Slime has given 99000000 Coins to Derek

---2016/07/18 00:48:07---
Slime has received 20000000 Coins from Inflexion

---2016/07/18 00:48:07---
Slime has given 1 Odium Shard 1 to Inflexion

---2016/07/18 00:57:10---
Slime has given 19000000 Coins to Kefun

---2016/07/18 00:58:20---
Slime has received 117 Adamantite Ore from Dabs
Slime has received 1134 Coal from Dabs
Slime has received 49 Adamantite Bar from Dabs

---2016/07/18 00:58:43---
Slime has given 40000000 Coins to Kefun

---2016/07/18 01:01:16---
Slime has given 40000000 Coins to Kefun

---2016/07/18 01:04:28---
Slime has received 20000000 Coins from Kefun

---2016/07/18 01:06:09---
Slime has given 100000000 Coins to Kefun

---2016/07/18 01:11:51---
Slime has received 40000000 Coins from Dabs

---2016/07/18 01:12:25---
Slime has received 80000000 Coins from Kefun

---2016/07/18 01:13:23---
Slime has received 1 Armadyl Helmet from Fjtheboss
Slime has received 1 Armadyl Chestplate from Fjtheboss

---2016/07/18 01:18:56---
Slime has received 160000000 Coins from Kefun

---2016/07/18 01:20:19---
Slime has given 20000000 Coins to Kefun

---2016/07/18 01:21:54---
Slime has given 100000000 Coins to Kefun

---2016/07/18 01:23:25---
Slime has received 30000000 Coins from Kefun

---2016/07/18 01:24:17---
Slime has received 50000000 Coins from Kefun

---2016/07/18 01:25:53---
Slime has given 100000000 Coins to Kefun

---2016/07/18 01:26:55---
Slime has given 100000000 Coins to Kefun

---2016/07/18 01:28:01---
Slime has received 80000000 Coins from Kefun

---2016/07/18 01:29:57---
Slime has given 100000000 Coins to Kefun

---2016/07/18 01:33:52---
Slime has received 2002 Zulrah'S Scales from Fjtheboss

---2016/07/18 01:51:57---
Slime has received 1 Godsword Shard 1 from Fjtheboss

---2016/07/18 01:52:04---
Slime has received 1 Godsword Shard 2 from Kefun

---2016/07/18 01:54:14---
Slime has given 1 Armadyl Helmet to Kefun

---2016/07/18 01:58:38---
Slime has given 1 Super Restore(4) to Kefun
Slime has given 2 Saradomin Brew(4) to Kefun

---2016/07/18 02:16:21---
Slime has received 1 Armadyl Chainskirt from Fjtheboss

---2016/07/18 02:16:31---
Slime has received 1 Armadyl Helmet from Kefun
Slime has received 1 Armadyl Chainskirt from Kefun

---2016/07/18 02:16:54---
Slime has given 1 Armadyl Chainskirt to Fjtheboss

---2016/07/18 02:17:08---
Slime has given 1 Armadyl Chainskirt to Kefun

---2016/07/18 02:18:42---
Slime has received 46000000 Coins from Kefun

---2016/07/18 02:18:42---
Slime has given 1 Armadyl Helmet to Kefun

---2016/07/18 02:18:53---
Slime has given 23000000 Coins to Fjtheboss

---2016/07/18 02:32:08---
Slime has given 10 Dark Crab to Fjtheboss

---2016/07/18 02:51:35---
Slime has given 1 Super Restore(4) to Fjtheboss

---2016/07/18 04:22:16---
Slime has received 10 Super Combat Potion(4) from Dabs

---2016/07/18 04:22:16---
Slime has given 1 Dark Crab to Dabs

---2016/07/18 04:59:34---
Slime has given 2 Dark Crab to Dabs
Slime has given 2 Saradomin Brew(4) to Dabs

---2016/07/18 05:48:48---
Slime has received 728 Coins from Shreadmaster

---2016/07/18 05:48:48---
Slime has given 1 Gilded Kiteshield to Shreadmaster

---2016/07/18 07:04:21---
Slime has received 1000 Zulrah'S Scales from Flamestar

---2016/07/18 07:06:50---
Slime has given 4 Big Bones to Chloe
Slime has given 1 Dragon Bones to Chloe

---2016/07/18 07:50:13---
Slime has given 5 Dark Crab to Dabs

---2016/07/18 07:50:24---
Slime has given 1 Saradomin Brew(4) to Dabs

---2016/07/18 08:00:38---
Slime has given 5 Dark Crab to Dabs
Slime has given 1 Saradomin Brew(4) to Dabs

---2016/07/18 08:10:34---
Slime has given 2 Prayer Potion(3) to Dabs

---2016/07/18 08:12:55---
Slime has given 1 Super Restore(4) to Chloe
Slime has given 1 Super Restore(2) to Chloe

---2016/07/18 08:31:56---
Slime has received 2 Super Restore(4) from Cum Mule
Slime has received 18 Shark from Cum Mule
Slime has received 2 Saradomin Brew(4) from Cum Mule

---2016/07/18 08:32:20---
Slime has received 1 Super Restore(4) from Cum Mule

---2016/07/18 08:33:29---
Slime has given 1 Verac'S Helm to Graco
Slime has given 1 Verac'S Plateskirt to Graco

---2016/07/18 08:34:03---
Slime has given 1 Toxic Blowpipe to Nick

---2016/07/18 08:49:04---
Slime has given 6 Sea Turtle to Graco

---2016/07/18 08:51:57---
Slime has given 2 Sea Turtle to Graco

---2016/07/18 09:11:19---
Slime has received 47005767 Coins from Fjtheboss

---2016/07/18 09:13:01---
Slime has given 2 Dragon Boots to Fjtheboss
Slime has given 1 Verac'S Brassard 0 to Fjtheboss
Slime has given 1 Dragon Sq Shield (G) to Fjtheboss
Slime has given 1 Magic Fang to Fjtheboss
Slime has given 1 Barrelchest Anchor to Fjtheboss
Slime has given 2755 Magic Logs to Fjtheboss
Slime has given 1 Infinity Gloves to Fjtheboss
Slime has given 2 Dharok'S Greataxe to Fjtheboss
Slime has given 1 Abyssal Dagger to Fjtheboss
Slime has given 2 Dharok'S Platelegs to Fjtheboss
Slime has given 1 Dragonfire Shield to Fjtheboss
Slime has given 1 Verac'S Helm 0 to Fjtheboss
Slime has given 3 Dragon Platelegs to Fjtheboss
Slime has given 1 Gilded Platebody to Fjtheboss
Slime has given 1 Guthan'S Platebody to Fjtheboss
Slime has given 1 Bandos Boots to Fjtheboss
Slime has given 1 Gilded Full Helm to Fjtheboss
Slime has given 2 Saradomin Sword to Fjtheboss

---2016/07/18 09:13:12---
Slime has given 27000000 Coins to Fjtheboss

---2016/07/18 09:20:30---
Slime has received 1 Primordial Boots from Derek

---2016/07/18 09:21:38---
Slime has received 1 Kbd Heads from Nick

---2016/07/18 09:42:33---
Slime has given 1 Dragon Boots to Ziggy
Slime has given 1 Smouldering Stone to Ziggy
Slime has given 20189303 Coins to Ziggy
Slime has given 1 Crystal Bow Full to Ziggy
Slime has given 1 Gilded Boots to Ziggy
Slime has given 1 Beaver to Ziggy

---2016/07/18 09:44:12---
Slime has received 1 Beaver from Ziggy

---2016/07/18 10:17:58---
Slime has received 4 Loop Half Of Key from Graco

---2016/07/18 10:17:58---
Slime has given 4 Tooth Half Of Key to Graco

---2016/07/18 10:18:11---
Slime has received 2 Tooth Half Of Key from Graco

---2016/07/18 10:18:11---
Slime has given 2 Loop Half Of Key to Graco

---2016/07/18 10:19:18---
Slime has received 3 Barrelchest Anchor from Jackson
Slime has received 1 Black Skirt (G) from Jackson

---2016/07/18 10:31:15---
Slime has received 486 Shark from Chloe
Slime has received 92 Prayer Potion(4) from Chloe
Slime has received 81 Monkfish from Chloe
Slime has received 1 Mysterious Emblem from Chloe
Slime has received 97 Ranging Potion(4) from Chloe
Slime has received 25 Grimy Ranarr Weed from Chloe
Slime has received 1 Karil'S Leathertop 0 from Chloe
Slime has received 1 Iron Full Helm (G) from Chloe
Slime has received 5 Super Combat Potion(4) from Chloe
Slime has received 1 Red Beret from Chloe
Slime has received 2 Tooth Half Of Key from Chloe
Slime has received 3 Helm Of Neitiznot from Chloe
Slime has received 8466 Dragon Dart from Chloe
Slime has received 2 Dragon Spear from Chloe
Slime has received 3989390 Coins from Chloe
Slime has received 2 Archer Helm from Chloe
Slime has received 299 Fire Rune from Chloe
Slime has received 1 Warrior Helm from Chloe
Slime has received 1 Dragon Scimitar from Chloe
Slime has received 1 Farseer Helm from Chloe
Slime has received 67 Nature Rune from Chloe
Slime has received 99 Chaos Rune from Chloe
Slime has received 1 Dragon Platelegs from Chloe
Slime has received 2 Dragon Med Helm from Chloe
Slime has received 2 Shield Left Half from Chloe

---2016/07/18 10:32:18---
Slime has given 486 Shark to Graco
Slime has given 2 Dragon Spear to Graco
Slime has given 3989390 Coins to Graco
Slime has given 92 Prayer Potion(4) to Graco
Slime has given 2 Archer Helm to Graco
Slime has given 299 Fire Rune to Graco
Slime has given 1 Warrior Helm to Graco
Slime has given 81 Monkfish to Graco
Slime has given 1 Mysterious Emblem to Graco
Slime has given 1 Dragon Scimitar to Graco
Slime has given 1 Farseer Helm to Graco
Slime has given 97 Ranging Potion(4) to Graco
Slime has given 25 Grimy Ranarr Weed to Graco
Slime has given 1 Karil'S Leathertop 0 to Graco
Slime has given 67 Nature Rune to Graco
Slime has given 99 Chaos Rune to Graco
Slime has given 5 Super Combat Potion(4) to Graco
Slime has given 1 Dragon Platelegs to Graco
Slime has given 2 Tooth Half Of Key to Graco
Slime has given 3 Helm Of Neitiznot to Graco
Slime has given 8466 Dragon Dart to Graco
Slime has given 2 Dragon Med Helm to Graco
Slime has given 2 Shield Left Half to Graco

---2016/07/18 10:37:25---
Slime has received 1 Zamorak Cloak from Graco

---2016/07/18 10:48:08---
Slime has received 1 Armadyl Chainskirt from Fjtheboss

---2016/07/18 10:48:08---
Slime has given 1 Uncut Diamond to Fjtheboss

---2016/07/18 10:48:44---
Slime has given 1 Dragon Sq Shield (G) to Fayed

---2016/07/18 10:49:07---
Slime has given 1 Beaver to Abbysalziggy

---2016/07/18 10:49:44---
Slime has given 1 Gilded Boots to Graco

---2016/07/18 10:50:10---
Slime has given 1 Serpentine Helm to Ziggy

---2016/07/18 10:50:47---
Slime has given 1 Verac'S Helm to Sluge

---2016/07/18 10:51:23---
Slime has given 1 Gilded Platelegs to Lol Omg2

---2016/07/18 10:52:35---
Slime has given 1 Smouldering Stone to Fayed

---2016/07/18 10:53:15---
Slime has given 1 Ahrim'S Hood to Graco

---2016/07/18 10:53:36---
Slime has given 1 Trident Of The Swamp to Ziggy

---2016/07/18 10:54:17---
Slime has given 1 Crystal Halberd Full to Sluge

---2016/07/18 10:54:38---
Slime has given 1 Armadyl Chainskirt to Lol Omg2

---2016/07/18 10:55:14---
Slime has given 1 Dragon Chainbody Ornament Kit to Chloe

---2016/07/18 10:56:15---
Slime has given 1 Barrelchest Anchor to Fayed

---2016/07/18 10:56:35---
Slime has given 1 Barrelchest Anchor to Graco

---2016/07/18 10:56:57---
Slime has given 1 Raw Sea Turtle to Ziggy

---2016/07/18 10:57:26---
Slime has given 1 Coal to Sluge

---2016/07/18 10:58:19---
Slime has given 2 Black Dragon Mask to Lol Omg2

---2016/07/18 10:58:51---
Slime has given 1 Zamorak Cloak to Chloe

---2016/07/18 10:59:30---
Slime has given 60000000 Coins to Fayed

---2016/07/18 11:00:00---
Slime has given 1 Runite Bar to Graco

---2016/07/18 11:00:15---
Slime has given 1 Dragonfire Shield to Ziggy

---2016/07/18 11:01:02---
Slime has given 1 Guthix Chaps to Sluge

---2016/07/18 11:01:44---
Slime has given 1 Master Wand to Lol Omg2
Slime has given 1 Purple Boater to Lol Omg2

---2016/07/18 11:01:58---
Slime has given 1 Zamorakian Spear to Chloe

---2016/07/18 11:11:39---
Slime has given 1 Infernal Pickaxe to Lol Omg2
Slime has given 1 Saradomin Godsword to Lol Omg2

---2016/07/18 11:12:48---
Slime has given 1 Amulet Of Fury to Lol Omg2

---2016/07/18 11:15:44---
Slime has given 1 Rune Warhammer to Graco

---2016/07/19 00:21:42---
Slime has given 1 Bandos Tassets to Nick

---2016/07/19 00:26:12---
Slime has given 1 Coins to Tuckah
Slime has given 1 Barrelchest Anchor to Tuckah

---2016/07/19 00:26:13---
Slime has received 1 Monkfish from Tuckah

---2016/07/19 00:28:29---
Slime has given 1 Primordial Boots to Nick

---2016/07/19 02:13:32---
Slime has received 1 Pegasian Boots from Nick
Slime has received 1 Amulet Of Fury from Nick
Slime has received 1 Ring Of Wealth from Nick
Slime has received 1 Toxic Blowpipe from Nick

---2016/07/19 03:05:07---
Slime has given 1 Pegasian Boots to Nick
Slime has given 1 Amulet Of Fury to Nick
Slime has given 1 Ring Of Wealth to Nick
Slime has given 1 Toxic Blowpipe to Nick

---2016/07/19 03:52:06---
Slime has given 167 Dark Crab to Dabs
Slime has given 728 Shark to Dabs
Slime has given 23301278 Coins to Dabs
Slime has given 102 Prayer Potion(4) to Dabs
Slime has given 1 Zamorak D'Hide to Dabs
Slime has given 17 Super Attack(4) to Dabs
Slime has given 1 Zamorak Chaps to Dabs
Slime has given 2 Ecumenical Key to Dabs
Slime has given 20 Super Strength(4) to Dabs
Slime has given 7 Godsword Shard 1 to Dabs
Slime has given 520 Monkfish to Dabs
Slime has given 1 Ring Of Wealth to Dabs
Slime has given 136 Super Restore(4) to Dabs
Slime has given 2 Armadyl Helmet to Dabs
Slime has given 1 Eternal Boots to Dabs
Slime has given 1 Armadyl Chestplate to Dabs
Slime has given 1 Saradomin Chaps to Dabs
Slime has given 1 Armadyl Chainskirt to Dabs
Slime has given 8 Godsword Blade to Dabs
Slime has given 1 Abyssal Whip to Dabs
Slime has given 1 Heavy Ballista to Dabs
Slime has given 136 Saradomin Brew(4) to Dabs

---2016/07/19 05:47:12---
Slime has given 2 Dragon Boots to Dabs
Slime has given 1 Volcanic Whip Mix to Dabs
Slime has given 1 Rapier to Dabs

---2016/07/26 07:53:41---
Slime has received 150 Super Restore(4) from Dabs
Slime has received 2500 Anglerfish from Dabs
Slime has received 1 Karil'S Leatherskirt from Dabs
Slime has received 1 Amulet Of Fury from Dabs
Slime has received 1 Heavy Ballista from Dabs
Slime has received 1 Bludgeon Spine from Dabs
Slime has received 1 Bludgeon Axon from Dabs
Slime has received 1 Ring Of Wealth from Dabs
Slime has received 1 Toxic Blowpipe from Dabs
Slime has received 150 Saradomin Brew(4) from Dabs
Slime has received 5000 Rune Javelin from Dabs

---2016/07/26 07:54:35---
Slime has received 1 Donator Boss Book from Dabs

---2016/07/26 08:04:24---
Slime has given 1 Anglerfish to Derek

---2016/07/26 08:04:24---
Slime has received 2000000 Coins from Derek

---2016/07/26 08:09:19---
Slime has given 2000000 Coins to Lol Omg

---2016/07/26 08:09:19---
Slime has received 200 Zulrah'S Scales from Lol Omg

---2016/07/26 08:51:23---
Slime has given 1 Slayer Bell to Dabs

---2016/07/26 09:51:50---
Slime has given 1 Donator Boss Book to Dabs

---2016/07/26 11:11:20---
Slime has given 1 Toxic Blowpipe to Gratata

---2016/08/06 13:30:24---
Slime has received 250000000 Coins from Dabs

---2016/08/06 13:43:51---
Slime has given 146 Super Restore(4) to Dabs
Slime has given 2496 Anglerfish to Dabs
Slime has given 249689008 Coins to Dabs
Slime has given 585 Dragon Bolt Tips to Dabs
Slime has given 55 Dragon Bolts (E) to Dabs
Slime has given 9 Dragon Bolts to Dabs
Slime has given 150 Saradomin Brew(4) to Dabs
Slime has given 355 Sea Turtle to Dabs
Slime has given 7115 Rune Javelin to Dabs
Slime has given 28 Onyx Bolts to Dabs
