
---2016/08/01 17:08:46---
Spartan Milf has received 1 Abyssal Whip from Soft

---2016/08/01 17:16:23---
Spartan Milf has given 6 Monkfish to Soft

---2016/08/01 17:16:23---
Spartan Milf has received 6 Dragon Bones from Soft

---2016/08/01 17:34:49---
Spartan Milf has received 1 Amulet Of Fury from Matt

---2016/08/01 17:35:32---
Spartan Milf has received 23000000 Coins from Inflexion
Spartan Milf has received 1 Barrelchest Anchor from Inflexion

---2016/08/01 17:36:45---
Spartan Milf has received 537 Anglerfish from Inflexion
Spartan Milf has received 1 Decorative Armour from Inflexion
Spartan Milf has received 1 Bandos Boots from Inflexion

---2016/08/26 12:59:39---
Spartan Milf has received 20000000 Coins from Ehhhzylo
