
---2016/06/30 03:48:42---
Talent has received 1 Diamond Ring from Zulrah

---2016/06/30 03:55:15---
Talent has given 1 Amulet Of Power to Extfallen
Talent has given 1 Diamond Ring to Extfallen

---2016/06/30 04:00:03---
Talent has received 450000 Coins from Derek

---2016/06/30 04:00:03---
Talent has given 1 White Cavalier to Derek
