
---2016/07/19 01:58:56---
Tinky Winky has received 3700000 Coins from Shreadmaster

---2016/07/19 01:58:56---
Tinky Winky has given 1 Dharok'S Platebody to Shreadmaster

---2016/08/02 16:35:47---
Tinky Winky has received 1 Amulet Of Power from Inflexion
Tinky Winky has received 1 Diamond Ring from Inflexion

---2016/08/02 16:40:23---
Tinky Winky has given 1 Amulet Of Power to Inflexion
Tinky Winky has given 1 Diamond Ring to Inflexion

---2016/08/03 00:28:50---
Tinky Winky has given 1 Abyssal Whip to Ehhhzylo

---2016/08/03 00:28:50---
Tinky Winky has received 10000000 Coins from Ehhhzylo
