
---2016/08/06 00:14:02---
Trigger has received 20 Dragon Bones from Boats

---2016/08/06 04:56:01---
Trigger has given 1 Berserker Helm to Mvp

---2016/08/06 04:56:01---
Trigger has received 483000 Coins from Mvp

---2016/08/06 05:08:17---
Trigger has given 1 Granite Shield to Mvp
Trigger has given 1 Vial Of Water to Mvp
Trigger has given 14 Coins to Mvp
Trigger has given 11 Mithril Bolts to Mvp
Trigger has given 1 Uncut Sapphire to Mvp
Trigger has given 1 Helm Of Neitiznot to Mvp
Trigger has given 9 Earth Rune to Mvp
Trigger has given 12 Mind Rune to Mvp
Trigger has given 9 Body Rune to Mvp

---2016/08/06 05:08:17---
Trigger has received 500000 Coins from Mvp

---2016/08/06 05:12:55---
Trigger has given 1 Mithril Full Helm to Mvp
Trigger has given 14 Choc-Ice to Mvp
Trigger has given 1 Mithril Kiteshield to Mvp
Trigger has given 2 Uncut Diamond to Mvp
Trigger has given 362 Bronze Arrow to Mvp
Trigger has given 45 Law Rune to Mvp
Trigger has given 1 Iron Ore to Mvp
Trigger has given 1 Empty Oyster to Mvp
Trigger has given 1 Tooth Half Of Key to Mvp
Trigger has given 1 Loop Half Of Key to Mvp
Trigger has given 1 Runite Bar to Mvp
Trigger has given 1 Rune Battleaxe to Mvp
Trigger has given 2 Shield Left Half to Mvp

---2016/08/06 05:12:55---
Trigger has received 3958709 Coins from Mvp

---2016/08/07 07:32:08---
Trigger has received 200 Dragon Bones from 1

---2016/08/07 07:32:53---
Trigger has received 1 Abyssal Whip from 1

---2016/08/08 06:19:54---
Trigger has received 2000000 Coins from Views

---2016/08/09 05:21:45---
Trigger has given 2000000 Coins to Lamassu

---2016/08/09 07:43:56---
Trigger has received 1 Crystal Bow Full from Even

---2016/08/09 07:46:56---
Trigger has received 1 Ahrim'S Robetop from Even
Trigger has received 1 Guthan'S Platebody from Even
Trigger has received 1 Karil'S Crossbow from Even

---2016/08/12 02:24:53---
Trigger has received 9498204 Coins from Shreadmaster

---2016/08/18 12:03:51---
Trigger has received 1 Loop Half Of Key from Payt021

---2016/08/18 12:03:51---
Trigger has given 1 Tooth Half Of Key to Payt021

---2016/08/18 12:07:51---
Trigger has given 10000000 Coins to Pantera

---2016/08/18 12:07:51---
Trigger has received 1 Dragon Boots from Pantera
Trigger has received 1 Dragon Chainbody from Pantera

---2016/08/18 12:20:36---
Trigger has given 6000000 Coins to Inb4 Drop

---2016/08/18 12:20:36---
Trigger has received 1 Torag'S Hammers from Inb4 Drop
