
---2016/07/23 06:53:30---
Verlin has received 1 Dragon Pickaxe from Bigboy

---2016/07/23 06:55:43---
Verlin has given 1 Dragon Pickaxe to Zulu

---2016/07/23 06:55:43---
Verlin has received 1 Abyssal Whip from Zulu

---2016/07/31 18:01:28---
Verlin has received 3 Crystal Shield Full from Floid
Verlin has received 1 Master Wand from Floid
Verlin has received 1 Light Infinity Hat from Floid
Verlin has received 1 Light Infinity Top from Floid
Verlin has received 1 Crystal Halberd Full from Floid
Verlin has received 1 Light Infinity Bottoms from Floid
Verlin has received 1 Infinity Hat from Floid
Verlin has received 3 Slayer Bell from Floid
Verlin has received 1 Ring Of Wealth from Floid
Verlin has received 1 Malediction Shard 3 from Floid
Verlin has received 2 Smouldering Stone from Floid
Verlin has received 1 Dark Infinity Colour Kit from Floid
Verlin has received 2 Wizard Boots from Floid
Verlin has received 1 Robin Hood Hat from Floid
Verlin has received 1 Crystal Bow Full from Floid
Verlin has received 1 Dragon Chainbody Ornament Kit from Floid
Verlin has received 1 Abyssal Whip from Floid
Verlin has received 6 Amulet Of Fury from Floid
Verlin has received 1 Dragon Full Helm Ornament Kit from Floid
Verlin has received 1486 Dragon Bolts (E) from Floid
Verlin has received 1 Dragon Platelegs (G) from Floid

---2016/08/06 22:57:50---
Verlin has given 1 Abyssal Whip to Inflexion
Verlin has given 5 Amulet Of Fury to Inflexion

---2016/08/06 22:57:50---
Verlin has received 35000000 Coins from Inflexion

---2016/08/07 04:32:23---
Verlin has received 1 3rd Age Range Legs from Sluge

---2016/08/07 05:09:39---
Verlin has given 1 3rd Age Range Legs to Defence Pro1

---2016/08/07 05:09:39---
Verlin has received 20000000 Coins from Defence Pro1

---2016/08/07 05:13:05---
Verlin has received 1000 Sea Turtle from Sluge
Verlin has received 3 Onyx from Sluge

---2016/08/09 20:48:29---
Verlin has given 1 Amulet Of Torture to Trapper

---2016/08/09 20:48:29---
Verlin has received 65000000 Coins from Trapper

---2016/08/09 22:00:21---
Verlin has given 10000000 Coins to Datsik

---2016/08/09 22:00:21---
Verlin has received 1 Abyssal Whip from Datsik

---2016/08/09 22:05:42---
Verlin has given 1 Bandos Chestplate to Bay

---2016/08/09 22:05:42---
Verlin has received 80000000 Coins from Bay

---2016/08/09 22:10:23---
Verlin has given 1 Heavy Ballista to Deadkid

---2016/08/09 22:10:23---
Verlin has received 35000000 Coins from Deadkid

---2016/08/09 22:40:40---
Verlin has given 1 Abyssal Tentacle to Views

---2016/08/09 22:40:40---
Verlin has received 50000000 Coins from Views

---2016/08/10 01:11:09---
Verlin has given 1 Onyx to Iron Sound

---2016/08/10 01:11:15---
Verlin has given 1 Onyx to Billy Idol

---2016/08/10 01:12:04---
Verlin has given 1 Onyx to Iron Sound

---2016/08/10 03:20:17---
Verlin has given 1 Amulet Of Torture to Purerangsaw
Verlin has given 1 Necklace Of Anguish to Purerangsaw

---2016/08/10 03:20:17---
Verlin has received 80000000 Coins from Purerangsaw

---2016/08/10 05:07:02---
Verlin has given 410000000 Coins to Tehdark12
Verlin has given 1 Heavy Ballista to Tehdark12
