
---2016/08/05 01:02:39---
Xxangelxx has received 1 Ring Of Wealth from Inflexion

---2016/08/07 00:15:02---
Xxangelxx has given 11 Impling Scroll to Chase Legend

---2016/08/07 00:15:41---
Xxangelxx has given 8 Impling Scroll to Chase Legend

---2016/08/07 00:16:22---
Xxangelxx has given 10 Impling Scroll to Chase Legend

---2016/08/07 00:17:03---
Xxangelxx has given 12 Impling Scroll to Chase Legend

---2016/08/07 00:29:27---
Xxangelxx has received 1 Gold Elegant Legs from Chase Legend

---2016/08/07 00:31:47---
Xxangelxx has received 1 White Cavalier from Chase Legend
Xxangelxx has received 1 White Beret from Chase Legend

---2016/08/07 00:37:30---
Xxangelxx has received 1 Pink Elegant Skirt from Chase Legend

---2016/08/10 19:56:55---
Xxangelxx has given 1 Golden Key to Chase Legend
