
---2016/06/30 03:09:42---
Ziggy has received 1 Loop Half Of Key from Tariq 229

---2016/06/30 03:09:42---
Ziggy has given 1 Tooth Half Of Key to Tariq 229

---2016/06/30 03:12:14---
Ziggy has received 861254 Coins from Kee
Ziggy has received 6 Loop Half Of Key from Kee

---2016/06/30 03:12:14---
Ziggy has given 3 Crystal Key to Kee

---2016/06/30 23:26:00---
Ziggy has received 2 Tooth Half Of Key from Inflexion

---2016/06/30 23:26:00---
Ziggy has given 2 Loop Half Of Key to Inflexion

---2016/07/10 00:19:22---
Ziggy has given 545 Pure Essence to Kefun

---2016/07/10 00:19:22---
Ziggy has received 1090000 Coins from Kefun

---2016/07/10 01:40:33---
Ziggy has received 2000000 Coins from Kefun

---2016/07/10 01:40:33---
Ziggy has given 1066 Pure Essence to Kefun

---2016/07/11 00:28:01---
Ziggy has given 200 Big Bones to Pfraru

---2016/07/11 02:11:30---
Ziggy has received 3300000 Coins from Nj Casey

---2016/07/11 02:11:30---
Ziggy has given 3 Crystal Key to Nj Casey

---2016/07/11 13:38:56---
Ziggy has received 1 Frozen Abyssal Whip from V3leh0

---2016/07/11 13:38:56---
Ziggy has given 1000 Pure Essence to V3leh0
Ziggy has given 10015820 Coins to V3leh0
Ziggy has given 2 Abyssal Head to V3leh0

---2016/07/11 13:49:23---
Ziggy has received 3000000 Coins from The Bros 2

---2016/07/11 13:49:23---
Ziggy has given 6 Tooth Half Of Key to The Bros 2

---2016/07/11 17:25:56---
Ziggy has received 1 Guthix Page 4 from Bounce Up

---2016/07/11 17:34:37---
Ziggy has given 5000000 Coins to Inflexion
Ziggy has given 1 Frozen Abyssal Whip to Inflexion

---2016/07/11 17:34:37---
Ziggy has received 1 Crystal Bow Full from Inflexion

---2016/07/11 17:53:33---
Ziggy has given 5000 Zulrah'S Scales to Mr Barrows

---2016/07/11 17:53:33---
Ziggy has received 5000000 Coins from Mr Barrows

---2016/07/12 04:19:49---
Ziggy has given 5000000 Coins to Nathan

---2016/07/12 04:19:49---
Ziggy has received 1 Karil'S Leathertop from Nathan
Ziggy has received 1 Karil'S Leatherskirt from Nathan

---2016/07/12 20:39:23---
Ziggy has given 1 Gold Bar to E
Ziggy has given 1 Uncut Dragonstone to E

---2016/07/12 20:40:27---
Ziggy has received 1 Dragonstone Ring from E

---2016/07/12 21:15:23---
Ziggy has received 1 Monkfish from Whiz

---2016/07/12 21:21:48---
Ziggy has given 1 Tooth Half Of Key to Dustin

---2016/07/12 21:21:48---
Ziggy has received 1 Loop Half Of Key from Dustin

---2016/07/13 00:09:59---
Ziggy has received 500 Zul-Andra Teleport from Flamestar

---2016/07/13 00:09:59---
Ziggy has given 2500000 Coins to Flamestar

---2016/07/13 00:32:54---
Ziggy has given 8875 Zulrah'S Scales to Mr Barrows

---2016/07/13 00:32:54---
Ziggy has received 8875000 Coins from Mr Barrows

---2016/07/13 00:50:42---
Ziggy has given 60000000 Coins to Mr Barrows

---2016/07/13 00:50:42---
Ziggy has received 2 $5 Bond from Mr Barrows

---2016/07/13 02:20:20---
Ziggy has received 3000000 Coins from E

---2016/07/13 02:20:20---
Ziggy has given 599 Magic Logs to E

---2016/07/13 16:15:59---
Ziggy has given 5000 Zulrah'S Scales to Matt

---2016/07/13 16:15:59---
Ziggy has received 7500000 Coins from Matt

---2016/07/14 03:17:57---
Ziggy has given 1 Uncut Diamond to Inflexion
Ziggy has given 1 Gold Bar to Inflexion

---2016/07/14 03:20:06---
Ziggy has received 1 Diamond Ring from Inflexion

---2016/07/14 03:40:32---
Ziggy has given 12000000 Coins to Insanityk
Ziggy has given 3000 Zulrah'S Scales to Insanityk

---2016/07/14 03:40:32---
Ziggy has received 1 Uncut Onyx from Insanityk

---2016/07/14 03:41:01---
Ziggy has given 1 Uncut Onyx to Inflexion

---2016/07/14 03:45:33---
Ziggy has received 1 Amulet Of Fury from Inflexion

---2016/07/15 03:07:36---
Ziggy has received 28495 Coins from Inflexion

---2016/07/15 05:54:48---
Ziggy has received 1 Abyssal Tentacle from Bounce Up

---2016/07/15 05:58:47---
Ziggy has received 15000000 Coins from Charles

---2016/07/15 05:58:47---
Ziggy has given 1 Frozen Abyssal Whip to Charles

---2016/07/15 07:43:11---
Ziggy has given 20000000 Coins to Nick
Ziggy has given 1 Trident Of The Seas to Nick

---2016/07/15 07:43:11---
Ziggy has received 1 Trident Of The Swamp from Nick

---2016/07/15 20:56:34---
Ziggy has received 4000000 Coins from Mr Barrows

---2016/07/15 20:56:34---
Ziggy has given 1 Verac'S Helm to Mr Barrows
Ziggy has given 1 Karil'S Leatherskirt 0 to Mr Barrows

---2016/07/17 05:34:52---
Ziggy has given 3000000 Coins to Slime

---2016/07/17 05:34:52---
Ziggy has received 1 Ahrim'S Robeskirt from Slime

---2016/07/18 01:35:48---
Ziggy has given 1 Dragon Boots to Abbysalziggy
Ziggy has given 163 Prayer Potion(4) to Abbysalziggy
Ziggy has given 1 Abyssal Tentacle to Abbysalziggy
Ziggy has given 1 Amulet Of Fury to Abbysalziggy
Ziggy has given 2 Helm Of Neitiznot to Abbysalziggy
Ziggy has given 1 Proselyte Hauberk to Abbysalziggy
Ziggy has given 1 Proselyte Cuisse to Abbysalziggy

---2016/07/18 01:36:28---
Ziggy has given 50 Dragon Bones to Abbysalziggy

---2016/07/18 01:40:30---
Ziggy has given 1 Book Of War to Abbysalziggy

---2016/07/18 01:53:08---
Ziggy has given 4000000 Coins to Charles

---2016/07/18 01:53:08---
Ziggy has received 1 Ahrim'S Robetop from Charles

---2016/07/18 02:06:29---
Ziggy has received 8 Crystal Key from Abbysalziggy

---2016/07/18 03:01:32---
Ziggy has received 1 Unsired from Abbysalziggy

---2016/07/18 03:02:46---
Ziggy has received 1 Tooth Half Of Key from Abbysalziggy
Ziggy has received 1 Uncut Onyx from Abbysalziggy
Ziggy has received 1 Guthix Page 2 from Abbysalziggy
Ziggy has received 1 Strength Amulet (T) from Abbysalziggy
Ziggy has received 3 Crystal Key from Abbysalziggy

---2016/07/18 03:05:51---
Ziggy has received 1 Dragon Boots from Abbysalziggy
Ziggy has received 1 Abyssal Tentacle from Abbysalziggy

---2016/07/18 03:23:41---
Ziggy has received 1 Verac'S Plateskirt 0 from Serci

---2016/07/18 03:23:41---
Ziggy has given 4000000 Coins to Serci

---2016/07/18 03:41:09---
Ziggy has given 1 Dragon Boots to Abbysalziggy
Ziggy has given 1 Abyssal Tentacle to Abbysalziggy

---2016/07/18 04:31:33---
Ziggy has received 2 Loop Half Of Key from Abbysalziggy
Ziggy has received 4 Crystal Key from Abbysalziggy

---2016/07/18 04:34:20---
Ziggy has given 1 Ward Upgrade Kit to Inflexion

---2016/07/18 04:34:21---
Ziggy has received 15000000 Coins from Inflexion

---2016/07/18 04:39:30---
Ziggy has received 1 Unsired from Abbysalziggy

---2016/07/18 04:57:29---
Ziggy has given 2500000 Coins to Purerangsaw

---2016/07/18 04:57:29---
Ziggy has received 2333 Zulrah'S Scales from Purerangsaw

---2016/07/18 05:37:08---
Ziggy has received 1 Dragon Boots from Abbysalziggy
Ziggy has received 1 Abyssal Tentacle from Abbysalziggy

---2016/07/18 05:46:17---
Ziggy has given 100 Silver Ore to Abbysalziggy

---2016/07/18 05:46:17---
Ziggy has received 1 Unsired from Abbysalziggy

---2016/07/18 06:20:10---
Ziggy has given 1 Black Wizard Robe (G) to Abbysalziggy
Ziggy has given 1 Black Dragon Mask to Abbysalziggy
Ziggy has given 1 Black Skirt (G) to Abbysalziggy

---2016/07/18 07:02:17---
Ziggy has received 1 Black Wizard Robe (G) from Abbysalziggy
Ziggy has received 1 Infinity Hat from Abbysalziggy
Ziggy has received 4 Tooth Half Of Key from Abbysalziggy
Ziggy has received 1 Blue Skirt (G) from Abbysalziggy
Ziggy has received 1 Mysterious Emblem (Tier 2) from Abbysalziggy
Ziggy has received 1 Infinity Bottoms from Abbysalziggy
Ziggy has received 1 Black Dragon Mask from Abbysalziggy
Ziggy has received 1 Black Skirt (G) from Abbysalziggy
Ziggy has received 1 Guthix Robe Top from Abbysalziggy

---2016/07/18 08:43:59---
Ziggy has given 1 Shark to Ciarrocca

---2016/07/18 08:43:59---
Ziggy has received 1 Shark from Ciarrocca

---2016/07/18 09:42:33---
Ziggy has received 1 Dragon Boots from Slime
Ziggy has received 1 Smouldering Stone from Slime
Ziggy has received 20189303 Coins from Slime
Ziggy has received 1 Crystal Bow Full from Slime
Ziggy has received 1 Gilded Boots from Slime
Ziggy has received 1 Beaver from Slime

---2016/07/18 09:44:12---
Ziggy has given 1 Beaver to Slime

---2016/07/18 10:11:31---
Ziggy has given 1 Coins to Sluge

---2016/07/18 10:18:29---
Ziggy has received 3 Loop Half Of Key from Graco

---2016/07/18 10:18:29---
Ziggy has given 3 Tooth Half Of Key to Graco

---2016/07/18 10:50:10---
Ziggy has received 1 Serpentine Helm from Slime

---2016/07/18 10:53:36---
Ziggy has received 1 Trident Of The Swamp from Slime

---2016/07/18 10:55:13---
Ziggy has given 1 Super Restore(4) to Fjtheboss

---2016/07/18 10:55:13---
Ziggy has received 1 Amulet Of Fury from Fjtheboss

---2016/07/18 10:56:57---
Ziggy has received 1 Raw Sea Turtle from Slime

---2016/07/18 11:00:15---
Ziggy has received 1 Dragonfire Shield from Slime

---2016/07/18 11:02:34---
Ziggy has received 1 Beaver from Abbysalziggy

---2016/07/18 13:12:08---
Ziggy has received 1 Toxic Blowpipe (Empty) from The Bros 2

---2016/07/18 13:12:08---
Ziggy has given 30001264 Coins to The Bros 2
Ziggy has given 1 Serpentine Helm to The Bros 2
Ziggy has given 40000 Zulrah'S Scales to The Bros 2
Ziggy has given 1 Pegasian Crystal to The Bros 2

---2016/07/18 19:11:14---
Ziggy has received 1 Redwood Log from Camelcrusher

---2016/07/18 19:24:11---
Ziggy has received 2000 Zulrah'S Scales from Mark Donalds

---2016/07/18 19:24:11---
Ziggy has given 3000000 Coins to Mark Donalds

---2016/07/18 20:37:17---
Ziggy has received 1 Gilded Kiteshield from Floid

---2016/07/18 20:37:17---
Ziggy has given 5000000 Coins to Floid

---2016/07/18 23:41:19---
Ziggy has received 2000 Zulrah'S Scales from Soft

---2016/07/18 23:45:25---
Ziggy has given 1 Trident Of The Swamp to Abbysalziggy

---2016/07/20 02:39:51---
Ziggy has given 1 Dragon Boots to Daddyziggy
Ziggy has given 1 Abyssal Tentacle to Daddyziggy
Ziggy has given 74 Dragon Bones to Daddyziggy

---2016/07/20 03:33:13---
Ziggy has received 1 Loop Half Of Key from Daddyziggy
Ziggy has received 2 Crystal Key from Daddyziggy

---2016/07/20 03:33:14---
Ziggy has given 1 Prayer Potion(3) to Daddyziggy

---2016/07/20 03:56:41---
Ziggy has received 6 Loop Half Of Key from Decension

---2016/07/20 03:56:41---
Ziggy has given 6 Tooth Half Of Key to Decension

---2016/07/20 04:00:12---
Ziggy has received 1 Tooth Half Of Key from Daddyziggy
Ziggy has received 3 Crystal Key from Daddyziggy

---2016/07/20 04:04:41---
Ziggy has received 35000000 Coins from Daddyziggy

---2016/07/20 04:08:31---
Ziggy has received 1 Heavy Ballista from Charles

---2016/07/20 04:08:31---
Ziggy has given 50000000 Coins to Charles

---2016/07/20 04:12:45---
Ziggy has received 1 Unsired from Daddyziggy

---2016/07/20 04:53:37---
Ziggy has received 1 Unsired from Daddyziggy
Ziggy has received 1 Loop Half Of Key from Daddyziggy
Ziggy has received 1 Crystal Key from Daddyziggy

---2016/07/20 04:53:37---
Ziggy has given 1 Shark to Daddyziggy

---2016/07/20 05:39:08---
Ziggy has received 1 Unsired from Daddyziggy
Ziggy has received 1 Loop Half Of Key from Daddyziggy
Ziggy has received 4 Crystal Key from Daddyziggy

---2016/07/20 05:39:08---
Ziggy has given 6 Shark to Daddyziggy

---2016/07/20 05:39:51---
Ziggy has received 3 Crystal Key from Daddyziggy

---2016/07/20 05:39:51---
Ziggy has given 3 Shark to Daddyziggy

---2016/07/20 06:09:57---
Ziggy has received 1 Loop Half Of Key from Daddyziggy
Ziggy has received 9 Crystal Key from Daddyziggy

---2016/07/20 06:20:32---
Ziggy has received 1 Unsired from Daddyziggy
Ziggy has received 1 Crystal Key from Daddyziggy

---2016/07/20 06:46:34---
Ziggy has received 4 Crystal Key from Daddyziggy

---2016/07/20 07:10:59---
Ziggy has received 1 Unsired from Daddyziggy

---2016/07/20 07:13:33---
Ziggy has received 1 Bludgeon Spine from Shannon

---2016/07/20 07:13:33---
Ziggy has given 15000000 Coins to Shannon

---2016/07/20 07:19:07---
Ziggy has received 1 Bludgeon Claw from Charles

---2016/07/20 07:19:07---
Ziggy has given 6000000 Coins to Charles
Ziggy has given 1 Volcanic Abyssal Whip to Charles

---2016/07/20 07:21:17---
Ziggy has received 1 Dragon Boots from Daddyziggy
Ziggy has received 1 Abyssal Tentacle from Daddyziggy
Ziggy has received 1 Loop Half Of Key from Daddyziggy
Ziggy has received 4 Crystal Key from Daddyziggy

---2016/07/20 18:17:20---
Ziggy has given 1 Abyssal Dagger to Tor
Ziggy has given 1 Trident Of The Swamp to Tor
Ziggy has given 1 Abyssal Tentacle to Tor
Ziggy has given 10908 Zulrah'S Scales to Tor
Ziggy has given 1 Heavy Ballista to Tor
Ziggy has given 1 Ahrim'S Robetop to Tor
Ziggy has given 1 Amulet Of Fury to Tor
Ziggy has given 1 Ahrim'S Robeskirt to Tor
Ziggy has given 1 Toxic Blowpipe to Tor
Ziggy has given 1 Abyssal Bludgeon to Tor

---2016/07/20 18:19:33---
Ziggy has given 1 Beaver to Tor

---2016/07/20 18:19:52---
Ziggy has given 1 Infinity Hat to Tor
Ziggy has given 1 Infinity Boots to Tor
Ziggy has given 1 Mage'S Book to Tor

---2016/07/20 18:20:38---
Ziggy has given 1 Amulet Of Fury to Tor

---2016/07/20 18:23:42---
Ziggy has given 1 Magic Fang to Inflexion

---2016/07/20 18:24:57---
Ziggy has given 1 Serpentine Helm to Charles
Ziggy has given 1 Gilded Platebody to Charles
Ziggy has given 1 Uncut Onyx to Charles
Ziggy has given 1 Pegasian Crystal to Charles

---2016/07/20 18:27:47---
Ziggy has given 905 Dragon Javelin to Tor

---2016/07/20 18:28:30---
Ziggy has given 1 Crystal Halberd Full to Zulrah
Ziggy has given 5 Zul-Andra Teleport to Zulrah

---2016/07/20 18:29:17---
Ziggy has given 1 Karil'S Leathertop to Stef
Ziggy has given 1 Karil'S Leatherskirt to Stef

---2016/07/20 18:29:48---
Ziggy has given 3 Dragon Boots to W Rivers1
Ziggy has given 1 Monkey Tail to W Rivers1

---2016/07/20 18:30:21---
Ziggy has given 1 Dragon Chainbody to Kittyhello
Ziggy has given 480 Dragon Bones to Kittyhello

---2016/07/20 18:31:05---
Ziggy has given 1 Pegasian Crystal to Charles

---2016/07/20 21:06:49---
Ziggy has given 1 3rd Age Kiteshield to Tor
Ziggy has given 1 3rd Age Robe to Tor
Ziggy has given 1 3rd Age Platebody to Tor

---2016/07/20 21:11:07---
Ziggy has received 1 2,000 Credits Voucher from Skuxxscape

---2016/07/20 21:16:19---
Ziggy has given 1 Elysian Spirit Shield to Tor

---2016/07/20 21:17:53---
Ziggy has given 10 2,000 Credits Voucher to Tor

---2016/07/22 04:08:58---
Ziggy has given 1 Gilded Kiteshield to Stef
Ziggy has given 1 Trident Of The Swamp to Stef
Ziggy has given 18502992 Coins to Stef
Ziggy has given 1 Zamorak D'Hide to Stef
Ziggy has given 1 Crystal Halberd Full to Stef
Ziggy has given 1 Abyssal Tentacle to Stef
Ziggy has given 1 Ahrim'S Robetop to Stef
Ziggy has given 1 Infinity Boots to Stef
Ziggy has given 3 Gilded Boots to Stef
Ziggy has given 1 Blue Dragon Mask to Stef
Ziggy has given 1 Ahrim'S Robeskirt to Stef
Ziggy has given 1 Mage'S Book to Stef
Ziggy has given 1 Godsword Shard 1 to Stef
Ziggy has given 1 Ring Of Wealth to Stef
Ziggy has given 2 Uncut Onyx to Stef
Ziggy has given 2 Pegasian Crystal to Stef
Ziggy has given 4 Smouldering Stone to Stef
Ziggy has given 1 Dragonfire Shield to Stef
Ziggy has given 2 Light Infinity Colour Kit to Stef
Ziggy has given 1 Monkey Tail to Stef
Ziggy has given 1 Gilded Platebody to Stef

---2016/07/22 04:11:16---
Ziggy has given 3 Dragon Boots to Stef
Ziggy has given 1 Dharok'S Platebody 0 to Stef
Ziggy has given 1 Karil'S Leathertop to Stef
Ziggy has given 222 Prayer Potion(4) to Stef
Ziggy has given 1 Karil'S Leatherskirt to Stef
Ziggy has given 1 Dragon Chainbody to Stef
Ziggy has given 1 Magic Fang to Stef
Ziggy has given 15733 Zulrah'S Scales to Stef
Ziggy has given 2 Infinity Hat to Stef
Ziggy has given 1 Dragon Plateskirt to Stef
Ziggy has given 4 Crystal Bow Full to Stef
Ziggy has given 1 Verac'S Plateskirt to Stef
Ziggy has given 2 Amulet Of Fury to Stef
Ziggy has given 1 Dragon Full Helm Ornament Kit to Stef
Ziggy has given 1 Toxic Blowpipe (Empty) to Stef
Ziggy has given 8448 Dragon Dart to Stef
Ziggy has given 1 Gilded Full Helm to Stef

---2016/07/22 04:11:39---
Ziggy has given 1 Serpentine Helm (Uncharged) to Stef

---2016/07/22 04:31:27---
Ziggy has given 2184 Shark to Stef
Ziggy has given 35 Super Combat Potion(4) to Stef
Ziggy has given 408 Dragon Bones to Stef
Ziggy has given 7 Super Combat Potion(3) to Stef
Ziggy has given 5 Super Combat Potion(2) to Stef
Ziggy has given 1 Infinity Bottoms to Stef
Ziggy has given 917 Dragon Javelin to Stef
Ziggy has given 4 Super Combat Potion(1) to Stef

---2016/07/24 02:00:21---
Ziggy has given 71 Snakeskin to Tor
Ziggy has given 10 Runite Ore to Tor
Ziggy has given 59 Zulrah'S Scales to Tor

---2016/07/24 19:20:46---
Ziggy has given 3054 Pure Essence to Tor
Ziggy has given 36 Runite Bar to Tor

---2016/07/24 19:49:44---
Ziggy has given 1321 Magic Logs to Tor

---2016/07/25 19:24:10---
Ziggy has received 1 Dragon Claws from Tor

---2016/07/25 19:31:06---
Ziggy has given 1 Dragon Claws to Apex
Ziggy has given 1 Ahrim'S Robeskirt to Apex

---2016/07/25 20:03:26---
Ziggy has given 1 Black Wizard Robe (G) to Garrett
Ziggy has given 48 Antifire Potion(4) to Garrett
Ziggy has given 9 Tooth Half Of Key to Garrett
Ziggy has given 1 Beaver to Garrett
Ziggy has given 1 Bandos Boots to Garrett
Ziggy has given 1 Strength Amulet (T) to Garrett
Ziggy has given 26 Prayer Potion(3) to Garrett
Ziggy has given 1 Black Skirt (G) to Garrett
Ziggy has given 57 Ranging Potion(4) to Garrett
Ziggy has given 10 Dragon Dart to Garrett
Ziggy has given 200 Mahogany Plank to Garrett
Ziggy has given 1 Clue Hunter Boots to Garrett

---2016/08/05 21:24:21---
Ziggy has received 1 Toxic Blowpipe from Tor

---2016/08/05 21:24:42---
Ziggy has given 1 Toxic Blowpipe to Tor

---2016/08/06 20:16:26---
Ziggy has received 2000000 Dragon Dart from Elbow

---2016/08/06 20:29:07---
Ziggy has given 299920004 Coins to Tors Voice
