
---2016/07/05 15:23:24---
A Wild Vayne has recieved 1 Amulet Of Glory(4) from Abyssal Scion.

---2016/07/05 15:23:24---
A Wild Vayne has recieved 1 Black D'Hide Chaps from Abyssal Scion.

---2016/07/05 15:23:24---
A Wild Vayne has recieved 4 Prayer Potion(4) from Abyssal Scion.

---2016/07/05 15:23:24---
A Wild Vayne has recieved 32304 Coins from Abyssal Scion.

---2016/07/05 15:23:24---
A Wild Vayne has recieved 1 Black D'Hide Body from Abyssal Scion.

---2016/07/05 15:23:24---
A Wild Vayne has recieved 132 Adamant Bolts from Abyssal Scion.

---2016/07/05 15:23:24---
A Wild Vayne has recieved 1 Snakeskin Boots from Abyssal Scion.

---2016/07/05 15:23:24---
A Wild Vayne has recieved 1 Green D'Hide Chaps from Abyssal Scion.

---2016/07/05 15:23:24---
A Wild Vayne has recieved 7 Lobster from Abyssal Scion.

---2016/07/05 15:23:24---
A Wild Vayne has recieved 1 Prayer Potion(2) from Abyssal Scion.
