
---2016/06/30 21:02:04---
B0nesawpk has recieved 1 Amulet Of Glory(4) from Kyul.

---2016/06/30 21:02:04---
B0nesawpk has recieved 1 Black D'Hide Chaps from Kyul.

---2016/06/30 21:02:04---
B0nesawpk has recieved 1 Anti-Dragon Shield from Kyul.

---2016/06/30 21:02:04---
B0nesawpk has recieved 1 Snakeskin Boots from Kyul.

---2016/06/30 21:02:04---
B0nesawpk has recieved 1 Black D'Hide Vamb from Kyul.

---2016/06/30 21:02:04---
B0nesawpk has recieved 19 Rune Dart from Kyul.

---2016/07/01 19:59:36---
B0nesawpk has recieved 1 Black D'Hide Chaps from C Bo.

---2016/07/01 19:59:36---
B0nesawpk has recieved 2 Black Dragonhide from C Bo.

---2016/07/01 19:59:36---
B0nesawpk has recieved 1 Anti-Dragon Shield from C Bo.

---2016/07/01 19:59:36---
B0nesawpk has recieved 1 Black D'Hide Body from C Bo.

---2016/07/01 19:59:36---
B0nesawpk has recieved 15 Lava Dragon Bones from C Bo.

---2016/07/01 19:59:36---
B0nesawpk has recieved 1 Uncut Sapphire from C Bo.

---2016/07/01 19:59:36---
B0nesawpk has recieved 1 Snakeskin Boots from C Bo.

---2016/07/01 19:59:36---
B0nesawpk has recieved 1 Black D'Hide Vamb from C Bo.

---2016/07/01 19:59:36---
B0nesawpk has recieved 56 Rune Dart from C Bo.

---2016/07/01 19:59:36---
B0nesawpk has recieved 25 Lava Rune from C Bo.

---2016/07/01 19:59:36---
B0nesawpk has recieved 42 Rune Arrow from C Bo.
