
---2016/08/25 20:04:07---
Bastion has recieved 1 Bronze Axe from Venenatis.

---2016/08/25 20:04:07---
Bastion has recieved 1 Shortbow from Venenatis.

---2016/08/25 20:04:07---
Bastion has recieved 6 Water Rune from Venenatis.

---2016/08/25 20:04:07---
Bastion has recieved 25 Air Rune from Venenatis.

---2016/08/25 20:04:07---
Bastion has recieved 4 Earth Rune from Venenatis.

---2016/08/25 20:04:07---
Bastion has recieved 15 Mind Rune from Venenatis.

---2016/08/25 20:04:07---
Bastion has recieved 1 Tinderbox from Venenatis.

---2016/08/25 20:04:07---
Bastion has recieved 2 Body Rune from Venenatis.

---2016/08/25 20:04:07---
Bastion has recieved 25 Bronze Arrow from Venenatis.

---2016/08/25 20:04:07---
Bastion has recieved 1 Wooden Shield from Venenatis.

---2016/08/25 20:04:07---
Bastion has recieved 12 Raw Beef from Venenatis.

---2016/08/25 20:04:07---
Bastion has recieved 1 Shrimps from Venenatis.

---2016/08/25 20:04:07---
Bastion has recieved 1 Bronze Sword from Venenatis.
