
---2016/07/20 21:40:03---
Bedd has recieved 2127483644 Coins from Green Dragon.

---2016/07/22 23:46:25---
Bedd has recieved 1 Amulet Of Glory(4) from Abyssal Spawn.

---2016/07/22 23:46:25---
Bedd has recieved 1 Slave Robetop from Abyssal Spawn.

---2016/07/22 23:46:25---
Bedd has recieved 1 Anti-Dragon Shield from Abyssal Spawn.

---2016/07/22 23:46:25---
Bedd has recieved 1 Slave Robe from Abyssal Spawn.

---2016/07/22 23:46:25---
Bedd has recieved 1 Slave Boots from Abyssal Spawn.

---2016/07/22 23:46:25---
Bedd has recieved 1 Tooth Half Of Key from Abyssal Spawn.

---2016/07/22 23:46:25---
Bedd has recieved 13 Monkfish from Abyssal Spawn.

---2016/07/22 23:46:25---
Bedd has recieved 1 Chisel from Abyssal Spawn.

---2016/07/29 21:25:30---
Bedd has recieved 1285996 Coins from Zulrah.

---2016/07/29 21:25:30---
Bedd has recieved 1 Cream Boots from Zulrah.

---2016/07/29 21:25:30---
Bedd has recieved 12 Magic Logs from Zulrah.

---2016/07/29 21:25:30---
Bedd has recieved 307 Magic Logs from Zulrah.

---2016/07/29 21:25:30---
Bedd has recieved 1 Princess Blouse from Zulrah.

---2016/07/29 21:25:30---
Bedd has recieved 1 Princess Skirt from Zulrah.

---2016/07/29 21:36:34---
Bedd has recieved 145466 Coins from Zulrah.

---2016/07/29 21:36:34---
Bedd has recieved 25 Magic Logs from Zulrah.

---2016/07/29 21:37:51---
Bedd has recieved 2498 Coins from Zulrah.

---2016/07/29 21:42:32---
Bedd has recieved 1652 Coins from Zulrah.

---2016/07/29 21:42:32---
Bedd has recieved 6 Magic Logs from Zulrah.

---2016/07/29 22:00:40---
Bedd has recieved 127304 Coins from Zulrah.

---2016/07/29 22:00:40---
Bedd has recieved 14 Magic Logs from Zulrah.

---2016/07/29 22:00:40---
Bedd has recieved 1 Monkfish from Zulrah.

---2016/08/02 10:29:35---
Bedd has recieved 1 Clue Scroll (Hard) from Double Agent.

---2016/08/02 10:29:35---
Bedd has recieved 1 Highwayman Mask from Double Agent.

---2016/08/02 10:29:35---
Bedd has recieved 1 Elemental Shield from Double Agent.

---2016/08/02 10:29:35---
Bedd has recieved 1 Beginner Wand from Double Agent.

---2016/08/02 10:29:35---
Bedd has recieved 28 Rune Arrow from Double Agent.

---2016/08/03 00:45:37---
Bedd has recieved 2 Super Restore(3) from King Black Dragon.

---2016/08/03 00:45:37---
Bedd has recieved 1 Rune Boots from King Black Dragon.

---2016/08/03 00:45:37---
Bedd has recieved 737345 Coins from King Black Dragon.

---2016/08/03 00:45:37---
Bedd has recieved 1 Anti-Dragon Shield from King Black Dragon.

---2016/08/03 00:45:37---
Bedd has recieved 1 Amulet Of Glory from King Black Dragon.

---2016/08/03 19:26:01---
Bedd has recieved 1 Dragon chainbody from Dust Devil.

---2016/08/06 15:15:39---
Bedd has recieved 3 Dark Crab from Black Demon.

---2016/08/06 15:15:39---
Bedd has recieved 1 Rune Crossbow from Black Demon.

---2016/08/06 15:15:39---
Bedd has recieved 1 Black D'Hide Chaps from Black Demon.

---2016/08/06 15:15:39---
Bedd has recieved 1 Rune Boots from Black Demon.

---2016/08/06 15:15:39---
Bedd has recieved 1 Anti-Dragon Shield from Black Demon.

---2016/08/06 15:15:39---
Bedd has recieved 1 Black D'Hide Body from Black Demon.

---2016/08/06 15:15:39---
Bedd has recieved 1 Amulet Of Glory from Black Demon.

---2016/08/06 15:15:39---
Bedd has recieved 1 Helm Of Neitiznot from Black Demon.

---2016/08/06 15:15:39---
Bedd has recieved 9 Sea Turtle from Black Demon.

---2016/08/06 15:15:39---
Bedd has recieved 4 Super Restore(3) from Black Demon.

---2016/08/06 15:15:39---
Bedd has recieved 1 Super Restore(1) from Black Demon.

---2016/08/06 15:15:39---
Bedd has recieved 55 Runite Bolts from Black Demon.

---2016/08/06 15:15:39---
Bedd has recieved 1 Super Combat Potion(2) from Black Demon.

---2016/08/06 15:15:39---
Bedd has recieved 1 Loop Half Of Key from Black Demon.

---2016/08/06 15:15:39---
Bedd has recieved 53 Dragon Bolts from Black Demon.

---2016/08/06 15:15:39---
Bedd has recieved 1 Dragon Dagger from Black Demon.

---2016/08/07 21:58:03---
Boats has dropped 40000000 Coins for Boats.

---2016/08/07 21:58:03---
Boats has dropped 25 Vial for Boats.

---2016/08/07 22:02:30---
Boats has dropped 50000000 Coins for Boats.

---2016/08/07 22:02:30---
Boats has dropped 25 Vial for Boats.

---2016/08/07 22:02:30---
Bedd has recieved 50000000 Coins from Boats.

---2016/08/07 22:02:30---
Bedd has recieved 26 Vial from Boats.

---2016/08/07 22:02:30---
Bedd has recieved 1 Super Combat Potion(3) from Boats.

---2016/08/07 22:02:30---
Bedd has recieved 1 Dragon Dagger from Boats.

---2016/08/07 22:04:31---
Bedd has recieved 50000000 Coins from Boats.

---2016/08/07 22:04:31---
Bedd has recieved 26 Vial from Boats.

---2016/08/07 22:04:31---
Bedd has recieved 1 Super Combat Potion(3) from Boats.

---2016/08/07 22:04:31---
Bedd has recieved 1 Dragon Dagger from Boats.

---2016/08/07 22:07:57---
Boats has dropped 36000000 Coins for Boats.

---2016/08/07 22:07:57---
Boats has dropped 25 Vial for Boats.

---2016/08/07 22:07:57---
Bedd has recieved 26 Vial Of Water from Boats.

---2016/08/07 22:07:57---
Bedd has recieved 36000000 Coins from Boats.

---2016/08/07 22:07:57---
Bedd has recieved 1 Super Combat Potion(2) from Boats.

---2016/08/07 22:07:57---
Bedd has recieved 1 Dragon Dagger from Boats.

---2016/08/07 22:10:09---
Bedd has recieved 2 Vial Of Water from Boats.

---2016/08/07 22:10:09---
Bedd has recieved 36000000 Coins from Boats.

---2016/08/07 22:10:09---
Bedd has recieved 24 Vial from Boats.

---2016/08/07 22:10:09---
Bedd has recieved 1 Super Combat Potion(2) from Boats.

---2016/08/07 22:10:09---
Bedd has recieved 1 Dragon Dagger from Boats.

---2016/08/07 22:17:14---
Bedd has recieved 27 Vial Of Water from Boats.

---2016/08/07 22:17:14---
Bedd has recieved 1 Super Combat Potion(4) from Boats.

---2016/08/07 22:17:14---
Bedd has recieved 1 White Partyhat from Boats.

---2016/08/07 22:17:14---
Bedd has recieved 1 Dragon Dagger from Boats.

---2016/08/10 19:22:16---
Bedd has recieved 7 Dark Crab from Deadkid.

---2016/08/10 19:22:16---
Bedd has recieved 1 Rune Crossbow from Deadkid.

---2016/08/10 19:22:16---
Bedd has recieved 1 Black D'Hide Chaps from Deadkid.

---2016/08/10 19:22:16---
Bedd has recieved 1 Climbing Boots from Deadkid.

---2016/08/10 19:22:16---
Bedd has recieved 1 Ancient Staff from Deadkid.

---2016/08/10 19:22:16---
Bedd has recieved 1 Black D'Hide Body from Deadkid.

---2016/08/10 19:22:16---
Bedd has recieved 1 Amulet Of Glory from Deadkid.

---2016/08/10 19:22:16---
Bedd has recieved 4 Cooked Karambwan from Deadkid.

---2016/08/10 19:22:16---
Bedd has recieved 248 Water Rune from Deadkid.

---2016/08/10 19:22:16---
Bedd has recieved 1 Helm Of Neitiznot from Deadkid.

---2016/08/10 19:22:16---
Bedd has recieved 332 Death Rune from Deadkid.

---2016/08/10 19:22:16---
Bedd has recieved 1 Super Restore(3) from Deadkid.

---2016/08/10 19:22:16---
Bedd has recieved 1 Super Restore(2) from Deadkid.

---2016/08/10 19:22:16---
Bedd has recieved 416 Blood Rune from Deadkid.

---2016/08/10 19:22:16---
Bedd has recieved 1 Abyssal Whip from Deadkid.

---2016/08/10 19:22:16---
Bedd has recieved 1 Super Combat Potion(4) from Deadkid.

---2016/08/10 19:22:16---
Bedd has recieved 97 Runite Bolts from Deadkid.

---2016/08/10 19:22:16---
Bedd has recieved 1 Toktz-Ket-Xil from Deadkid.

---2016/08/10 19:22:16---
Bedd has recieved 1 Mystic Robe Bottom from Deadkid.

---2016/08/10 19:22:16---
Bedd has recieved 1 Dragon Dagger from Deadkid.

---2016/08/10 19:46:37---
Bedd has recieved 7 Dark Crab from Deadkid.

---2016/08/10 19:46:37---
Bedd has recieved 1 Rune Crossbow from Deadkid.

---2016/08/10 19:46:37---
Bedd has recieved 1 Black D'Hide Chaps from Deadkid.

---2016/08/10 19:46:37---
Bedd has recieved 1 Climbing Boots from Deadkid.

---2016/08/10 19:46:37---
Bedd has recieved 1 Ancient Staff from Deadkid.

---2016/08/10 19:46:37---
Bedd has recieved 1 Black D'Hide Body from Deadkid.

---2016/08/10 19:46:37---
Bedd has recieved 1 Amulet Of Glory from Deadkid.

---2016/08/10 19:46:37---
Bedd has recieved 5 Cooked Karambwan from Deadkid.

---2016/08/10 19:46:37---
Bedd has recieved 1 Elemental Shield from Deadkid.

---2016/08/10 19:46:37---
Bedd has recieved 1 Dragon Scimitar from Deadkid.

---2016/08/10 19:46:37---
Bedd has recieved 278 Water Rune from Deadkid.

---2016/08/10 19:46:37---
Bedd has recieved 1 Helm Of Neitiznot from Deadkid.

---2016/08/10 19:46:37---
Bedd has recieved 352 Death Rune from Deadkid.

---2016/08/10 19:46:37---
Bedd has recieved 2 Super Restore(3) from Deadkid.

---2016/08/10 19:46:37---
Bedd has recieved 426 Blood Rune from Deadkid.

---2016/08/10 19:46:37---
Bedd has recieved 93 Runite Bolts from Deadkid.

---2016/08/10 19:46:37---
Bedd has recieved 1 Super Combat Potion(3) from Deadkid.

---2016/08/10 19:46:37---
Bedd has recieved 1 Mystic Robe Bottom from Deadkid.

---2016/08/10 19:46:37---
Bedd has recieved 1 Dragon Dagger from Deadkid.

---2016/08/11 22:57:14---
Bedd has recieved 5 Dark Crab from Penance Fighter.

---2016/08/11 22:57:14---
Bedd has recieved 9 Super Restore(4) from Penance Fighter.

---2016/08/11 22:57:14---
Bedd has recieved 1 Super Restore(3) from Penance Fighter.

---2016/08/11 22:57:14---
Bedd has recieved 1 Vial from Penance Fighter.

---2016/08/11 22:57:14---
Bedd has recieved 1 Dwarven Rock Cake from Penance Fighter.

---2016/08/11 22:57:14---
Bedd has recieved 1 Ranger Hat from Penance Fighter.

---2016/08/11 22:57:14---
Bedd has recieved 1 Yellow Egg from Penance Fighter.

---2016/08/11 22:57:14---
Bedd has recieved 1 Amulet Of Glory from Penance Fighter.

---2016/08/11 22:57:14---
Bedd has recieved 1 Infinity Boots from Penance Fighter.

---2016/08/11 22:57:14---
Bedd has recieved 1 Dharok'S Helm from Penance Fighter.

---2016/08/11 22:57:14---
Bedd has recieved 1 Ring Of Wealth from Penance Fighter.

---2016/08/11 22:57:14---
Bedd has recieved 1 Poisoned Worms from Penance Fighter.

---2016/08/12 14:01:36---
Bedd has recieved 19 Dark Crab from Callisto.

---2016/08/12 14:01:36---
Bedd has recieved 4 Super Restore(4) from Callisto.

---2016/08/12 14:01:36---
Bedd has recieved 1 Antipoison(2) from Callisto.

---2016/08/12 14:01:36---
Bedd has recieved 1 Crystal Shield Full from Callisto.

---2016/08/12 14:01:36---
Bedd has recieved 1 Super Restore(3) from Callisto.

---2016/08/12 14:01:36---
Bedd has recieved 1 Super Combat Potion(4) from Callisto.

---2016/08/12 14:01:36---
Bedd has recieved 1 Infinity Boots from Callisto.

---2016/08/12 14:01:36---
Bedd has recieved 1 Super Combat Potion(2) from Callisto.

---2016/08/12 14:01:36---
Bedd has recieved 1 Antipoison(3) from Callisto.

---2016/08/12 14:06:15---
Bedd has recieved 3 Dark Crab from Callisto.

---2016/08/12 14:06:15---
Bedd has recieved 1 Antipoison(2) from Callisto.

---2016/08/12 14:06:15---
Bedd has recieved 1 Crystal Shield Full from Callisto.

---2016/08/12 14:06:15---
Bedd has recieved 1 Infinity Boots from Callisto.

---2016/08/12 16:58:28---
Bedd has recieved 4 Super Restore(4) from Skeletal Wyvern.

---2016/08/12 16:58:28---
Bedd has recieved 1 Super Restore(3) from Skeletal Wyvern.

---2016/08/12 16:58:28---
Bedd has recieved 2 Prayer Potion(4) from Skeletal Wyvern.

---2016/08/12 16:58:28---
Bedd has recieved 1 Dwarven Rock Cake from Skeletal Wyvern.

---2016/08/12 16:58:28---
Bedd has recieved 1 Abyssal Whip from Skeletal Wyvern.

---2016/08/12 16:58:28---
Bedd has recieved 1 Amulet Of Glory from Skeletal Wyvern.

---2016/08/12 16:58:28---
Bedd has recieved 1 Infinity Boots from Skeletal Wyvern.

---2016/08/12 16:58:28---
Bedd has recieved 419 Runite Bolts from Skeletal Wyvern.

---2016/08/12 16:58:28---
Bedd has recieved 1 Prayer Potion(3) from Skeletal Wyvern.

---2016/08/12 16:58:28---
Bedd has recieved 1 Dharok'S Helm from Skeletal Wyvern.

---2016/08/12 16:58:28---
Bedd has recieved 1 Ring Of Wealth from Skeletal Wyvern.

---2016/08/12 16:58:28---
Bedd has recieved 5 Sea Turtle from Skeletal Wyvern.
