
---2016/08/19 10:22:50---
Bezskuu has recieved 1 Amulet Of Glory(4) from Ancient Gorilla.

---2016/08/19 10:22:50---
Bezskuu has recieved 1 Black D'Hide Chaps from Ancient Gorilla.

---2016/08/19 10:22:50---
Bezskuu has recieved 1 Prayer Potion(4) from Ancient Gorilla.

---2016/08/19 10:22:50---
Bezskuu has recieved 1 Ring Of Recoil from Ancient Gorilla.

---2016/08/19 10:22:50---
Bezskuu has recieved 1 Black D'Hide Body from Ancient Gorilla.

---2016/08/19 10:22:50---
Bezskuu has recieved 1 Snakeskin Boots from Ancient Gorilla.

---2016/08/19 10:22:50---
Bezskuu has recieved 1 Ancient Bracers from Ancient Gorilla.

---2016/08/19 10:22:50---
Bezskuu has recieved 16 Monkfish from Ancient Gorilla.

---2016/08/19 10:22:50---
Bezskuu has recieved 1 Prayer Potion(3) from Ancient Gorilla.

---2016/08/19 10:22:50---
Bezskuu has recieved 460 Rune Arrow from Ancient Gorilla.

---2016/08/19 10:22:50---
Bezskuu has recieved 1 Magic Shortbow from Ancient Gorilla.

---2016/08/19 10:22:50---
Bezskuu has recieved 1 Prayer Potion(2) from Ancient Gorilla.
