
---2016/07/26 16:45:40---
Bonecrusher has recieved 3 Prayer Potion(4) from Black Demon.

---2016/07/26 16:45:40---
Bonecrusher has recieved 1 Tooth Half Of Key from Black Demon.

---2016/07/26 16:45:40---
Bonecrusher has recieved 37 Fire Rune from Black Demon.

---2016/07/26 16:45:40---
Bonecrusher has recieved 1 Prayer Potion(3) from Black Demon.

---2016/07/26 16:45:40---
Bonecrusher has recieved 12 Lobster from Black Demon.

---2016/07/26 16:45:40---
Bonecrusher has recieved 100 Air Rune from Black Demon.

---2016/07/30 18:19:39---
Bonecrusher has recieved 6 Shark from Demonic Gorilla.

---2016/07/30 18:19:39---
Bonecrusher has recieved 1 Super Attack(3) from Demonic Gorilla.

---2016/07/30 18:19:39---
Bonecrusher has recieved 9 Prayer Potion(4) from Demonic Gorilla.

---2016/07/30 18:19:39---
Bonecrusher has recieved 1 Rune Boots from Demonic Gorilla.

---2016/07/30 18:19:39---
Bonecrusher has recieved 58120 Coins from Demonic Gorilla.

---2016/07/30 18:19:39---
Bonecrusher has recieved 1 Rune Platebody from Demonic Gorilla.

---2016/07/30 18:19:39---
Bonecrusher has recieved 1 Rune Platelegs from Demonic Gorilla.

---2016/07/30 18:19:39---
Bonecrusher has recieved 1 Amulet Of Glory(6) from Demonic Gorilla.

---2016/07/30 18:19:39---
Bonecrusher has recieved 9 Adamantite Bar from Demonic Gorilla.

---2016/07/30 18:19:39---
Bonecrusher has recieved 1 Prayer Potion(3) from Demonic Gorilla.

---2016/07/30 18:19:39---
Bonecrusher has recieved 1 Ring Of Wealth from Demonic Gorilla.

---2016/07/30 18:19:39---
Bonecrusher has recieved 1 Super Strength(3) from Demonic Gorilla.

---2016/07/30 18:34:22---
Bonecrusher has recieved 20 Shark from Demonic Gorilla.

---2016/07/30 18:34:22---
Bonecrusher has recieved 1 Super Attack(3) from Demonic Gorilla.

---2016/07/30 18:34:22---
Bonecrusher has recieved 5 Prayer Potion(4) from Demonic Gorilla.

---2016/07/30 18:34:22---
Bonecrusher has recieved 1 Rune Boots from Demonic Gorilla.

---2016/07/30 18:34:22---
Bonecrusher has recieved 1 Rune Platelegs from Demonic Gorilla.

---2016/07/30 18:34:22---
Bonecrusher has recieved 1 Amulet Of Glory(6) from Demonic Gorilla.

---2016/07/30 18:34:22---
Bonecrusher has recieved 1 Prayer Potion(3) from Demonic Gorilla.

---2016/07/30 18:34:22---
Bonecrusher has recieved 1 Ring Of Wealth from Demonic Gorilla.

---2016/07/30 18:34:22---
Bonecrusher has recieved 1 Super Strength(3) from Demonic Gorilla.

---2016/07/30 19:11:49---
Bonecrusher has recieved 8 Shark from Thermonuclear Smoke Devil.

---2016/07/30 19:11:49---
Bonecrusher has recieved 5 Prayer Potion(4) from Thermonuclear Smoke Devil.

---2016/07/30 19:11:49---
Bonecrusher has recieved 1 Rune Boots from Thermonuclear Smoke Devil.

---2016/07/30 19:11:49---
Bonecrusher has recieved 3000 Coins from Thermonuclear Smoke Devil.

---2016/07/30 19:11:49---
Bonecrusher has recieved 1 Vial from Thermonuclear Smoke Devil.

---2016/07/30 19:11:49---
Bonecrusher has recieved 1 Rune 2h Sword from Thermonuclear Smoke Devil.

---2016/07/30 19:11:49---
Bonecrusher has recieved 1 Amulet Of Glory(6) from Thermonuclear Smoke Devil.

---2016/07/30 19:11:49---
Bonecrusher has recieved 20 Magic Logs from Thermonuclear Smoke Devil.

---2016/07/30 19:11:49---
Bonecrusher has recieved 1 Ring Of Wealth from Thermonuclear Smoke Devil.

---2016/07/30 19:11:49---
Bonecrusher has recieved 1 Super Attack(3) from Thermonuclear Smoke Devil.

---2016/07/30 19:11:49---
Bonecrusher has recieved 60 Soul Rune from Thermonuclear Smoke Devil.

---2016/07/30 19:11:49---
Bonecrusher has recieved 1 Rune Platelegs from Thermonuclear Smoke Devil.

---2016/07/30 19:11:49---
Bonecrusher has recieved 1 Rune Dagger from Thermonuclear Smoke Devil.

---2016/07/30 19:11:49---
Bonecrusher has recieved 1 Super Strength(3) from Thermonuclear Smoke Devil.

---2016/07/30 19:37:20---
Bonecrusher has recieved 18 Shark from Demonic Gorilla.

---2016/07/30 19:37:20---
Bonecrusher has recieved 5 Prayer Potion(4) from Demonic Gorilla.

---2016/07/30 19:37:20---
Bonecrusher has recieved 1 Rune Boots from Demonic Gorilla.

---2016/07/30 19:37:20---
Bonecrusher has recieved 1 Super Attack(4) from Demonic Gorilla.

---2016/07/30 19:37:20---
Bonecrusher has recieved 1 Rune Platebody from Demonic Gorilla.

---2016/07/30 19:37:20---
Bonecrusher has recieved 1 Rune Platelegs from Demonic Gorilla.

---2016/07/30 19:37:20---
Bonecrusher has recieved 1 Super Strength(4) from Demonic Gorilla.

---2016/07/30 19:37:20---
Bonecrusher has recieved 1 Slayer Bell from Demonic Gorilla.

---2016/07/30 19:37:20---
Bonecrusher has recieved 1 Amulet Of Glory(6) from Demonic Gorilla.

---2016/07/30 19:37:20---
Bonecrusher has recieved 1 Ring Of Wealth from Demonic Gorilla.

---2016/07/30 19:54:33---
Bonecrusher has recieved 3 Prayer Potion(4) from Demonic Gorilla.

---2016/07/30 19:54:33---
Bonecrusher has recieved 1 Rune Boots from Demonic Gorilla.

---2016/07/30 19:54:33---
Bonecrusher has recieved 38271 Coins from Demonic Gorilla.

---2016/07/30 19:54:33---
Bonecrusher has recieved 1 Vial from Demonic Gorilla.

---2016/07/30 19:54:33---
Bonecrusher has recieved 1 Rune Platebody from Demonic Gorilla.

---2016/07/30 19:54:33---
Bonecrusher has recieved 1 Slayer Bell from Demonic Gorilla.

---2016/07/30 19:54:33---
Bonecrusher has recieved 1 Amulet Of Glory(6) from Demonic Gorilla.

---2016/07/30 19:54:33---
Bonecrusher has recieved 5 Monkfish from Demonic Gorilla.

---2016/07/30 19:54:33---
Bonecrusher has recieved 1 Prayer Potion(3) from Demonic Gorilla.

---2016/07/30 19:54:33---
Bonecrusher has recieved 1 Ring Of Wealth from Demonic Gorilla.

---2016/07/30 19:54:33---
Bonecrusher has recieved 1 Super Attack(3) from Demonic Gorilla.

---2016/07/30 19:54:33---
Bonecrusher has recieved 1 Rune Platelegs from Demonic Gorilla.

---2016/07/30 19:54:33---
Bonecrusher has recieved 1 Super Strength(3) from Demonic Gorilla.

---2016/07/30 19:54:33---
Bonecrusher has recieved 37 Rune Javelin from Demonic Gorilla.

---2016/07/31 14:45:29---
Bonecrusher has recieved 8 Prayer Potion(4) from Thermonuclear Smoke Devil.

---2016/07/31 14:45:29---
Bonecrusher has recieved 1 Rune Boots from Thermonuclear Smoke Devil.

---2016/07/31 14:45:29---
Bonecrusher has recieved 2619 Coins from Thermonuclear Smoke Devil.

---2016/07/31 14:45:29---
Bonecrusher has recieved 1 Vial from Thermonuclear Smoke Devil.

---2016/07/31 14:45:29---
Bonecrusher has recieved 1 Amulet Of Glory(6) from Thermonuclear Smoke Devil.

---2016/07/31 14:45:29---
Bonecrusher has recieved 5 Magic Logs from Thermonuclear Smoke Devil.

---2016/07/31 14:45:29---
Bonecrusher has recieved 337 Fire Rune from Thermonuclear Smoke Devil.

---2016/07/31 14:45:29---
Bonecrusher has recieved 1 Prayer Potion(3) from Thermonuclear Smoke Devil.

---2016/07/31 14:45:29---
Bonecrusher has recieved 1 Ring Of Wealth from Thermonuclear Smoke Devil.

---2016/07/31 14:45:29---
Bonecrusher has recieved 1 Super Attack(2) from Thermonuclear Smoke Devil.

---2016/07/31 14:45:29---
Bonecrusher has recieved 1 Rune Platelegs from Thermonuclear Smoke Devil.

---2016/07/31 14:45:29---
Bonecrusher has recieved 1 Loop Half Of Key from Thermonuclear Smoke Devil.

---2016/07/31 14:45:29---
Bonecrusher has recieved 1 Super Strength(2) from Thermonuclear Smoke Devil.

---2016/08/02 11:43:12---
Bonecrusher has recieved 1141319 Coins from The Bros 2.

---2016/08/02 11:43:12---
Bonecrusher has recieved 915 Dark Fishing Bait from The Bros 2.

---2016/08/02 11:43:12---
Bonecrusher has recieved 1 Lobster Pot from The Bros 2.

---2016/08/02 11:43:12---
Bonecrusher has recieved 1 Raw Dark Crab from The Bros 2.

---2016/08/02 11:43:12---
Bonecrusher has recieved 69 Raw Dark Crab from The Bros 2.

---2016/08/03 14:35:49---
Bonecrusher has recieved 16 Shark from Demonic Gorilla.

---2016/08/03 14:35:49---
Bonecrusher has recieved 1 Prayer Potion(4) from Demonic Gorilla.

---2016/08/03 14:35:49---
Bonecrusher has recieved 1 Rune Boots from Demonic Gorilla.

---2016/08/03 14:35:49---
Bonecrusher has recieved 28004 Coins from Demonic Gorilla.

---2016/08/03 14:35:49---
Bonecrusher has recieved 1 Rune Plateskirt from Demonic Gorilla.

---2016/08/03 14:35:49---
Bonecrusher has recieved 1 Amulet Of Glory(6) from Demonic Gorilla.

---2016/08/03 14:35:49---
Bonecrusher has recieved 1 Rune Full Helm from Demonic Gorilla.

---2016/08/03 14:35:49---
Bonecrusher has recieved 1 Ring Of Wealth from Demonic Gorilla.

---2016/08/03 14:35:49---
Bonecrusher has recieved 1 Prayer Potion(2) from Demonic Gorilla.

---2016/08/03 14:35:49---
Bonecrusher has recieved 214 Death Rune from Demonic Gorilla.

---2016/08/03 14:35:49---
Bonecrusher has recieved 1 Super Attack(2) from Demonic Gorilla.

---2016/08/03 14:35:49---
Bonecrusher has recieved 1 Slayer Helmet (I) from Demonic Gorilla.

---2016/08/03 14:35:49---
Bonecrusher has recieved 1 Tooth Half Of Key from Demonic Gorilla.

---2016/08/03 14:35:49---
Bonecrusher has recieved 1 Super Strength(2) from Demonic Gorilla.

---2016/08/04 16:20:42---
Bonecrusher has recieved 2 Super Restore(4) from Kalphite Queen.

---2016/08/04 16:20:42---
Bonecrusher has recieved 1 Amulet Of Glory(4) from Kalphite Queen.

---2016/08/04 16:20:42---
Bonecrusher has recieved 1 Black D'Hide Chaps from Kalphite Queen.

---2016/08/04 16:20:42---
Bonecrusher has recieved 16 Shark from Kalphite Queen.

---2016/08/04 16:20:42---
Bonecrusher has recieved 1 Rune Boots from Kalphite Queen.

---2016/08/04 16:20:42---
Bonecrusher has recieved 1 Crystal Bow Full from Kalphite Queen.

---2016/08/04 16:20:42---
Bonecrusher has recieved 1 Snakeskin Boots from Kalphite Queen.

---2016/08/04 16:20:42---
Bonecrusher has recieved 1 Super Strength(4) from Kalphite Queen.

---2016/08/04 16:20:42---
Bonecrusher has recieved 1 Ranging Potion(4) from Kalphite Queen.

---2016/08/04 19:12:23---
Bonecrusher has recieved 1 Amulet Of Glory(4) from Kalphite Queen.

---2016/08/04 19:12:23---
Bonecrusher has recieved 1 Black D'Hide Chaps from Kalphite Queen.

---2016/08/04 19:12:23---
Bonecrusher has recieved 8 Prayer Potion(4) from Kalphite Queen.

---2016/08/04 19:12:23---
Bonecrusher has recieved 1 Vial from Kalphite Queen.

---2016/08/04 19:12:23---
Bonecrusher has recieved 1 Crystal Bow Full from Kalphite Queen.

---2016/08/04 19:12:23---
Bonecrusher has recieved 1 Black D'Hide Body from Kalphite Queen.

---2016/08/04 19:12:23---
Bonecrusher has recieved 1 Snakeskin Boots from Kalphite Queen.

---2016/08/04 19:12:23---
Bonecrusher has recieved 1 Slayer Bell from Kalphite Queen.

---2016/08/04 19:12:23---
Bonecrusher has recieved 1 Ranging Potion(3) from Kalphite Queen.

---2016/08/04 19:12:23---
Bonecrusher has recieved 1 Prayer Potion(3) from Kalphite Queen.

---2016/08/04 19:12:23---
Bonecrusher has recieved 1 Petition Form from Kalphite Queen.

---2016/08/04 19:12:23---
Bonecrusher has recieved 1 Ranging Potion(4) from Kalphite Queen.

---2016/08/06 15:11:59---
Bonecrusher has recieved 5 Dark Crab from Demonic Gorilla.

---2016/08/06 15:11:59---
Bonecrusher has recieved 1 Prayer Potion(4) from Demonic Gorilla.

---2016/08/06 15:11:59---
Bonecrusher has recieved 1 Rune Boots from Demonic Gorilla.

---2016/08/06 15:11:59---
Bonecrusher has recieved 172490 Coins from Demonic Gorilla.

---2016/08/06 15:11:59---
Bonecrusher has recieved 1 Rune Plateskirt from Demonic Gorilla.

---2016/08/06 15:11:59---
Bonecrusher has recieved 1 Vial from Demonic Gorilla.

---2016/08/06 15:11:59---
Bonecrusher has recieved 1 Amulet Of Glory(6) from Demonic Gorilla.

---2016/08/06 15:11:59---
Bonecrusher has recieved 2 Rune Full Helm from Demonic Gorilla.

---2016/08/06 15:11:59---
Bonecrusher has recieved 1 Prayer Potion(3) from Demonic Gorilla.

---2016/08/06 15:11:59---
Bonecrusher has recieved 1 Ring Of Wealth from Demonic Gorilla.

---2016/08/06 15:11:59---
Bonecrusher has recieved 8 Adamantite Bar from Demonic Gorilla.

---2016/08/06 15:11:59---
Bonecrusher has recieved 1 Super Combat Potion(2) from Demonic Gorilla.

---2016/08/06 15:11:59---
Bonecrusher has recieved 14 Runite Bar from Demonic Gorilla.

---2016/08/06 15:11:59---
Bonecrusher has recieved 228 Dragon Javelin from Demonic Gorilla.

---2016/08/09 15:33:26---
Bonecrusher has recieved 8 Prayer Potion(4) from Kalphite Queen.

---2016/08/09 15:33:26---
Bonecrusher has recieved 1 Crystal Bow Full from Kalphite Queen.

---2016/08/09 15:33:26---
Bonecrusher has recieved 1 Snakeskin Boots from Kalphite Queen.

---2016/08/09 15:33:26---
Bonecrusher has recieved 1 Ranging Potion(2) from Kalphite Queen.

---2016/08/09 15:33:26---
Bonecrusher has recieved 955 Dragon Javelin from Kalphite Queen.

---2016/08/09 15:33:26---
Bonecrusher has recieved 1 Ranging Potion(4) from Kalphite Queen.

---2016/08/09 15:34:11---
Bonecrusher has recieved 2 Prayer Potion(4) from Kalphite Queen.

---2016/08/09 15:34:11---
Bonecrusher has recieved 1 Crystal Bow Full from Kalphite Queen.

---2016/08/09 15:34:11---
Bonecrusher has recieved 1 Snakeskin Boots from Kalphite Queen.

---2016/08/09 15:34:11---
Bonecrusher has recieved 1 Ranging Potion(2) from Kalphite Queen.

---2016/08/09 15:34:11---
Bonecrusher has recieved 955 Dragon Javelin from Kalphite Queen.

---2016/08/09 15:34:11---
Bonecrusher has recieved 1 Ranging Potion(4) from Kalphite Queen.

---2016/08/09 15:35:41---
Bonecrusher has recieved 8 Prayer Potion(4) from Kalphite Queen.

---2016/08/09 15:35:41---
Bonecrusher has recieved 60 Wine Of Zamorak from Kalphite Queen.

---2016/08/09 15:35:41---
Bonecrusher has recieved 1 Crystal Bow Full from Kalphite Queen.

---2016/08/09 15:35:41---
Bonecrusher has recieved 1 Snakeskin Boots from Kalphite Queen.

---2016/08/09 15:35:41---
Bonecrusher has recieved 1 Ranging Potion(2) from Kalphite Queen.

---2016/08/09 15:35:41---
Bonecrusher has recieved 954 Dragon Javelin from Kalphite Queen.

---2016/08/09 15:35:41---
Bonecrusher has recieved 1 Ranging Potion(4) from Kalphite Queen.

---2016/08/09 18:52:12---
Bonecrusher has recieved 1 Dragon Boots from Cerberus.

---2016/08/09 18:52:12---
Bonecrusher has recieved 9 Dark Crab from Cerberus.

---2016/08/09 18:52:12---
Bonecrusher has recieved 3 Super Restore(4) from Cerberus.

---2016/08/09 18:52:12---
Bonecrusher has recieved 2 Prayer Potion(4) from Cerberus.

---2016/08/09 18:52:12---
Bonecrusher has recieved 22136 Coins from Cerberus.

---2016/08/09 18:52:12---
Bonecrusher has recieved 1 Super Restore(1) from Cerberus.

---2016/08/09 18:52:12---
Bonecrusher has recieved 1 Super Combat Potion(4) from Cerberus.

---2016/08/09 18:52:12---
Bonecrusher has recieved 1 Slayer Bell from Cerberus.

---2016/08/09 18:52:12---
Bonecrusher has recieved 1 Ring Of Wealth from Cerberus.

---2016/08/09 18:52:12---
Bonecrusher has recieved 1 Super Combat Potion(1) from Cerberus.

---2016/08/09 18:52:12---
Bonecrusher has recieved 1 List from Cerberus.

---2016/08/09 19:25:51---
Bonecrusher has recieved 1 Dragon Boots from Abyssal Monarch.

---2016/08/09 19:25:51---
Bonecrusher has recieved 1 Credits Scroll from Abyssal Monarch.

---2016/08/09 19:25:51---
Bonecrusher has recieved 3 Prayer Potion(4) from Abyssal Monarch.

---2016/08/09 19:25:51---
Bonecrusher has recieved 3 Vial from Abyssal Monarch.

---2016/08/09 19:25:51---
Bonecrusher has recieved 1 Slayer Bell from Abyssal Monarch.

---2016/08/09 19:25:51---
Bonecrusher has recieved 1 Ring Of Wealth from Abyssal Monarch.

---2016/08/09 19:25:51---
Bonecrusher has recieved 1 Prayer Potion(2) from Abyssal Monarch.

---2016/08/09 19:25:51---
Bonecrusher has recieved 1 Karamja Gloves 4 from Abyssal Monarch.

---2016/08/09 19:25:51---
Bonecrusher has recieved 1 Clue Scroll (Easy) from Abyssal Monarch.

---2016/08/09 19:25:51---
Bonecrusher has recieved 1 Super Combat Potion(2) from Abyssal Monarch.

---2016/08/09 19:25:51---
Bonecrusher has recieved 1 Loop Half Of Key from Abyssal Monarch.

---2016/08/09 19:25:51---
Bonecrusher has recieved 1 Petition Form from Abyssal Monarch.

---2016/08/09 19:25:51---
Bonecrusher has recieved 3 Crystal Key from Abyssal Monarch.

---2016/08/13 18:26:35---
Bonecrusher has recieved 1 Shield Right Half from Penance Queen.

---2016/08/13 18:26:35---
Bonecrusher has recieved 200 Death Rune from Penance Queen.

---2016/08/13 18:26:35---
Bonecrusher has recieved 1 Ranger Boots from Penance Queen.

---2016/08/13 18:26:35---
Bonecrusher has recieved 1 Dragon Sq Shield from Penance Queen.

---2016/08/13 18:26:35---
Bonecrusher has recieved 1 Crystal Bow Full from Penance Queen.

---2016/08/13 18:26:35---
Bonecrusher has recieved 1 Necklace Of Anguish from Penance Queen.

---2016/08/13 18:26:35---
Bonecrusher has recieved 1 Ring Of Wealth from Penance Queen.

---2016/08/18 08:58:46---
Bonecrusher has recieved 1 Dragon Boots from Demonic Gorilla.

---2016/08/18 08:58:46---
Bonecrusher has recieved 246 Death Rune from Demonic Gorilla.

---2016/08/18 08:58:46---
Bonecrusher has recieved 2 Vial from Demonic Gorilla.

---2016/08/18 08:58:46---
Bonecrusher has recieved 1 Abyssal Whip from Demonic Gorilla.

---2016/08/18 08:58:46---
Bonecrusher has recieved 12 Adamantite Bar from Demonic Gorilla.

---2016/08/18 08:58:46---
Bonecrusher has recieved 1 Ring Of Wealth from Demonic Gorilla.

---2016/08/18 08:58:46---
Bonecrusher has recieved 136 Dragon Bolts (E) from Demonic Gorilla.

---2016/08/18 08:58:46---
Bonecrusher has recieved 1 Super Combat Potion(1) from Demonic Gorilla.

---2016/08/18 08:58:46---
Bonecrusher has recieved 62 Rune Javelin from Demonic Gorilla.

---2016/08/18 08:58:46---
Bonecrusher has recieved 1 Prayer Potion(1) from Demonic Gorilla.

---2016/08/19 03:41:46---
Bonecrusher has recieved 1 Dragon Boots from Demonic Gorilla.

---2016/08/19 03:41:46---
Bonecrusher has recieved 19 Dark Crab from Demonic Gorilla.

---2016/08/19 03:41:46---
Bonecrusher has recieved 2 Super Restore(4) from Demonic Gorilla.

---2016/08/19 03:41:46---
Bonecrusher has recieved 1 Super Restore(2) from Demonic Gorilla.

---2016/08/19 03:41:46---
Bonecrusher has recieved 1 Abyssal Whip from Demonic Gorilla.

---2016/08/19 03:41:46---
Bonecrusher has recieved 1 Super Combat Potion(3) from Demonic Gorilla.

---2016/08/19 03:41:46---
Bonecrusher has recieved 1 Ring Of Wealth from Demonic Gorilla.

---2016/08/19 03:41:46---
Bonecrusher has recieved 28 Dragon Bolts (E) from Demonic Gorilla.

---2016/08/19 03:48:38---
Bonecrusher has recieved 1 Dragon Boots from Demonic Gorilla.

---2016/08/19 03:48:38---
Bonecrusher has recieved 7 Dark Crab from Demonic Gorilla.

---2016/08/19 03:48:38---
Bonecrusher has recieved 1 Super Restore(4) from Demonic Gorilla.

---2016/08/19 03:48:38---
Bonecrusher has recieved 229 Death Rune from Demonic Gorilla.

---2016/08/19 03:48:38---
Bonecrusher has recieved 1 Monkey Paw from Demonic Gorilla.

---2016/08/19 03:48:38---
Bonecrusher has recieved 1 Super Restore(2) from Demonic Gorilla.

---2016/08/19 03:48:38---
Bonecrusher has recieved 1 Vial from Demonic Gorilla.

---2016/08/19 03:48:38---
Bonecrusher has recieved 1 Abyssal Whip from Demonic Gorilla.

---2016/08/19 03:48:38---
Bonecrusher has recieved 1 Super Combat Potion(2) from Demonic Gorilla.

---2016/08/19 03:48:38---
Bonecrusher has recieved 1 Ring Of Wealth from Demonic Gorilla.

---2016/08/19 03:48:38---
Bonecrusher has recieved 28 Dragon Bolts (E) from Demonic Gorilla.

---2016/08/19 03:48:38---
Bonecrusher has recieved 28 Rune Javelin from Demonic Gorilla.

---2016/08/22 19:03:11---
Bonecrusher has recieved 5 Super Restore(4) from Callisto.

---2016/08/22 19:03:11---
Bonecrusher has recieved 1 Black D'Hide Chaps from Callisto.

---2016/08/22 19:03:11---
Bonecrusher has recieved 40 Dark Crab from Callisto.

---2016/08/22 19:03:11---
Bonecrusher has recieved 8 Anglerfish from Callisto.

---2016/08/22 19:03:11---
Bonecrusher has recieved 1 Super Restore(3) from Callisto.

---2016/08/22 19:03:11---
Bonecrusher has recieved 1 Vial from Callisto.

---2016/08/22 19:03:11---
Bonecrusher has recieved 1 Crystal Bow Full from Callisto.

---2016/08/22 19:03:11---
Bonecrusher has recieved 1 Snakeskin Boots from Callisto.

---2016/08/22 19:03:11---
Bonecrusher has recieved 1 Ranging Potion(3) from Callisto.

---2016/08/25 10:48:35---
Bonecrusher has recieved 3 Super Restore(4) from Cerberus.

---2016/08/25 10:48:35---
Bonecrusher has recieved 141 Death Rune from Cerberus.

---2016/08/25 10:48:35---
Bonecrusher has recieved 153842 Coins from Cerberus.

---2016/08/25 10:48:35---
Bonecrusher has recieved 2 Uncut Ruby from Cerberus.

---2016/08/25 10:48:35---
Bonecrusher has recieved 1 Pegasian Boots from Cerberus.

---2016/08/25 10:48:35---
Bonecrusher has recieved 96 Soul Rune from Cerberus.

---2016/08/25 10:48:35---
Bonecrusher has recieved 91 Coal from Cerberus.

---2016/08/25 10:48:35---
Bonecrusher has recieved 1 Crystal Bow Full from Cerberus.

---2016/08/25 10:48:35---
Bonecrusher has recieved 7 Dragon Bones from Cerberus.

---2016/08/25 10:48:35---
Bonecrusher has recieved 1 Prayer Potion(3) from Cerberus.

---2016/08/25 10:48:35---
Bonecrusher has recieved 27 Torstol from Cerberus.

---2016/08/27 08:40:42---
Bonecrusher has recieved 6 Key Master Teleport from Cerberus.

---2016/08/27 08:40:42---
Bonecrusher has recieved 1 Black D'Hide Chaps from Cerberus.

---2016/08/27 08:40:42---
Bonecrusher has recieved 1 Vial from Cerberus.

---2016/08/27 08:40:42---
Bonecrusher has recieved 1 Black D'Hide Body from Cerberus.

---2016/08/27 08:40:42---
Bonecrusher has recieved 1 Ranging Potion(3) from Cerberus.

---2016/08/27 08:40:42---
Bonecrusher has recieved 1 Ring Of Wealth from Cerberus.

---2016/08/27 08:40:42---
Bonecrusher has recieved 1 Ranging Potion(4) from Cerberus.

---2016/08/27 08:40:42---
Bonecrusher has recieved 9 Super Restore(4) from Cerberus.

---2016/08/27 08:40:42---
Bonecrusher has recieved 508 Death Rune from Cerberus.

---2016/08/27 08:40:42---
Bonecrusher has recieved 1 Super Restore(2) from Cerberus.

---2016/08/27 08:40:42---
Bonecrusher has recieved 1 Pegasian Boots from Cerberus.

---2016/08/27 08:40:42---
Bonecrusher has recieved 53 Soul Rune from Cerberus.

---2016/08/27 08:40:42---
Bonecrusher has recieved 1 Crystal Bow Full from Cerberus.

---2016/08/27 08:40:42---
Bonecrusher has recieved 1 Dragon Bones from Cerberus.

---2016/08/27 08:40:42---
Bonecrusher has recieved 126 Dragon Dart from Cerberus.

---2016/08/27 10:19:48---
Bonecrusher has recieved 2 Super Restore(4) from Demonic Gorilla.

---2016/08/27 10:19:48---
Bonecrusher has recieved 67 Death Rune from Demonic Gorilla.

---2016/08/27 10:19:48---
Bonecrusher has recieved 245638 Coins from Demonic Gorilla.

---2016/08/27 10:19:48---
Bonecrusher has recieved 1 Vial from Demonic Gorilla.

---2016/08/27 10:19:48---
Bonecrusher has recieved 1 Super Combat Potion(4) from Demonic Gorilla.

---2016/08/27 10:19:48---
Bonecrusher has recieved 1 Primordial Boots from Demonic Gorilla.

---2016/08/27 10:19:48---
Bonecrusher has recieved 2 Adamantite Bar from Demonic Gorilla.

---2016/08/27 10:19:48---
Bonecrusher has recieved 1 Ring Of Wealth from Demonic Gorilla.

---2016/08/27 10:19:48---
Bonecrusher has recieved 157 Dragon Javelin from Demonic Gorilla.

---2016/08/27 10:19:48---
Bonecrusher has recieved 1 Super Combat Potion(1) from Demonic Gorilla.

---2016/08/27 10:35:51---
Bonecrusher has recieved 1 Super Restore(3) from Demonic Gorilla.

---2016/08/27 10:35:51---
Bonecrusher has recieved 1 Primordial Boots from Demonic Gorilla.

---2016/08/27 10:35:51---
Bonecrusher has recieved 1 Super Combat Potion(2) from Demonic Gorilla.

---2016/08/27 10:35:51---
Bonecrusher has recieved 1 Ring Of Wealth from Demonic Gorilla.

---2016/08/28 07:39:51---
Bonecrusher has recieved 4 Super Restore(4) from Cerberus.

---2016/08/28 07:39:51---
Bonecrusher has recieved 1 Black D'Hide Chaps from Cerberus.

---2016/08/28 07:39:51---
Bonecrusher has recieved 238373 Coins from Cerberus.

---2016/08/28 07:39:51---
Bonecrusher has recieved 1 Vial from Cerberus.

---2016/08/28 07:39:51---
Bonecrusher has recieved 1 Pegasian Boots from Cerberus.

---2016/08/28 07:39:51---
Bonecrusher has recieved 1 Crystal Bow Full from Cerberus.

---2016/08/28 07:39:51---
Bonecrusher has recieved 1 Ranging Potion(1) from Cerberus.

---2016/08/28 07:39:51---
Bonecrusher has recieved 28 Torstol from Cerberus.
