
---2016/07/18 02:09:33---
Ciarrocca has recieved 1 Amulet Of Glory(4) from Abyssal Monarch.

---2016/07/18 02:09:33---
Ciarrocca has recieved 2 Prayer Potion(4) from Abyssal Monarch.

---2016/07/18 02:09:33---
Ciarrocca has recieved 1 Rune Boots from Abyssal Monarch.

---2016/07/18 02:09:33---
Ciarrocca has recieved 1 Helm Of Neitiznot from Abyssal Monarch.

---2016/07/18 02:09:33---
Ciarrocca has recieved 1 Super Combat Potion(1) from Abyssal Monarch.

---2016/07/18 02:09:33---
Ciarrocca has recieved 1 Prayer Potion(1) from Abyssal Monarch.
