
---2016/08/27 18:28:25---
Combat Drops has recieved 1 Dragon chainbody from Dust Devil.

---2016/08/28 04:18:41---
Combat Drops has recieved 21 Dark Crab from Ancient Gorilla.

---2016/08/28 04:18:41---
Combat Drops has recieved 4 Prayer Potion(4) from Ancient Gorilla.

---2016/08/28 04:18:41---
Combat Drops has recieved 1 Abyssal Whip from Ancient Gorilla.

---2016/08/28 04:18:41---
Combat Drops has recieved 1 Primordial Boots from Ancient Gorilla.

---2016/08/28 04:18:41---
Combat Drops has recieved 1 Amulet Of Fury from Ancient Gorilla.

---2016/08/28 04:18:41---
Combat Drops has recieved 1 Super Combat Potion(3) from Ancient Gorilla.

---2016/08/28 04:18:41---
Combat Drops has recieved 1 Ring Of Wealth from Ancient Gorilla.

---2016/08/28 04:18:41---
Combat Drops has recieved 1 Dragon Dagger from Ancient Gorilla.

---2016/08/28 04:29:08---
Combat Drops has recieved 11 Dark Crab from Demonic Gorilla.

---2016/08/28 04:29:08---
Combat Drops has recieved 3 Prayer Potion(4) from Demonic Gorilla.

---2016/08/28 04:29:08---
Combat Drops has recieved 38317 Coins from Demonic Gorilla.

---2016/08/28 04:29:08---
Combat Drops has recieved 1 Rune Full Helm from Demonic Gorilla.

---2016/08/28 04:29:08---
Combat Drops has recieved 1 Ring Of Wealth from Demonic Gorilla.

---2016/08/28 04:29:08---
Combat Drops has recieved 1 Abyssal Whip from Demonic Gorilla.

---2016/08/28 04:29:08---
Combat Drops has recieved 1 Primordial Boots from Demonic Gorilla.

---2016/08/28 04:29:08---
Combat Drops has recieved 1 Amulet Of Fury from Demonic Gorilla.

---2016/08/28 04:29:08---
Combat Drops has recieved 1 Bandos Tassets from Demonic Gorilla.

---2016/08/28 04:29:08---
Combat Drops has recieved 8 Adamantite Bar from Demonic Gorilla.

---2016/08/28 04:29:08---
Combat Drops has recieved 1 Super Combat Potion(2) from Demonic Gorilla.

---2016/08/28 04:29:08---
Combat Drops has recieved 334 Dragon Javelin from Demonic Gorilla.

---2016/08/28 04:29:08---
Combat Drops has recieved 1 Dragon Dagger from Demonic Gorilla.
