
---2016/07/02 18:13:25---
Cookie Boys has recieved 1 Amulet Of Glory(4) from Rock Crab.

---2016/07/02 18:13:25---
Cookie Boys has recieved 1 Slave Robe from Rock Crab.

---2016/07/02 18:13:25---
Cookie Boys has recieved 1 Slave Boots from Rock Crab.

---2016/07/02 18:13:25---
Cookie Boys has recieved 1 Bronze Scimitar from Rock Crab.

---2016/07/02 18:42:42---
Cookie Boys has recieved 1 Amulet Of Glory(4) from Cyclops.

---2016/07/02 18:42:42---
Cookie Boys has recieved 1 Adamant Platelegs from Cyclops.

---2016/07/02 18:42:42---
Cookie Boys has recieved 1 Black Dagger from Cyclops.

---2016/07/02 18:42:42---
Cookie Boys has recieved 1 Climbing Boots from Cyclops.

---2016/07/02 18:42:42---
Cookie Boys has recieved 1 Slave Robetop from Cyclops.

---2016/07/02 18:42:42---
Cookie Boys has recieved 1 Slave Robe from Cyclops.

---2016/07/02 18:42:42---
Cookie Boys has recieved 1 Adamant Full Helm from Cyclops.

---2016/07/02 18:42:42---
Cookie Boys has recieved 1 Proselyte Hauberk from Cyclops.

---2016/07/02 18:42:42---
Cookie Boys has recieved 1 Proselyte Cuisse from Cyclops.

---2016/07/02 18:42:42---
Cookie Boys has recieved 20 Adamant Javelin from Cyclops.

---2016/07/02 23:39:51---
Cookie Boys has recieved 1 Amulet Of Glory(4) from Hellhound.

---2016/07/02 23:39:51---
Cookie Boys has recieved 1 Climbing Boots from Hellhound.

---2016/07/02 23:39:51---
Cookie Boys has recieved 1 Anti-Dragon Shield from Hellhound.

---2016/07/02 23:39:51---
Cookie Boys has recieved 1 Proselyte Cuisse from Hellhound.

---2016/07/03 23:56:29---
Cookie Boys has recieved 31 Death Rune from Abyssal Monarch.

---2016/07/03 23:56:29---
Cookie Boys has recieved 1 Amulet Of Glory(4) from Abyssal Monarch.

---2016/07/03 23:56:29---
Cookie Boys has recieved 1 Black D'Hide Chaps from Abyssal Monarch.

---2016/07/03 23:56:29---
Cookie Boys has recieved 1 Anti-Dragon Shield from Abyssal Monarch.

---2016/07/03 23:56:29---
Cookie Boys has recieved 1 Super Combat Potion(4) from Abyssal Monarch.

---2016/07/03 23:56:29---
Cookie Boys has recieved 1 Snakeskin Boots from Abyssal Monarch.

---2016/07/03 23:56:29---
Cookie Boys has recieved 14 Lobster from Abyssal Monarch.

---2016/07/03 23:59:34---
Cookie Boys has recieved 44 Death Rune from Abyssal Monarch.

---2016/07/03 23:59:34---
Cookie Boys has recieved 1 Amulet Of Glory(4) from Abyssal Monarch.

---2016/07/03 23:59:34---
Cookie Boys has recieved 1 Black D'Hide Chaps from Abyssal Monarch.

---2016/07/03 23:59:34---
Cookie Boys has recieved 1 Anti-Dragon Shield from Abyssal Monarch.

---2016/07/03 23:59:34---
Cookie Boys has recieved 1 Black D'Hide Body from Abyssal Monarch.

---2016/07/03 23:59:34---
Cookie Boys has recieved 1 Snakeskin Boots from Abyssal Monarch.

---2016/07/03 23:59:34---
Cookie Boys has recieved 1 Super Combat Potion(3) from Abyssal Monarch.

---2016/07/03 23:59:34---
Cookie Boys has recieved 1 Rune Med Helm from Abyssal Monarch.

---2016/07/04 00:01:57---
Cookie Boys has recieved 56 Death Rune from Abyssal Monarch.

---2016/07/04 00:01:57---
Cookie Boys has recieved 1 Amulet Of Glory(4) from Abyssal Monarch.

---2016/07/04 00:01:57---
Cookie Boys has recieved 1 Black D'Hide Chaps from Abyssal Monarch.

---2016/07/04 00:01:57---
Cookie Boys has recieved 582011 Coins from Abyssal Monarch.

---2016/07/04 00:01:57---
Cookie Boys has recieved 1 Anti-Dragon Shield from Abyssal Monarch.

---2016/07/04 00:01:57---
Cookie Boys has recieved 1 Black D'Hide Body from Abyssal Monarch.

---2016/07/04 00:01:57---
Cookie Boys has recieved 1 Snakeskin Boots from Abyssal Monarch.

---2016/07/04 00:01:57---
Cookie Boys has recieved 1 Super Combat Potion(3) from Abyssal Monarch.

---2016/07/04 00:01:57---
Cookie Boys has recieved 1 Rune Full Helm from Abyssal Monarch.

---2016/07/04 00:01:57---
Cookie Boys has recieved 2 Rune Med Helm from Abyssal Monarch.

---2016/07/04 00:01:57---
Cookie Boys has recieved 1 Green D'Hide Body from Abyssal Monarch.

---2016/07/05 22:32:54---
Cookie Boys has recieved 1 Amulet Of Glory(4) from Monkey Archer.

---2016/07/05 22:32:54---
Cookie Boys has recieved 10 Shark from Monkey Archer.

---2016/07/05 22:32:54---
Cookie Boys has recieved 1 Climbing Boots from Monkey Archer.

---2016/07/05 22:32:54---
Cookie Boys has recieved 1 Anti-Dragon Shield from Monkey Archer.

---2016/07/05 22:32:54---
Cookie Boys has recieved 1 Proselyte Hauberk from Monkey Archer.

---2016/07/05 22:32:54---
Cookie Boys has recieved 1 Ring Of Wealth from Monkey Archer.

---2016/07/05 22:32:54---
Cookie Boys has recieved 1 Proselyte Cuisse from Monkey Archer.

---2016/07/05 22:36:30---
Cookie Boys has recieved 1 Amulet Of Glory(4) from Monkey Archer.

---2016/07/05 22:36:30---
Cookie Boys has recieved 3 Shark from Monkey Archer.

---2016/07/05 22:36:30---
Cookie Boys has recieved 1 Climbing Boots from Monkey Archer.

---2016/07/05 22:36:30---
Cookie Boys has recieved 1 Anti-Dragon Shield from Monkey Archer.

---2016/07/05 22:36:30---
Cookie Boys has recieved 1 Proselyte Hauberk from Monkey Archer.

---2016/07/05 22:36:30---
Cookie Boys has recieved 1 Ring Of Wealth from Monkey Archer.

---2016/07/05 22:36:30---
Cookie Boys has recieved 1 Proselyte Cuisse from Monkey Archer.

---2016/07/05 22:37:01---
Cookie Boys has recieved 1 Amulet Of Glory(4) from Monkey Archer.

---2016/07/05 22:37:01---
Cookie Boys has recieved 3 Shark from Monkey Archer.

---2016/07/05 22:37:01---
Cookie Boys has recieved 1 Proselyte Hauberk from Monkey Archer.

---2016/07/05 22:37:01---
Cookie Boys has recieved 1 Ring Of Wealth from Monkey Archer.

---2016/07/05 22:37:01---
Cookie Boys has recieved 1 Proselyte Cuisse from Monkey Archer.

---2016/07/05 22:38:19---
Cookie Boys has recieved 1 Amulet Of Glory(4) from Monkey Archer.

---2016/07/05 22:38:19---
Cookie Boys has recieved 1 Climbing Boots from Monkey Archer.

---2016/07/05 22:38:19---
Cookie Boys has recieved 1 Anti-Dragon Shield from Monkey Archer.

---2016/07/05 22:38:19---
Cookie Boys has recieved 1 Proselyte Hauberk from Monkey Archer.

---2016/07/05 22:38:19---
Cookie Boys has recieved 1 Ring Of Wealth from Monkey Archer.

---2016/07/05 22:38:19---
Cookie Boys has recieved 1 Proselyte Cuisse from Monkey Archer.
