
---2016/06/30 05:00:28---
Crowbar has recieved 1 Amulet Of Glory(4) from Ghost.

---2016/06/30 05:00:28---
Crowbar has recieved 1 Slave Robetop from Ghost.

---2016/06/30 05:00:28---
Crowbar has recieved 1 Slave Robe from Ghost.

---2016/06/30 05:00:28---
Crowbar has recieved 1 Slave Boots from Ghost.

---2016/06/30 05:00:28---
Crowbar has recieved 1 Bronze Scimitar from Ghost.

---2016/06/30 05:00:28---
Crowbar has recieved 5 Monkfish from Ghost.

---2016/06/30 05:01:07---
Crowbar has recieved 1 Monkfish from Ghost.
