
---2016/08/17 02:23:50---
Croyde has recieved 1 Anti-Dragon Shield from Green Dragon.

---2016/08/17 04:38:25---
Croyde has recieved 1 Anti-Dragon Shield from Abyssal Spawn.

---2016/08/17 04:38:25---
Croyde has recieved 13 Swordfish from Abyssal Spawn.

---2016/08/17 04:38:25---
Croyde has recieved 1 Dragonstone Amulet from Abyssal Spawn.

---2016/08/17 04:38:25---
Croyde has recieved 2 Rune Med Helm from Abyssal Spawn.

---2016/08/17 04:38:25---
Croyde has recieved 2 Crystal Key from Abyssal Spawn.

---2016/08/19 18:12:31---
Croyde has recieved 1 Dragonstone Amulet from Penance Queen.

---2016/08/19 18:12:31---
Croyde has recieved 1 Yellow Egg from Penance Queen.

---2016/08/19 18:12:31---
Croyde has recieved 1 Crystal Bow Full from Penance Queen.

---2016/08/19 18:12:31---
Croyde has recieved 1 Green D'Hide Vamb from Penance Queen.

---2016/08/19 18:12:31---
Croyde has recieved 1 Rune Med Helm from Penance Queen.

---2016/08/19 18:12:31---
Croyde has recieved 1 Seers Ring from Penance Queen.

---2016/08/19 18:12:31---
Croyde has recieved 1 Green D'Hide Chaps from Penance Queen.

---2016/08/19 18:12:31---
Croyde has recieved 1 Rake from Penance Queen.

---2016/08/19 18:12:31---
Croyde has recieved 1 Green D'Hide Body from Penance Queen.

---2016/08/29 18:35:46---
Croyde has recieved 1 Black D'Hide Chaps from Demonic Gorilla.

---2016/08/29 18:35:46---
Croyde has recieved 23 Anglerfish from Demonic Gorilla.

---2016/08/29 18:35:46---
Croyde has recieved 1 Black D'Hide Body from Demonic Gorilla.

---2016/08/29 18:35:46---
Croyde has recieved 1 Snakeskin Boots from Demonic Gorilla.

---2016/08/29 18:35:46---
Croyde has recieved 5 Adamantite Bar from Demonic Gorilla.

---2016/08/29 18:35:46---
Croyde has recieved 2 Super Combat Potion(2) from Demonic Gorilla.
