
---2016/08/04 09:22:59---
Danny has recieved 1 Amulet Of Glory(4) from Blue Dragon.

---2016/08/04 09:22:59---
Danny has recieved 1 Climbing Boots from Blue Dragon.

---2016/08/04 09:22:59---
Danny has recieved 1 Slave Robetop from Blue Dragon.

---2016/08/04 09:22:59---
Danny has recieved 1 Slave Robe from Blue Dragon.

---2016/08/04 09:22:59---
Danny has recieved 1 Proselyte Cuisse from Blue Dragon.

---2016/08/04 09:24:53---
Danny has recieved 1 Amulet Of Glory(4) from Baby Dragon.

---2016/08/04 09:24:53---
Danny has recieved 1 Climbing Boots from Baby Dragon.

---2016/08/04 09:24:53---
Danny has recieved 1 Proselyte Cuisse from Baby Dragon.

---2016/08/04 09:27:24---
Danny has recieved 1 Amulet Of Glory(4) from Baby Dragon.

---2016/08/04 09:27:24---
Danny has recieved 1 Climbing Boots from Baby Dragon.

---2016/08/04 09:27:24---
Danny has recieved 1 Proselyte Cuisse from Baby Dragon.

---2016/08/04 18:21:43---
Dead Dbag has dropped 3 Super Restore(4) for Dead Dbag.

---2016/08/04 18:21:43---
Dead Dbag has dropped 1 Amulet Of Glory(4) for Dead Dbag.

---2016/08/04 18:21:43---
Dead Dbag has dropped 1 Black D'Hide Chaps for Dead Dbag.

---2016/08/04 18:21:43---
Dead Dbag has dropped 1 Super Restore(3) for Dead Dbag.

---2016/08/04 18:21:43---
Dead Dbag has dropped 317150 Coins for Dead Dbag.

---2016/08/04 18:21:43---
Dead Dbag has dropped 1 Slave Robetop for Dead Dbag.

---2016/08/04 18:21:43---
Dead Dbag has dropped 1 Black D'Hide Vamb for Dead Dbag.

---2016/08/04 18:21:43---
Dead Dbag has dropped 1 Ranging Potion(2) for Dead Dbag.

---2016/08/04 18:21:43---
Dead Dbag has dropped 50 Dragon Javelin for Dead Dbag.

---2016/08/04 18:21:43---
Dead Dbag has dropped 2 Ranging Potion(4) for Dead Dbag.

---2016/08/04 18:23:01---
Danny has recieved 3 Super Restore(4) from Real Chris.

---2016/08/04 18:23:01---
Danny has recieved 1 Amulet Of Glory(4) from Real Chris.

---2016/08/04 18:23:01---
Danny has recieved 1 Super Restore(3) from Real Chris.

---2016/08/04 18:23:01---
Danny has recieved 309650 Coins from Real Chris.

---2016/08/04 18:23:01---
Danny has recieved 1 Slave Robetop from Real Chris.

---2016/08/04 18:23:01---
Danny has recieved 1 Black D'Hide Vamb from Real Chris.

---2016/08/04 18:23:01---
Danny has recieved 1 Ranging Potion(2) from Real Chris.

---2016/08/04 18:23:01---
Danny has recieved 48 Dragon Javelin from Real Chris.

---2016/08/04 18:23:01---
Danny has recieved 2 Ranging Potion(4) from Real Chris.

---2016/08/04 18:23:01---
Danny has recieved 1 Bones from Real Chris.

---2016/08/04 18:24:56---
Dead Dbag has dropped 6 Super Restore(4) for Dead Dbag.

---2016/08/04 18:24:56---
Dead Dbag has dropped 1 Amulet Of Glory(4) for Dead Dbag.

---2016/08/04 18:24:56---
Dead Dbag has dropped 1 Black D'Hide Chaps for Dead Dbag.

---2016/08/04 18:24:56---
Dead Dbag has dropped 1 Super Restore(3) for Dead Dbag.

---2016/08/04 18:24:56---
Dead Dbag has dropped 1203541 Coins for Dead Dbag.

---2016/08/04 18:24:56---
Dead Dbag has dropped 2 Ranging Potion(3) for Dead Dbag.

---2016/08/04 18:24:56---
Dead Dbag has dropped 9 Monkfish for Dead Dbag.

---2016/08/04 18:24:56---
Dead Dbag has dropped 2 Black D'Hide Vamb for Dead Dbag.

---2016/08/04 18:24:56---
Dead Dbag has dropped 81 Dragon Javelin for Dead Dbag.

---2016/08/04 18:24:56---
Dead Dbag has dropped 87 Rune Arrow for Dead Dbag.

---2016/08/04 18:24:56---
Dead Dbag has dropped 2 Ranging Potion(4) for Dead Dbag.

---2016/08/04 18:24:56---
Dead Dbag has dropped 1 Magic Shortbow for Dead Dbag.

---2016/08/04 19:38:41---
Danny has recieved 1 Amulet Of Glory(4) from Black Demon.

---2016/08/04 19:38:41---
Danny has recieved 1 Climbing Boots from Black Demon.

---2016/08/04 19:38:41---
Danny has recieved 1 Proselyte Hauberk from Black Demon.

---2016/08/04 19:38:41---
Danny has recieved 2 Monkfish from Black Demon.

---2016/08/04 19:38:41---
Danny has recieved 1 Proselyte Cuisse from Black Demon.

---2016/08/04 19:38:41---
Danny has recieved 1 Crystal Key from Black Demon.
