
---2016/08/06 16:53:23---
Dennis has recieved 1 Toolkit from Giant Bat.

---2016/08/06 16:53:23---
Dennis has recieved 250000 Coins from Giant Bat.

---2016/08/06 16:53:23---
Dennis has recieved 1 Staff Of Air from Giant Bat.

---2016/08/06 16:53:23---
Dennis has recieved 1 Shortbow from Giant Bat.

---2016/08/06 16:53:23---
Dennis has recieved 1 Bronze Scimitar from Giant Bat.

---2016/08/06 16:53:23---
Dennis has recieved 300 Fire Rune from Giant Bat.

---2016/08/06 16:53:23---
Dennis has recieved 100 Monkfish from Giant Bat.

---2016/08/06 16:53:23---
Dennis has recieved 100 Mind Rune from Giant Bat.

---2016/08/06 16:53:23---
Dennis has recieved 1 Amulet Of Glory(4) from Giant Bat.

---2016/08/06 16:53:23---
Dennis has recieved 100 Chaos Rune from Giant Bat.

---2016/08/06 16:53:23---
Dennis has recieved 1 Slave Robetop from Giant Bat.

---2016/08/06 16:53:23---
Dennis has recieved 250 Iron Arrow from Giant Bat.

---2016/08/06 16:53:23---
Dennis has recieved 1 Slave Robe from Giant Bat.

---2016/08/06 16:53:23---
Dennis has recieved 1 Slave Boots from Giant Bat.

---2016/08/06 16:53:23---
Dennis has recieved 5 Super Combat Potion(4) from Giant Bat.

---2016/08/06 16:53:23---
Dennis has recieved 1 Clue Scroll (Easy) from Giant Bat.

---2016/08/06 16:53:23---
Dennis has recieved 100 Rune Arrow from Giant Bat.
