
---2016/08/23 15:19:59---
Dice Bag has recieved 1 Toolkit from Skeletal Wyvern.

---2016/08/23 15:19:59---
Dice Bag has recieved 250000 Coins from Skeletal Wyvern.

---2016/08/23 15:19:59---
Dice Bag has recieved 1 Staff Of Air from Skeletal Wyvern.

---2016/08/23 15:19:59---
Dice Bag has recieved 1 Shortbow from Skeletal Wyvern.

---2016/08/23 15:19:59---
Dice Bag has recieved 1 Bronze Scimitar from Skeletal Wyvern.

---2016/08/23 15:19:59---
Dice Bag has recieved 300 Fire Rune from Skeletal Wyvern.

---2016/08/23 15:19:59---
Dice Bag has recieved 100 Monkfish from Skeletal Wyvern.

---2016/08/23 15:19:59---
Dice Bag has recieved 100 Mind Rune from Skeletal Wyvern.

---2016/08/23 15:19:59---
Dice Bag has recieved 1 Amulet Of Glory(4) from Skeletal Wyvern.

---2016/08/23 15:19:59---
Dice Bag has recieved 100 Chaos Rune from Skeletal Wyvern.

---2016/08/23 15:19:59---
Dice Bag has recieved 1 Slave Robetop from Skeletal Wyvern.

---2016/08/23 15:19:59---
Dice Bag has recieved 250 Iron Arrow from Skeletal Wyvern.

---2016/08/23 15:19:59---
Dice Bag has recieved 1 Slave Robe from Skeletal Wyvern.

---2016/08/23 15:19:59---
Dice Bag has recieved 1 Slave Boots from Skeletal Wyvern.

---2016/08/23 15:19:59---
Dice Bag has recieved 5 Super Combat Potion(4) from Skeletal Wyvern.

---2016/08/23 15:19:59---
Dice Bag has recieved 1 Clue Scroll (Easy) from Skeletal Wyvern.

---2016/08/23 15:19:59---
Dice Bag has recieved 100 Rune Arrow from Skeletal Wyvern.
