
---2016/08/05 21:27:57---
Edin has recieved 1 Amulet Of Glory(4) from Abyssal Monarch.

---2016/08/05 21:27:57---
Edin has recieved 1 Snakeskin Boots from Abyssal Monarch.

---2016/08/05 21:27:57---
Edin has recieved 14 Monkfish from Abyssal Monarch.

---2016/08/05 21:27:57---
Edin has recieved 1 Black D'Hide Vamb from Abyssal Monarch.

---2016/08/05 22:48:03---
Edin has recieved 1 Amulet Of Glory(4) from Green Dragon.

---2016/08/05 22:48:03---
Edin has recieved 6 Shark from Green Dragon.

---2016/08/05 22:48:03---
Edin has recieved 1 Anti-Dragon Shield from Green Dragon.

---2016/08/05 22:48:03---
Edin has recieved 1 Black D'Hide Body from Green Dragon.

---2016/08/05 22:48:03---
Edin has recieved 10 Dragon Bones from Green Dragon.

---2016/08/05 22:48:03---
Edin has recieved 1 Snakeskin Boots from Green Dragon.

---2016/08/05 22:48:03---
Edin has recieved 1 Super Combat Potion(3) from Green Dragon.

---2016/08/05 22:54:37---
Edin has recieved 1 Amulet Of Glory(4) from Green Dragon.

---2016/08/05 22:54:37---
Edin has recieved 15 Nature Rune from Green Dragon.

---2016/08/05 22:54:37---
Edin has recieved 1 Anti-Dragon Shield from Green Dragon.

---2016/08/05 22:54:37---
Edin has recieved 1 Black D'Hide Body from Green Dragon.

---2016/08/05 22:54:37---
Edin has recieved 20 Dragon Bones from Green Dragon.

---2016/08/05 22:54:37---
Edin has recieved 1 Snakeskin Boots from Green Dragon.

---2016/08/05 22:54:37---
Edin has recieved 1 Super Combat Potion(2) from Green Dragon.

---2016/08/05 22:54:37---
Edin has recieved 75 Water Rune from Green Dragon.

---2016/08/06 01:43:59---
Edin has recieved 1 Ashes from Abyssal Spawn.

---2016/08/06 01:43:59---
Edin has recieved 1 Amulet Of Glory(4) from Abyssal Spawn.

---2016/08/06 01:43:59---
Edin has recieved 15 Shark from Abyssal Spawn.

---2016/08/06 01:43:59---
Edin has recieved 1 Climbing Boots from Abyssal Spawn.

---2016/08/06 01:43:59---
Edin has recieved 15039 Coins from Abyssal Spawn.

---2016/08/06 01:43:59---
Edin has recieved 1 Anti-Dragon Shield from Abyssal Spawn.

---2016/08/06 01:43:59---
Edin has recieved 1 Clue Scroll (Easy) from Abyssal Spawn.

---2016/08/06 01:43:59---
Edin has recieved 1 Rune Full Helm from Abyssal Spawn.

---2016/08/06 01:43:59---
Edin has recieved 1 Rune Med Helm from Abyssal Spawn.

---2016/08/06 01:43:59---
Edin has recieved 1 Helm Of Neitiznot from Abyssal Spawn.

---2016/08/06 01:43:59---
Edin has recieved 3 Crystal Key from Abyssal Spawn.

---2016/08/06 19:01:35---
Edin has recieved 1 Dragon Boots from Demonic Gorilla.

---2016/08/06 19:01:35---
Edin has recieved 7 Shark from Demonic Gorilla.

---2016/08/06 19:01:35---
Edin has recieved 1 Prayer Potion(4) from Demonic Gorilla.

---2016/08/06 19:01:35---
Edin has recieved 1 Anti-Dragon Shield from Demonic Gorilla.

---2016/08/06 19:01:35---
Edin has recieved 1 Abyssal Whip from Demonic Gorilla.

---2016/08/06 19:01:35---
Edin has recieved 1 Monkey Tail from Demonic Gorilla.

---2016/08/06 19:01:35---
Edin has recieved 1 Super Combat Potion(2) from Demonic Gorilla.

---2016/08/06 19:01:35---
Edin has recieved 1 Prayer Potion(3) from Demonic Gorilla.

---2016/08/06 19:01:35---
Edin has recieved 1 Helm Of Neitiznot from Demonic Gorilla.

---2016/08/06 19:01:35---
Edin has recieved 2631 Rune Javelin from Demonic Gorilla.

---2016/08/06 19:10:50---
Edin has recieved 1 Dragon Boots from Demonic Gorilla.

---2016/08/06 19:10:50---
Edin has recieved 1 Shark from Demonic Gorilla.

---2016/08/06 19:10:50---
Edin has recieved 1 Prayer Potion(4) from Demonic Gorilla.

---2016/08/06 19:10:50---
Edin has recieved 1 Anti-Dragon Shield from Demonic Gorilla.

---2016/08/06 19:10:50---
Edin has recieved 1 Abyssal Whip from Demonic Gorilla.

---2016/08/06 19:10:50---
Edin has recieved 1 Monkey Tail from Demonic Gorilla.

---2016/08/06 19:10:50---
Edin has recieved 1 Prayer Potion(3) from Demonic Gorilla.

---2016/08/06 19:10:50---
Edin has recieved 1 Helm Of Neitiznot from Demonic Gorilla.

---2016/08/06 19:10:50---
Edin has recieved 1 Super Combat Potion(1) from Demonic Gorilla.

---2016/08/06 19:10:50---
Edin has recieved 2631 Rune Javelin from Demonic Gorilla.

---2016/08/06 19:15:12---
Edin has recieved 1 Dragon Boots from Demonic Gorilla.

---2016/08/06 19:15:12---
Edin has recieved 20 Shark from Demonic Gorilla.

---2016/08/06 19:15:12---
Edin has recieved 1 Prayer Potion(4) from Demonic Gorilla.

---2016/08/06 19:15:12---
Edin has recieved 1 Anti-Dragon Shield from Demonic Gorilla.

---2016/08/06 19:15:12---
Edin has recieved 1 Abyssal Whip from Demonic Gorilla.

---2016/08/06 19:15:12---
Edin has recieved 1 Super Combat Potion(3) from Demonic Gorilla.

---2016/08/06 19:15:12---
Edin has recieved 1 Prayer Potion(3) from Demonic Gorilla.

---2016/08/06 19:15:12---
Edin has recieved 1 Helm Of Neitiznot from Demonic Gorilla.

---2016/08/06 21:11:54---
Edin has recieved 1 Dragon Boots from Demonic Gorilla.

---2016/08/06 21:11:54---
Edin has recieved 12 Shark from Demonic Gorilla.

---2016/08/06 21:11:54---
Edin has recieved 2 Prayer Potion(4) from Demonic Gorilla.

---2016/08/06 21:11:54---
Edin has recieved 1 Anti-Dragon Shield from Demonic Gorilla.

---2016/08/06 21:11:54---
Edin has recieved 1 Abyssal Whip from Demonic Gorilla.

---2016/08/06 21:11:54---
Edin has recieved 1 Amulet Of Fury from Demonic Gorilla.

---2016/08/06 21:11:54---
Edin has recieved 1 Prayer Potion(3) from Demonic Gorilla.

---2016/08/06 21:11:54---
Edin has recieved 1 Helm Of Neitiznot from Demonic Gorilla.

---2016/08/06 21:11:54---
Edin has recieved 1 Super Combat Potion(1) from Demonic Gorilla.

---2016/08/06 21:11:54---
Edin has recieved 1165 Rune Javelin from Demonic Gorilla.

---2016/08/06 22:34:52---
Edin has recieved 18 Shark from Commander Zilyana.

---2016/08/06 22:34:52---
Edin has recieved 5 Prayer Potion(4) from Commander Zilyana.

---2016/08/06 22:34:52---
Edin has recieved 1 Abyssal Whip from Commander Zilyana.

---2016/08/06 22:34:52---
Edin has recieved 1 Black D'Hide Body from Commander Zilyana.

---2016/08/06 22:34:52---
Edin has recieved 1 Snakeskin Boots from Commander Zilyana.

---2016/08/06 22:34:52---
Edin has recieved 1 Amulet Of Fury from Commander Zilyana.

---2016/08/06 22:34:52---
Edin has recieved 1 Enchanted Gem from Commander Zilyana.

---2016/08/06 22:34:52---
Edin has recieved 1 Helm Of Neitiznot from Commander Zilyana.

---2016/08/06 22:34:52---
Edin has recieved 274 Rune Javelin from Commander Zilyana.

---2016/08/06 22:59:26---
Edin has recieved 1 Dragon Boots from Demonic Gorilla.

---2016/08/06 22:59:26---
Edin has recieved 506 Death Rune from Demonic Gorilla.

---2016/08/06 22:59:26---
Edin has recieved 16 Shark from Demonic Gorilla.

---2016/08/06 22:59:26---
Edin has recieved 3 Prayer Potion(4) from Demonic Gorilla.

---2016/08/06 22:59:26---
Edin has recieved 1 Anti-Dragon Shield from Demonic Gorilla.

---2016/08/06 22:59:26---
Edin has recieved 1 Amulet Of Fury from Demonic Gorilla.

---2016/08/06 22:59:26---
Edin has recieved 1 Dragon Scimitar from Demonic Gorilla.

---2016/08/06 22:59:26---
Edin has recieved 1 Helm Of Neitiznot from Demonic Gorilla.

---2016/08/06 23:03:50---
Edin has recieved 1 Dragon Boots from Demonic Gorilla.

---2016/08/06 23:03:50---
Edin has recieved 506 Death Rune from Demonic Gorilla.

---2016/08/06 23:03:50---
Edin has recieved 4 Shark from Demonic Gorilla.

---2016/08/06 23:03:50---
Edin has recieved 3 Prayer Potion(4) from Demonic Gorilla.

---2016/08/06 23:03:50---
Edin has recieved 1 Anti-Dragon Shield from Demonic Gorilla.

---2016/08/06 23:03:50---
Edin has recieved 1 Amulet Of Fury from Demonic Gorilla.

---2016/08/06 23:03:50---
Edin has recieved 1 Dragon Scimitar from Demonic Gorilla.

---2016/08/06 23:03:50---
Edin has recieved 1 Helm Of Neitiznot from Demonic Gorilla.

---2016/08/07 03:26:01---
Edin has recieved 1 Dragon Boots from Thermonuclear Smoke Devil.

---2016/08/07 03:26:01---
Edin has recieved 17 Shark from Thermonuclear Smoke Devil.

---2016/08/07 03:26:01---
Edin has recieved 2 Prayer Potion(4) from Thermonuclear Smoke Devil.

---2016/08/07 03:26:01---
Edin has recieved 1 Amulet Of Fury from Thermonuclear Smoke Devil.

---2016/08/07 03:26:01---
Edin has recieved 1 Helm Of Neitiznot from Thermonuclear Smoke Devil.

---2016/08/07 03:26:01---
Edin has recieved 2 Dragon Javelin from Thermonuclear Smoke Devil.

---2016/08/07 03:26:01---
Edin has recieved 260 Rune Javelin from Thermonuclear Smoke Devil.

---2016/08/07 03:26:01---
Edin has recieved 1 Torag'S Platelegs from Thermonuclear Smoke Devil.

---2016/08/07 04:03:26---
Edin has recieved 1 Amulet Of Glory(4) from Vet'Ion.

---2016/08/07 04:03:26---
Edin has recieved 1 Black D'Hide Chaps from Vet'Ion.

---2016/08/07 04:03:26---
Edin has recieved 22 Shark from Vet'Ion.

---2016/08/07 04:03:26---
Edin has recieved 2 Prayer Potion(4) from Vet'Ion.

---2016/08/07 04:03:26---
Edin has recieved 1 Snakeskin Boots from Vet'Ion.

---2016/08/07 04:03:26---
Edin has recieved 1 Prayer Potion(3) from Vet'Ion.

---2016/08/07 04:03:26---
Edin has recieved 298 Rune Javelin from Vet'Ion.

---2016/08/07 22:35:09---
Edin has recieved 10 Shark from Smoke Devil.

---2016/08/07 22:35:09---
Edin has recieved 283520 Coins from Smoke Devil.

---2016/08/07 22:35:09---
Edin has recieved 2 Vial from Smoke Devil.

---2016/08/07 22:35:09---
Edin has recieved 1 Snakeskin Boots from Smoke Devil.

---2016/08/07 22:35:09---
Edin has recieved 1 Tooth Half Of Key from Smoke Devil.

---2016/08/07 22:35:09---
Edin has recieved 1 Prayer Potion(3) from Smoke Devil.

---2016/08/07 22:35:09---
Edin has recieved 245 Dragon Javelin from Smoke Devil.

---2016/08/07 22:35:09---
Edin has recieved 1 Smoke Battlestaff from Smoke Devil.

---2016/08/07 23:45:50---
Edin has recieved 1 Dragon Boots from Snakeling.

---2016/08/07 23:45:50---
Edin has recieved 5 Shark from Snakeling.

---2016/08/07 23:45:50---
Edin has recieved 2 Prayer Potion(4) from Snakeling.

---2016/08/07 23:45:50---
Edin has recieved 1 Super Combat Potion(2) from Snakeling.

---2016/08/07 23:45:50---
Edin has recieved 1 Toktz-Ket-Xil from Snakeling.

---2016/08/07 23:45:50---
Edin has recieved 1 Prayer Potion(2) from Snakeling.

---2016/08/07 23:51:42---
Edin has recieved 1 Dragon Boots from Cerberus.

---2016/08/07 23:51:42---
Edin has recieved 22 Shark from Cerberus.

---2016/08/07 23:51:42---
Edin has recieved 2 Prayer Potion(4) from Cerberus.

---2016/08/07 23:51:42---
Edin has recieved 1 Toktz-Ket-Xil from Cerberus.

---2016/08/07 23:51:42---
Edin has recieved 1 Super Combat Potion(1) from Cerberus.

---2016/08/07 23:51:42---
Edin has recieved 1 Prayer Potion(2) from Cerberus.
