
---2016/08/09 07:58:17---
Enad13 has recieved 1 Amulet Of Glory(4) from Enraged Cow.

---2016/08/09 07:58:17---
Enad13 has recieved 351 Bronze Arrow from Enraged Cow.

---2016/08/09 07:58:17---
Enad13 has recieved 2323 Coins from Enraged Cow.

---2016/08/09 07:58:17---
Enad13 has recieved 1 Slave Robetop from Enraged Cow.

---2016/08/09 07:58:17---
Enad13 has recieved 1 Bucket from Enraged Cow.

---2016/08/09 07:58:17---
Enad13 has recieved 1 Slave Boots from Enraged Cow.

---2016/08/09 08:55:01---
Enad13 has recieved 1 Staff Of Air from Bloodveld.

---2016/08/09 08:55:01---
Enad13 has recieved 1 Dragonstone Amulet from Bloodveld.

---2016/08/09 08:55:01---
Enad13 has recieved 1 Shortbow from Bloodveld.

---2016/08/09 08:55:01---
Enad13 has recieved 9 Monkfish from Bloodveld.

---2016/08/09 08:55:01---
Enad13 has recieved 300 Fire Rune from Bloodveld.

---2016/08/09 08:55:01---
Enad13 has recieved 103 Mind Rune from Bloodveld.

---2016/08/09 08:55:01---
Enad13 has recieved 1 Black Plateskirt (T) from Bloodveld.

---2016/08/09 08:55:01---
Enad13 has recieved 100 Chaos Rune from Bloodveld.

---2016/08/09 08:55:01---
Enad13 has recieved 250 Iron Arrow from Bloodveld.

---2016/08/09 08:55:01---
Enad13 has recieved 150 Steel Arrow from Bloodveld.

---2016/08/09 08:55:01---
Enad13 has recieved 1 Guam Leaf from Bloodveld.

---2016/08/09 08:55:01---
Enad13 has recieved 1 Runite Bar from Bloodveld.

---2016/08/09 08:55:01---
Enad13 has recieved 1 Enchanted Gem from Bloodveld.

---2016/08/09 08:55:01---
Enad13 has recieved 1 Loop Half Of Key from Bloodveld.
