
---2016/09/03 10:51:31---
Enzo has recieved 1 Quest Point Cape (T) from Mithril Dragon.

---2016/09/03 10:51:31---
Enzo has recieved 1 3rd Age Full Helmet from Mithril Dragon.

---2016/09/03 10:51:31---
Enzo has recieved 1 Partyhat And Specs from Mithril Dragon.

---2016/09/03 13:01:33---
Enzo has recieved 1 Dragon Boots from Sea Troll Queen.

---2016/09/03 13:01:33---
Enzo has recieved 1 Ring Of The Drops from Sea Troll Queen.

---2016/09/03 13:01:33---
Enzo has recieved 1 Amulet Of Drops from Sea Troll Queen.

---2016/09/03 13:01:33---
Enzo has recieved 1 Signed Oak Bow from Sea Troll Queen.

---2016/09/03 13:01:33---
Enzo has recieved 1 Kbd Heads from Sea Troll Queen.

---2016/09/03 13:01:33---
Enzo has recieved 1 Gloves Of Drops from Sea Troll Queen.
