
---2016/06/30 01:22:14---
Euforia has recieved 1 Toolkit from Hill Giant.

---2016/06/30 01:22:14---
Euforia has recieved 250000 Coins from Hill Giant.

---2016/06/30 01:22:14---
Euforia has recieved 1 Staff Of Air from Hill Giant.

---2016/06/30 01:22:14---
Euforia has recieved 1 Shortbow from Hill Giant.

---2016/06/30 01:22:14---
Euforia has recieved 1 Bronze Scimitar from Hill Giant.

---2016/06/30 01:22:14---
Euforia has recieved 300 Fire Rune from Hill Giant.

---2016/06/30 01:22:14---
Euforia has recieved 100 Monkfish from Hill Giant.

---2016/06/30 01:22:14---
Euforia has recieved 100 Mind Rune from Hill Giant.

---2016/06/30 01:22:14---
Euforia has recieved 1 Amulet Of Glory(4) from Hill Giant.

---2016/06/30 01:22:14---
Euforia has recieved 100 Chaos Rune from Hill Giant.

---2016/06/30 01:22:14---
Euforia has recieved 1 Slave Robetop from Hill Giant.

---2016/06/30 01:22:14---
Euforia has recieved 250 Iron Arrow from Hill Giant.

---2016/06/30 01:22:14---
Euforia has recieved 1 Slave Robe from Hill Giant.

---2016/06/30 01:22:14---
Euforia has recieved 1 Slave Boots from Hill Giant.

---2016/06/30 01:22:14---
Euforia has recieved 5 Super Combat Potion(4) from Hill Giant.

---2016/06/30 01:22:14---
Euforia has recieved 1 Clue Scroll (Easy) from Hill Giant.

---2016/06/30 01:22:14---
Euforia has recieved 100 Rune Arrow from Hill Giant.

---2016/06/30 01:22:37---
Euforia has recieved 1 Amulet Of Glory(4) from Hill Giant.

---2016/06/30 01:22:37---
Euforia has recieved 250000 Coins from Hill Giant.

---2016/06/30 01:22:37---
Euforia has recieved 1 Staff Of Air from Hill Giant.

---2016/06/30 01:22:37---
Euforia has recieved 100 Monkfish from Hill Giant.

---2016/06/30 01:22:37---
Euforia has recieved 100 Rune Arrow from Hill Giant.

---2016/06/30 01:23:38---
Euforia has recieved 1 Toolkit from Hill Giant.

---2016/06/30 01:23:38---
Euforia has recieved 250000 Coins from Hill Giant.

---2016/06/30 01:23:38---
Euforia has recieved 1 Staff Of Air from Hill Giant.

---2016/06/30 01:23:38---
Euforia has recieved 1 Shortbow from Hill Giant.

---2016/06/30 01:23:38---
Euforia has recieved 1 Bronze Scimitar from Hill Giant.

---2016/06/30 01:23:38---
Euforia has recieved 300 Fire Rune from Hill Giant.

---2016/06/30 01:23:38---
Euforia has recieved 100 Monkfish from Hill Giant.

---2016/06/30 01:23:38---
Euforia has recieved 99 Mind Rune from Hill Giant.

---2016/06/30 01:23:38---
Euforia has recieved 1 Bones from Hill Giant.

---2016/06/30 01:23:38---
Euforia has recieved 1 Amulet Of Glory(4) from Hill Giant.

---2016/06/30 01:23:38---
Euforia has recieved 100 Chaos Rune from Hill Giant.

---2016/06/30 01:23:38---
Euforia has recieved 1 Slave Robetop from Hill Giant.

---2016/06/30 01:23:38---
Euforia has recieved 250 Iron Arrow from Hill Giant.

---2016/06/30 01:23:38---
Euforia has recieved 1 Slave Robe from Hill Giant.

---2016/06/30 01:23:38---
Euforia has recieved 1 Slave Boots from Hill Giant.

---2016/06/30 01:23:38---
Euforia has recieved 5 Super Combat Potion(4) from Hill Giant.

---2016/06/30 01:23:38---
Euforia has recieved 1 Clue Scroll (Easy) from Hill Giant.

---2016/06/30 01:23:38---
Euforia has recieved 100 Rune Arrow from Hill Giant.

---2016/06/30 01:34:00---
Euforia has recieved 1 Black D'Hide Chaps from Hill Giant.

---2016/06/30 01:34:00---
Euforia has recieved 135279 Coins from Hill Giant.

---2016/06/30 01:34:00---
Euforia has recieved 1 Green D'Hide Vamb from Hill Giant.

---2016/06/30 01:34:00---
Euforia has recieved 1 Shortbow from Hill Giant.

---2016/06/30 01:34:00---
Euforia has recieved 1 Green D'Hide Chaps from Hill Giant.

---2016/06/30 01:34:00---
Euforia has recieved 1 Amulet Of Glory(4) from Hill Giant.

---2016/06/30 01:34:00---
Euforia has recieved 1 Slave Robetop from Hill Giant.

---2016/06/30 01:34:00---
Euforia has recieved 248 Iron Arrow from Hill Giant.

---2016/06/30 01:34:00---
Euforia has recieved 1 Slave Robe from Hill Giant.

---2016/06/30 01:34:00---
Euforia has recieved 1 Slave Boots from Hill Giant.

---2016/06/30 01:34:00---
Euforia has recieved 1 Black D'Hide Vamb from Hill Giant.

---2016/06/30 01:34:00---
Euforia has recieved 299 Rune Arrow from Hill Giant.

---2016/06/30 01:34:00---
Euforia has recieved 1 Magic Shortbow from Hill Giant.

---2016/06/30 02:02:15---
Euforia has recieved 34 Chaos Rune from Callisto.

---2016/06/30 02:02:15---
Euforia has recieved 2 Black Dragonhide from Callisto.

---2016/06/30 02:02:15---
Euforia has recieved 2 Lava Dragon Bones from Callisto.

---2016/06/30 02:02:15---
Euforia has recieved 2 Lava Scale from Callisto.

---2016/06/30 02:02:15---
Euforia has recieved 8 Monkfish from Callisto.

---2016/06/30 02:02:15---
Euforia has recieved 56 Fire Rune from Callisto.

---2016/06/30 02:02:15---
Euforia has recieved 20 Lava Rune from Callisto.

---2016/06/30 02:02:15---
Euforia has recieved 90 Mind Rune from Callisto.

---2016/06/30 02:57:23---
Euforia has recieved 1 Amulet Of Glory(4) from Ancient Gorilla.

---2016/06/30 02:57:23---
Euforia has recieved 12 Shark from Ancient Gorilla.

---2016/06/30 02:57:23---
Euforia has recieved 1 Vial from Ancient Gorilla.

---2016/06/30 02:57:23---
Euforia has recieved 1 Snakeskin Boots from Ancient Gorilla.

---2016/06/30 02:57:23---
Euforia has recieved 13 Monkfish from Ancient Gorilla.

---2016/06/30 02:57:23---
Euforia has recieved 1 Black D'Hide Vamb from Ancient Gorilla.

---2016/06/30 02:57:23---
Euforia has recieved 1 Prayer Potion(3) from Ancient Gorilla.

---2016/06/30 02:57:23---
Euforia has recieved 348 Rune Arrow from Ancient Gorilla.

---2016/06/30 02:57:23---
Euforia has recieved 1 Magic Shortbow from Ancient Gorilla.

---2016/06/30 02:58:23---
Euforia has recieved 2 Shark from Monkey Archer.

---2016/06/30 02:58:23---
Euforia has recieved 1 Black D'Hide Vamb from Monkey Archer.

---2016/06/30 02:58:23---
Euforia has recieved 348 Rune Arrow from Monkey Archer.

---2016/06/30 02:58:23---
Euforia has recieved 1 Magic Shortbow from Monkey Archer.

---2016/06/30 02:58:23---
Euforia has recieved 2 Bones from Monkey Archer.

---2016/06/30 02:59:27---
Euforia has recieved 1 Shark from Monkey Archer.

---2016/06/30 02:59:27---
Euforia has recieved 1 Vial from Monkey Archer.

---2016/06/30 02:59:27---
Euforia has recieved 1 Snakeskin Boots from Monkey Archer.

---2016/06/30 02:59:27---
Euforia has recieved 11 Monkfish from Monkey Archer.

---2016/06/30 02:59:27---
Euforia has recieved 1 Black D'Hide Vamb from Monkey Archer.

---2016/06/30 02:59:27---
Euforia has recieved 348 Rune Arrow from Monkey Archer.

---2016/06/30 02:59:27---
Euforia has recieved 1 Magic Shortbow from Monkey Archer.

---2016/07/03 01:28:29---
Euforia has recieved 8 Shark from Zulrah.

---2016/07/03 01:28:29---
Euforia has recieved 1 Snakeskin Boots from Zulrah.

---2016/07/03 01:28:29---
Euforia has recieved 1 Ranging Potion(3) from Zulrah.

---2016/07/03 01:28:29---
Euforia has recieved 1 Black D'Hide Vamb from Zulrah.

---2016/07/03 01:28:29---
Euforia has recieved 1172 Rune Arrow from Zulrah.

---2016/07/03 01:28:29---
Euforia has recieved 1 Ranging Potion(4) from Zulrah.

---2016/07/03 01:28:29---
Euforia has recieved 1 Magic Shortbow from Zulrah.

---2016/07/03 01:28:29---
Euforia has recieved 1 Amulet Of Glory(3) from Zulrah.

---2016/07/03 02:02:18---
Euforia has recieved 3 Uncut Dragonstone from Ancient Gorilla.

---2016/07/03 02:02:18---
Euforia has recieved 15 Shark from Ancient Gorilla.

---2016/07/03 02:02:18---
Euforia has recieved 1 Prayer Potion(4) from Ancient Gorilla.

---2016/07/03 02:02:18---
Euforia has recieved 358327 Coins from Ancient Gorilla.

---2016/07/03 02:02:18---
Euforia has recieved 1 Ranging Potion(3) from Ancient Gorilla.

---2016/07/03 02:02:18---
Euforia has recieved 1 Ranging Potion(4) from Ancient Gorilla.

---2016/07/03 02:02:18---
Euforia has recieved 240 Death Rune from Ancient Gorilla.

---2016/07/03 02:02:18---
Euforia has recieved 1 Amulet Of Glory(4) from Ancient Gorilla.

---2016/07/03 02:02:18---
Euforia has recieved 1 Super Combat Potion(4) from Ancient Gorilla.

---2016/07/03 02:02:18---
Euforia has recieved 1 Snakeskin Boots from Ancient Gorilla.

---2016/07/03 02:02:18---
Euforia has recieved 8 Runite Bar from Ancient Gorilla.

---2016/07/03 02:02:18---
Euforia has recieved 950 Rune Arrow from Ancient Gorilla.

---2016/07/03 02:02:18---
Euforia has recieved 1 Magic Shortbow from Ancient Gorilla.

---2016/07/03 02:02:53---
Euforia has recieved 1 Magic Shortbow from Ancient Gorilla.

---2016/07/03 02:11:12---
Euforia has recieved 5 Uncut Dragonstone from Ancient Gorilla.

---2016/07/03 02:11:12---
Euforia has recieved 1 Black D'Hide Chaps from Ancient Gorilla.

---2016/07/03 02:11:12---
Euforia has recieved 12 Shark from Ancient Gorilla.

---2016/07/03 02:11:12---
Euforia has recieved 372527 Coins from Ancient Gorilla.

---2016/07/03 02:11:12---
Euforia has recieved 3 Prayer Potion(3) from Ancient Gorilla.

---2016/07/03 02:11:12---
Euforia has recieved 1 Ranging Potion(4) from Ancient Gorilla.

---2016/07/03 02:11:12---
Euforia has recieved 1 Prayer Potion(2) from Ancient Gorilla.

---2016/07/03 02:11:12---
Euforia has recieved 1 Ranging Potion(1) from Ancient Gorilla.

---2016/07/03 02:11:12---
Euforia has recieved 404 Death Rune from Ancient Gorilla.

---2016/07/03 02:11:12---
Euforia has recieved 1 Amulet Of Glory(4) from Ancient Gorilla.

---2016/07/03 02:11:12---
Euforia has recieved 138 Blood Rune from Ancient Gorilla.

---2016/07/03 02:11:12---
Euforia has recieved 1 Super Combat Potion(4) from Ancient Gorilla.

---2016/07/03 02:11:12---
Euforia has recieved 1 Snakeskin Boots from Ancient Gorilla.

---2016/07/03 02:11:12---
Euforia has recieved 1 Tooth Half Of Key from Ancient Gorilla.

---2016/07/03 02:11:12---
Euforia has recieved 8 Runite Bar from Ancient Gorilla.

---2016/07/03 02:11:12---
Euforia has recieved 945 Rune Arrow from Ancient Gorilla.

---2016/07/03 02:11:12---
Euforia has recieved 1 Magic Shortbow from Ancient Gorilla.

---2016/07/03 02:20:23---
Euforia has recieved 1 Amulet Of Glory(4) from Lava Dragon.

---2016/07/03 02:20:23---
Euforia has recieved 4 Black Dragonhide from Lava Dragon.

---2016/07/03 02:20:23---
Euforia has recieved 393535 Coins from Lava Dragon.

---2016/07/03 02:20:23---
Euforia has recieved 1 Vial from Lava Dragon.

---2016/07/03 02:20:23---
Euforia has recieved 4 Lava Dragon Bones from Lava Dragon.

---2016/07/03 02:20:23---
Euforia has recieved 1 Snakeskin Boots from Lava Dragon.

---2016/07/03 02:20:23---
Euforia has recieved 1 Ranging Potion(3) from Lava Dragon.

---2016/07/03 02:20:23---
Euforia has recieved 1 Prayer Potion(3) from Lava Dragon.

---2016/07/03 02:20:23---
Euforia has recieved 933 Rune Arrow from Lava Dragon.

---2016/07/03 02:20:23---
Euforia has recieved 1 Magic Shortbow from Lava Dragon.

---2016/07/03 02:20:23---
Euforia has recieved 1 Prayer Potion(1) from Lava Dragon.

---2016/07/03 02:23:11---
Euforia has recieved 1 Amulet Of Glory(4) from Lava Dragon.

---2016/07/03 02:23:11---
Euforia has recieved 8 Black Dragonhide from Lava Dragon.

---2016/07/03 02:23:11---
Euforia has recieved 396535 Coins from Lava Dragon.

---2016/07/03 02:23:11---
Euforia has recieved 9 Lava Dragon Bones from Lava Dragon.

---2016/07/03 02:23:11---
Euforia has recieved 1 Snakeskin Boots from Lava Dragon.

---2016/07/03 02:23:11---
Euforia has recieved 1 Lava Scale from Lava Dragon.

---2016/07/03 02:23:11---
Euforia has recieved 1 Ranging Potion(2) from Lava Dragon.

---2016/07/03 02:23:11---
Euforia has recieved 1 Prayer Potion(3) from Lava Dragon.

---2016/07/03 02:23:11---
Euforia has recieved 930 Rune Arrow from Lava Dragon.

---2016/07/03 02:23:11---
Euforia has recieved 1 Magic Shortbow from Lava Dragon.

---2016/07/03 02:23:11---
Euforia has recieved 1 Prayer Potion(1) from Lava Dragon.

---2016/07/03 02:26:48---
Euforia has recieved 1 Amulet Of Glory(4) from Lava Dragon.

---2016/07/03 02:26:48---
Euforia has recieved 1 Black Dragonhide from Lava Dragon.

---2016/07/03 02:26:48---
Euforia has recieved 398486 Coins from Lava Dragon.

---2016/07/03 02:26:48---
Euforia has recieved 15 Lava Dragon Bones from Lava Dragon.

---2016/07/03 02:26:48---
Euforia has recieved 1 Snakeskin Boots from Lava Dragon.

---2016/07/03 02:26:48---
Euforia has recieved 1 Prayer Potion(3) from Lava Dragon.

---2016/07/03 02:26:48---
Euforia has recieved 926 Rune Arrow from Lava Dragon.

---2016/07/03 02:26:48---
Euforia has recieved 1 Magic Shortbow from Lava Dragon.

---2016/07/03 02:26:48---
Euforia has recieved 1 Ranging Potion(1) from Lava Dragon.

---2016/07/03 02:26:48---
Euforia has recieved 1 Prayer Potion(1) from Lava Dragon.

---2016/07/03 02:29:47---
Euforia has recieved 1 Amulet Of Glory(4) from Lava Dragon.

---2016/07/03 02:29:47---
Euforia has recieved 398486 Coins from Lava Dragon.

---2016/07/03 02:29:47---
Euforia has recieved 19 Lava Dragon Bones from Lava Dragon.

---2016/07/03 02:29:47---
Euforia has recieved 1 Snakeskin Boots from Lava Dragon.

---2016/07/03 02:29:47---
Euforia has recieved 920 Rune Arrow from Lava Dragon.

---2016/07/03 02:29:47---
Euforia has recieved 1 Magic Shortbow from Lava Dragon.

---2016/07/03 02:29:47---
Euforia has recieved 1 Prayer Potion(2) from Lava Dragon.

---2016/07/03 02:29:47---
Euforia has recieved 1 Prayer Potion(1) from Lava Dragon.

---2016/07/03 02:40:53---
Euforia has recieved 1 Amulet Of Glory(4) from Lava Dragon.

---2016/07/03 02:40:53---
Euforia has recieved 1 Snakeskin Boots from Lava Dragon.

---2016/07/03 02:40:53---
Euforia has recieved 904 Rune Arrow from Lava Dragon.

---2016/07/03 02:40:53---
Euforia has recieved 1 Magic Shortbow from Lava Dragon.

---2016/07/03 02:51:52---
Euforia has recieved 1 Amulet Of Glory(4) from Lava Dragon.

---2016/07/03 02:51:52---
Euforia has recieved 1 Snakeskin Boots from Lava Dragon.

---2016/07/03 02:51:52---
Euforia has recieved 884 Rune Arrow from Lava Dragon.

---2016/07/03 02:51:52---
Euforia has recieved 1 Magic Shortbow from Lava Dragon.

---2016/07/03 06:45:05---
Euforia has recieved 2 Uncut Dragonstone from Ancient Gorilla.

---2016/07/03 06:45:05---
Euforia has recieved 1 Black D'Hide Chaps from Ancient Gorilla.

---2016/07/03 06:45:05---
Euforia has recieved 252181 Coins from Ancient Gorilla.

---2016/07/03 06:45:05---
Euforia has recieved 3 Vial from Ancient Gorilla.

---2016/07/03 06:45:05---
Euforia has recieved 52 Zul-Andra Teleport from Ancient Gorilla.

---2016/07/03 06:45:05---
Euforia has recieved 5 Rune Full Helm from Ancient Gorilla.

---2016/07/03 06:45:05---
Euforia has recieved 1 Ranging Potion(2) from Ancient Gorilla.

---2016/07/03 06:45:05---
Euforia has recieved 1 Ranging Potion(4) from Ancient Gorilla.

---2016/07/03 06:45:05---
Euforia has recieved 1 Ashes from Ancient Gorilla.

---2016/07/03 06:45:05---
Euforia has recieved 1 Amulet Of Glory(4) from Ancient Gorilla.

---2016/07/03 06:45:05---
Euforia has recieved 1 Snakeskin Boots from Ancient Gorilla.

---2016/07/03 06:45:05---
Euforia has recieved 1 Rune Med Helm from Ancient Gorilla.

---2016/07/03 06:45:05---
Euforia has recieved 811 Rune Arrow from Ancient Gorilla.

---2016/07/03 06:45:05---
Euforia has recieved 1 Magic Shortbow from Ancient Gorilla.

---2016/07/03 06:45:05---
Euforia has recieved 1 Dragon Dart from Ancient Gorilla.

---2016/07/03 06:54:57---
Euforia has recieved 1 Ashes from Cerberus.

---2016/07/03 06:54:57---
Euforia has recieved 1 Amulet Of Glory(4) from Cerberus.

---2016/07/03 06:54:57---
Euforia has recieved 12 Shark from Cerberus.

---2016/07/03 06:54:57---
Euforia has recieved 298 Zulrah'S Scales from Cerberus.

---2016/07/03 06:54:57---
Euforia has recieved 1 Snakeskin Boots from Cerberus.

---2016/07/03 06:54:57---
Euforia has recieved 51 Zul-Andra Teleport from Cerberus.

---2016/07/03 06:54:57---
Euforia has recieved 1 Ranging Potion(2) from Cerberus.

---2016/07/03 06:54:57---
Euforia has recieved 802 Rune Arrow from Cerberus.

---2016/07/03 06:54:57---
Euforia has recieved 1 Ranging Potion(4) from Cerberus.

---2016/07/03 06:54:57---
Euforia has recieved 1 Magic Shortbow from Cerberus.

---2016/07/03 16:12:15---
Euforia has recieved 1 Karil'S Leathertop from Abyssal Monarch.

---2016/07/03 16:12:15---
Euforia has recieved 1 Black D'Hide Chaps from Abyssal Monarch.

---2016/07/03 16:12:15---
Euforia has recieved 2 Shark from Abyssal Monarch.

---2016/07/03 16:12:15---
Euforia has recieved 1 Rune Boots from Abyssal Monarch.

---2016/07/03 16:12:15---
Euforia has recieved 512381 Coins from Abyssal Monarch.

---2016/07/03 16:12:15---
Euforia has recieved 1 Vial from Abyssal Monarch.

---2016/07/03 16:12:15---
Euforia has recieved 3 Rune Full Helm from Abyssal Monarch.

---2016/07/03 16:12:15---
Euforia has recieved 1 Helm Of Neitiznot from Abyssal Monarch.

---2016/07/03 16:12:15---
Euforia has recieved 1 Amulet Of Glory(3) from Abyssal Monarch.

---2016/07/03 16:12:15---
Euforia has recieved 1 Super Restore(4) from Abyssal Monarch.

---2016/07/03 16:12:15---
Euforia has recieved 1 Rune Chainbody from Abyssal Monarch.

---2016/07/03 16:12:15---
Euforia has recieved 1 Clue Scroll (Easy) from Abyssal Monarch.

---2016/07/03 16:12:15---
Euforia has recieved 5 Rune Med Helm from Abyssal Monarch.

---2016/07/03 16:12:15---
Euforia has recieved 1 Crystal Key from Abyssal Monarch.

---2016/07/03 16:15:21---
Euforia has recieved 1 Karil'S Leathertop from Abyssal Monarch.

---2016/07/03 16:15:21---
Euforia has recieved 1 Super Restore(4) from Abyssal Monarch.

---2016/07/03 16:15:21---
Euforia has recieved 1 Black D'Hide Chaps from Abyssal Monarch.

---2016/07/03 16:15:21---
Euforia has recieved 1 Rune Boots from Abyssal Monarch.

---2016/07/03 16:15:21---
Euforia has recieved 512381 Coins from Abyssal Monarch.

---2016/07/03 16:15:21---
Euforia has recieved 1 Vial from Abyssal Monarch.

---2016/07/03 16:15:21---
Euforia has recieved 2 Rune Chainbody from Abyssal Monarch.

---2016/07/03 16:15:21---
Euforia has recieved 1 Clue Scroll (Easy) from Abyssal Monarch.

---2016/07/03 16:15:21---
Euforia has recieved 4 Rune Full Helm from Abyssal Monarch.

---2016/07/03 16:15:21---
Euforia has recieved 6 Rune Med Helm from Abyssal Monarch.

---2016/07/03 16:15:21---
Euforia has recieved 1 Crystal Key from Abyssal Monarch.

---2016/07/03 16:15:21---
Euforia has recieved 1 Amulet Of Glory(3) from Abyssal Monarch.

---2016/07/03 20:33:10---
Euforia has recieved 6 Shark from Abyssal Monarch.

---2016/07/03 20:33:10---
Euforia has recieved 2 Prayer Potion(4) from Abyssal Monarch.

---2016/07/03 20:33:10---
Euforia has recieved 1 Rune Boots from Abyssal Monarch.

---2016/07/03 20:33:10---
Euforia has recieved 304396 Coins from Abyssal Monarch.

---2016/07/03 20:33:10---
Euforia has recieved 1 Super Attack(4) from Abyssal Monarch.

---2016/07/03 20:33:10---
Euforia has recieved 2 Super Strength(4) from Abyssal Monarch.

---2016/07/03 20:33:10---
Euforia has recieved 1 Proselyte Hauberk from Abyssal Monarch.

---2016/07/03 20:33:10---
Euforia has recieved 1 Diamond Ring from Abyssal Monarch.

---2016/07/03 20:33:10---
Euforia has recieved 1 Prayer Potion(3) from Abyssal Monarch.

---2016/07/03 20:33:10---
Euforia has recieved 1 Proselyte Cuisse from Abyssal Monarch.

---2016/07/03 20:33:10---
Euforia has recieved 1 Prayer Potion(2) from Abyssal Monarch.

---2016/07/03 20:33:10---
Euforia has recieved 2 Super Attack(3) from Abyssal Monarch.

---2016/07/03 20:33:10---
Euforia has recieved 1 Abyssal Whip from Abyssal Monarch.

---2016/07/03 20:33:10---
Euforia has recieved 1 Amulet Of Fury from Abyssal Monarch.

---2016/07/03 20:33:10---
Euforia has recieved 392 Rune Arrow from Abyssal Monarch.

---2016/07/03 20:33:10---
Euforia has recieved 1 Super Strength(2) from Abyssal Monarch.

---2016/07/03 22:46:19---
Euforia has recieved 2 Ranarr Weed from Elf Warrior.

---2016/07/03 22:46:19---
Euforia has recieved 1 Clue Scroll (Hard) from Elf Warrior.

---2016/07/03 22:46:19---
Euforia has recieved 1 Rune Boots from Elf Warrior.

---2016/07/03 22:46:19---
Euforia has recieved 365710 Coins from Elf Warrior.

---2016/07/03 22:46:19---
Euforia has recieved 1 Crystal Halberd Full from Elf Warrior.

---2016/07/03 22:46:19---
Euforia has recieved 4 Diamond Amulet from Elf Warrior.

---2016/07/03 22:46:19---
Euforia has recieved 1 Super Attack(4) from Elf Warrior.

---2016/07/03 22:46:19---
Euforia has recieved 78 Rune Knife from Elf Warrior.

---2016/07/03 22:46:19---
Euforia has recieved 2 Vial from Elf Warrior.

---2016/07/03 22:46:19---
Euforia has recieved 1 Super Strength(4) from Elf Warrior.

---2016/07/03 22:46:19---
Euforia has recieved 1 Proselyte Hauberk from Elf Warrior.

---2016/07/03 22:46:19---
Euforia has recieved 3 Rune Full Helm from Elf Warrior.

---2016/07/03 22:46:19---
Euforia has recieved 1 Ring Of Wealth from Elf Warrior.

---2016/07/03 22:46:19---
Euforia has recieved 1 Proselyte Cuisse from Elf Warrior.

---2016/07/03 22:46:19---
Euforia has recieved 1 Prayer Potion(2) from Elf Warrior.

---2016/07/03 22:46:19---
Euforia has recieved 11 Bronze Bar from Elf Warrior.

---2016/07/03 22:46:19---
Euforia has recieved 1 Dark Infinity Colour Kit from Elf Warrior.

---2016/07/03 22:46:19---
Euforia has recieved 34 Death Rune from Elf Warrior.

---2016/07/03 22:46:19---
Euforia has recieved 1 Super Attack(2) from Elf Warrior.

---2016/07/03 22:46:19---
Euforia has recieved 1 Abyssal Whip from Elf Warrior.

---2016/07/03 22:46:19---
Euforia has recieved 1 Amulet Of Fury from Elf Warrior.

---2016/07/03 22:46:19---
Euforia has recieved 12 Dragon Dart from Elf Warrior.

---2016/07/03 22:46:19---
Euforia has recieved 1 Super Strength(2) from Elf Warrior.

---2016/07/03 23:40:29---
Euforia has recieved 1 Karil'S Leathertop from Abyssal Spawn.

---2016/07/03 23:40:29---
Euforia has recieved 1 Black D'Hide Chaps from Abyssal Spawn.

---2016/07/03 23:40:29---
Euforia has recieved 1 Prayer Potion(4) from Abyssal Spawn.

---2016/07/03 23:40:29---
Euforia has recieved 236901 Coins from Abyssal Spawn.

---2016/07/03 23:40:29---
Euforia has recieved 1 Vial from Abyssal Spawn.

---2016/07/03 23:40:29---
Euforia has recieved 1140 Zulrah'S Scales from Abyssal Spawn.

---2016/07/03 23:40:29---
Euforia has recieved 13 Zul-Andra Teleport from Abyssal Spawn.

---2016/07/03 23:40:29---
Euforia has recieved 1 Ring Of Wealth from Abyssal Spawn.

---2016/07/03 23:40:29---
Euforia has recieved 1 Ranging Potion(4) from Abyssal Spawn.

---2016/07/03 23:40:29---
Euforia has recieved 1 Prayer Potion(1) from Abyssal Spawn.

---2016/07/03 23:40:29---
Euforia has recieved 1 Super Restore(1) from Abyssal Spawn.

---2016/07/03 23:40:29---
Euforia has recieved 1 Snakeskin Boots from Abyssal Spawn.

---2016/07/03 23:40:29---
Euforia has recieved 30 Dragon Bones from Abyssal Spawn.

---2016/07/03 23:40:29---
Euforia has recieved 2 Tooth Half Of Key from Abyssal Spawn.

---2016/07/03 23:40:29---
Euforia has recieved 755 Dragon Dart from Abyssal Spawn.

---2016/07/03 23:44:56---
Euforia has recieved 1 Black D'Hide Chaps from Abyssal Spawn.

---2016/07/03 23:44:56---
Euforia has recieved 4 Prayer Potion(4) from Abyssal Spawn.

---2016/07/03 23:44:56---
Euforia has recieved 16817 Coins from Abyssal Spawn.

---2016/07/03 23:44:56---
Euforia has recieved 1 Snakeskin Boots from Abyssal Spawn.

---2016/07/03 23:44:56---
Euforia has recieved 1 Ranging Potion(3) from Abyssal Spawn.

---2016/07/03 23:44:56---
Euforia has recieved 1 Ring Of Wealth from Abyssal Spawn.

---2016/07/03 23:44:56---
Euforia has recieved 303 Rune Arrow from Abyssal Spawn.

---2016/07/03 23:44:56---
Euforia has recieved 2 Ranging Potion(4) from Abyssal Spawn.

---2016/07/03 23:44:56---
Euforia has recieved 1 Magic Shortbow from Abyssal Spawn.

---2016/07/03 23:46:46---
Euforia has recieved 1 Abyssal Book from Abyssal Spawn.

---2016/07/03 23:46:46---
Euforia has recieved 1 Black D'Hide Chaps from Abyssal Spawn.

---2016/07/03 23:46:46---
Euforia has recieved 4 Prayer Potion(4) from Abyssal Spawn.

---2016/07/03 23:46:46---
Euforia has recieved 16817 Coins from Abyssal Spawn.

---2016/07/03 23:46:46---
Euforia has recieved 1 Snakeskin Boots from Abyssal Spawn.

---2016/07/03 23:46:46---
Euforia has recieved 1 Ranging Potion(3) from Abyssal Spawn.

---2016/07/03 23:46:46---
Euforia has recieved 1 Ring Of Wealth from Abyssal Spawn.

---2016/07/03 23:46:46---
Euforia has recieved 297 Rune Arrow from Abyssal Spawn.

---2016/07/03 23:46:46---
Euforia has recieved 2 Ranging Potion(4) from Abyssal Spawn.

---2016/07/03 23:46:46---
Euforia has recieved 1 Magic Shortbow from Abyssal Spawn.

---2016/07/06 04:21:13---
Euforia has recieved 16 Shark from Abyssal Monarch.

---2016/07/06 04:21:13---
Euforia has recieved 950000 Coins from Abyssal Monarch.

---2016/07/06 04:21:13---
Euforia has recieved 362 Flax from Abyssal Monarch.

---2016/07/06 04:21:13---
Euforia has recieved 250 Grapes from Abyssal Monarch.

---2016/07/06 04:21:13---
Euforia has recieved 1 Vial from Abyssal Monarch.

---2016/07/06 04:21:13---
Euforia has recieved 1343 Zulrah'S Scales from Abyssal Monarch.

---2016/07/06 04:21:13---
Euforia has recieved 1 Snakeskin Boots from Abyssal Monarch.

---2016/07/06 04:21:13---
Euforia has recieved 1 Prayer Potion(3) from Abyssal Monarch.

---2016/07/06 04:21:13---
Euforia has recieved 42 Rune Arrow from Abyssal Monarch.

---2016/07/06 04:21:13---
Euforia has recieved 1 Ranging Potion(4) from Abyssal Monarch.

---2016/07/06 04:21:13---
Euforia has recieved 1 Prayer Potion(2) from Abyssal Monarch.

---2016/07/07 03:39:29---
Euforia has recieved 4 Super Restore(4) from Scorpia.

---2016/07/07 03:39:29---
Euforia has recieved 17 Shark from Scorpia.

---2016/07/07 03:39:29---
Euforia has recieved 1 Snakeskin Boots from Scorpia.

---2016/07/07 03:39:29---
Euforia has recieved 1 Ranging Potion(3) from Scorpia.

---2016/07/07 03:39:29---
Euforia has recieved 2 Ranging Potion(4) from Scorpia.

---2016/07/07 03:49:59---
Euforia has recieved 4 Super Restore(4) from Zulrah.

---2016/07/07 03:49:59---
Euforia has recieved 14 Shark from Zulrah.

---2016/07/07 03:49:59---
Euforia has recieved 1 Snakeskin Boots from Zulrah.

---2016/07/07 03:49:59---
Euforia has recieved 4 Uncut Sapphire from Zulrah.

---2016/07/07 03:49:59---
Euforia has recieved 1 Ranging Potion(3) from Zulrah.

---2016/07/07 03:49:59---
Euforia has recieved 5 Dragon Dart from Zulrah.

---2016/07/11 06:56:14---
Euforia has recieved 1 Kraken tentacle from Cave Kraken.

---2016/07/24 06:34:48---
Euforia has recieved 1 Super Restore(4) from Demonic Gorilla.

---2016/07/24 06:34:48---
Euforia has recieved 20 Shark from Demonic Gorilla.

---2016/07/24 06:34:48---
Euforia has recieved 1 Super Restore(1) from Demonic Gorilla.

---2016/07/24 06:34:48---
Euforia has recieved 1 Super Combat Potion(4) from Demonic Gorilla.

---2016/07/24 06:34:48---
Euforia has recieved 6 Adamantite Bar from Demonic Gorilla.

---2016/07/24 06:34:48---
Euforia has recieved 1 Super Combat Potion(2) from Demonic Gorilla.

---2016/07/24 06:34:48---
Euforia has recieved 71 Dragon Bolts (E) from Demonic Gorilla.

---2016/07/24 06:48:23---
Euforia has recieved 2 Super Restore(4) from Demonic Gorilla.

---2016/07/24 06:48:23---
Euforia has recieved 526 Death Rune from Demonic Gorilla.

---2016/07/24 06:48:23---
Euforia has recieved 11 Shark from Demonic Gorilla.

---2016/07/24 06:48:23---
Euforia has recieved 1 Rune Boots from Demonic Gorilla.

---2016/07/24 06:48:23---
Euforia has recieved 15071 Coins from Demonic Gorilla.

---2016/07/24 06:48:23---
Euforia has recieved 1 Super Restore(2) from Demonic Gorilla.

---2016/07/24 06:48:23---
Euforia has recieved 1 Super Combat Potion(4) from Demonic Gorilla.

---2016/07/24 06:48:23---
Euforia has recieved 1 Amulet Of Glory from Demonic Gorilla.

---2016/07/24 06:48:23---
Euforia has recieved 8 Adamantite Bar from Demonic Gorilla.

---2016/07/24 06:48:23---
Euforia has recieved 1 Super Combat Potion(2) from Demonic Gorilla.

---2016/07/24 06:48:23---
Euforia has recieved 2798 Rune Javelin from Demonic Gorilla.

---2016/07/24 06:54:13---
Euforia has recieved 1 Super Restore(4) from Demonic Gorilla.

---2016/07/24 06:54:13---
Euforia has recieved 526 Death Rune from Demonic Gorilla.

---2016/07/24 06:54:13---
Euforia has recieved 1 Rune Boots from Demonic Gorilla.

---2016/07/24 06:54:13---
Euforia has recieved 38857 Coins from Demonic Gorilla.

---2016/07/24 06:54:13---
Euforia has recieved 2 Super Restore(2) from Demonic Gorilla.

---2016/07/24 06:54:13---
Euforia has recieved 1 Super Combat Potion(4) from Demonic Gorilla.

---2016/07/24 06:54:13---
Euforia has recieved 1 Amulet Of Glory from Demonic Gorilla.

---2016/07/24 06:54:13---
Euforia has recieved 8 Adamantite Bar from Demonic Gorilla.

---2016/07/24 06:54:13---
Euforia has recieved 1 Super Combat Potion(1) from Demonic Gorilla.

---2016/07/24 06:54:13---
Euforia has recieved 2949 Rune Javelin from Demonic Gorilla.

---2016/07/26 06:05:45---
Euforia has recieved 4 Super Restore(4) from Demonic Gorilla.

---2016/07/26 06:05:45---
Euforia has recieved 17 Shark from Demonic Gorilla.

---2016/07/26 06:05:46---
Euforia has recieved 1 Super Restore(2) from Demonic Gorilla.

---2016/07/26 06:05:46---
Euforia has recieved 1 Vial from Demonic Gorilla.

---2016/07/26 06:05:46---
Euforia has recieved 2 Adamantite Bar from Demonic Gorilla.
