
---2016/07/01 21:17:09---
Evna has recieved 1 Toolkit from Iron Dragon.

---2016/07/01 21:17:09---
Evna has recieved 250000 Coins from Iron Dragon.

---2016/07/01 21:17:09---
Evna has recieved 1 Staff Of Air from Iron Dragon.

---2016/07/01 21:17:09---
Evna has recieved 1 Shortbow from Iron Dragon.

---2016/07/01 21:17:09---
Evna has recieved 1 Bronze Scimitar from Iron Dragon.

---2016/07/01 21:17:09---
Evna has recieved 300 Fire Rune from Iron Dragon.

---2016/07/01 21:17:09---
Evna has recieved 100 Monkfish from Iron Dragon.

---2016/07/01 21:17:09---
Evna has recieved 100 Mind Rune from Iron Dragon.

---2016/07/01 21:17:09---
Evna has recieved 1 Amulet Of Glory(4) from Iron Dragon.

---2016/07/01 21:17:09---
Evna has recieved 100 Chaos Rune from Iron Dragon.

---2016/07/01 21:17:09---
Evna has recieved 1 Slave Robetop from Iron Dragon.

---2016/07/01 21:17:09---
Evna has recieved 250 Iron Arrow from Iron Dragon.

---2016/07/01 21:17:09---
Evna has recieved 1 Slave Robe from Iron Dragon.

---2016/07/01 21:17:09---
Evna has recieved 1 Slave Boots from Iron Dragon.

---2016/07/01 21:17:09---
Evna has recieved 5 Super Combat Potion(4) from Iron Dragon.

---2016/07/01 21:17:09---
Evna has recieved 1 Clue Scroll (Easy) from Iron Dragon.

---2016/07/01 21:17:09---
Evna has recieved 100 Rune Arrow from Iron Dragon.
