
---2016/08/04 20:15:36---
Ewaz has recieved 1 Black D'Hide Chaps from Deadkid.

---2016/08/04 20:15:36---
Ewaz has recieved 2 Shark from Deadkid.

---2016/08/04 20:15:36---
Ewaz has recieved 1 Saradomin Brew(2) from Deadkid.

---2016/08/04 20:15:36---
Ewaz has recieved 1 Damaged Unholy Book from Deadkid.

---2016/08/04 20:15:36---
Ewaz has recieved 67500 Coins from Deadkid.

---2016/08/04 20:15:36---
Ewaz has recieved 1 Black D'Hide Body from Deadkid.

---2016/08/04 20:15:36---
Ewaz has recieved 1 Mystic Boots (Dark) from Deadkid.

---2016/08/04 20:15:36---
Ewaz has recieved 664 Water Rune from Deadkid.

---2016/08/04 20:15:36---
Ewaz has recieved 1 Helm Of Neitiznot from Deadkid.

---2016/08/04 20:15:36---
Ewaz has recieved 1 Ranging Potion(1) from Deadkid.

---2016/08/04 20:15:36---
Ewaz has recieved 376 Death Rune from Deadkid.

---2016/08/04 20:15:36---
Ewaz has recieved 1 Amulet Of Glory(4) from Deadkid.

---2016/08/04 20:15:36---
Ewaz has recieved 1 Super Restore(3) from Deadkid.

---2016/08/04 20:15:36---
Ewaz has recieved 1 Super Restore(2) from Deadkid.

---2016/08/04 20:15:36---
Ewaz has recieved 188 Blood Rune from Deadkid.

---2016/08/04 20:15:36---
Ewaz has recieved 1 Dragon Javelin from Deadkid.

---2016/08/04 20:15:36---
Ewaz has recieved 98 Rune Javelin from Deadkid.
