
---2016/08/01 17:07:39---
Martin has dropped 1 Dragon Boots for Martin.

---2016/08/01 17:07:39---
Martin has dropped 62 Death Rune for Martin.

---2016/08/01 17:07:39---
Martin has dropped 1 Dragon Spear for Martin.

---2016/08/01 17:07:39---
Martin has dropped 2 Prayer Potion(4) for Martin.

---2016/08/01 17:07:39---
Martin has dropped 42 Blood Rune for Martin.

---2016/08/01 17:07:39---
Martin has dropped 4 Cooked Karambwan for Martin.

---2016/08/01 17:07:39---
Martin has dropped 1 Super Combat Potion(2) for Martin.

---2016/08/01 17:07:39---
Martin has dropped 488 Water Rune for Martin.

---2016/08/01 17:07:39---
Martin has dropped 1 Ranging Potion(1) for Martin.
