
---2016/08/06 13:41:27---
Fskanda has recieved 1 Rune Crossbow from Dharok The Wretched.

---2016/08/06 13:41:27---
Fskanda has recieved 1 Book Of Law from Dharok The Wretched.

---2016/08/06 13:41:27---
Fskanda has recieved 1 Prayer Potion(4) from Dharok The Wretched.

---2016/08/06 13:41:27---
Fskanda has recieved 2500000 Coins from Dharok The Wretched.

---2016/08/06 13:41:27---
Fskanda has recieved 6384 Bolt Rack from Dharok The Wretched.

---2016/08/06 13:41:27---
Fskanda has recieved 1 Black D'Hide Body from Dharok The Wretched.

---2016/08/06 13:41:27---
Fskanda has recieved 1 Blue Dragon Mask from Dharok The Wretched.

---2016/08/06 13:41:27---
Fskanda has recieved 1 Spade from Dharok The Wretched.

---2016/08/06 13:41:27---
Fskanda has recieved 1 Black D'Hide Vamb from Dharok The Wretched.

---2016/08/06 13:41:27---
Fskanda has recieved 114 Dragon Bolts (E) from Dharok The Wretched.

---2016/08/06 13:41:27---
Fskanda has recieved 10 Sea Turtle from Dharok The Wretched.

---2016/08/06 13:41:27---
Fskanda has recieved 1 Amulet Of Glory(3) from Dharok The Wretched.

---2016/08/06 22:56:32---
Fskanda has recieved 1 Amulet Of Glory(4) from Skeletal Wyvern.

---2016/08/06 22:56:32---
Fskanda has recieved 1 Rune Crossbow from Skeletal Wyvern.

---2016/08/06 22:56:32---
Fskanda has recieved 1 Book Of Law from Skeletal Wyvern.

---2016/08/06 22:56:32---
Fskanda has recieved 5 Prayer Potion(4) from Skeletal Wyvern.

---2016/08/06 22:56:32---
Fskanda has recieved 1 Blue Dragon Mask from Skeletal Wyvern.

---2016/08/06 22:56:32---
Fskanda has recieved 40 Adamantite Bar from Skeletal Wyvern.

---2016/08/06 22:56:32---
Fskanda has recieved 35 Magic Logs from Skeletal Wyvern.

---2016/08/06 22:56:32---
Fskanda has recieved 1 Black D'Hide Vamb from Skeletal Wyvern.

---2016/08/06 22:56:32---
Fskanda has recieved 169 Dragon Bolts (E) from Skeletal Wyvern.

---2016/08/06 22:56:32---
Fskanda has recieved 14 Wyvern Bones from Skeletal Wyvern.

---2016/08/06 22:56:32---
Fskanda has recieved 3 Sea Turtle from Skeletal Wyvern.

---2016/08/06 22:56:32---
Fskanda has recieved 1 Prayer Potion(2) from Skeletal Wyvern.

---2016/08/07 00:42:00---
Fskanda has recieved 1 Amulet Of Glory(4) from Skeletal Wyvern.

---2016/08/07 00:42:00---
Fskanda has recieved 1 Rune Crossbow from Skeletal Wyvern.

---2016/08/07 00:42:00---
Fskanda has recieved 1 Book Of Law from Skeletal Wyvern.

---2016/08/07 00:42:00---
Fskanda has recieved 5 Prayer Potion(4) from Skeletal Wyvern.

---2016/08/07 00:42:00---
Fskanda has recieved 1 Blue Dragon Mask from Skeletal Wyvern.

---2016/08/07 00:42:00---
Fskanda has recieved 75 Unpowered Orb from Skeletal Wyvern.

---2016/08/07 00:42:00---
Fskanda has recieved 1 Black D'Hide Vamb from Skeletal Wyvern.

---2016/08/07 00:42:00---
Fskanda has recieved 221 Dragon Bolts (E) from Skeletal Wyvern.

---2016/08/07 00:42:00---
Fskanda has recieved 13 Wyvern Bones from Skeletal Wyvern.

---2016/08/07 00:42:00---
Fskanda has recieved 8 Sea Turtle from Skeletal Wyvern.

---2016/08/07 03:19:43---
Fskanda has recieved 15 Dark Crab from Abyssal Monarch.

---2016/08/07 03:19:43---
Fskanda has recieved 1 Rune Crossbow from Abyssal Monarch.

---2016/08/07 03:19:43---
Fskanda has recieved 1 Book Of Law from Abyssal Monarch.

---2016/08/07 03:19:43---
Fskanda has recieved 2 Prayer Potion(4) from Abyssal Monarch.

---2016/08/07 03:19:43---
Fskanda has recieved 1 Vial from Abyssal Monarch.

---2016/08/07 03:19:43---
Fskanda has recieved 1 Prayer Potion(3) from Abyssal Monarch.

---2016/08/07 03:19:43---
Fskanda has recieved 1 Ring Of Wealth from Abyssal Monarch.

---2016/08/07 03:19:43---
Fskanda has recieved 1 Prayer Potion(2) from Abyssal Monarch.

---2016/08/07 03:19:43---
Fskanda has recieved 1 Antipoison(4) from Abyssal Monarch.

---2016/08/07 03:19:43---
Fskanda has recieved 1 Antipoison(3) from Abyssal Monarch.

---2016/08/07 03:19:43---
Fskanda has recieved 1 Amulet Of Glory(4) from Abyssal Monarch.

---2016/08/07 03:19:43---
Fskanda has recieved 1 Black D'Hide Vamb from Abyssal Monarch.

---2016/08/07 03:19:43---
Fskanda has recieved 120 Dragon Bolts (E) from Abyssal Monarch.

---2016/08/07 17:35:23---
Fskanda has recieved 1 Amulet Of Glory(4) from Sergeant Steelwill.

---2016/08/07 17:35:23---
Fskanda has recieved 1 Rune Crossbow from Sergeant Steelwill.

---2016/08/07 17:35:23---
Fskanda has recieved 1 Book Of Law from Sergeant Steelwill.

---2016/08/07 17:35:23---
Fskanda has recieved 4 Prayer Potion(3) from Sergeant Steelwill.

---2016/08/07 17:35:23---
Fskanda has recieved 1 Ring Of Wealth from Sergeant Steelwill.

---2016/08/07 17:35:23---
Fskanda has recieved 49 Dragon Bolts (E) from Sergeant Steelwill.

---2016/08/07 17:35:23---
Fskanda has recieved 1 Prayer Potion(2) from Sergeant Steelwill.
