
---2016/07/29 19:32:43---
Fubu has recieved 1 Black D'Hide Chaps from Kalphite Queen.

---2016/07/29 19:32:43---
Fubu has recieved 17 Shark from Kalphite Queen.

---2016/07/29 19:32:43---
Fubu has recieved 3 Prayer Potion(4) from Kalphite Queen.

---2016/07/29 19:32:43---
Fubu has recieved 1 Black D'Hide Body from Kalphite Queen.

---2016/07/29 19:32:43---
Fubu has recieved 1 Prayer Potion(3) from Kalphite Queen.

---2016/07/29 19:32:43---
Fubu has recieved 1 Ranging Potion(4) from Kalphite Queen.

---2016/07/29 19:32:43---
Fubu has recieved 1 Prayer Potion(2) from Kalphite Queen.

---2016/07/29 19:32:43---
Fubu has recieved 1 Ranging Potion(1) from Kalphite Queen.

---2016/07/29 19:32:43---
Fubu has recieved 1 Amulet Of Glory(4) from Kalphite Queen.

---2016/07/29 19:32:43---
Fubu has recieved 629 Mithril Bolts from Kalphite Queen.

---2016/07/29 19:32:43---
Fubu has recieved 1 Snakeskin Boots from Kalphite Queen.

---2016/07/29 19:32:43---
Fubu has recieved 1 Black D'Hide Vamb from Kalphite Queen.

---2016/07/29 19:32:43---
Fubu has recieved 1 Enchanted Gem from Kalphite Queen.

---2016/07/30 08:34:47---
Fubu has recieved 1 Black D'Hide Chaps from Nezikchened.

---2016/07/30 08:34:47---
Fubu has recieved 2 Shark from Nezikchened.

---2016/07/30 08:34:47---
Fubu has recieved 4 Prayer Potion(4) from Nezikchened.

---2016/07/30 08:34:47---
Fubu has recieved 14 Anglerfish from Nezikchened.

---2016/07/30 08:34:47---
Fubu has recieved 3 Lava Dragon Bones from Nezikchened.

---2016/07/30 08:34:47---
Fubu has recieved 1 Ranging Potion(4) from Nezikchened.

---2016/07/30 08:34:47---
Fubu has recieved 1 Ranging Potion(1) from Nezikchened.

---2016/07/30 08:34:47---
Fubu has recieved 1 Warrior Ring from Nezikchened.

---2016/07/30 08:34:47---
Fubu has recieved 1 Prayer Potion(1) from Nezikchened.

---2016/07/30 08:34:47---
Fubu has recieved 1 Amulet Of Glory(4) from Nezikchened.

---2016/07/30 08:34:47---
Fubu has recieved 1 Crystal Bow Full from Nezikchened.

---2016/07/30 08:34:47---
Fubu has recieved 1 Snakeskin Boots from Nezikchened.

---2016/07/30 08:34:47---
Fubu has recieved 1 Black D'Hide Vamb from Nezikchened.

---2016/07/30 08:40:49---
Fubu has recieved 1 Amulet Of Glory(4) from Nezikchened.

---2016/07/30 08:40:49---
Fubu has recieved 1 Black D'Hide Chaps from Nezikchened.

---2016/07/30 08:40:49---
Fubu has recieved 4 Prayer Potion(4) from Nezikchened.

---2016/07/30 08:40:49---
Fubu has recieved 35 Anglerfish from Nezikchened.

---2016/07/30 08:40:49---
Fubu has recieved 1 Vial from Nezikchened.

---2016/07/30 08:40:49---
Fubu has recieved 1 Crystal Bow Full from Nezikchened.

---2016/07/30 08:40:49---
Fubu has recieved 1 Snakeskin Boots from Nezikchened.

---2016/07/30 08:40:49---
Fubu has recieved 6 Lava Dragon Bones from Nezikchened.

---2016/07/30 08:40:49---
Fubu has recieved 1 Black D'Hide Vamb from Nezikchened.

---2016/07/30 08:40:49---
Fubu has recieved 1 Ranging Potion(4) from Nezikchened.

---2016/07/30 08:40:49---
Fubu has recieved 1 Warrior Ring from Nezikchened.

---2016/07/30 08:40:49---
Fubu has recieved 1 Prayer Potion(1) from Nezikchened.

---2016/08/01 09:41:23---
Fubu has recieved 17 Shark from Sergeant Steelwill.

---2016/08/01 09:41:23---
Fubu has recieved 1 Climbing Boots from Sergeant Steelwill.

---2016/08/01 09:41:23---
Fubu has recieved 5 Prayer Potion(4) from Sergeant Steelwill.

---2016/08/01 09:41:23---
Fubu has recieved 1 Saradomin Brew(1) from Sergeant Steelwill.

---2016/08/01 09:41:23---
Fubu has recieved 1 Rune Platebody from Sergeant Steelwill.

---2016/08/01 09:41:23---
Fubu has recieved 1 Rune Platelegs from Sergeant Steelwill.

---2016/08/01 09:41:23---
Fubu has recieved 1 Super Combat Potion(3) from Sergeant Steelwill.

---2016/08/01 09:41:23---
Fubu has recieved 1 Enchanted Gem from Sergeant Steelwill.

---2016/08/01 09:41:23---
Fubu has recieved 1 Ring Of Wealth from Sergeant Steelwill.

---2016/08/01 09:41:23---
Fubu has recieved 1 Super Combat Potion(1) from Sergeant Steelwill.

---2016/08/01 09:41:23---
Fubu has recieved 1 Saradomin Brew(4) from Sergeant Steelwill.

---2016/08/01 09:41:23---
Fubu has recieved 1 Dragon Dagger from Sergeant Steelwill.

---2016/08/01 20:28:21---
Fubu has recieved 15 Anglerfish from Skotizo.

---2016/08/01 20:28:21---
Fubu has recieved 5 Prayer Potion(4) from Skotizo.

---2016/08/01 20:28:21---
Fubu has recieved 1 Snakeskin Boots from Skotizo.

---2016/08/01 20:28:21---
Fubu has recieved 1 Ranging Potion(2) from Skotizo.

---2016/08/01 20:28:21---
Fubu has recieved 514 Dragon Javelin from Skotizo.

---2016/08/01 20:28:21---
Fubu has recieved 1 Ranging Potion(4) from Skotizo.

---2016/08/01 20:28:21---
Fubu has recieved 3 Sea Turtle from Skotizo.

---2016/08/01 20:28:21---
Fubu has recieved 2 Saradomin Brew(4) from Skotizo.

---2016/08/01 20:28:21---
Fubu has recieved 1 Prayer Potion(2) from Skotizo.

---2016/08/01 20:33:10---
Fubu has recieved 15 Anglerfish from Skotizo.

---2016/08/01 20:33:10---
Fubu has recieved 5 Prayer Potion(4) from Skotizo.

---2016/08/01 20:33:10---
Fubu has recieved 19353 Coins from Skotizo.

---2016/08/01 20:33:10---
Fubu has recieved 1 Snakeskin Boots from Skotizo.

---2016/08/01 20:33:10---
Fubu has recieved 512 Dragon Javelin from Skotizo.

---2016/08/01 20:33:10---
Fubu has recieved 1 Ranging Potion(4) from Skotizo.

---2016/08/01 20:33:10---
Fubu has recieved 2 Sea Turtle from Skotizo.

---2016/08/01 20:33:10---
Fubu has recieved 1 Saradomin Brew(4) from Skotizo.

---2016/08/01 20:33:10---
Fubu has recieved 1 Saradomin Brew(3) from Skotizo.

---2016/08/01 20:33:10---
Fubu has recieved 1 Prayer Potion(1) from Skotizo.

---2016/08/03 14:15:36---
Fubu has recieved 7 Dark Crab from Lizardman Shaman.

---2016/08/03 14:15:36---
Fubu has recieved 1 Climbing Boots from Lizardman Shaman.

---2016/08/03 14:15:36---
Fubu has recieved 4 Anglerfish from Lizardman Shaman.

---2016/08/03 14:15:36---
Fubu has recieved 5 Prayer Potion(4) from Lizardman Shaman.

---2016/08/03 14:15:36---
Fubu has recieved 1 Abyssal Whip from Lizardman Shaman.

---2016/08/03 14:15:36---
Fubu has recieved 1 Super Combat Potion(4) from Lizardman Shaman.

---2016/08/03 14:15:36---
Fubu has recieved 1 Super Combat Potion(3) from Lizardman Shaman.

---2016/08/03 14:15:36---
Fubu has recieved 1 Prayer Potion(3) from Lizardman Shaman.

---2016/08/03 14:15:36---
Fubu has recieved 1 Ring Of Wealth from Lizardman Shaman.

---2016/08/03 14:15:36---
Fubu has recieved 5 Sea Turtle from Lizardman Shaman.

---2016/08/03 14:15:36---
Fubu has recieved 1 Dragon Dagger from Lizardman Shaman.

---2016/08/04 06:10:05---
Fubu has recieved 6 Dark Crab from Kalphite Queen.

---2016/08/04 06:10:05---
Fubu has recieved 5 Prayer Potion(4) from Kalphite Queen.

---2016/08/04 06:10:05---
Fubu has recieved 1 Snakeskin Boots from Kalphite Queen.

---2016/08/04 06:10:05---
Fubu has recieved 1 Ranging Potion(3) from Kalphite Queen.

---2016/08/04 06:10:05---
Fubu has recieved 1 Prayer Potion(3) from Kalphite Queen.

---2016/08/04 06:10:05---
Fubu has recieved 677 Dragon Javelin from Kalphite Queen.

---2016/08/04 06:10:05---
Fubu has recieved 2 Ranging Potion(4) from Kalphite Queen.

---2016/08/04 06:10:05---
Fubu has recieved 13 Sea Turtle from Kalphite Queen.

---2016/08/04 14:59:59---
Fubu has recieved 8 Dark Crab from Kalphite Queen.

---2016/08/04 14:59:59---
Fubu has recieved 7 Prayer Potion(4) from Kalphite Queen.

---2016/08/04 14:59:59---
Fubu has recieved 1 Snakeskin Boots from Kalphite Queen.

---2016/08/04 14:59:59---
Fubu has recieved 1 Ranging Potion(2) from Kalphite Queen.

---2016/08/04 14:59:59---
Fubu has recieved 1 Prayer Potion(3) from Kalphite Queen.

---2016/08/04 14:59:59---
Fubu has recieved 613 Dragon Javelin from Kalphite Queen.

---2016/08/04 14:59:59---
Fubu has recieved 5 Weapon Poison from Kalphite Queen.

---2016/08/04 14:59:59---
Fubu has recieved 1 Ranging Potion(4) from Kalphite Queen.

---2016/08/04 14:59:59---
Fubu has recieved 7 Sea Turtle from Kalphite Queen.

---2016/08/04 14:59:59---
Fubu has recieved 1 Crystal Key from Kalphite Queen.
