
---2016/07/15 05:33:53---
Goat has recieved 1 Amulet Of Glory(4) from Cow.

---2016/07/15 05:33:53---
Goat has recieved 1 Iron Pickaxe from Cow.

---2016/07/15 05:33:53---
Goat has recieved 194376 Coins from Cow.

---2016/07/15 05:33:53---
Goat has recieved 1 Bronze Scimitar from Cow.

---2016/07/15 05:33:53---
Goat has recieved 10 Monkfish from Cow.

---2016/07/16 03:20:30---
Goat has recieved 1 Climbing Boots from Red Dragon.

---2016/07/16 03:20:30---
Goat has recieved 1 Anti-Dragon Shield from Red Dragon.

---2016/07/16 03:20:30---
Goat has recieved 5 Red Dragonhide from Red Dragon.

---2016/07/16 03:20:30---
Goat has recieved 5 Dragon Bones from Red Dragon.

---2016/07/16 03:20:30---
Goat has recieved 1 Rune Full Helm from Red Dragon.

---2016/07/16 03:20:30---
Goat has recieved 1 Super Combat Potion(2) from Red Dragon.

---2016/07/16 03:20:30---
Goat has recieved 1 Amulet Of Strength from Red Dragon.

---2016/07/16 03:20:30---
Goat has recieved 1 Dragon Dagger from Red Dragon.

---2016/07/16 03:22:03---
Goat has recieved 1 Anti-Dragon Shield from Red Dragon.

---2016/07/16 03:22:03---
Goat has recieved 5 Red Dragonhide from Red Dragon.

---2016/07/16 03:22:03---
Goat has recieved 1 Dragon Bones from Red Dragon.

---2016/07/16 03:22:03---
Goat has recieved 1 Rune Full Helm from Red Dragon.

---2016/07/16 03:22:03---
Goat has recieved 1 Dragon Dagger from Red Dragon.

---2016/07/16 03:34:02---
Goat has recieved 1 Climbing Boots from Red Dragon.

---2016/07/16 03:34:02---
Goat has recieved 1 Anti-Dragon Shield from Red Dragon.

---2016/07/16 03:34:02---
Goat has recieved 4 Red Dragonhide from Red Dragon.

---2016/07/16 03:34:02---
Goat has recieved 4 Dragon Bones from Red Dragon.

---2016/07/16 03:34:02---
Goat has recieved 1 Rune Full Helm from Red Dragon.

---2016/07/16 03:34:02---
Goat has recieved 1 Super Combat Potion(2) from Red Dragon.

---2016/07/16 03:34:02---
Goat has recieved 10 Lobster from Red Dragon.

---2016/07/16 03:34:02---
Goat has recieved 1 Loop Half Of Key from Red Dragon.

---2016/07/16 03:34:02---
Goat has recieved 1 Amulet Of Strength from Red Dragon.

---2016/07/16 03:34:02---
Goat has recieved 1 Dragon Dagger from Red Dragon.

---2016/07/16 04:56:35---
Goat has recieved 1 Climbing Boots from Steel Dragon.

---2016/07/16 04:56:35---
Goat has recieved 1 Anti-Dragon Shield from Steel Dragon.

---2016/07/16 04:56:35---
Goat has recieved 1 Rune Full Helm from Steel Dragon.

---2016/07/16 04:56:35---
Goat has recieved 10 Lobster from Steel Dragon.

---2016/07/16 04:56:35---
Goat has recieved 1 Amulet Of Strength from Steel Dragon.

---2016/07/16 04:56:35---
Goat has recieved 1 Dragon Dagger from Steel Dragon.
