
---2016/07/25 20:39:18---
Goten Master has recieved 1 Amulet Of Glory(4) from Corporeal Beast.

---2016/07/25 20:39:18---
Goten Master has recieved 1 Toolkit from Corporeal Beast.

---2016/07/25 20:39:18---
Goten Master has recieved 501992 Coins from Corporeal Beast.

---2016/07/25 20:39:18---
Goten Master has recieved 1 Slave Boots from Corporeal Beast.

---2016/07/25 20:39:18---
Goten Master has recieved 1 Princess Blouse from Corporeal Beast.
