
---2016/08/18 12:58:12---
Graco has recieved 1 Dragon Boots from Iron Omerta.

---2016/08/18 12:58:12---
Graco has recieved 3 Super Restore(4) from Iron Omerta.

---2016/08/18 12:58:12---
Graco has recieved 196 Death Rune from Iron Omerta.

---2016/08/18 12:58:12---
Graco has recieved 13 Shark from Iron Omerta.

---2016/08/18 12:58:12---
Graco has recieved 192 Astral Rune from Iron Omerta.

---2016/08/18 12:58:12---
Graco has recieved 100000000 Coins from Iron Omerta.

---2016/08/18 12:58:12---
Graco has recieved 1 Amulet Of Glory from Iron Omerta.

---2016/08/18 12:58:12---
Graco has recieved 5 Cooked Karambwan from Iron Omerta.

---2016/08/18 12:58:12---
Graco has recieved 1 Super Combat Potion(3) from Iron Omerta.

---2016/08/18 12:58:12---
Graco has recieved 1 Helm Of Neitiznot from Iron Omerta.

---2016/08/18 12:58:12---
Graco has recieved 480 Earth Rune from Iron Omerta.

---2016/08/18 12:58:12---
Graco has recieved 1 Dragon Dagger from Iron Omerta.

---2016/08/20 04:47:40---
Graco has recieved 4 Super Restore(4) from Tuckah.

---2016/08/20 04:47:40---
Graco has recieved 1 Super Restore(3) from Tuckah.

---2016/08/20 04:47:40---
Graco has recieved 1 Crystal Bow Full from Tuckah.

---2016/08/20 04:47:40---
Graco has recieved 1 Snakeskin Boots from Tuckah.

---2016/08/20 04:47:40---
Graco has recieved 1 Ranging Potion(2) from Tuckah.

---2016/08/20 04:47:40---
Graco has recieved 33 Dragon Javelin from Tuckah.

---2016/08/20 04:47:40---
Graco has recieved 2 Ranging Potion(4) from Tuckah.

---2016/08/20 04:47:40---
Graco has recieved 15 Sea Turtle from Tuckah.

---2016/08/31 21:42:04---
Graco has recieved 1 Black D'Hide Chaps from Nick.

---2016/08/31 21:42:04---
Graco has recieved 1 Toolkit from Nick.

---2016/08/31 21:42:04---
Graco has recieved 2147000001 Coins from Nick.

---2016/08/31 21:42:04---
Graco has recieved 1 Book Of Darkness from Nick.

---2016/08/31 21:42:04---
Graco has recieved 1 Ahrim'S Hood from Nick.

---2016/08/31 21:42:04---
Graco has recieved 2 Yew Shortbow (U) from Nick.

---2016/08/31 21:42:04---
Graco has recieved 1 Enchanted Top from Nick.

---2016/08/31 21:42:04---
Graco has recieved 1 Infinity Hat from Nick.

---2016/08/31 21:42:04---
Graco has recieved 1 Highwayman Mask from Nick.

---2016/08/31 21:42:04---
Graco has recieved 1 Dark Infinity Hat from Nick.

---2016/08/31 21:42:04---
Graco has recieved 1 Infinity Gloves from Nick.

---2016/08/31 21:42:04---
Graco has recieved 1 Ahrim'S Robeskirt from Nick.

---2016/08/31 21:42:04---
Graco has recieved 1 Ring Of Wealth from Nick.

---2016/08/31 21:42:04---
Graco has recieved 1 Eternal Boots from Nick.

---2016/08/31 21:42:04---
Graco has recieved 1 White Elegant Blouse from Nick.

---2016/08/31 21:42:04---
Graco has recieved 1 Pink Elegant Skirt from Nick.

---2016/08/31 21:42:04---
Graco has recieved 1 Archers Ring (I) from Nick.

---2016/08/31 21:42:04---
Graco has recieved 1 Berserker Ring (I) from Nick.

---2016/08/31 21:42:04---
Graco has recieved 1 Watermelon from Nick.

---2016/08/31 21:49:05---
Graco has recieved 1 Dragon Boots from Nick.

---2016/08/31 21:49:05---
Graco has recieved 18 Elite Box from Nick.

---2016/08/31 21:49:05---
Graco has recieved 1 Agility Tome from Nick.

---2016/08/31 21:49:05---
Graco has recieved 1 Decorative Armour from Nick.

---2016/08/31 21:49:05---
Graco has recieved 1 Decorative Top from Nick.

---2016/08/31 21:49:05---
Graco has recieved 1 Archers Ring from Nick.

---2016/08/31 21:49:05---
Graco has recieved 1 Warrior Ring from Nick.

---2016/08/31 21:49:05---
Graco has recieved 1 Black Santa Hat from Nick.

---2016/08/31 22:20:55---
Graco has recieved 1 Credits Scroll from Pantera.

---2016/08/31 22:20:55---
Graco has recieved 1 Karil'S Leatherskirt from Pantera.

---2016/08/31 22:20:55---
Graco has recieved 2072009404 Coins from Pantera.

---2016/08/31 22:20:55---
Graco has recieved 13316 Zulrah'S Scales from Pantera.

---2016/08/31 22:20:55---
Graco has recieved 1 Music Cape (T) from Pantera.

---2016/08/31 22:20:55---
Graco has recieved 461 Zul-Andra Teleport from Pantera.

---2016/08/31 22:20:55---
Graco has recieved 1 Signed Oak Bow from Pantera.

---2016/08/31 22:20:55---
Graco has recieved 1 Gloves Of Drops from Pantera.

---2016/08/31 22:20:55---
Graco has recieved 10 Super Restore(4) from Pantera.

---2016/08/31 22:20:55---
Graco has recieved 1 Berserker Ring from Pantera.

---2016/08/31 22:20:55---
Graco has recieved 1 Pegasian Boots from Pantera.

---2016/08/31 22:20:55---
Graco has recieved 1 Super Restore(1) from Pantera.

---2016/08/31 22:20:55---
Graco has recieved 1 Ring Of The Drops from Pantera.

---2016/08/31 22:20:55---
Graco has recieved 1 Amulet Of Drops from Pantera.

---2016/08/31 22:20:55---
Graco has recieved 13 Runite Bar from Pantera.

---2016/08/31 22:20:55---
Graco has recieved 219 Dragon Dart from Pantera.

---2016/08/31 22:20:55---
Graco has recieved 1 Black Santa Hat from Pantera.
