
---2016/08/20 21:08:03---
Guru has recieved 3 Prayer Potion(4) from Skeletal Wyvern.

---2016/08/20 21:08:03---
Guru has recieved 1 Crystal Bow Full from Skeletal Wyvern.

---2016/08/20 21:08:03---
Guru has recieved 1 Snakeskin Boots from Skeletal Wyvern.

---2016/08/20 21:08:03---
Guru has recieved 4 Prayer Potion(3) from Skeletal Wyvern.

---2016/08/20 21:08:03---
Guru has recieved 1 Prayer Potion(2) from Skeletal Wyvern.
