
---2016/08/13 21:53:31---
I Want Sex has recieved 1 Toolkit from Lvl3slayer.

---2016/08/13 21:53:31---
I Want Sex has recieved 242500 Coins from Lvl3slayer.

---2016/08/13 21:53:31---
I Want Sex has recieved 1 Staff Of Air from Lvl3slayer.

---2016/08/13 21:53:31---
I Want Sex has recieved 1 Shortbow from Lvl3slayer.

---2016/08/13 21:53:31---
I Want Sex has recieved 1 Bronze Scimitar from Lvl3slayer.

---2016/08/13 21:53:31---
I Want Sex has recieved 300 Fire Rune from Lvl3slayer.

---2016/08/13 21:53:31---
I Want Sex has recieved 100 Monkfish from Lvl3slayer.

---2016/08/13 21:53:31---
I Want Sex has recieved 100 Mind Rune from Lvl3slayer.

---2016/08/13 21:53:31---
I Want Sex has recieved 1 Amulet Of Glory(4) from Lvl3slayer.

---2016/08/13 21:53:31---
I Want Sex has recieved 100 Chaos Rune from Lvl3slayer.

---2016/08/13 21:53:31---
I Want Sex has recieved 1 Slave Robetop from Lvl3slayer.

---2016/08/13 21:53:31---
I Want Sex has recieved 250 Iron Arrow from Lvl3slayer.

---2016/08/13 21:53:31---
I Want Sex has recieved 1 Slave Robe from Lvl3slayer.

---2016/08/13 21:53:31---
I Want Sex has recieved 1 Slave Boots from Lvl3slayer.

---2016/08/13 21:53:31---
I Want Sex has recieved 5 Super Combat Potion(4) from Lvl3slayer.

---2016/08/13 21:53:31---
I Want Sex has recieved 1 Clue Scroll (Easy) from Lvl3slayer.

---2016/08/13 21:53:31---
I Want Sex has recieved 100 Rune Arrow from Lvl3slayer.
