
---2016/07/22 19:16:03---
Im So Good has recieved 1 Amulet Of Glory(4) from Abyssal Monarch.

---2016/07/22 19:16:03---
Im So Good has recieved 1 Rune Kiteshield from Abyssal Monarch.

---2016/07/22 19:16:03---
Im So Good has recieved 1 Climbing Boots from Abyssal Monarch.

---2016/07/22 19:16:03---
Im So Good has recieved 10 Prayer Potion(4) from Abyssal Monarch.

---2016/07/22 19:16:03---
Im So Good has recieved 10234 Coins from Abyssal Monarch.

---2016/07/22 19:16:03---
Im So Good has recieved 1 Super Combat Potion(4) from Abyssal Monarch.

---2016/07/22 19:16:03---
Im So Good has recieved 1 Helm Of Neitiznot from Abyssal Monarch.

---2016/08/13 23:53:45---
Im So Good has recieved 1 Amulet Of Glory(4) from Smoke Devil.

---2016/08/13 23:53:45---
Im So Good has recieved 24 Shark from Smoke Devil.

---2016/08/13 23:53:45---
Im So Good has recieved 2 Prayer Potion(4) from Smoke Devil.

---2016/08/13 23:53:45---
Im So Good has recieved 1 Snakeskin Boots from Smoke Devil.

---2016/08/13 23:53:45---
Im So Good has recieved 1 Pipe Ring from Smoke Devil.
