
---2016/08/11 22:27:16---
Imskilling has recieved 1 Black Wizard Robe (G) from Theblkpure.

---2016/08/11 22:27:16---
Imskilling has recieved 1 Fishing Rod from Theblkpure.

---2016/08/11 22:27:16---
Imskilling has recieved 142500 Coins from Theblkpure.

---2016/08/11 22:27:16---
Imskilling has recieved 1000 Dark Fishing Bait from Theblkpure.

---2016/08/11 22:27:16---
Imskilling has recieved 1 Black Skirt (G) from Theblkpure.

---2016/08/11 23:47:41---
Imskilling has recieved 1203936 Coins from You Lose.

---2016/08/11 23:47:41---
Imskilling has recieved 1243 Dark Fishing Bait from You Lose.

---2016/08/11 23:47:41---
Imskilling has recieved 1 Princess Blouse from You Lose.

---2016/08/11 23:47:41---
Imskilling has recieved 1 Princess Skirt from You Lose.

---2016/08/11 23:47:41---
Imskilling has recieved 1 Lobster Pot from You Lose.

---2016/08/11 23:47:41---
Imskilling has recieved 9 Raw Dark Crab from You Lose.

---2016/08/11 23:47:41---
Imskilling has recieved 898 Raw Dark Crab from You Lose.

---2016/08/12 00:01:00---
Imskilling has recieved 132196 Coins from You Lose.

---2016/08/12 00:01:00---
Imskilling has recieved 661 Dark Fishing Bait from You Lose.

---2016/08/12 00:01:00---
Imskilling has recieved 1 Lobster Pot from You Lose.

---2016/08/12 00:01:00---
Imskilling has recieved 11 Raw Dark Crab from You Lose.

---2016/08/12 00:20:18---
Imskilling has recieved 458275 Coins from You Lose.

---2016/08/12 00:20:18---
Imskilling has recieved 85 Dark Fishing Bait from You Lose.

---2016/08/12 00:20:18---
Imskilling has recieved 1 Lobster Pot from You Lose.

---2016/08/12 00:20:18---
Imskilling has recieved 1 Raw Dark Crab from You Lose.

---2016/08/12 00:20:18---
Imskilling has recieved 86 Raw Dark Crab from You Lose.

---2016/08/12 00:43:48---
Imskilling has recieved 708112 Coins from Lvl3slayer.

---2016/08/12 00:43:48---
Imskilling has recieved 253 Dark Fishing Bait from Lvl3slayer.

---2016/08/12 00:43:48---
Imskilling has recieved 1 Lobster Pot from Lvl3slayer.

---2016/08/12 00:43:48---
Imskilling has recieved 190 Raw Dark Crab from Lvl3slayer.

---2016/08/12 00:47:51---
Imskilling has recieved 224997 Coins from Penance Ranger.

---2016/08/12 01:30:44---
Imskilling has recieved 343929 Coins from Lvl3slayer.

---2016/08/12 01:30:44---
Imskilling has recieved 113 Dark Fishing Bait from Lvl3slayer.

---2016/08/12 01:30:44---
Imskilling has recieved 1 Turquoise Robe Top from Lvl3slayer.

---2016/08/12 01:30:44---
Imskilling has recieved 1 Turquoise Boots from Lvl3slayer.

---2016/08/12 01:30:44---
Imskilling has recieved 1 Lobster Pot from Lvl3slayer.

---2016/08/12 01:30:44---
Imskilling has recieved 15 Raw Dark Crab from Lvl3slayer.

---2016/08/12 01:30:44---
Imskilling has recieved 1 Turquoise Robe Bottoms from Lvl3slayer.

---2016/08/12 01:30:44---
Imskilling has recieved 71 Raw Dark Crab from Lvl3slayer.

---2016/08/12 01:47:10---
Imskilling has recieved 465287 Coins from Sky.

---2016/08/12 01:47:10---
Imskilling has recieved 451 Dark Fishing Bait from Sky.

---2016/08/12 01:47:10---
Imskilling has recieved 1 Lobster Pot from Sky.

---2016/08/12 01:47:10---
Imskilling has recieved 47 Raw Dark Crab from Sky.

---2016/08/12 02:01:43---
Imskilling has recieved 38354 Coins from Sky.

---2016/08/12 02:01:43---
Imskilling has recieved 16 Yew Logs from Sky.

---2016/08/12 02:24:55---
Imskilling has recieved 270 Bronze Dart Tip from Sky.

---2016/08/13 21:48:54---
Imskilling has recieved 1 Damaged Unholy Book from Lvl3slayer.

---2016/08/13 21:48:54---
Imskilling has recieved 1 Black Wizard Robe (T) from Lvl3slayer.

---2016/08/13 21:48:54---
Imskilling has recieved 553875 Coins from Lvl3slayer.

---2016/08/13 21:48:54---
Imskilling has recieved 521 Dark Fishing Bait from Lvl3slayer.

---2016/08/13 21:48:54---
Imskilling has recieved 1 Turquoise Boots from Lvl3slayer.

---2016/08/13 21:48:54---
Imskilling has recieved 1 White Beret from Lvl3slayer.

---2016/08/13 21:48:54---
Imskilling has recieved 1 Lobster Pot from Lvl3slayer.

---2016/08/13 21:48:54---
Imskilling has recieved 73 Raw Dark Crab from Lvl3slayer.

---2016/08/13 21:48:54---
Imskilling has recieved 1 Black Skirt (T) from Lvl3slayer.
