
---2016/08/15 04:24:48---
Inthatbox has recieved 1 Karil'S Leatherskirt from Demonic Gorilla.

---2016/08/15 04:24:48---
Inthatbox has recieved 1 Diamond Amulet from Demonic Gorilla.

---2016/08/15 04:24:48---
Inthatbox has recieved 332 Bolt Rack from Demonic Gorilla.

---2016/08/15 04:24:48---
Inthatbox has recieved 1 Crystal Bow Full from Demonic Gorilla.

---2016/08/15 04:24:48---
Inthatbox has recieved 1 Snakeskin Boots from Demonic Gorilla.

---2016/08/15 04:24:48---
Inthatbox has recieved 1 Green D'Hide Vamb from Demonic Gorilla.

---2016/08/15 04:24:48---
Inthatbox has recieved 5 Prayer Potion(3) from Demonic Gorilla.

---2016/08/15 04:24:48---
Inthatbox has recieved 4 Sea Turtle from Demonic Gorilla.

---2016/08/15 04:50:01---
Inthatbox has recieved 1 Diamond Amulet from Smoke Devil.

---2016/08/15 04:50:01---
Inthatbox has recieved 332 Bolt Rack from Smoke Devil.

---2016/08/15 04:50:01---
Inthatbox has recieved 1 Snakeskin Boots from Smoke Devil.

---2016/08/15 04:50:01---
Inthatbox has recieved 1 Slayer Bell from Smoke Devil.

---2016/08/15 04:50:01---
Inthatbox has recieved 1 Green D'Hide Vamb from Smoke Devil.

---2016/08/15 04:50:01---
Inthatbox has recieved 5 Prayer Potion(3) from Smoke Devil.

---2016/08/15 04:50:01---
Inthatbox has recieved 10 Lobster from Smoke Devil.

---2016/08/15 08:58:07---
Inthatbox has recieved 332 Bolt Rack from Lizardman Shaman.

---2016/08/15 08:58:07---
Inthatbox has recieved 2 Vial from Lizardman Shaman.

---2016/08/15 08:58:07---
Inthatbox has recieved 1 Crystal Bow Full from Lizardman Shaman.

---2016/08/15 08:58:07---
Inthatbox has recieved 1 Snakeskin Boots from Lizardman Shaman.

---2016/08/15 08:58:07---
Inthatbox has recieved 1 Green D'Hide Vamb from Lizardman Shaman.

---2016/08/15 08:58:07---
Inthatbox has recieved 1 Tooth Half Of Key from Lizardman Shaman.

---2016/08/15 08:58:07---
Inthatbox has recieved 11 Prayer Potion(3) from Lizardman Shaman.

---2016/08/15 08:58:07---
Inthatbox has recieved 1 Ring Of Wealth from Lizardman Shaman.

---2016/08/15 08:58:07---
Inthatbox has recieved 1 Prayer Potion(1) from Lizardman Shaman.

---2016/08/18 21:02:15---
Inthatbox has recieved 31 Pure Essence from Abyssal Monarch.

---2016/08/18 21:02:15---
Inthatbox has recieved 5 Prayer Potion(4) from Abyssal Monarch.

---2016/08/18 21:02:15---
Inthatbox has recieved 592 Bolt Rack from Abyssal Monarch.

---2016/08/18 21:02:15---
Inthatbox has recieved 1 Vial from Abyssal Monarch.

---2016/08/18 21:02:15---
Inthatbox has recieved 1 Amulet Of Accuracy from Abyssal Monarch.

---2016/08/18 21:02:15---
Inthatbox has recieved 1 Black D'Hide Body from Abyssal Monarch.

---2016/08/18 21:02:15---
Inthatbox has recieved 1 Ring Of Wealth from Abyssal Monarch.

---2016/08/18 21:02:15---
Inthatbox has recieved 75 Mind Rune from Abyssal Monarch.

---2016/08/18 21:02:15---
Inthatbox has recieved 1 Prayer Potion(1) from Abyssal Monarch.

---2016/08/18 21:02:15---
Inthatbox has recieved 8 Death Rune from Abyssal Monarch.

---2016/08/18 21:02:15---
Inthatbox has recieved 1 Crystal Bow Full from Abyssal Monarch.

---2016/08/18 21:02:15---
Inthatbox has recieved 1 Spade from Abyssal Monarch.

---2016/08/18 21:02:15---
Inthatbox has recieved 1 Runner Boots from Abyssal Monarch.

---2016/08/18 21:02:15---
Inthatbox has recieved 2 Clue Scroll (Easy) from Abyssal Monarch.

---2016/08/18 21:02:15---
Inthatbox has recieved 1 Black D'Hide Vamb from Abyssal Monarch.

---2016/08/18 21:02:15---
Inthatbox has recieved 2 Crystal Key from Abyssal Monarch.

---2016/08/22 03:54:36---
Inthatbox has recieved 5 Shark from Cerberus.

---2016/08/22 03:54:36---
Inthatbox has recieved 1 Karil'S Leatherskirt from Cerberus.

---2016/08/22 03:54:36---
Inthatbox has recieved 677 Bolt Rack from Cerberus.

---2016/08/22 03:54:36---
Inthatbox has recieved 1 Archer Helm from Cerberus.

---2016/08/22 03:54:36---
Inthatbox has recieved 8 Vial from Cerberus.

---2016/08/22 03:54:36---
Inthatbox has recieved 118 Coal from Cerberus.

---2016/08/22 03:54:36---
Inthatbox has recieved 1 Black D'Hide Body from Cerberus.

---2016/08/22 03:54:36---
Inthatbox has recieved 3 Prayer Potion(3) from Cerberus.

---2016/08/22 03:54:36---
Inthatbox has recieved 1 Ring Of Wealth from Cerberus.

---2016/08/22 03:54:36---
Inthatbox has recieved 132 Death Rune from Cerberus.

---2016/08/22 03:54:36---
Inthatbox has recieved 1 Crystal Bow Full from Cerberus.

---2016/08/22 03:54:36---
Inthatbox has recieved 87 Runite Bolts from Cerberus.

---2016/08/22 03:54:36---
Inthatbox has recieved 1 Snakeskin Boots from Cerberus.

---2016/08/22 03:54:36---
Inthatbox has recieved 1 Karil'S Coif from Cerberus.

---2016/08/22 03:54:36---
Inthatbox has recieved 1 Crystal Key from Cerberus.

---2016/08/22 03:54:36---
Inthatbox has recieved 10 Saradomin Brew(4) from Cerberus.

---2016/08/22 03:54:36---
Inthatbox has recieved 60 Dragon Dart from Cerberus.

---2016/08/22 09:29:29---
Inthatbox has recieved 1 Black D'Hide Chaps from Chaos Fanatic.

---2016/08/22 09:29:29---
Inthatbox has recieved 5 Shark from Chaos Fanatic.

---2016/08/22 09:29:29---
Inthatbox has recieved 12 Anglerfish from Chaos Fanatic.

---2016/08/22 09:29:29---
Inthatbox has recieved 89 Bolt Rack from Chaos Fanatic.

---2016/08/22 09:29:29---
Inthatbox has recieved 1 Amulet Of Accuracy from Chaos Fanatic.

---2016/08/22 09:29:29---
Inthatbox has recieved 1 Crystal Bow Full from Chaos Fanatic.

---2016/08/22 09:29:29---
Inthatbox has recieved 1 Snakeskin Boots from Chaos Fanatic.

---2016/08/22 09:29:29---
Inthatbox has recieved 2 Cooked Karambwan from Chaos Fanatic.

---2016/08/22 09:29:29---
Inthatbox has recieved 1 Black D'Hide Vamb from Chaos Fanatic.

---2016/08/22 09:29:29---
Inthatbox has recieved 7 Prayer Potion(3) from Chaos Fanatic.

---2016/08/22 09:31:14---
Inthatbox has recieved 1 Black D'Hide Chaps from Chaos Fanatic.

---2016/08/22 09:31:14---
Inthatbox has recieved 4 Shark from Chaos Fanatic.

---2016/08/22 09:31:14---
Inthatbox has recieved 12 Anglerfish from Chaos Fanatic.

---2016/08/22 09:31:14---
Inthatbox has recieved 89 Bolt Rack from Chaos Fanatic.

---2016/08/22 09:31:14---
Inthatbox has recieved 1 Amulet Of Accuracy from Chaos Fanatic.

---2016/08/22 09:31:14---
Inthatbox has recieved 1 Crystal Bow Full from Chaos Fanatic.

---2016/08/22 09:31:14---
Inthatbox has recieved 1 Snakeskin Boots from Chaos Fanatic.

---2016/08/22 09:31:14---
Inthatbox has recieved 2 Cooked Karambwan from Chaos Fanatic.

---2016/08/22 09:31:14---
Inthatbox has recieved 1 Black D'Hide Vamb from Chaos Fanatic.

---2016/08/22 09:31:14---
Inthatbox has recieved 8 Prayer Potion(3) from Chaos Fanatic.

---2016/08/24 14:33:25---
Inthatbox has recieved 1 Dragon Boots from Demonic Gorilla.

---2016/08/24 14:33:25---
Inthatbox has recieved 1 Amulet Of Torture from Demonic Gorilla.

---2016/08/24 14:33:25---
Inthatbox has recieved 8 Anglerfish from Demonic Gorilla.

---2016/08/24 14:33:25---
Inthatbox has recieved 1 Saradomin Brew(1) from Demonic Gorilla.

---2016/08/24 14:33:25---
Inthatbox has recieved 39 Bolt Rack from Demonic Gorilla.

---2016/08/24 14:33:25---
Inthatbox has recieved 4 Vial from Demonic Gorilla.

---2016/08/24 14:33:25---
Inthatbox has recieved 35 Adamantite Bar from Demonic Gorilla.

---2016/08/24 14:33:25---
Inthatbox has recieved 5 Prayer Potion(3) from Demonic Gorilla.

---2016/08/24 14:33:25---
Inthatbox has recieved 1 Ring Of Wealth from Demonic Gorilla.

---2016/08/24 14:33:25---
Inthatbox has recieved 1 Prayer Potion(2) from Demonic Gorilla.

---2016/08/24 14:33:25---
Inthatbox has recieved 3 Crystal Key from Demonic Gorilla.

---2016/08/24 14:33:25---
Inthatbox has recieved 1 Prayer Potion(1) from Demonic Gorilla.

---2016/08/25 02:41:53---
Inthatbox has recieved 1 Dragon Boots from Demonic Gorilla.

---2016/08/25 02:41:53---
Inthatbox has recieved 1 Amulet Of Torture from Demonic Gorilla.

---2016/08/25 02:41:53---
Inthatbox has recieved 17 Anglerfish from Demonic Gorilla.

---2016/08/25 02:41:53---
Inthatbox has recieved 1 Vial from Demonic Gorilla.

---2016/08/25 02:41:53---
Inthatbox has recieved 1 Super Combat Potion(3) from Demonic Gorilla.

---2016/08/25 02:41:53---
Inthatbox has recieved 15 Adamantite Bar from Demonic Gorilla.

---2016/08/25 02:41:53---
Inthatbox has recieved 4 Prayer Potion(3) from Demonic Gorilla.

---2016/08/25 02:41:53---
Inthatbox has recieved 1 Ring Of Wealth from Demonic Gorilla.

---2016/08/25 02:41:53---
Inthatbox has recieved 1 Prayer Potion(2) from Demonic Gorilla.

---2016/08/27 00:55:25---
Inthatbox has recieved 1 Dragon Boots from Demonic Gorilla.

---2016/08/27 00:55:25---
Inthatbox has recieved 8 Anglerfish from Demonic Gorilla.

---2016/08/27 00:55:25---
Inthatbox has recieved 1 Vial from Demonic Gorilla.

---2016/08/27 00:55:25---
Inthatbox has recieved 1 Super Combat Potion(4) from Demonic Gorilla.

---2016/08/27 00:55:25---
Inthatbox has recieved 1 Super Combat Potion(3) from Demonic Gorilla.

---2016/08/27 00:55:25---
Inthatbox has recieved 7 Prayer Potion(3) from Demonic Gorilla.

---2016/08/27 00:55:25---
Inthatbox has recieved 1 Ring Of Wealth from Demonic Gorilla.

---2016/08/27 00:55:25---
Inthatbox has recieved 1 Prayer Potion(2) from Demonic Gorilla.

---2016/08/27 00:55:25---
Inthatbox has recieved 3 Crystal Key from Demonic Gorilla.

---2016/08/27 01:17:46---
Inthatbox has recieved 1 Dragon Boots from Demonic Gorilla.

---2016/08/27 01:17:46---
Inthatbox has recieved 1 Monkey Paw from Demonic Gorilla.

---2016/08/27 01:17:46---
Inthatbox has recieved 8 Anglerfish from Demonic Gorilla.

---2016/08/27 01:17:46---
Inthatbox has recieved 8 Vial from Demonic Gorilla.

---2016/08/27 01:17:46---
Inthatbox has recieved 1 Super Combat Potion(4) from Demonic Gorilla.

---2016/08/27 01:17:46---
Inthatbox has recieved 1 Loop Half Of Key from Demonic Gorilla.

---2016/08/27 01:17:46---
Inthatbox has recieved 1 Ring Of Wealth from Demonic Gorilla.

---2016/08/27 01:17:46---
Inthatbox has recieved 218 Dragon Javelin from Demonic Gorilla.

---2016/08/27 01:17:46---
Inthatbox has recieved 16 Runite Bar from Demonic Gorilla.

---2016/08/27 01:17:46---
Inthatbox has recieved 33 Dragon Bolts (E) from Demonic Gorilla.

---2016/08/27 01:17:46---
Inthatbox has recieved 3 Crystal Key from Demonic Gorilla.

---2016/08/27 01:17:46---
Inthatbox has recieved 1 Prayer Potion(1) from Demonic Gorilla.

---2016/08/27 01:21:07---
Inthatbox has recieved 1 Dragon Boots from Demonic Gorilla.

---2016/08/27 01:21:07---
Inthatbox has recieved 1 Ashes from Demonic Gorilla.

---2016/08/27 01:21:07---
Inthatbox has recieved 1 Monkey Paw from Demonic Gorilla.

---2016/08/27 01:21:07---
Inthatbox has recieved 5 Anglerfish from Demonic Gorilla.

---2016/08/27 01:21:07---
Inthatbox has recieved 7 Vial from Demonic Gorilla.

---2016/08/27 01:21:07---
Inthatbox has recieved 1 Super Combat Potion(4) from Demonic Gorilla.

---2016/08/27 01:21:07---
Inthatbox has recieved 1 Loop Half Of Key from Demonic Gorilla.

---2016/08/27 01:21:07---
Inthatbox has recieved 1 Ring Of Wealth from Demonic Gorilla.

---2016/08/27 01:21:07---
Inthatbox has recieved 16 Runite Bar from Demonic Gorilla.

---2016/08/27 01:21:07---
Inthatbox has recieved 218 Dragon Javelin from Demonic Gorilla.

---2016/08/27 01:21:07---
Inthatbox has recieved 33 Dragon Bolts (E) from Demonic Gorilla.

---2016/08/27 01:21:07---
Inthatbox has recieved 3 Crystal Key from Demonic Gorilla.
