
---2016/07/27 04:31:01---
Iron Hyped has recieved 18 Dragon Bones from Not Hyped.

---2016/07/27 04:33:14---
Iron Hyped has recieved 1 Karil'S Leathertop from Not Hyped.

---2016/07/27 04:33:14---
Iron Hyped has recieved 1 Teacher Wand from Not Hyped.

---2016/07/27 04:33:14---
Iron Hyped has recieved 1 Karil'S Leatherskirt from Not Hyped.

---2016/07/27 04:33:14---
Iron Hyped has recieved 1056190 Coins from Not Hyped.

---2016/07/27 04:33:14---
Iron Hyped has recieved 1 Dragon Chainbody from Not Hyped.

---2016/07/27 04:33:14---
Iron Hyped has recieved 1 Unstrung Heavy Ballista from Not Hyped.

---2016/07/27 04:33:14---
Iron Hyped has recieved 1 Uncut Onyx from Not Hyped.

---2016/07/27 04:33:14---
Iron Hyped has recieved 1 Karil'S Coif from Not Hyped.

---2016/07/27 04:33:14---
Iron Hyped has recieved 1 Karil'S Crossbow from Not Hyped.
