
---2016/08/06 19:51:17---
Iron Rng has recieved 14 Summer Pie from Ancient Gorilla.

---2016/08/06 19:51:17---
Iron Rng has recieved 1 Book Of Darkness from Ancient Gorilla.

---2016/08/06 19:51:17---
Iron Rng has recieved 1 Amulet Of Glory from Ancient Gorilla.

---2016/08/06 19:51:17---
Iron Rng has recieved 4 Prayer Potion(3) from Ancient Gorilla.

---2016/08/06 19:51:17---
Iron Rng has recieved 210 Rune Arrow from Ancient Gorilla.

---2016/08/06 19:51:17---
Iron Rng has recieved 1 Dragon Med Helm from Ancient Gorilla.

---2016/08/06 19:51:17---
Iron Rng has recieved 1 Dragon Dagger from Ancient Gorilla.

---2016/08/07 03:21:13---
Iron Rng has recieved 1 Prayer Potion(4) from Hellhound.

---2016/08/07 03:21:13---
Iron Rng has recieved 10 Summer Pie from Hellhound.

---2016/08/07 03:21:13---
Iron Rng has recieved 1 Book Of Darkness from Hellhound.

---2016/08/07 03:21:13---
Iron Rng has recieved 1 Amulet Of Glory from Hellhound.

---2016/08/07 03:21:13---
Iron Rng has recieved 1 Dragon Med Helm from Hellhound.

---2016/08/07 03:21:13---
Iron Rng has recieved 1 Dragon Dagger from Hellhound.

---2016/08/07 03:21:13---
Iron Rng has recieved 1 Prayer Potion(1) from Hellhound.

---2016/08/11 02:42:47---
Iron Rng has recieved 1 Blue D'Hide Body from Skotizo.

---2016/08/11 02:42:47---
Iron Rng has recieved 1 Vial from Skotizo.

---2016/08/11 02:42:47---
Iron Rng has recieved 1 Amulet Of Glory from Skotizo.

---2016/08/11 02:42:47---
Iron Rng has recieved 5 Pie Dish from Skotizo.

---2016/08/11 02:42:47---
Iron Rng has recieved 4 Prayer Potion(3) from Skotizo.

---2016/08/11 02:42:47---
Iron Rng has recieved 2 Dragonstone from Skotizo.

---2016/08/11 02:42:47---
Iron Rng has recieved 1 Green D'Hide Body from Skotizo.

---2016/08/11 02:42:47---
Iron Rng has recieved 3 Summer Pie from Skotizo.

---2016/08/11 02:42:47---
Iron Rng has recieved 1 Clue Scroll (Medium) from Skotizo.

---2016/08/11 02:42:47---
Iron Rng has recieved 1 Crystal Bow Full from Skotizo.

---2016/08/11 02:42:47---
Iron Rng has recieved 1 Snakeskin Boots from Skotizo.

---2016/08/11 02:42:47---
Iron Rng has recieved 1 Blue D'Hide Chaps (T) from Skotizo.

---2016/08/11 02:42:47---
Iron Rng has recieved 1 Rune Chainbody from Skotizo.

---2016/08/11 02:42:47---
Iron Rng has recieved 1 Penance Gloves from Skotizo.

---2016/08/11 02:44:49---
Iron Rng has recieved 1 Blue D'Hide Body from Skotizo.

---2016/08/11 02:44:49---
Iron Rng has recieved 1 Amulet Of Glory from Skotizo.

---2016/08/11 02:44:49---
Iron Rng has recieved 4 Pie Dish from Skotizo.

---2016/08/11 02:44:49---
Iron Rng has recieved 4 Prayer Potion(3) from Skotizo.

---2016/08/11 02:44:49---
Iron Rng has recieved 2 Dragonstone from Skotizo.

---2016/08/11 02:44:49---
Iron Rng has recieved 1 Green D'Hide Body from Skotizo.

---2016/08/11 02:44:49---
Iron Rng has recieved 3 Summer Pie from Skotizo.

---2016/08/11 02:44:49---
Iron Rng has recieved 1 Clue Scroll (Medium) from Skotizo.

---2016/08/11 02:44:49---
Iron Rng has recieved 1 Crystal Bow Full from Skotizo.

---2016/08/11 02:44:49---
Iron Rng has recieved 1 Snakeskin Boots from Skotizo.

---2016/08/11 02:44:49---
Iron Rng has recieved 1 Blue D'Hide Chaps (T) from Skotizo.

---2016/08/11 02:44:49---
Iron Rng has recieved 1 Rune Chainbody from Skotizo.

---2016/08/11 02:44:49---
Iron Rng has recieved 1 Penance Gloves from Skotizo.

---2016/08/12 01:47:08---
Iron Rng has recieved 1 Crystal Bow Full from Skeleton Hellhound.

---2016/08/12 01:47:08---
Iron Rng has recieved 9 Lobster from Skeleton Hellhound.

---2016/08/12 01:47:08---
Iron Rng has recieved 1 Prayer Potion(2) from Skeleton Hellhound.

---2016/08/12 01:48:20---
Iron Rng has recieved 1 Crystal Bow Full from Vet'Ion.

---2016/08/12 01:48:20---
Iron Rng has recieved 4 Lobster from Vet'Ion.

---2016/08/12 01:48:20---
Iron Rng has recieved 1 Prayer Potion(2) from Vet'Ion.

---2016/08/12 01:49:30---
Iron Rng has recieved 1 Crystal Bow Full from Vet'Ion.

---2016/08/13 04:04:38---
Iron Rng has recieved 1 Blue D'Hide Body from Demonic Gorilla.

---2016/08/13 04:04:38---
Iron Rng has recieved 1 Crystal Bow Full from Demonic Gorilla.

---2016/08/13 04:04:38---
Iron Rng has recieved 1 Amulet Of Glory from Demonic Gorilla.

---2016/08/13 04:04:38---
Iron Rng has recieved 1 Snakeskin Boots from Demonic Gorilla.

---2016/08/13 04:04:38---
Iron Rng has recieved 1 Blue D'Hide Chaps (T) from Demonic Gorilla.

---2016/08/13 04:04:38---
Iron Rng has recieved 1 Super Defence(4) from Demonic Gorilla.

---2016/08/13 04:04:38---
Iron Rng has recieved 17 Monkfish from Demonic Gorilla.

---2016/08/13 04:04:38---
Iron Rng has recieved 1 Dragon Scimitar from Demonic Gorilla.

---2016/08/13 04:04:38---
Iron Rng has recieved 3 Prayer Potion(3) from Demonic Gorilla.

---2016/08/13 04:04:38---
Iron Rng has recieved 1 Ring Of Wealth from Demonic Gorilla.

---2016/08/13 04:04:38---
Iron Rng has recieved 1 Torag'S Platelegs from Demonic Gorilla.

---2016/08/13 04:04:38---
Iron Rng has recieved 1 Dragon Dagger from Demonic Gorilla.

---2016/08/13 04:06:42---
Iron Rng has recieved 1 Blue D'Hide Body from Demonic Gorilla.

---2016/08/13 04:06:42---
Iron Rng has recieved 1 Super Defence(3) from Demonic Gorilla.

---2016/08/13 04:06:42---
Iron Rng has recieved 1 Amulet Of Glory from Demonic Gorilla.

---2016/08/13 04:06:42---
Iron Rng has recieved 15 Monkfish from Demonic Gorilla.

---2016/08/13 04:06:42---
Iron Rng has recieved 1 Dragon Scimitar from Demonic Gorilla.

---2016/08/13 04:06:42---
Iron Rng has recieved 3 Prayer Potion(3) from Demonic Gorilla.

---2016/08/13 04:06:42---
Iron Rng has recieved 1 Ring Of Wealth from Demonic Gorilla.

---2016/08/13 04:06:42---
Iron Rng has recieved 1 Torag'S Platelegs from Demonic Gorilla.

---2016/08/13 04:06:42---
Iron Rng has recieved 1 Crystal Bow Full from Demonic Gorilla.

---2016/08/13 04:06:42---
Iron Rng has recieved 1 Snakeskin Boots from Demonic Gorilla.

---2016/08/13 04:06:42---
Iron Rng has recieved 1 Blue D'Hide Chaps (T) from Demonic Gorilla.

---2016/08/13 04:06:42---
Iron Rng has recieved 30 Rune Javelin from Demonic Gorilla.

---2016/08/13 04:06:42---
Iron Rng has recieved 1 Dragon Dagger from Demonic Gorilla.

---2016/08/13 04:40:51---
Iron Rng has recieved 1 Rune Boots from Demonic Gorilla.

---2016/08/13 04:40:51---
Iron Rng has recieved 1 Super Defence(3) from Demonic Gorilla.

---2016/08/13 04:40:51---
Iron Rng has recieved 59063 Coins from Demonic Gorilla.

---2016/08/13 04:40:51---
Iron Rng has recieved 1 Vial from Demonic Gorilla.

---2016/08/13 04:40:51---
Iron Rng has recieved 1 Amulet Of Glory from Demonic Gorilla.

---2016/08/13 04:40:51---
Iron Rng has recieved 1 Monkfish from Demonic Gorilla.

---2016/08/13 04:40:51---
Iron Rng has recieved 1 Dragon Scimitar from Demonic Gorilla.

---2016/08/13 04:40:51---
Iron Rng has recieved 1 Ring Of Wealth from Demonic Gorilla.

---2016/08/13 04:40:51---
Iron Rng has recieved 1 Saradomin Brew(4) from Demonic Gorilla.

---2016/08/13 04:40:51---
Iron Rng has recieved 1 Torag'S Platelegs from Demonic Gorilla.

---2016/08/13 04:40:51---
Iron Rng has recieved 1 Dragon Dagger from Demonic Gorilla.

---2016/08/13 04:40:51---
Iron Rng has recieved 1 Prayer Potion(1) from Demonic Gorilla.

---2016/08/13 08:20:44---
Iron Rng has recieved 1 Rune Boots from Demonic Gorilla.

---2016/08/13 08:20:44---
Iron Rng has recieved 1 Super Defence(2) from Demonic Gorilla.

---2016/08/13 08:20:44---
Iron Rng has recieved 1 Vial from Demonic Gorilla.

---2016/08/13 08:20:44---
Iron Rng has recieved 1 Amulet Of Glory from Demonic Gorilla.

---2016/08/13 08:20:44---
Iron Rng has recieved 18 Monkfish from Demonic Gorilla.

---2016/08/13 08:20:44---
Iron Rng has recieved 1 Dragon Scimitar from Demonic Gorilla.

---2016/08/13 08:20:44---
Iron Rng has recieved 2 Prayer Potion(3) from Demonic Gorilla.

---2016/08/13 08:20:44---
Iron Rng has recieved 1 Ring Of Wealth from Demonic Gorilla.

---2016/08/13 08:20:44---
Iron Rng has recieved 1 Grimy Ranarr Weed from Demonic Gorilla.

---2016/08/13 08:20:44---
Iron Rng has recieved 36 Death Rune from Demonic Gorilla.

---2016/08/13 08:20:44---
Iron Rng has recieved 1 Saradomin Brew(4) from Demonic Gorilla.

---2016/08/13 08:20:44---
Iron Rng has recieved 1325 Rune Javelin from Demonic Gorilla.

---2016/08/13 08:20:44---
Iron Rng has recieved 1 Dragon Dagger from Demonic Gorilla.

---2016/08/13 10:22:48---
Iron Rng has recieved 250 Pure Essence from Skeletal Wyvern.

---2016/08/13 10:22:48---
Iron Rng has recieved 1 Rune Boots from Skeletal Wyvern.

---2016/08/13 10:22:48---
Iron Rng has recieved 1 Amulet Of Glory from Skeletal Wyvern.

---2016/08/13 10:22:48---
Iron Rng has recieved 1 Dragon Plateskirt from Skeletal Wyvern.

---2016/08/13 10:22:48---
Iron Rng has recieved 70 Magic Logs from Skeletal Wyvern.

---2016/08/13 10:22:48---
Iron Rng has recieved 1 Monkfish from Skeletal Wyvern.

---2016/08/13 10:22:48---
Iron Rng has recieved 1 Elemental Shield from Skeletal Wyvern.

---2016/08/13 10:22:48---
Iron Rng has recieved 1 Dragon Scimitar from Skeletal Wyvern.

---2016/08/13 10:22:48---
Iron Rng has recieved 450 Water Rune from Skeletal Wyvern.

---2016/08/13 10:22:48---
Iron Rng has recieved 1 Ring Of Wealth from Skeletal Wyvern.

---2016/08/13 10:22:48---
Iron Rng has recieved 225 Air Rune from Skeletal Wyvern.

---2016/08/13 10:22:48---
Iron Rng has recieved 1 Torag'S Platelegs from Skeletal Wyvern.

---2016/08/13 10:22:48---
Iron Rng has recieved 80 Chaos Rune from Skeletal Wyvern.

---2016/08/13 10:22:48---
Iron Rng has recieved 1 Dragon Platelegs from Skeletal Wyvern.

---2016/08/13 10:22:48---
Iron Rng has recieved 129 Adamant Bolts from Skeletal Wyvern.

---2016/08/13 10:22:48---
Iron Rng has recieved 6 Runite Bolts from Skeletal Wyvern.

---2016/08/13 10:22:48---
Iron Rng has recieved 20 Adamantite Bar from Skeletal Wyvern.

---2016/08/13 10:22:48---
Iron Rng has recieved 16 Wyvern Bones from Skeletal Wyvern.

---2016/08/13 10:22:48---
Iron Rng has recieved 1 Dragon Dagger from Skeletal Wyvern.

---2016/08/13 10:47:15---
Iron Rng has recieved 1 Rune Boots from King Black Dragon.

---2016/08/13 10:47:15---
Iron Rng has recieved 45 Law Rune from King Black Dragon.

---2016/08/13 10:47:15---
Iron Rng has recieved 4 Black Dragonhide from King Black Dragon.

---2016/08/13 10:47:15---
Iron Rng has recieved 1 Anti-Dragon Shield from King Black Dragon.

---2016/08/13 10:47:15---
Iron Rng has recieved 10 Dragon Arrowtips from King Black Dragon.

---2016/08/13 10:47:15---
Iron Rng has recieved 2 Vial from King Black Dragon.

---2016/08/13 10:47:15---
Iron Rng has recieved 1 Amulet Of Glory from King Black Dragon.

---2016/08/13 10:47:15---
Iron Rng has recieved 2 Dragon Bones from King Black Dragon.

---2016/08/13 10:47:15---
Iron Rng has recieved 1 Ring Of Wealth from King Black Dragon.

---2016/08/13 12:23:13---
Iron Rng has recieved 1 Book Of War from Thermonuclear Smoke Devil.

---2016/08/13 12:23:13---
Iron Rng has recieved 1 Rune Boots from Thermonuclear Smoke Devil.

---2016/08/13 12:23:13---
Iron Rng has recieved 190 Bolt Rack from Thermonuclear Smoke Devil.

---2016/08/13 12:23:13---
Iron Rng has recieved 1 Amulet Of Glory from Thermonuclear Smoke Devil.

---2016/08/13 12:23:13---
Iron Rng has recieved 20 Monkfish from Thermonuclear Smoke Devil.

---2016/08/13 12:23:13---
Iron Rng has recieved 1 Dragon Scimitar from Thermonuclear Smoke Devil.

---2016/08/13 12:23:13---
Iron Rng has recieved 4 Prayer Potion(3) from Thermonuclear Smoke Devil.

---2016/08/13 12:23:13---
Iron Rng has recieved 1 Ring Of Wealth from Thermonuclear Smoke Devil.

---2016/08/13 12:23:13---
Iron Rng has recieved 1 Dragon Dagger from Thermonuclear Smoke Devil.

---2016/08/13 12:23:49---
Iron Rng has recieved 1 Rune Boots from Thermonuclear Smoke Devil.

---2016/08/13 12:23:49---
Iron Rng has recieved 190 Bolt Rack from Thermonuclear Smoke Devil.

---2016/08/13 12:23:49---
Iron Rng has recieved 1 Amulet Of Glory from Thermonuclear Smoke Devil.

---2016/08/13 12:23:49---
Iron Rng has recieved 13 Monkfish from Thermonuclear Smoke Devil.

---2016/08/13 12:23:49---
Iron Rng has recieved 1 Dragon Scimitar from Thermonuclear Smoke Devil.

---2016/08/13 12:23:49---
Iron Rng has recieved 1 Ring Of Wealth from Thermonuclear Smoke Devil.

---2016/08/13 12:23:49---
Iron Rng has recieved 1 Dragon Dagger from Thermonuclear Smoke Devil.

---2016/08/19 20:03:30---
Iron Rng has recieved 1 Rune Crossbow from Cave Kraken.

---2016/08/19 20:03:30---
Iron Rng has recieved 17 Shark from Cave Kraken.

---2016/08/19 20:03:30---
Iron Rng has recieved 2 Prayer Potion(4) from Cave Kraken.

---2016/08/19 20:03:30---
Iron Rng has recieved 1 Black D'Hide Body from Cave Kraken.

---2016/08/19 20:03:30---
Iron Rng has recieved 1 Amulet Of Glory from Cave Kraken.

---2016/08/19 20:03:30---
Iron Rng has recieved 1 Slayer Bell from Cave Kraken.

---2016/08/19 20:03:30---
Iron Rng has recieved 6 Zul-Andra Teleport from Cave Kraken.

---2016/08/19 20:03:30---
Iron Rng has recieved 1 Crystal Bow Full from Cave Kraken.

---2016/08/19 20:03:30---
Iron Rng has recieved 1 Snakeskin Boots from Cave Kraken.

---2016/08/19 20:03:30---
Iron Rng has recieved 21 Dragon Bolts (E) from Cave Kraken.

---2016/08/19 20:03:30---
Iron Rng has recieved 1 Blue D'Hide Chaps from Cave Kraken.

---2016/08/19 20:03:30---
Iron Rng has recieved 80 Dragon Bolts from Cave Kraken.

---2016/08/19 20:03:30---
Iron Rng has recieved 18 Dragon Dart from Cave Kraken.
