
---2016/07/16 22:13:49---
Iron Josh has recieved 1 Bread from Abyssal Spawn.

---2016/07/16 22:13:49---
Iron Josh has recieved 1 Bucket from Abyssal Spawn.

---2016/07/16 22:13:49---
Iron Josh has recieved 1 Bronze Axe from Abyssal Spawn.

---2016/07/16 22:13:49---
Iron Josh has recieved 6 Water Rune from Abyssal Spawn.

---2016/07/16 22:13:49---
Iron Josh has recieved 1 Pot from Abyssal Spawn.

---2016/07/16 22:13:49---
Iron Josh has recieved 25 Air Rune from Abyssal Spawn.

---2016/07/16 22:13:49---
Iron Josh has recieved 4 Earth Rune from Abyssal Spawn.

---2016/07/16 22:13:49---
Iron Josh has recieved 15 Mind Rune from Abyssal Spawn.

---2016/07/16 22:13:49---
Iron Josh has recieved 1 Tinderbox from Abyssal Spawn.

---2016/07/16 22:13:49---
Iron Josh has recieved 1 Small Fishing Net from Abyssal Spawn.

---2016/07/16 22:13:49---
Iron Josh has recieved 2 Body Rune from Abyssal Spawn.

---2016/07/16 22:13:49---
Iron Josh has recieved 1 Abyssal Book from Abyssal Spawn.

---2016/07/16 22:13:49---
Iron Josh has recieved 25 Bronze Arrow from Abyssal Spawn.

---2016/07/16 22:13:49---
Iron Josh has recieved 1 Wooden Shield from Abyssal Spawn.

---2016/07/16 22:13:49---
Iron Josh has recieved 1 Bronze Dagger from Abyssal Spawn.

---2016/07/16 22:13:49---
Iron Josh has recieved 1 Shrimps from Abyssal Spawn.

---2016/07/16 23:01:04---
Iron Josh has recieved 87 Death Rune from Rock Crab.

---2016/07/16 23:01:04---
Iron Josh has recieved 441 Bronze Arrow from Rock Crab.

---2016/07/16 23:01:04---
Iron Josh has recieved 357853 Coins from Rock Crab.

---2016/07/16 23:01:04---
Iron Josh has recieved 1 Bronze Sword from Rock Crab.

---2016/07/17 19:03:53---
Iron Josh has recieved 441 Bronze Arrow from Hill Giant.

---2016/07/17 19:03:53---
Iron Josh has recieved 17 Big Bones from Hill Giant.

---2016/07/17 19:03:53---
Iron Josh has recieved 1 Ring Of Recoil from Hill Giant.

---2016/07/17 19:03:53---
Iron Josh has recieved 150 Steel Arrow from Hill Giant.

---2016/07/17 19:03:53---
Iron Josh has recieved 8 Onion Seed from Hill Giant.

---2016/07/17 19:03:53---
Iron Josh has recieved 1 Tooth Half Of Key from Hill Giant.

---2016/07/17 19:03:53---
Iron Josh has recieved 30 Fire Rune from Hill Giant.

---2016/07/17 19:03:53---
Iron Josh has recieved 2 Tomato Seed from Hill Giant.

---2016/07/17 19:03:53---
Iron Josh has recieved 21 Water Rune from Hill Giant.

---2016/07/17 19:03:53---
Iron Josh has recieved 1 Enchanted Gem from Hill Giant.

---2016/07/17 19:03:53---
Iron Josh has recieved 1 Crystal Key from Hill Giant.

---2016/07/18 16:37:33---
Iron Josh has recieved 12000 Coins from Chaos Druid.

---2016/07/18 16:37:33---
Iron Josh has recieved 2 Mithril Bolts from Chaos Druid.

---2016/07/18 16:37:33---
Iron Josh has recieved 150 Steel Arrow from Chaos Druid.

---2016/07/18 16:37:33---
Iron Josh has recieved 100 Silver Ore from Chaos Druid.

---2016/07/18 16:37:33---
Iron Josh has recieved 1 Enchanted Gem from Chaos Druid.

---2016/07/18 16:37:33---
Iron Josh has recieved 1 Loop Half Of Key from Chaos Druid.

---2016/07/18 16:37:33---
Iron Josh has recieved 50 Air Rune from Chaos Druid.

---2016/07/18 16:37:33---
Iron Josh has recieved 1 Crystal Key from Chaos Druid.

---2016/07/18 16:37:33---
Iron Josh has recieved 24 Mind Rune from Chaos Druid.

---2016/07/18 16:37:33---
Iron Josh has recieved 27 Body Rune from Chaos Druid.

---2016/07/18 16:44:30---
Iron Josh has recieved 1 Adamant Scimitar from Chaos Druid.

---2016/07/18 16:44:30---
Iron Josh has recieved 45 Law Rune from Chaos Druid.

---2016/07/18 16:44:30---
Iron Josh has recieved 18000 Coins from Chaos Druid.

---2016/07/18 16:44:30---
Iron Josh has recieved 10 Mithril Bolts from Chaos Druid.

---2016/07/18 16:44:30---
Iron Josh has recieved 300 Steel Arrow from Chaos Druid.

---2016/07/18 16:44:30---
Iron Josh has recieved 1 Unholy Mould from Chaos Druid.

---2016/07/18 16:44:30---
Iron Josh has recieved 100 Silver Ore from Chaos Druid.

---2016/07/18 16:44:30---
Iron Josh has recieved 1 Enchanted Gem from Chaos Druid.

---2016/07/18 16:44:30---
Iron Josh has recieved 50 Air Rune from Chaos Druid.

---2016/07/18 16:44:30---
Iron Josh has recieved 3 Crystal Key from Chaos Druid.

---2016/07/18 16:44:30---
Iron Josh has recieved 24 Mind Rune from Chaos Druid.

---2016/07/18 16:44:30---
Iron Josh has recieved 27 Body Rune from Chaos Druid.

---2016/07/18 16:58:15---
Iron Josh has recieved 1 Adamant Scimitar from Chaos Druid.

---2016/07/18 16:58:15---
Iron Josh has recieved 1 Clue Scroll (Medium) from Chaos Druid.

---2016/07/18 16:58:15---
Iron Josh has recieved 5 Mithril Bolts from Chaos Druid.

---2016/07/18 16:58:15---
Iron Josh has recieved 300 Steel Arrow from Chaos Druid.

---2016/07/18 16:58:15---
Iron Josh has recieved 1 Tooth Half Of Key from Chaos Druid.

---2016/07/18 16:58:15---
Iron Josh has recieved 1 Enchanted Gem from Chaos Druid.

---2016/07/18 16:58:15---
Iron Josh has recieved 34 Air Rune from Chaos Druid.

---2016/07/18 17:10:24---
Iron Josh has recieved 20 Chaos Rune from Fire Giant.

---2016/07/18 17:10:24---
Iron Josh has recieved 1 Rune Boots from Fire Giant.

---2016/07/18 17:10:24---
Iron Josh has recieved 1 Adamant Scimitar from Fire Giant.

---2016/07/18 17:10:24---
Iron Josh has recieved 85 Coins from Fire Giant.

---2016/07/18 17:10:24---
Iron Josh has recieved 10 Big Bones from Fire Giant.

---2016/07/18 17:10:24---
Iron Josh has recieved 300 Steel Arrow from Fire Giant.

---2016/07/18 17:10:24---
Iron Josh has recieved 37 Fire Rune from Fire Giant.

---2016/07/18 17:10:24---
Iron Josh has recieved 1 Loop Half Of Key from Fire Giant.

---2016/07/20 16:39:48---
Iron Josh has recieved 20 Chaos Rune from Moss Giant.

---2016/07/20 16:39:48---
Iron Josh has recieved 1 Rune Boots from Moss Giant.

---2016/07/20 16:39:48---
Iron Josh has recieved 1 Adamant Scimitar from Moss Giant.

---2016/07/20 16:39:48---
Iron Josh has recieved 122 Coins from Moss Giant.

---2016/07/20 16:39:48---
Iron Josh has recieved 2 Big Bones from Moss Giant.

---2016/07/20 16:39:48---
Iron Josh has recieved 300 Steel Arrow from Moss Giant.

---2016/07/20 16:39:48---
Iron Josh has recieved 224 Fire Rune from Moss Giant.

---2016/07/20 16:39:48---
Iron Josh has recieved 100 Silver Ore from Moss Giant.

---2016/07/20 16:39:48---
Iron Josh has recieved 1 Loop Half Of Key from Moss Giant.

---2016/07/20 16:39:48---
Iron Josh has recieved 1 Enchanted Gem from Moss Giant.

---2016/07/20 16:39:48---
Iron Josh has recieved 27 Earth Rune from Moss Giant.

---2016/07/20 16:39:48---
Iron Josh has recieved 1 Rune Spear from Moss Giant.

---2016/07/22 23:00:58---
Iron Josh has recieved 39 Death Rune from Abyssal Scion.

---2016/07/22 23:00:58---
Iron Josh has recieved 1 Abyssal Book from Abyssal Scion.

---2016/07/22 23:00:58---
Iron Josh has recieved 92 Pure Essence from Abyssal Scion.

---2016/07/22 23:00:58---
Iron Josh has recieved 1 Damaged Unholy Book from Abyssal Scion.

---2016/07/22 23:00:58---
Iron Josh has recieved 3533 Bronze Arrow from Abyssal Scion.

---2016/07/22 23:00:58---
Iron Josh has recieved 1 Rune Boots from Abyssal Scion.

---2016/07/22 23:00:58---
Iron Josh has recieved 1 Amulet Of Power from Abyssal Scion.

---2016/07/22 23:00:58---
Iron Josh has recieved 1 Clue Scroll (Easy) from Abyssal Scion.

---2016/07/22 23:00:58---
Iron Josh has recieved 1 Green D'Hide Body from Abyssal Scion.

---2016/07/22 23:05:07---
Iron Josh has recieved 39 Death Rune from Abyssal Scion.

---2016/07/22 23:05:07---
Iron Josh has recieved 1 Abyssal Book from Abyssal Scion.

---2016/07/22 23:05:07---
Iron Josh has recieved 1 Ashes from Abyssal Scion.

---2016/07/22 23:05:07---
Iron Josh has recieved 137 Pure Essence from Abyssal Scion.

---2016/07/22 23:05:07---
Iron Josh has recieved 1 Damaged Unholy Book from Abyssal Scion.

---2016/07/22 23:05:07---
Iron Josh has recieved 3533 Bronze Arrow from Abyssal Scion.

---2016/07/22 23:05:07---
Iron Josh has recieved 1 Rune Boots from Abyssal Scion.

---2016/07/22 23:05:07---
Iron Josh has recieved 1 Amulet Of Power from Abyssal Scion.

---2016/07/22 23:05:07---
Iron Josh has recieved 1 Rune Full Helm from Abyssal Scion.

---2016/07/22 23:05:07---
Iron Josh has recieved 1 Clue Scroll (Easy) from Abyssal Scion.

---2016/07/22 23:05:07---
Iron Josh has recieved 1 Green D'Hide Body from Abyssal Scion.

---2016/07/22 23:10:04---
Iron Josh has recieved 52 Death Rune from Abyssal Scion.

---2016/07/22 23:10:04---
Iron Josh has recieved 1 Abyssal Book from Abyssal Scion.

---2016/07/22 23:10:04---
Iron Josh has recieved 149 Pure Essence from Abyssal Scion.

---2016/07/22 23:10:04---
Iron Josh has recieved 1 Damaged Unholy Book from Abyssal Scion.

---2016/07/22 23:10:04---
Iron Josh has recieved 3533 Bronze Arrow from Abyssal Scion.

---2016/07/22 23:10:04---
Iron Josh has recieved 1 Rune Boots from Abyssal Scion.

---2016/07/22 23:10:04---
Iron Josh has recieved 1 Amulet Of Power from Abyssal Scion.

---2016/07/22 23:10:04---
Iron Josh has recieved 29479 Coins from Abyssal Scion.

---2016/07/22 23:10:04---
Iron Josh has recieved 2 Rune Full Helm from Abyssal Scion.

---2016/07/22 23:10:04---
Iron Josh has recieved 2 Rune Med Helm from Abyssal Scion.

---2016/07/22 23:10:04---
Iron Josh has recieved 1 Clue Scroll (Easy) from Abyssal Scion.

---2016/07/22 23:10:04---
Iron Josh has recieved 2 Green D'Hide Body from Abyssal Scion.

---2016/07/22 23:32:18---
Iron Josh has recieved 13 Death Rune from Abyssal Scion.

---2016/07/22 23:32:18---
Iron Josh has recieved 1 Damaged Unholy Book from Abyssal Scion.

---2016/07/22 23:32:18---
Iron Josh has recieved 3533 Bronze Arrow from Abyssal Scion.

---2016/07/22 23:32:18---
Iron Josh has recieved 1 Amulet Of Power from Abyssal Scion.

---2016/07/22 23:32:18---
Iron Josh has recieved 7662 Coins from Abyssal Scion.

---2016/07/22 23:32:18---
Iron Josh has recieved 11 Lobster from Abyssal Scion.

---2016/07/22 23:37:35---
Iron Josh has recieved 23 Death Rune from Abyssal Scion.

---2016/07/22 23:37:35---
Iron Josh has recieved 1 Damaged Unholy Book from Abyssal Scion.

---2016/07/22 23:37:35---
Iron Josh has recieved 3533 Bronze Arrow from Abyssal Scion.

---2016/07/22 23:37:35---
Iron Josh has recieved 1 Rune Boots from Abyssal Scion.

---2016/07/22 23:37:35---
Iron Josh has recieved 1 Amulet Of Power from Abyssal Scion.

---2016/07/22 23:37:35---
Iron Josh has recieved 7662 Coins from Abyssal Scion.

---2016/07/22 23:37:35---
Iron Josh has recieved 2 Rune Full Helm from Abyssal Scion.

---2016/07/22 23:37:35---
Iron Josh has recieved 1 Green D'Hide Chaps from Abyssal Scion.

---2016/07/22 23:37:35---
Iron Josh has recieved 24 Lobster from Abyssal Scion.

---2016/07/22 23:37:35---
Iron Josh has recieved 1 Crystal Key from Abyssal Scion.

---2016/07/22 23:37:35---
Iron Josh has recieved 1 Green D'Hide Body from Abyssal Scion.

---2016/07/26 15:24:30---
Iron Josh has recieved 1 Damaged Unholy Book from Blue Dragon.

---2016/07/26 15:24:30---
Iron Josh has recieved 6215 Bronze Arrow from Blue Dragon.

---2016/07/26 15:24:30---
Iron Josh has recieved 2 Lobster from Blue Dragon.

---2016/07/27 20:00:04---
Iron Josh has recieved 1 Damaged Unholy Book from Demonic Gorilla.

---2016/07/27 20:00:04---
Iron Josh has recieved 6109 Bronze Arrow from Demonic Gorilla.

---2016/07/27 20:00:04---
Iron Josh has recieved 1 Amulet Of Power from Demonic Gorilla.

---2016/07/27 20:00:04---
Iron Josh has recieved 4 Lobster from Demonic Gorilla.

---2016/07/27 20:00:04---
Iron Josh has recieved 17 Runite Bar from Demonic Gorilla.
