
---2016/08/14 23:02:17---
Iron Boats has recieved 25 Bronze Arrow from Rock Crab.

---2016/08/14 23:02:17---
Iron Boats has recieved 1 Enchanted Gem from Rock Crab.

---2016/08/14 23:04:08---
Iron Boats has recieved 23 Bronze Arrow from Rock Crab.

---2016/08/14 23:04:08---
Iron Boats has recieved 1 Enchanted Gem from Rock Crab.

---2016/08/14 23:33:20---
Iron Boats has recieved 464 Bronze Arrow from Abyssal Spawn.

---2016/08/14 23:35:14---
Iron Boats has recieved 462 Bronze Arrow from Abyssal Spawn.
