
---2016/07/23 05:19:17---
Iron Night has recieved 26 Lobster from Rock Crab.

---2016/07/23 05:19:17---
Iron Night has recieved 1 Bronze Sword from Rock Crab.

---2016/07/27 23:02:25---
Iron Night has recieved 1 Crystal Halberd Full from Nightraptor.

---2016/07/27 23:16:36---
Iron Night has recieved 1 Unstrung Heavy Ballista from Nightraptor.

---2016/07/27 23:16:36---
Iron Night has recieved 1 Mysterious Emblem (Tier 3) from Nightraptor.

---2016/07/27 23:46:47---
Nightraptor has dropped 565 Pure Essence for Nightraptor.

---2016/08/11 01:17:46---
Iron Night has recieved 1 Rune Sq Shield from Cave Kraken.

---2016/08/11 01:17:46---
Iron Night has recieved 1 Black D'Hide Chaps from Cave Kraken.

---2016/08/11 01:17:46---
Iron Night has recieved 2 Vial from Cave Kraken.

---2016/08/11 01:17:46---
Iron Night has recieved 1 Black D'Hide Body from Cave Kraken.

---2016/08/11 01:17:46---
Iron Night has recieved 1 Slayer Bell from Cave Kraken.

---2016/08/11 01:17:46---
Iron Night has recieved 1 Ranging Potion(2) from Cave Kraken.

---2016/08/11 01:17:46---
Iron Night has recieved 1 Ring Of Wealth from Cave Kraken.

---2016/08/11 01:17:46---
Iron Night has recieved 1 Dragonstone from Cave Kraken.

---2016/08/11 01:17:46---
Iron Night has recieved 2 Super Restore(4) from Cave Kraken.

---2016/08/11 01:17:46---
Iron Night has recieved 30 Death Rune from Cave Kraken.

---2016/08/11 01:17:46---
Iron Night has recieved 30 Swamp Tar from Cave Kraken.

---2016/08/11 01:17:46---
Iron Night has recieved 1 Snakeskin Boots from Cave Kraken.

---2016/08/11 01:17:46---
Iron Night has recieved 1413 Dragon Javelin from Cave Kraken.

---2016/08/11 01:17:46---
Iron Night has recieved 20 Adamant Javelin from Cave Kraken.

---2016/08/11 16:32:35---
Iron Night has recieved 2 Super Restore(4) from Nezikchened.

---2016/08/11 16:32:35---
Iron Night has recieved 2674 Ashes from Nezikchened.

---2016/08/11 16:32:35---
Iron Night has recieved 36 Anglerfish from Nezikchened.

---2016/08/11 16:32:35---
Iron Night has recieved 1 Dragon Halberd from Nezikchened.

---2016/08/11 16:32:35---
Iron Night has recieved 1 Snakeskin Boots from Nezikchened.

---2016/08/11 16:32:35---
Iron Night has recieved 27 Lava Dragon Bones from Nezikchened.

---2016/08/11 16:32:35---
Iron Night has recieved 1 Dragon Impling Jar from Nezikchened.

---2016/08/11 16:32:35---
Iron Night has recieved 1 Ranging Potion(3) from Nezikchened.

---2016/08/11 16:32:35---
Iron Night has recieved 1 Ring Of Wealth from Nezikchened.

---2016/08/11 16:32:35---
Iron Night has recieved 1380 Dragon Javelin from Nezikchened.

---2016/08/11 16:32:35---
Iron Night has recieved 1 Crystal Key from Nezikchened.

---2016/08/11 16:32:35---
Iron Night has recieved 19 Black Dragon Leather from Nezikchened.

---2016/08/12 05:19:27---
Iron Night has recieved 1 Super Restore(4) from Nezikchened.

---2016/08/12 05:19:27---
Iron Night has recieved 4 Super Restore(3) from Nezikchened.

---2016/08/12 05:19:27---
Iron Night has recieved 2 Super Restore(2) from Nezikchened.

---2016/08/12 05:19:27---
Iron Night has recieved 1 Snakeskin Boots from Nezikchened.

---2016/08/12 05:19:27---
Iron Night has recieved 1 Ranging Potion(2) from Nezikchened.

---2016/08/12 05:19:27---
Iron Night has recieved 1 Ring Of Wealth from Nezikchened.

---2016/08/12 05:19:27---
Iron Night has recieved 1327 Dragon Javelin from Nezikchened.
