
---2016/08/07 14:24:51---
Kella has recieved 1 Amulet Of Glory(4) from Smoke Devil.

---2016/08/07 14:24:51---
Kella has recieved 1 Black D'Hide Chaps from Smoke Devil.

---2016/08/07 14:24:51---
Kella has recieved 1 Snakeskin Boots from Smoke Devil.

---2016/08/07 14:24:51---
Kella has recieved 1 Super Combat Potion(3) from Smoke Devil.

---2016/08/07 14:24:51---
Kella has recieved 23 Monkfish from Smoke Devil.

---2016/08/07 14:24:51---
Kella has recieved 1 Black D'Hide Vamb from Smoke Devil.

---2016/08/07 14:24:51---
Kella has recieved 179 Rune Javelin from Smoke Devil.
