
---2016/07/08 21:45:25---
Klepto1 has recieved 1 Amulet Of Glory(4) from Rock Crab.

---2016/07/08 21:45:25---
Klepto1 has recieved 1 Slave Robetop from Rock Crab.

---2016/07/08 21:45:25---
Klepto1 has recieved 1 Slave Boots from Rock Crab.
