
---2016/06/29 20:27:14---
Kyul has recieved 1 Amulet Of Glory(4) from Ricci1337.

---2016/06/29 20:27:14---
Kyul has recieved 1 Mystic Boots from Ricci1337.

---2016/06/29 20:27:14---
Kyul has recieved 5 Prayer Potion(4) from Ricci1337.

---2016/06/29 20:27:14---
Kyul has recieved 1 Super Attack(4) from Ricci1337.

---2016/06/29 20:27:14---
Kyul has recieved 1 Anti-Dragon Shield from Ricci1337.

---2016/06/29 20:27:14---
Kyul has recieved 278 Thread from Ricci1337.

---2016/06/29 20:27:14---
Kyul has recieved 1 Super Strength(4) from Ricci1337.

---2016/06/29 20:27:14---
Kyul has recieved 1 Mystic Hat from Ricci1337.

---2016/06/29 20:27:14---
Kyul has recieved 1 Staff Of Fire from Ricci1337.

---2016/06/29 20:27:14---
Kyul has recieved 6 Lobster from Ricci1337.

---2016/06/30 20:55:07---
Shreadmaster has dropped 1 Prayer Potion(4) for Shreadmaster.

---2016/06/30 20:55:07---
Shreadmaster has dropped 1 Anti-Dragon Shield for Shreadmaster.

---2016/06/30 20:55:07---
Shreadmaster has dropped 1 Staff Of Air for Shreadmaster.

---2016/06/30 20:55:07---
Shreadmaster has dropped 1 Proselyte Hauberk for Shreadmaster.

---2016/06/30 20:55:07---
Shreadmaster has dropped 1 Farseer Helm for Shreadmaster.

---2016/06/30 20:55:07---
Shreadmaster has dropped 1 Mystic Boots (Dark) for Shreadmaster.

---2016/06/30 20:55:07---
Shreadmaster has dropped 100 Water Rune for Shreadmaster.

---2016/06/30 20:55:07---
Shreadmaster has dropped 1 Proselyte Cuisse for Shreadmaster.

---2016/06/30 20:55:07---
Shreadmaster has dropped 114 Earth Rune for Shreadmaster.

---2016/06/30 20:55:07---
Shreadmaster has dropped 1574 Mind Rune for Shreadmaster.

---2016/06/30 20:55:07---
Shreadmaster has dropped 1 Amulet Of Glory(4) for Shreadmaster.

---2016/06/30 20:55:07---
Shreadmaster has dropped 36 Nature Rune for Shreadmaster.

---2016/06/30 20:55:07---
Shreadmaster has dropped 1 Super Combat Potion(4) for Shreadmaster.

---2016/06/30 20:55:07---
Shreadmaster has dropped 4 Lobster for Shreadmaster.

---2016/06/30 20:55:07---
Shreadmaster has dropped 1 Dragon Dagger for Shreadmaster.

---2016/06/30 20:55:52---
Four has dropped 1 Climbing Boots for Four.

---2016/06/30 20:55:52---
Four has dropped 1 Prayer Potion(4) for Four.

---2016/06/30 20:55:52---
Four has dropped 1 Black D'Hide Body for Four.

---2016/06/30 20:55:52---
Four has dropped 1 Staff Of Water for Four.

---2016/06/30 20:55:52---
Four has dropped 1 Dragon Scimitar for Four.

---2016/06/30 20:55:52---
Four has dropped 1 Prayer Potion(3) for Four.

---2016/06/30 20:55:52---
Four has dropped 1 Helm Of Neitiznot for Four.

---2016/06/30 20:55:52---
Four has dropped 9 Sea Turtle for Four.

---2016/06/30 20:55:52---
Four has dropped 1 Ranging Potion(1) for Four.

---2016/06/30 20:55:52---
Four has dropped 68 Death Rune for Four.

---2016/06/30 20:55:52---
Four has dropped 1 Amulet Of Glory(4) for Four.

---2016/06/30 20:55:52---
Four has dropped 127 Chaos Rune for Four.

---2016/06/30 20:55:52---
Four has dropped 1 Saradomin Plateskirt for Four.

---2016/06/30 20:55:52---
Four has dropped 98 Rune Arrow for Four.

---2016/06/30 20:55:52---
Four has dropped 1 Mystic Robe Bottom for Four.

---2016/06/30 20:55:52---
Four has dropped 1 Magic Shortbow for Four.

---2016/06/30 20:55:52---
Four has dropped 1 Super Combat Potion(1) for Four.

---2016/06/30 20:55:52---
Four has dropped 1 Dragon Dagger for Four.

---2016/06/30 20:57:53---
Inflexion has dropped 1 Rune Crossbow for Inflexion.

---2016/06/30 20:57:53---
Inflexion has dropped 1 Black D'Hide Chaps for Inflexion.

---2016/06/30 20:57:53---
Inflexion has dropped 1 Shark for Inflexion.

---2016/06/30 20:57:53---
Inflexion has dropped 1 Prayer Potion(4) for Inflexion.

---2016/06/30 20:57:53---
Inflexion has dropped 1 Anti-Dragon Shield for Inflexion.

---2016/06/30 20:57:53---
Inflexion has dropped 1 Black D'Hide Body for Inflexion.

---2016/06/30 20:57:53---
Inflexion has dropped 1 Dragon Scimitar for Inflexion.

---2016/06/30 20:57:53---
Inflexion has dropped 1 Ranging Potion(2) for Inflexion.

---2016/06/30 20:57:53---
Inflexion has dropped 1 Prayer Potion(3) for Inflexion.

---2016/06/30 20:57:53---
Inflexion has dropped 1 Helm Of Neitiznot for Inflexion.

---2016/06/30 20:57:53---
Inflexion has dropped 1 Amulet Of Glory(4) for Inflexion.

---2016/06/30 20:57:53---
Inflexion has dropped 12 Runite Bolts for Inflexion.

---2016/06/30 20:57:53---
Inflexion has dropped 1 Antifire Potion(2) for Inflexion.

---2016/06/30 20:57:53---
Inflexion has dropped 1 Super Strength(3) for Inflexion.

---2016/06/30 20:57:53---
Inflexion has dropped 1 Dragon Dagger for Inflexion.

---2016/06/30 21:02:04---
B0nesawpk has dropped 1 Amulet Of Glory(4) for B0nesawpk.

---2016/06/30 21:02:04---
B0nesawpk has dropped 1 Black D'Hide Chaps for B0nesawpk.

---2016/06/30 21:02:04---
B0nesawpk has dropped 1 Anti-Dragon Shield for B0nesawpk.

---2016/06/30 21:02:04---
B0nesawpk has dropped 1 Snakeskin Boots for B0nesawpk.

---2016/06/30 21:02:04---
B0nesawpk has dropped 1 Black D'Hide Vamb for B0nesawpk.

---2016/06/30 21:02:04---
B0nesawpk has dropped 19 Rune Dart for B0nesawpk.

---2016/06/30 21:16:26---
Jef has dropped 1 Black Dragonhide for Jef.

---2016/06/30 21:16:26---
Jef has dropped 1 Anti-Dragon Shield for Jef.

---2016/06/30 21:16:26---
Jef has dropped 1 Lava Dragon Bones for Jef.

---2016/06/30 21:16:26---
Jef has dropped 4 Lobster for Jef.

---2016/06/30 21:16:26---
Jef has dropped 70 Rune Javelin for Jef.

---2016/07/01 01:27:51---
Verlin has dropped 1 Amulet Of Glory(4) for Verlin.

---2016/07/01 01:27:51---
Verlin has dropped 1 Black D'Hide Chaps for Verlin.

---2016/07/01 01:27:51---
Verlin has dropped 21 Shark for Verlin.

---2016/07/01 01:27:51---
Verlin has dropped 1 Climbing Boots for Verlin.

---2016/07/01 01:27:51---
Verlin has dropped 3 Prayer Potion(4) for Verlin.

---2016/07/01 01:27:51---
Verlin has dropped 1 Anti-Dragon Shield for Verlin.

---2016/07/01 01:27:51---
Verlin has dropped 1 Lava Dragon Bones for Verlin.

---2016/07/01 01:27:51---
Verlin has dropped 332 Adamant Bolts for Verlin.

---2016/07/01 01:27:51---
Verlin has dropped 1 Ranging Potion(3) for Verlin.

---2016/07/01 01:27:51---
Verlin has dropped 1 Bronze Scimitar for Verlin.

---2016/07/01 01:27:51---
Verlin has dropped 1 Ranging Potion(4) for Verlin.

---2016/07/02 00:10:18---
Kyul has recieved 4 Shark from Dharok The Wretched.

---2016/07/02 00:10:18---
Kyul has recieved 1 Prayer Potion(4) from Dharok The Wretched.

---2016/07/02 00:10:18---
Kyul has recieved 13557851 Coins from Dharok The Wretched.

---2016/07/02 00:10:18---
Kyul has recieved 3 Super Attack(4) from Dharok The Wretched.

---2016/07/02 00:10:18---
Kyul has recieved 1 Amulet Of Glory from Dharok The Wretched.

---2016/07/02 00:10:18---
Kyul has recieved 3 Super Strength(4) from Dharok The Wretched.

---2016/07/02 00:10:18---
Kyul has recieved 1 Proselyte Hauberk from Dharok The Wretched.

---2016/07/02 00:10:18---
Kyul has recieved 1 Prayer Potion(3) from Dharok The Wretched.

---2016/07/02 00:10:18---
Kyul has recieved 1 Ring Of Wealth from Dharok The Wretched.

---2016/07/02 00:10:18---
Kyul has recieved 1 Proselyte Cuisse from Dharok The Wretched.

---2016/07/02 00:10:18---
Kyul has recieved 1 Prayer Potion(2) from Dharok The Wretched.

---2016/07/02 00:10:18---
Kyul has recieved 1 Spade from Dharok The Wretched.

---2016/07/02 00:10:18---
Kyul has recieved 1 Super Combat Potion(3) from Dharok The Wretched.

---2016/07/02 00:10:18---
Kyul has recieved 1 Tooth Half Of Key from Dharok The Wretched.

---2016/07/02 00:10:18---
Kyul has recieved 336 Rune Arrow from Dharok The Wretched.

---2016/07/02 00:10:18---
Kyul has recieved 1 Crystal Key from Dharok The Wretched.

---2016/07/03 02:24:40---
Kyul has recieved 7 Super Restore(4) from Abyssal Monarch.

---2016/07/03 02:24:40---
Kyul has recieved 1 Shark from Abyssal Monarch.

---2016/07/03 02:24:40---
Kyul has recieved 1 Super Attack(3) from Abyssal Monarch.

---2016/07/03 02:24:40---
Kyul has recieved 1 Super Restore(2) from Abyssal Monarch.

---2016/07/03 02:24:40---
Kyul has recieved 1 Amulet Of Glory from Abyssal Monarch.

---2016/07/03 02:24:40---
Kyul has recieved 1 Proselyte Hauberk from Abyssal Monarch.

---2016/07/03 02:24:40---
Kyul has recieved 1 Ring Of Wealth from Abyssal Monarch.

---2016/07/03 02:24:40---
Kyul has recieved 1 Proselyte Cuisse from Abyssal Monarch.

---2016/07/03 02:24:40---
Kyul has recieved 266 Rune Arrow from Abyssal Monarch.

---2016/07/03 02:24:40---
Kyul has recieved 1 Super Strength(3) from Abyssal Monarch.
