
---2016/07/08 23:02:21---
Legitimate has recieved 1 Black D'Hide Chaps from King Black Dragon.

---2016/07/08 23:02:21---
Legitimate has recieved 2 Prayer Potion(4) from King Black Dragon.

---2016/07/08 23:02:21---
Legitimate has recieved 1 Anti-Dragon Shield from King Black Dragon.

---2016/07/08 23:02:21---
Legitimate has recieved 1 Vial from King Black Dragon.

---2016/07/08 23:02:21---
Legitimate has recieved 1 Ranging Potion(3) from King Black Dragon.

---2016/07/08 23:02:21---
Legitimate has recieved 1 Prayer Potion(3) from King Black Dragon.

---2016/07/08 23:02:21---
Legitimate has recieved 150 Yew Logs from King Black Dragon.

---2016/07/08 23:02:21---
Legitimate has recieved 1 Prayer Potion(2) from King Black Dragon.

---2016/07/08 23:02:21---
Legitimate has recieved 1 Amulet Of Glory(4) from King Black Dragon.

---2016/07/08 23:02:21---
Legitimate has recieved 46 Runite Bolts from King Black Dragon.

---2016/07/08 23:02:21---
Legitimate has recieved 1 Snakeskin Boots from King Black Dragon.

---2016/07/08 23:02:21---
Legitimate has recieved 1 Black D'Hide Vamb from King Black Dragon.

---2016/07/08 23:02:21---
Legitimate has recieved 1 Loop Half Of Key from King Black Dragon.

---2016/07/08 23:05:32---
Legitimate has recieved 1 Black D'Hide Chaps from King Black Dragon.

---2016/07/08 23:05:32---
Legitimate has recieved 2 Prayer Potion(4) from King Black Dragon.

---2016/07/08 23:05:32---
Legitimate has recieved 1 Anti-Dragon Shield from King Black Dragon.

---2016/07/08 23:05:32---
Legitimate has recieved 1 Vial from King Black Dragon.

---2016/07/08 23:05:32---
Legitimate has recieved 1 Ranging Potion(2) from King Black Dragon.

---2016/07/08 23:05:32---
Legitimate has recieved 1 Prayer Potion(3) from King Black Dragon.

---2016/07/08 23:05:32---
Legitimate has recieved 150 Yew Logs from King Black Dragon.

---2016/07/08 23:05:32---
Legitimate has recieved 1 Prayer Potion(2) from King Black Dragon.

---2016/07/08 23:05:32---
Legitimate has recieved 1 Amulet Of Glory(4) from King Black Dragon.

---2016/07/08 23:05:32---
Legitimate has recieved 1 Dragon Bones from King Black Dragon.

---2016/07/08 23:05:32---
Legitimate has recieved 44 Runite Bolts from King Black Dragon.

---2016/07/08 23:05:32---
Legitimate has recieved 1 Snakeskin Boots from King Black Dragon.

---2016/07/08 23:05:32---
Legitimate has recieved 1 Black D'Hide Vamb from King Black Dragon.

---2016/07/08 23:05:32---
Legitimate has recieved 1 Loop Half Of Key from King Black Dragon.
