
---2016/07/18 22:24:38---
Lol Omg has recieved 1 Rune Kiteshield from Ancient Gorilla.

---2016/07/18 22:24:38---
Lol Omg has recieved 21 Shark from Ancient Gorilla.

---2016/07/18 22:24:38---
Lol Omg has recieved 3 Prayer Potion(4) from Ancient Gorilla.

---2016/07/18 22:24:38---
Lol Omg has recieved 1 Rune Boots from Ancient Gorilla.

---2016/07/18 22:24:38---
Lol Omg has recieved 1 Rune Platebody from Ancient Gorilla.

---2016/07/18 22:24:38---
Lol Omg has recieved 1 Rune Platelegs from Ancient Gorilla.

---2016/07/18 22:24:38---
Lol Omg has recieved 1 Super Combat Potion(2) from Ancient Gorilla.

---2016/07/18 22:24:38---
Lol Omg has recieved 1 Prayer Potion(3) from Ancient Gorilla.

---2016/07/18 22:24:38---
Lol Omg has recieved 1 Helm Of Neitiznot from Ancient Gorilla.

---2016/07/18 22:24:38---
Lol Omg has recieved 70 Rune Arrow from Ancient Gorilla.

---2016/07/24 04:07:31---
Lol Omg has recieved 1 Dragon chainbody from Smoke Devil.

---2016/07/25 05:15:40---
Lol Omg has recieved 17 Anglerfish from Ancient Gorilla.

---2016/07/25 05:15:40---
Lol Omg has recieved 3 Prayer Potion(4) from Ancient Gorilla.

---2016/07/25 05:15:40---
Lol Omg has recieved 1 Snakeskin Boots from Ancient Gorilla.

---2016/07/25 05:15:40---
Lol Omg has recieved 2 Cooked Karambwan from Ancient Gorilla.

---2016/07/25 05:15:40---
Lol Omg has recieved 1 Ranging Potion(3) from Ancient Gorilla.

---2016/07/25 05:15:40---
Lol Omg has recieved 1 Prayer Potion(3) from Ancient Gorilla.

---2016/07/25 05:15:40---
Lol Omg has recieved 994 Rune Arrow from Ancient Gorilla.

---2016/07/25 09:22:04---
Lol Omg has recieved 18 Anglerfish from Callisto.

---2016/07/25 09:22:04---
Lol Omg has recieved 8 Prayer Potion(4) from Callisto.

---2016/07/25 09:22:04---
Lol Omg has recieved 1 Snakeskin Boots from Callisto.

---2016/07/25 09:22:04---
Lol Omg has recieved 1 Ranging Potion(3) from Callisto.

---2016/07/25 09:22:04---
Lol Omg has recieved 1 Prayer Potion(3) from Callisto.

---2016/07/25 09:22:04---
Lol Omg has recieved 993 Rune Arrow from Callisto.

---2016/07/27 05:00:59---
Sluge has dropped 4 Super Restore(4) for Sluge.

---2016/07/27 05:00:59---
Sluge has dropped 17 Anglerfish for Sluge.

---2016/07/27 05:00:59---
Sluge has dropped 1 Snakeskin Boots for Sluge.

---2016/07/27 05:00:59---
Sluge has dropped 1 Super Combat Potion(3) for Sluge.

---2016/07/27 05:00:59---
Sluge has dropped 1 Ranging Potion(2) for Sluge.

---2016/07/27 05:00:59---
Sluge has dropped 297 Dragon Javelin for Sluge.

---2016/07/27 05:02:17---
Lol Omg has recieved 1 Super Restore(4) from Sluge.

---2016/07/27 05:02:17---
Lol Omg has recieved 16 Anglerfish from Sluge.

---2016/07/27 05:02:17---
Lol Omg has recieved 1 Saradomin Brew(2) from Sluge.

---2016/07/27 05:02:17---
Lol Omg has recieved 2 Super Restore(3) from Sluge.

---2016/07/27 05:02:17---
Lol Omg has recieved 1 Snakeskin Boots from Sluge.

---2016/07/27 05:02:17---
Lol Omg has recieved 2 Cooked Karambwan from Sluge.

---2016/07/27 05:02:17---
Lol Omg has recieved 1 Ranging Potion(3) from Sluge.

---2016/07/27 05:02:17---
Lol Omg has recieved 1 Necklace Of Anguish from Sluge.

---2016/07/27 05:02:17---
Lol Omg has recieved 36 Dragon Javelin from Sluge.

---2016/07/27 05:02:17---
Lol Omg has recieved 997 Rune Arrow from Sluge.

---2016/07/27 05:02:17---
Lol Omg has recieved 1 Archers Ring from Sluge.

---2016/07/27 05:02:17---
Lol Omg has recieved 1 Saradomin Brew(4) from Sluge.

---2016/07/27 05:06:14---
Sluge has dropped 3 Super Restore(4) for Sluge.

---2016/07/27 05:06:14---
Sluge has dropped 1 Abyssal Dagger for Sluge.

---2016/07/27 05:06:14---
Sluge has dropped 1 Amulet Of Torture for Sluge.

---2016/07/27 05:06:14---
Sluge has dropped 18 Anglerfish for Sluge.

---2016/07/27 05:06:14---
Sluge has dropped 1 Snakeskin Boots for Sluge.

---2016/07/27 05:06:14---
Sluge has dropped 1 Heavy Ballista for Sluge.

---2016/07/27 05:06:14---
Sluge has dropped 1 Super Combat Potion(3) for Sluge.

---2016/07/27 05:06:14---
Sluge has dropped 1 Ranging Potion(2) for Sluge.

---2016/07/27 05:06:14---
Sluge has dropped 288 Dragon Javelin for Sluge.

---2016/07/27 10:06:03---
Lol Omg has recieved 3 Super Restore(4) from General Graardor.

---2016/07/27 10:06:03---
Lol Omg has recieved 1 Shark from General Graardor.

---2016/07/27 10:06:03---
Lol Omg has recieved 11 Anglerfish from General Graardor.

---2016/07/27 10:06:03---
Lol Omg has recieved 1 Saradomin Brew(2) from General Graardor.

---2016/07/27 10:06:03---
Lol Omg has recieved 1 Saradomin Brew(1) from General Graardor.

---2016/07/27 10:06:03---
Lol Omg has recieved 1 Snakeskin Boots from General Graardor.

---2016/07/27 10:06:03---
Lol Omg has recieved 1 Necklace Of Anguish from General Graardor.

---2016/07/27 10:06:03---
Lol Omg has recieved 1 Ring Of Wealth from General Graardor.

---2016/07/27 10:06:03---
Lol Omg has recieved 34 Dragon Javelin from General Graardor.

---2016/07/27 10:06:03---
Lol Omg has recieved 2 Saradomin Brew(4) from General Graardor.

---2016/07/27 10:06:03---
Lol Omg has recieved 1 Godsword Shard 3 from General Graardor.

---2016/07/28 00:27:45---
Lol Omg has recieved 1 Amulet Of Torture from Demonic Gorilla.

---2016/07/28 00:27:45---
Lol Omg has recieved 1 Saradomin Brew(2) from Demonic Gorilla.

---2016/07/28 00:27:45---
Lol Omg has recieved 3 Anglerfish from Demonic Gorilla.

---2016/07/28 00:27:45---
Lol Omg has recieved 1 Saradomin Brew(1) from Demonic Gorilla.

---2016/07/28 00:27:45---
Lol Omg has recieved 3 Vial from Demonic Gorilla.

---2016/07/28 00:27:45---
Lol Omg has recieved 1 Ring Of Wealth from Demonic Gorilla.

---2016/07/28 00:27:45---
Lol Omg has recieved 1 Torag'S Platelegs from Demonic Gorilla.

---2016/07/28 00:27:45---
Lol Omg has recieved 1 Super Restore(4) from Demonic Gorilla.

---2016/07/28 00:27:45---
Lol Omg has recieved 1 Super Restore(1) from Demonic Gorilla.

---2016/07/28 00:27:45---
Lol Omg has recieved 1 Abyssal Whip from Demonic Gorilla.

---2016/07/28 00:27:45---
Lol Omg has recieved 1 Primordial Boots from Demonic Gorilla.

---2016/07/28 00:27:45---
Lol Omg has recieved 3 Saradomin Brew(4) from Demonic Gorilla.

---2016/07/28 00:27:45---
Lol Omg has recieved 2 Crystal Key from Demonic Gorilla.

---2016/07/28 00:27:45---
Lol Omg has recieved 2984 Rune Javelin from Demonic Gorilla.

---2016/07/28 05:28:04---
Lol Omg has recieved 3 Super Restore(4) from Corporeal Beast.

---2016/07/28 05:28:04---
Lol Omg has recieved 1 Amulet Of Torture from Corporeal Beast.

---2016/07/28 05:28:04---
Lol Omg has recieved 1 Berserker Ring from Corporeal Beast.

---2016/07/28 05:28:04---
Lol Omg has recieved 16 Anglerfish from Corporeal Beast.

---2016/07/28 05:28:04---
Lol Omg has recieved 1 Super Restore(3) from Corporeal Beast.

---2016/07/28 05:28:04---
Lol Omg has recieved 1 Crystal Halberd Full from Corporeal Beast.

---2016/07/28 05:28:04---
Lol Omg has recieved 1 Abyssal Whip from Corporeal Beast.

---2016/07/28 05:28:04---
Lol Omg has recieved 1 Super Combat Potion(4) from Corporeal Beast.

---2016/07/28 05:28:04---
Lol Omg has recieved 1 Primordial Boots from Corporeal Beast.

---2016/07/28 05:28:04---
Lol Omg has recieved 1 Super Combat Potion(3) from Corporeal Beast.

---2016/07/28 05:28:04---
Lol Omg has recieved 4 Saradomin Brew(4) from Corporeal Beast.

---2016/07/28 05:28:04---
Lol Omg has recieved 1 Saradomin Brew(3) from Corporeal Beast.

---2016/07/28 23:06:57---
I G0dz I has dropped 66 Death Rune for I G0dz I.

---2016/07/28 23:06:57---
I G0dz I has dropped 1 Amulet Of Glory(4) for I G0dz I.

---2016/07/28 23:06:57---
I G0dz I has dropped 14 Shark for I G0dz I.

---2016/07/28 23:06:57---
I G0dz I has dropped 1 Climbing Boots for I G0dz I.

---2016/07/28 23:06:57---
I G0dz I has dropped 2 Super Restore(3) for I G0dz I.

---2016/07/28 23:06:57---
I G0dz I has dropped 62 Astral Rune for I G0dz I.

---2016/07/28 23:06:57---
I G0dz I has dropped 2 Ring Of Recoil for I G0dz I.

---2016/07/28 23:06:57---
I G0dz I has dropped 2 Cooked Karambwan for I G0dz I.

---2016/07/28 23:06:57---
I G0dz I has dropped 1 Super Combat Potion(3) for I G0dz I.

---2016/07/28 23:06:57---
I G0dz I has dropped 1 Saradomin Brew(4) for I G0dz I.

---2016/07/28 23:06:57---
I G0dz I has dropped 80 Earth Rune for I G0dz I.

---2016/07/28 23:06:57---
I G0dz I has dropped 1 Saradomin Brew(3) for I G0dz I.

---2016/07/29 00:16:07---
Lol Omg has recieved 1 Super Restore(4) from Corporeal Beast.

---2016/07/29 00:16:07---
Lol Omg has recieved 1 Amulet Of Torture from Corporeal Beast.

---2016/07/29 00:16:07---
Lol Omg has recieved 1 Berserker Ring from Corporeal Beast.

---2016/07/29 00:16:07---
Lol Omg has recieved 1 Super Restore(3) from Corporeal Beast.

---2016/07/29 00:16:07---
Lol Omg has recieved 1 Crystal Halberd Full from Corporeal Beast.

---2016/07/29 00:16:07---
Lol Omg has recieved 3 Vial from Corporeal Beast.

---2016/07/29 00:16:07---
Lol Omg has recieved 1 Abyssal Tentacle from Corporeal Beast.

---2016/07/29 00:16:07---
Lol Omg has recieved 1 Primordial Boots from Corporeal Beast.

---2016/07/29 00:16:07---
Lol Omg has recieved 1 Ring Of Wealth from Corporeal Beast.

---2016/07/29 04:17:37---
Lol Omg has recieved 2 Super Restore(4) from Sluge.

---2016/07/29 04:17:37---
Lol Omg has recieved 1 Amulet Of Glory(4) from Sluge.

---2016/07/29 04:17:37---
Lol Omg has recieved 4 Anglerfish from Sluge.

---2016/07/29 04:17:37---
Lol Omg has recieved 1 Rune Boots from Sluge.

---2016/07/29 04:17:37---
Lol Omg has recieved 3 Vial from Sluge.

---2016/07/29 04:17:37---
Lol Omg has recieved 1 Rune Platebody from Sluge.

---2016/07/29 04:17:37---
Lol Omg has recieved 1 Rune Platelegs from Sluge.

---2016/07/29 04:17:37---
Lol Omg has recieved 1 Dragon Scimitar from Sluge.

---2016/07/29 04:17:37---
Lol Omg has recieved 1 Helm Of Neitiznot from Sluge.

---2016/07/29 04:17:37---
Lol Omg has recieved 1 Saradomin Brew(3) from Sluge.

---2016/07/29 04:30:19---
Sluge has dropped 1 Dragon Boots for Sluge.

---2016/07/29 04:30:19---
Sluge has dropped 1 Super Restore(4) for Sluge.

---2016/07/29 04:30:19---
Sluge has dropped 8 Anglerfish for Sluge.

---2016/07/29 04:30:19---
Sluge has dropped 1 Super Restore(3) for Sluge.

---2016/07/29 04:30:19---
Sluge has dropped 1 Super Restore(1) for Sluge.

---2016/07/29 04:30:19---
Sluge has dropped 1 Rune Platelegs for Sluge.

---2016/07/29 04:30:19---
Sluge has dropped 1 Saradomin Full Helm for Sluge.

---2016/07/29 04:30:19---
Sluge has dropped 1 Super Combat Potion(3) for Sluge.

---2016/07/29 04:30:19---
Sluge has dropped 1 Infernal Pickaxe for Sluge.

---2016/07/29 04:30:19---
Sluge has dropped 1 Saradomin Brew(3) for Sluge.

---2016/07/29 04:36:50---
Sluge has dropped 1 Dragon Boots for Sluge.

---2016/07/29 04:36:50---
Sluge has dropped 1 Super Restore(4) for Sluge.

---2016/07/29 04:36:50---
Sluge has dropped 1 Amulet Of Torture for Sluge.

---2016/07/29 04:36:50---
Sluge has dropped 1 Verac'S Helm for Sluge.

---2016/07/29 04:36:50---
Sluge has dropped 2 Anglerfish for Sluge.

---2016/07/29 04:36:50---
Sluge has dropped 1 Super Restore(3) for Sluge.

---2016/07/29 04:36:50---
Sluge has dropped 1 Super Combat Potion(2) for Sluge.

---2016/07/29 04:36:50---
Sluge has dropped 1 Saradomin Brew(3) for Sluge.

---2016/07/29 04:43:36---
Sluge has dropped 1 Dragon Boots for Sluge.

---2016/07/29 04:43:36---
Sluge has dropped 2 Super Restore(4) for Sluge.

---2016/07/29 04:43:36---
Sluge has dropped 16 Anglerfish for Sluge.

---2016/07/29 04:43:36---
Sluge has dropped 1 Super Restore(3) for Sluge.

---2016/07/29 04:43:36---
Sluge has dropped 1 Book Of Darkness for Sluge.

---2016/07/29 04:43:36---
Sluge has dropped 1 Yellow Robe Top for Sluge.

---2016/07/29 04:43:36---
Sluge has dropped 1 Yellow Robe Bottoms for Sluge.

---2016/07/29 04:43:36---
Sluge has dropped 1 Super Combat Potion(3) for Sluge.

---2016/07/29 04:43:36---
Sluge has dropped 1 Saradomin Brew(3) for Sluge.

---2016/07/29 04:49:59---
Lol Omg has recieved 2 Super Restore(4) from Sluge.

---2016/07/29 04:49:59---
Lol Omg has recieved 2 Saradomin Brew(2) from Sluge.

---2016/07/29 04:49:59---
Lol Omg has recieved 3 Anglerfish from Sluge.

---2016/07/29 04:49:59---
Lol Omg has recieved 2 Vial from Sluge.

---2016/07/29 04:49:59---
Lol Omg has recieved 2 Cooked Karambwan from Sluge.

---2016/07/29 04:49:59---
Lol Omg has recieved 1 Snakeskin Boots from Sluge.

---2016/07/29 04:49:59---
Lol Omg has recieved 1 Super Combat Potion(3) from Sluge.

---2016/07/29 04:49:59---
Lol Omg has recieved 18 Dragon Javelin from Sluge.

---2016/07/29 04:49:59---
Lol Omg has recieved 1 Archers Ring from Sluge.

---2016/07/30 06:41:26---
Sluge has dropped 1 Super Restore(4) for Sluge.

---2016/07/30 06:41:26---
Sluge has dropped 1 Shark for Sluge.

---2016/07/30 06:41:26---
Sluge has dropped 2 Super Restore(3) for Sluge.

---2016/07/30 06:41:26---
Sluge has dropped 38 Rune Knife for Sluge.

---2016/07/30 06:41:26---
Sluge has dropped 1 Vial for Sluge.

---2016/07/30 06:41:26---
Sluge has dropped 1 Odium Ward for Sluge.

---2016/07/30 06:41:26---
Sluge has dropped 1 Snakeskin Boots for Sluge.

---2016/07/30 06:41:26---
Sluge has dropped 219 Dragon Javelin for Sluge.

---2016/07/30 06:41:26---
Sluge has dropped 1 Saradomin Brew(4) for Sluge.

---2016/07/30 06:47:41---
Sluge has dropped 1 Dragon Boots for Sluge.

---2016/07/30 06:47:41---
Sluge has dropped 1 Amulet Of Torture for Sluge.

---2016/07/30 06:47:41---
Sluge has dropped 16 Shark for Sluge.

---2016/07/30 06:47:41---
Sluge has dropped 1 Super Restore(4) for Sluge.

---2016/07/30 06:47:41---
Sluge has dropped 1 Abyssal Dagger for Sluge.

---2016/07/30 06:47:41---
Sluge has dropped 1 Verac'S Helm for Sluge.

---2016/07/30 06:47:41---
Sluge has dropped 1 Super Restore(3) for Sluge.

---2016/07/30 06:47:41---
Sluge has dropped 1 Dragonfire Shield for Sluge.

---2016/07/30 06:47:41---
Sluge has dropped 1 Verac'S Brassard for Sluge.

---2016/07/30 06:47:41---
Sluge has dropped 1 Ring Of Recoil for Sluge.

---2016/07/30 06:47:41---
Sluge has dropped 1 Dragon Platelegs for Sluge.

---2016/07/30 06:47:41---
Sluge has dropped 1 Super Combat Potion(2) for Sluge.

---2016/07/30 06:47:41---
Sluge has dropped 1 Bandos Godsword for Sluge.

---2016/07/30 06:47:41---
Sluge has dropped 1 Saradomin Brew(3) for Sluge.

---2016/08/04 07:23:28---
Sluge has dropped 1 Cat Mask for Sluge.

---2016/08/04 07:23:28---
Sluge has dropped 1 Penguin Mask for Sluge.

---2016/08/11 23:05:04---
Lol Omg has recieved 16 Anglerfish from Callisto.

---2016/08/11 23:05:04---
Lol Omg has recieved 10 Prayer Potion(4) from Callisto.

---2016/08/11 23:05:04---
Lol Omg has recieved 1 Snakeskin Boots from Callisto.

---2016/08/11 23:05:04---
Lol Omg has recieved 2 Ranging Potion(4) from Callisto.

---2016/09/01 03:23:39---
Sluge has dropped 4 Dark Crab for Sluge.

---2016/09/01 03:23:39---
Sluge has dropped 4 Prayer Potion(4) for Sluge.

---2016/09/01 03:23:39---
Sluge has dropped 1 Primordial Boots for Sluge.

---2016/09/01 03:23:39---
Sluge has dropped 1 Amulet Of Fury for Sluge.

---2016/09/01 03:23:39---
Sluge has dropped 1 Super Combat Potion(3) for Sluge.
