
---2016/07/05 06:35:50---
Luchta has recieved 1 Amulet Of Glory(4) from Green Dragon.

---2016/07/05 06:35:50---
Luchta has recieved 1 Climbing Boots from Green Dragon.

---2016/07/05 06:35:50---
Luchta has recieved 1 Anti-Dragon Shield from Green Dragon.

---2016/07/05 06:35:50---
Luchta has recieved 4 Dragon Bones from Green Dragon.

---2016/07/05 06:35:50---
Luchta has recieved 1 Proselyte Hauberk from Green Dragon.

---2016/07/05 06:35:50---
Luchta has recieved 11 Monkfish from Green Dragon.

---2016/07/05 06:35:50---
Luchta has recieved 1 Enchanted Gem from Green Dragon.

---2016/07/05 06:35:50---
Luchta has recieved 1 Proselyte Cuisse from Green Dragon.
