
---2016/07/15 07:58:35---
Mithril Jr has recieved 1 Climbing Boots from Demonic Gorilla.

---2016/07/15 07:58:35---
Mithril Jr has recieved 189927 Coins from Demonic Gorilla.

---2016/07/15 07:58:35---
Mithril Jr has recieved 1 Ahrim'S Hood from Demonic Gorilla.

---2016/07/15 07:58:35---
Mithril Jr has recieved 1 Book Of Darkness from Demonic Gorilla.

---2016/07/15 07:58:35---
Mithril Jr has recieved 1 Ahrim'S Robeskirt from Demonic Gorilla.

---2016/07/15 07:58:35---
Mithril Jr has recieved 1 Prayer Potion(3) from Demonic Gorilla.

---2016/07/15 07:58:35---
Mithril Jr has recieved 1 Ring Of Wealth from Demonic Gorilla.

---2016/07/15 07:58:35---
Mithril Jr has recieved 5 Ranarr Seed from Demonic Gorilla.

---2016/07/15 07:58:35---
Mithril Jr has recieved 814 Death Rune from Demonic Gorilla.

---2016/07/15 07:58:35---
Mithril Jr has recieved 2 Tooth Half Of Key from Demonic Gorilla.

---2016/07/15 07:58:35---
Mithril Jr has recieved 25 Adamantite Bar from Demonic Gorilla.

---2016/07/15 07:58:35---
Mithril Jr has recieved 98 Dragon Bolts (E) from Demonic Gorilla.

---2016/07/15 07:58:35---
Mithril Jr has recieved 2 Crystal Key from Demonic Gorilla.

---2016/07/15 07:58:35---
Mithril Jr has recieved 7027 Rune Javelin from Demonic Gorilla.
