
---2016/08/14 04:29:40---
Mortify has recieved 1 Rune Crossbow from Ancient Gorilla.

---2016/08/14 04:29:40---
Mortify has recieved 1 Climbing Boots from Ancient Gorilla.

---2016/08/14 04:29:40---
Mortify has recieved 1 Black D'Hide Body from Ancient Gorilla.

---2016/08/14 04:29:40---
Mortify has recieved 1 Amulet Of Glory from Ancient Gorilla.

---2016/08/14 04:29:40---
Mortify has recieved 10 Monkfish from Ancient Gorilla.

---2016/08/14 04:29:40---
Mortify has recieved 2 Prayer Potion(3) from Ancient Gorilla.

---2016/08/14 04:29:40---
Mortify has recieved 500 Rune Arrow from Ancient Gorilla.

---2016/08/14 04:29:40---
Mortify has recieved 51 Dragon Bolts from Ancient Gorilla.
