
---2016/08/11 19:16:28---
Vision Scout has dropped 1 Bucket for Vision Scout.

---2016/08/11 19:16:28---
Vision Scout has dropped 1 Bronze Axe for Vision Scout.

---2016/08/11 19:16:28---
Vision Scout has dropped 6 Water Rune for Vision Scout.

---2016/08/11 19:16:28---
Vision Scout has dropped 1 Pot for Vision Scout.

---2016/08/11 19:16:28---
Vision Scout has dropped 25 Air Rune for Vision Scout.

---2016/08/11 19:16:28---
Vision Scout has dropped 4 Earth Rune for Vision Scout.

---2016/08/11 19:16:28---
Vision Scout has dropped 15 Mind Rune for Vision Scout.

---2016/08/11 19:16:28---
Vision Scout has dropped 1 Tinderbox for Vision Scout.

---2016/08/11 19:16:28---
Vision Scout has dropped 1 Small Fishing Net for Vision Scout.

---2016/08/11 19:16:28---
Vision Scout has dropped 2 Body Rune for Vision Scout.

---2016/08/11 19:16:28---
Vision Scout has dropped 23 Bronze Arrow for Vision Scout.

---2016/08/11 19:16:28---
Vision Scout has dropped 1 Wooden Shield for Vision Scout.

---2016/08/11 19:16:28---
Vision Scout has dropped 1 Bronze Dagger for Vision Scout.

---2016/08/11 19:17:13---
Mule has recieved 1 Bucket from Vision Scout.

---2016/08/11 19:17:13---
Mule has recieved 1 Bronze Axe from Vision Scout.

---2016/08/11 19:17:13---
Mule has recieved 6 Water Rune from Vision Scout.

---2016/08/11 19:17:13---
Mule has recieved 1 Pot from Vision Scout.

---2016/08/11 19:17:13---
Mule has recieved 25 Air Rune from Vision Scout.

---2016/08/11 19:17:13---
Mule has recieved 4 Earth Rune from Vision Scout.

---2016/08/11 19:17:13---
Mule has recieved 15 Mind Rune from Vision Scout.

---2016/08/11 19:17:13---
Mule has recieved 1 Bones from Vision Scout.

---2016/08/11 19:17:13---
Mule has recieved 1 Small Fishing Net from Vision Scout.

---2016/08/11 19:17:13---
Mule has recieved 2 Body Rune from Vision Scout.

---2016/08/11 19:17:13---
Mule has recieved 23 Bronze Arrow from Vision Scout.

---2016/08/11 19:17:13---
Mule has recieved 1 Wooden Shield from Vision Scout.

---2016/08/11 19:17:13---
Mule has recieved 1 Bronze Dagger from Vision Scout.
