
---2016/08/08 16:41:11---
Munnchicles has recieved 276 Mithril Knife from Skeletal Wyvern.

---2016/08/08 16:41:11---
Munnchicles has recieved 1 Leather Boots from Skeletal Wyvern.

---2016/08/08 16:41:11---
Munnchicles has recieved 5 Monkfish from Skeletal Wyvern.

---2016/08/08 16:41:11---
Munnchicles has recieved 1 Elemental Shield from Skeletal Wyvern.

---2016/08/08 16:41:11---
Munnchicles has recieved 1 Green D'Hide Chaps from Skeletal Wyvern.

---2016/08/08 16:41:11---
Munnchicles has recieved 1 Enchanted Gem from Skeletal Wyvern.

---2016/08/13 16:39:49---
Munnchicles has recieved 1 Super Restore(2) from Ancient Gorilla.

---2016/08/13 16:39:49---
Munnchicles has recieved 1 Pegasian Boots from Ancient Gorilla.

---2016/08/13 16:39:49---
Munnchicles has recieved 1 Crystal Bow Full from Ancient Gorilla.

---2016/08/13 16:39:49---
Munnchicles has recieved 26 Anchovy Pizza from Ancient Gorilla.
