
---2016/08/02 00:36:59---
N3r0 has recieved 1 Clue Scroll (Hard) from Double Agent.

---2016/08/02 00:36:59---
N3r0 has recieved 1 Staff Of Air from Double Agent.

---2016/08/02 00:36:59---
N3r0 has recieved 1 Shortbow from Double Agent.

---2016/08/02 00:36:59---
N3r0 has recieved 3 Monkfish from Double Agent.

---2016/08/02 00:36:59---
N3r0 has recieved 1 Elemental Shield from Double Agent.

---2016/08/02 00:36:59---
N3r0 has recieved 300 Fire Rune from Double Agent.

---2016/08/02 00:36:59---
N3r0 has recieved 1 Amulet Of Glory(2) from Double Agent.

---2016/08/02 00:36:59---
N3r0 has recieved 100 Mind Rune from Double Agent.

---2016/08/02 00:36:59---
N3r0 has recieved 100 Chaos Rune from Double Agent.

---2016/08/02 00:36:59---
N3r0 has recieved 229 Iron Arrow from Double Agent.

---2016/08/02 00:36:59---
N3r0 has recieved 1 Blue D'Hide Vamb from Double Agent.

---2016/08/02 00:36:59---
N3r0 has recieved 1 Clue Scroll (Easy) from Double Agent.

---2016/08/02 00:36:59---
N3r0 has recieved 89 Rune Arrow from Double Agent.

---2016/08/02 00:36:59---
N3r0 has recieved 1 Blue D'Hide Chaps from Double Agent.

---2016/08/02 00:36:59---
N3r0 has recieved 1 Magic Shortbow from Double Agent.

---2016/08/02 23:03:41---
N3r0 has recieved 1 Dragon Boots from Skotizo.

---2016/08/02 23:03:41---
N3r0 has recieved 1 Shark from Skotizo.

---2016/08/02 23:03:41---
N3r0 has recieved 1 Super Defence(2) from Skotizo.

---2016/08/02 23:03:41---
N3r0 has recieved 2 Cooked Karambwan from Skotizo.

---2016/08/02 23:03:41---
N3r0 has recieved 1 Super Strength(4) from Skotizo.

---2016/08/02 23:03:41---
N3r0 has recieved 1 Helm Of Neitiznot from Skotizo.

---2016/08/02 23:03:41---
N3r0 has recieved 1 Amulet Of Glory(2) from Skotizo.

---2016/08/02 23:03:41---
N3r0 has recieved 2 Super Restore(4) from Skotizo.

---2016/08/02 23:03:41---
N3r0 has recieved 3 Super Restore(3) from Skotizo.

---2016/08/02 23:03:41---
N3r0 has recieved 1 Super Attack(2) from Skotizo.

---2016/08/02 23:03:41---
N3r0 has recieved 3 Super Restore(2) from Skotizo.

---2016/08/02 23:03:41---
N3r0 has recieved 4 Anchovy Pizza from Skotizo.

---2016/08/02 23:03:41---
N3r0 has recieved 1 Enchanted Gem from Skotizo.

---2016/08/02 23:03:41---
N3r0 has recieved 1 1/2 Anchovy Pizza from Skotizo.

---2016/08/03 11:36:29---
N3r0 has recieved 1 Dragon Boots from Ancient Gorilla.

---2016/08/03 11:36:29---
N3r0 has recieved 5 Super Restore(4) from Ancient Gorilla.

---2016/08/03 11:36:29---
N3r0 has recieved 18 Shark from Ancient Gorilla.

---2016/08/03 11:36:29---
N3r0 has recieved 1 Karil'S Leatherskirt from Ancient Gorilla.

---2016/08/03 11:36:29---
N3r0 has recieved 1 Super Attack(4) from Ancient Gorilla.

---2016/08/03 11:36:29---
N3r0 has recieved 1 Super Strength(4) from Ancient Gorilla.

---2016/08/03 11:36:29---
N3r0 has recieved 1 Super Defence(4) from Ancient Gorilla.

---2016/08/03 11:36:29---
N3r0 has recieved 2 Monkfish from Ancient Gorilla.

---2016/08/03 11:36:29---
N3r0 has recieved 1079 Rune Arrow from Ancient Gorilla.

---2016/08/03 11:36:29---
N3r0 has recieved 1 Amulet Of Glory(2) from Ancient Gorilla.

---2016/08/03 11:37:11---
N3r0 has recieved 1 Dragon Boots from Ancient Gorilla.

---2016/08/03 11:37:11---
N3r0 has recieved 10 Shark from Ancient Gorilla.

---2016/08/03 11:37:11---
N3r0 has recieved 1 Karil'S Leatherskirt from Ancient Gorilla.

---2016/08/03 11:37:11---
N3r0 has recieved 1 Super Defence(4) from Ancient Gorilla.

---2016/08/03 11:37:11---
N3r0 has recieved 1079 Rune Arrow from Ancient Gorilla.

---2016/08/03 11:37:11---
N3r0 has recieved 1 Amulet Of Glory(2) from Ancient Gorilla.

---2016/08/03 11:52:58---
N3r0 has recieved 1 Dragon Boots from Demonic Gorilla.

---2016/08/03 11:52:58---
N3r0 has recieved 1 Super Restore(4) from Demonic Gorilla.

---2016/08/03 11:52:58---
N3r0 has recieved 8 Shark from Demonic Gorilla.

---2016/08/03 11:52:58---
N3r0 has recieved 1 Karil'S Leatherskirt from Demonic Gorilla.

---2016/08/03 11:52:58---
N3r0 has recieved 1 Super Restore(3) from Demonic Gorilla.

---2016/08/03 11:52:58---
N3r0 has recieved 1 Clue Scroll (Hard) from Demonic Gorilla.

---2016/08/03 11:52:58---
N3r0 has recieved 1 Super Attack(2) from Demonic Gorilla.

---2016/08/03 11:52:58---
N3r0 has recieved 1 Super Defence(2) from Demonic Gorilla.

---2016/08/03 11:52:58---
N3r0 has recieved 1 Super Restore(1) from Demonic Gorilla.

---2016/08/03 11:52:58---
N3r0 has recieved 1 Amulet Of Glory(2) from Demonic Gorilla.

---2016/08/03 11:52:58---
N3r0 has recieved 1 Super Strength(2) from Demonic Gorilla.

---2016/08/03 12:50:40---
N3r0 has recieved 1 Dragon Boots from Demonic Gorilla.

---2016/08/03 12:50:40---
N3r0 has recieved 8 Shark from Demonic Gorilla.

---2016/08/03 12:50:40---
N3r0 has recieved 1 Karil'S Leatherskirt from Demonic Gorilla.

---2016/08/03 12:50:40---
N3r0 has recieved 2 Super Restore(3) from Demonic Gorilla.

---2016/08/03 12:50:40---
N3r0 has recieved 1 Super Restore(2) from Demonic Gorilla.

---2016/08/03 12:50:40---
N3r0 has recieved 1 Vial from Demonic Gorilla.

---2016/08/03 12:50:40---
N3r0 has recieved 1 Super Restore(1) from Demonic Gorilla.

---2016/08/03 12:50:40---
N3r0 has recieved 1 Ring Of Wealth from Demonic Gorilla.

---2016/08/03 12:50:40---
N3r0 has recieved 1 Amulet Of Strength from Demonic Gorilla.

---2016/08/03 16:57:30---
N3r0 has recieved 1 Dragon Boots from Demonic Gorilla.

---2016/08/03 16:57:30---
N3r0 has recieved 1 Super Restore(4) from Demonic Gorilla.

---2016/08/03 16:57:30---
N3r0 has recieved 13 Shark from Demonic Gorilla.

---2016/08/03 16:57:30---
N3r0 has recieved 1 Super Strength(1) from Demonic Gorilla.

---2016/08/03 16:57:30---
N3r0 has recieved 1 Karil'S Leatherskirt from Demonic Gorilla.

---2016/08/03 16:57:30---
N3r0 has recieved 1 Super Restore(2) from Demonic Gorilla.

---2016/08/03 16:57:30---
N3r0 has recieved 1 Super Attack(1) from Demonic Gorilla.

---2016/08/03 16:57:30---
N3r0 has recieved 1 Super Defence(1) from Demonic Gorilla.

---2016/08/03 16:57:30---
N3r0 has recieved 1 Ring Of Wealth from Demonic Gorilla.

---2016/08/03 16:57:30---
N3r0 has recieved 1 Amulet Of Strength from Demonic Gorilla.

---2016/08/03 16:57:30---
N3r0 has recieved 1937 Rune Javelin from Demonic Gorilla.

---2016/08/03 17:25:00---
N3r0 has recieved 1 Dragon Boots from Demonic Gorilla.

---2016/08/03 17:25:00---
N3r0 has recieved 8 Shark from Demonic Gorilla.

---2016/08/03 17:25:00---
N3r0 has recieved 1 Karil'S Leatherskirt from Demonic Gorilla.

---2016/08/03 17:25:00---
N3r0 has recieved 1 Super Defence(2) from Demonic Gorilla.

---2016/08/03 17:25:00---
N3r0 has recieved 1 Vial from Demonic Gorilla.

---2016/08/03 17:25:00---
N3r0 has recieved 1 Helm Of Neitiznot from Demonic Gorilla.

---2016/08/03 17:25:00---
N3r0 has recieved 1 Ring Of Wealth from Demonic Gorilla.

---2016/08/03 17:25:00---
N3r0 has recieved 559 Death Rune from Demonic Gorilla.

---2016/08/03 17:25:00---
N3r0 has recieved 1 Super Attack(2) from Demonic Gorilla.

---2016/08/03 17:25:00---
N3r0 has recieved 1 Super Restore(2) from Demonic Gorilla.

---2016/08/03 17:25:00---
N3r0 has recieved 1 Amulet Of Strength from Demonic Gorilla.

---2016/08/03 17:25:00---
N3r0 has recieved 2 Crystal Key from Demonic Gorilla.

---2016/08/03 17:25:00---
N3r0 has recieved 1 Dragon Dagger from Demonic Gorilla.

---2016/08/03 17:25:00---
N3r0 has recieved 1 Super Strength(2) from Demonic Gorilla.

---2016/08/04 16:38:37---
N3r0 has recieved 1 Dragon Boots from Demonic Gorilla.

---2016/08/04 16:38:37---
N3r0 has recieved 4 Shark from Demonic Gorilla.

---2016/08/04 16:38:37---
N3r0 has recieved 1 Karil'S Leatherskirt from Demonic Gorilla.

---2016/08/04 16:38:37---
N3r0 has recieved 1 Super Defence(3) from Demonic Gorilla.

---2016/08/04 16:38:37---
N3r0 has recieved 1 Vial from Demonic Gorilla.

---2016/08/04 16:38:37---
N3r0 has recieved 4 Cooked Karambwan from Demonic Gorilla.

---2016/08/04 16:38:37---
N3r0 has recieved 1 Ring Of Wealth from Demonic Gorilla.

---2016/08/04 16:38:37---
N3r0 has recieved 1 Super Attack(3) from Demonic Gorilla.

---2016/08/04 16:38:37---
N3r0 has recieved 1 Super Restore(2) from Demonic Gorilla.

---2016/08/04 16:38:37---
N3r0 has recieved 123 Dragon Javelin from Demonic Gorilla.

---2016/08/04 16:38:37---
N3r0 has recieved 1 Amulet Of Strength from Demonic Gorilla.

---2016/08/04 16:38:37---
N3r0 has recieved 1 Super Strength(3) from Demonic Gorilla.

---2016/08/04 16:38:37---
N3r0 has recieved 1917 Rune Javelin from Demonic Gorilla.

---2016/08/04 16:38:37---
N3r0 has recieved 1 Dragon Dagger from Demonic Gorilla.

---2016/08/04 17:24:49---
N3r0 has recieved 1 Dragon Boots from Demonic Gorilla.

---2016/08/04 17:24:49---
N3r0 has recieved 6 Shark from Demonic Gorilla.

---2016/08/04 17:24:49---
N3r0 has recieved 1 Karil'S Leatherskirt from Demonic Gorilla.

---2016/08/04 17:24:49---
N3r0 has recieved 1 Super Attack(2) from Demonic Gorilla.

---2016/08/04 17:24:49---
N3r0 has recieved 1 Super Defence(2) from Demonic Gorilla.

---2016/08/04 17:24:49---
N3r0 has recieved 5 Cooked Karambwan from Demonic Gorilla.

---2016/08/04 17:24:49---
N3r0 has recieved 1 Ring Of Wealth from Demonic Gorilla.

---2016/08/04 17:24:49---
N3r0 has recieved 48 Dragon Bolts (E) from Demonic Gorilla.

---2016/08/04 17:24:49---
N3r0 has recieved 1 Amulet Of Strength from Demonic Gorilla.

---2016/08/04 17:24:49---
N3r0 has recieved 1 Dragon Dagger from Demonic Gorilla.

---2016/08/04 17:24:49---
N3r0 has recieved 1 Super Strength(2) from Demonic Gorilla.

---2016/08/04 20:16:29---
N3r0 has recieved 1 Dragon Boots from Demonic Gorilla.

---2016/08/04 20:16:29---
N3r0 has recieved 2 Shark from Demonic Gorilla.

---2016/08/04 20:16:29---
N3r0 has recieved 1 Karil'S Leatherskirt from Demonic Gorilla.

---2016/08/04 20:16:29---
N3r0 has recieved 1 Super Defence(3) from Demonic Gorilla.

---2016/08/04 20:16:29---
N3r0 has recieved 2 Cooked Karambwan from Demonic Gorilla.

---2016/08/04 20:16:29---
N3r0 has recieved 1 Ring Of Wealth from Demonic Gorilla.

---2016/08/04 20:16:29---
N3r0 has recieved 1 Super Attack(3) from Demonic Gorilla.

---2016/08/04 20:16:29---
N3r0 has recieved 1 Super Restore(2) from Demonic Gorilla.

---2016/08/04 20:16:29---
N3r0 has recieved 1 Super Restore(1) from Demonic Gorilla.

---2016/08/04 20:16:29---
N3r0 has recieved 129 Dragon Bolts (E) from Demonic Gorilla.

---2016/08/04 20:16:29---
N3r0 has recieved 1 Amulet Of Strength from Demonic Gorilla.

---2016/08/04 20:16:29---
N3r0 has recieved 1 Super Strength(3) from Demonic Gorilla.

---2016/08/04 20:16:29---
N3r0 has recieved 1 Dragon Dagger from Demonic Gorilla.
