
---2016/07/18 08:43:44---
Neo has recieved 1 Toolkit from Crawling Hand.

---2016/07/18 08:43:44---
Neo has recieved 250000 Coins from Crawling Hand.

---2016/07/18 08:43:44---
Neo has recieved 1 Staff Of Air from Crawling Hand.

---2016/07/18 08:43:44---
Neo has recieved 1 Shortbow from Crawling Hand.

---2016/07/18 08:43:44---
Neo has recieved 1 Bronze Scimitar from Crawling Hand.

---2016/07/18 08:43:44---
Neo has recieved 300 Fire Rune from Crawling Hand.

---2016/07/18 08:43:44---
Neo has recieved 100 Monkfish from Crawling Hand.

---2016/07/18 08:43:44---
Neo has recieved 100 Mind Rune from Crawling Hand.

---2016/07/18 08:43:44---
Neo has recieved 1 Amulet Of Glory(4) from Crawling Hand.

---2016/07/18 08:43:44---
Neo has recieved 1 Adamant Shield (H3) from Crawling Hand.

---2016/07/18 08:43:44---
Neo has recieved 100 Chaos Rune from Crawling Hand.

---2016/07/18 08:43:44---
Neo has recieved 1 Slave Robetop from Crawling Hand.

---2016/07/18 08:43:44---
Neo has recieved 250 Iron Arrow from Crawling Hand.

---2016/07/18 08:43:44---
Neo has recieved 1 Slave Robe from Crawling Hand.

---2016/07/18 08:43:44---
Neo has recieved 1 Slave Boots from Crawling Hand.

---2016/07/18 08:43:44---
Neo has recieved 5 Super Combat Potion(4) from Crawling Hand.

---2016/07/18 08:43:44---
Neo has recieved 1 Clue Scroll (Easy) from Crawling Hand.

---2016/07/18 08:43:44---
Neo has recieved 1 Rune Med Helm from Crawling Hand.

---2016/07/18 08:43:44---
Neo has recieved 100 Rune Arrow from Crawling Hand.

---2016/07/18 08:43:44---
Neo has recieved 1 Magic Shortbow from Crawling Hand.
