
---2016/08/07 04:27:41---
Vladimir Put has dropped 1 Amulet Of Glory(4) for Vladimir Put.

---2016/08/07 04:27:41---
Vladimir Put has dropped 1 Slave Robetop for Vladimir Put.

---2016/08/07 04:27:41---
Vladimir Put has dropped 203 Iron Arrow for Vladimir Put.

---2016/08/07 04:27:41---
Vladimir Put has dropped 1 Slave Robe for Vladimir Put.

---2016/08/07 04:27:41---
Vladimir Put has dropped 1 Slave Boots for Vladimir Put.

---2016/08/07 04:27:41---
Vladimir Put has dropped 1 Super Combat Potion(3) for Vladimir Put.

---2016/08/07 04:27:41---
Vladimir Put has dropped 1 Shortbow for Vladimir Put.

---2016/08/07 04:27:41---
Vladimir Put has dropped 1 Bronze Scimitar for Vladimir Put.

---2016/08/07 04:27:41---
Vladimir Put has dropped 15 Monkfish for Vladimir Put.

---2016/08/07 04:29:00---
Nice Shirt has recieved 1 Amulet Of Glory(4) from Lava Dragon.

---2016/08/07 04:29:00---
Nice Shirt has recieved 1 Black Dragonhide from Lava Dragon.

---2016/08/07 04:29:00---
Nice Shirt has recieved 1543 Coins from Lava Dragon.

---2016/08/07 04:29:00---
Nice Shirt has recieved 445 Iron Arrow from Lava Dragon.

---2016/08/07 04:29:00---
Nice Shirt has recieved 1 Amulet Of Accuracy from Lava Dragon.

---2016/08/07 04:29:00---
Nice Shirt has recieved 1 Lava Scale from Lava Dragon.

---2016/08/07 04:29:00---
Nice Shirt has recieved 1 Shortbow from Lava Dragon.

---2016/08/07 04:29:00---
Nice Shirt has recieved 15 Monkfish from Lava Dragon.

---2016/08/07 04:29:00---
Nice Shirt has recieved 84 Rune Arrow from Lava Dragon.

---2016/08/07 04:39:42---
Nice Shirt has recieved 1 Book Of War from Billy Idol.

---2016/08/07 04:39:42---
Nice Shirt has recieved 1 Black D'Hide Chaps from Billy Idol.

---2016/08/07 04:39:42---
Nice Shirt has recieved 1 Green D'Hide Vamb from Billy Idol.

---2016/08/07 04:39:42---
Nice Shirt has recieved 22 Monkfish from Billy Idol.

---2016/08/07 04:39:42---
Nice Shirt has recieved 1 Black D'Hide Vamb from Billy Idol.

---2016/08/07 04:39:42---
Nice Shirt has recieved 1 Green D'Hide Chaps from Billy Idol.

---2016/08/07 04:39:42---
Nice Shirt has recieved 18 Rune Dart from Billy Idol.

---2016/08/07 04:39:42---
Nice Shirt has recieved 1 Magic Shortbow from Billy Idol.

---2016/08/07 04:39:42---
Nice Shirt has recieved 1 Bones from Billy Idol.

---2016/08/07 04:42:24---
Nice Shirt has recieved 1 Book Of War from Billy Idol.

---2016/08/07 04:42:24---
Nice Shirt has recieved 1 Black D'Hide Chaps from Billy Idol.

---2016/08/07 04:42:24---
Nice Shirt has recieved 1 Green D'Hide Vamb from Billy Idol.

---2016/08/07 04:42:24---
Nice Shirt has recieved 15 Monkfish from Billy Idol.

---2016/08/07 04:42:24---
Nice Shirt has recieved 1 Black D'Hide Vamb from Billy Idol.

---2016/08/07 04:42:24---
Nice Shirt has recieved 1 Green D'Hide Chaps from Billy Idol.

---2016/08/07 04:42:24---
Nice Shirt has recieved 16 Rune Dart from Billy Idol.

---2016/08/07 04:42:24---
Nice Shirt has recieved 2 Rune Arrow from Billy Idol.

---2016/08/07 04:42:24---
Nice Shirt has recieved 1 Magic Shortbow from Billy Idol.

---2016/08/07 19:03:59---
Nice Shirt has recieved 1 Credits Scroll from Rock Crab.

---2016/08/07 19:03:59---
Nice Shirt has recieved 70 Rune Dart from Rock Crab.

---2016/08/18 13:18:10---
Nice Shirt has recieved 1 Black Shield (H3) from Dank Potato.

---2016/08/18 13:18:10---
Nice Shirt has recieved 1 Pink Headband from Dank Potato.

---2016/08/18 13:18:10---
Nice Shirt has recieved 1 Green Headband from Dank Potato.

---2016/08/18 13:18:10---
Nice Shirt has recieved 1 Black Headband from Dank Potato.
