
---2016/08/03 17:31:24---
Nicky Tee has recieved 1 Amulet Of Glory(4) from Hill Giant.

---2016/08/03 17:31:24---
Nicky Tee has recieved 316 Coins from Hill Giant.

---2016/08/03 17:31:24---
Nicky Tee has recieved 1 Slave Robetop from Hill Giant.

---2016/08/03 17:31:24---
Nicky Tee has recieved 2 Big Bones from Hill Giant.

---2016/08/03 17:31:24---
Nicky Tee has recieved 1 Slave Robe from Hill Giant.

---2016/08/03 17:31:24---
Nicky Tee has recieved 1 Slave Boots from Hill Giant.

---2016/08/03 17:31:24---
Nicky Tee has recieved 6 Lobster from Hill Giant.

---2016/08/03 17:31:24---
Nicky Tee has recieved 100 Silver Ore from Hill Giant.

---2016/08/03 17:31:24---
Nicky Tee has recieved 7 Water Rune from Hill Giant.
