
---2016/08/03 07:03:16---
North Wizard has recieved 1 Rune Sq Shield from Thermonuclear Smoke Devil.

---2016/08/03 07:03:16---
North Wizard has recieved 6 Shark from Thermonuclear Smoke Devil.

---2016/08/03 07:03:16---
North Wizard has recieved 1 Rune Boots from Thermonuclear Smoke Devil.

---2016/08/03 07:03:16---
North Wizard has recieved 1 Amulet Of Glory from Thermonuclear Smoke Devil.

---2016/08/03 07:03:16---
North Wizard has recieved 5 Rainbow Fish from Thermonuclear Smoke Devil.

---2016/08/03 07:03:16---
North Wizard has recieved 2 Prayer Potion(3) from Thermonuclear Smoke Devil.

---2016/08/03 07:03:16---
North Wizard has recieved 14 Lobster from Thermonuclear Smoke Devil.

---2016/08/03 07:03:16---
North Wizard has recieved 1 Dragon Dagger from Thermonuclear Smoke Devil.

---2016/08/04 00:17:32---
North Wizard has recieved 1 Ashes from Abyssal Scion.

---2016/08/04 00:17:32---
North Wizard has recieved 283 Bronze Arrow from Abyssal Scion.

---2016/08/04 00:17:32---
North Wizard has recieved 9 Summer Pie from Abyssal Scion.

---2016/08/04 00:17:32---
North Wizard has recieved 2 Half A Summer Pie from Abyssal Scion.

---2016/08/04 00:17:32---
North Wizard has recieved 1 Shortbow from Abyssal Scion.

---2016/08/04 00:17:32---
North Wizard has recieved 1 Pie Dish from Abyssal Scion.

---2016/08/04 00:17:32---
North Wizard has recieved 1 Rune Full Helm from Abyssal Scion.

---2016/08/04 00:17:32---
North Wizard has recieved 1 Rune Med Helm from Abyssal Scion.

---2016/08/04 00:17:32---
North Wizard has recieved 1 Lobster from Abyssal Scion.

---2016/08/04 00:17:32---
North Wizard has recieved 1 Dragon Dagger from Abyssal Scion.
