
---2016/07/26 13:30:18---
Not Hyped has recieved 1 Amulet Of Glory(4) from Skeleton.

---2016/07/26 13:30:18---
Not Hyped has recieved 150000 Coins from Skeleton.

---2016/07/26 13:30:18---
Not Hyped has recieved 250 Iron Arrow from Skeleton.

---2016/07/26 13:30:18---
Not Hyped has recieved 1 Shortbow from Skeleton.

---2016/07/26 13:30:18---
Not Hyped has recieved 1 Bronze Scimitar from Skeleton.

---2016/07/26 13:30:18---
Not Hyped has recieved 11 Monkfish from Skeleton.

---2016/07/26 13:30:18---
Not Hyped has recieved 100 Rune Arrow from Skeleton.

---2016/07/27 04:31:01---
Iron Hyped has dropped 18 Dragon Bones for Iron Hyped.

---2016/07/27 04:33:14---
Iron Hyped has dropped 1 Karil'S Leathertop for Iron Hyped.

---2016/07/27 04:33:14---
Iron Hyped has dropped 1 Teacher Wand for Iron Hyped.

---2016/07/27 04:33:14---
Iron Hyped has dropped 1 Karil'S Leatherskirt for Iron Hyped.

---2016/07/27 04:33:14---
Iron Hyped has dropped 1056190 Coins for Iron Hyped.

---2016/07/27 04:33:14---
Iron Hyped has dropped 1 Dragon Chainbody for Iron Hyped.

---2016/07/27 04:33:14---
Iron Hyped has dropped 1 Unstrung Heavy Ballista for Iron Hyped.

---2016/07/27 04:33:14---
Iron Hyped has dropped 1 Uncut Onyx for Iron Hyped.

---2016/07/27 04:33:14---
Iron Hyped has dropped 1 Karil'S Coif for Iron Hyped.

---2016/07/27 04:33:14---
Iron Hyped has dropped 1 Karil'S Crossbow for Iron Hyped.

---2016/07/28 04:45:58---
Not Hyped has recieved 1 Dragon Boots from Ancient Gorilla.

---2016/07/28 04:45:58---
Not Hyped has recieved 129 Death Rune from Ancient Gorilla.

---2016/07/28 04:45:58---
Not Hyped has recieved 7 Shark from Ancient Gorilla.

---2016/07/28 04:45:58---
Not Hyped has recieved 1 Super Attack(3) from Ancient Gorilla.

---2016/07/28 04:45:58---
Not Hyped has recieved 1 Rock-Shell Legs from Ancient Gorilla.

---2016/07/28 04:45:58---
Not Hyped has recieved 7 Prayer Potion(4) from Ancient Gorilla.

---2016/07/28 04:45:58---
Not Hyped has recieved 1 Dragon Halberd from Ancient Gorilla.

---2016/07/28 04:45:58---
Not Hyped has recieved 1 Proselyte Hauberk from Ancient Gorilla.

---2016/07/28 04:45:58---
Not Hyped has recieved 1 Prayer Potion(3) from Ancient Gorilla.

---2016/07/28 04:45:58---
Not Hyped has recieved 1 Helm Of Neitiznot from Ancient Gorilla.

---2016/07/28 04:45:58---
Not Hyped has recieved 1 Proselyte Cuisse from Ancient Gorilla.

---2016/07/28 04:45:58---
Not Hyped has recieved 1 Super Strength(3) from Ancient Gorilla.

---2016/07/28 04:46:40---
Not Hyped has recieved 28 Shark from Ancient Gorilla.

---2016/08/10 18:59:09---
Not Hyped has recieved 2 Super Restore(4) from Trapper.

---2016/08/10 18:59:09---
Not Hyped has recieved 8816 Death Rune from Trapper.

---2016/08/10 18:59:09---
Not Hyped has recieved 18 Anglerfish from Trapper.

---2016/08/10 18:59:09---
Not Hyped has recieved 1 Saradomin Brew(2) from Trapper.

---2016/08/10 18:59:09---
Not Hyped has recieved 967 Astral Rune from Trapper.

---2016/08/10 18:59:09---
Not Hyped has recieved 1 Blue Wizard Hat from Trapper.

---2016/08/10 18:59:09---
Not Hyped has recieved 1 Super Restore(2) from Trapper.

---2016/08/10 18:59:09---
Not Hyped has recieved 1 Super Combat Potion(2) from Trapper.

---2016/08/10 18:59:09---
Not Hyped has recieved 1 Saradomin Brew(4) from Trapper.

---2016/08/10 18:59:09---
Not Hyped has recieved 431 Earth Rune from Trapper.

---2016/09/01 09:49:36---
Not Hyped has recieved 3 Dragon Boots from Nick.

---2016/09/01 09:49:36---
Not Hyped has recieved 1 Fishing Tome from Nick.

---2016/09/01 09:49:36---
Not Hyped has recieved 2 Dragon Full Helm from Nick.

---2016/09/01 09:49:36---
Not Hyped has recieved 2 Thieving Tome from Nick.

---2016/09/01 09:49:36---
Not Hyped has recieved 1 Seers Ring from Nick.

---2016/09/01 09:49:36---
Not Hyped has recieved 1 Archers Ring from Nick.

---2016/09/01 09:49:36---
Not Hyped has recieved 1 Mining Tome from Nick.

---2016/09/01 09:49:36---
Not Hyped has recieved 1 Blue Partyhat from Nick.

---2016/09/01 09:49:36---
Not Hyped has recieved 2 Firemaking Tome from Nick.

---2016/09/01 09:49:36---
Not Hyped has recieved 11 Elite Box from Nick.

---2016/09/01 09:49:36---
Not Hyped has recieved 1 Pegasian Boots from Nick.

---2016/09/01 09:49:36---
Not Hyped has recieved 1 Armadyl Chainskirt from Nick.

---2016/09/01 09:49:36---
Not Hyped has recieved 1 Woodcutting Tome from Nick.

---2016/09/01 09:49:36---
Not Hyped has recieved 1 Steam Battlestaff from Nick.

---2016/09/01 09:49:36---
Not Hyped has recieved 2147483647 Diamond Bolts (E) from Nick.

---2016/09/01 09:49:36---
Not Hyped has recieved 1 Spirit Shield from Nick.
