
---2016/07/08 01:11:02---
Oedipus has recieved 1 Climbing Boots from Red Dragon.

---2016/07/08 01:11:02---
Oedipus has recieved 698010 Coins from Red Dragon.

---2016/07/08 01:11:02---
Oedipus has recieved 1 Anti-Dragon Shield from Red Dragon.

---2016/07/08 01:11:02---
Oedipus has recieved 1 Black Wizard Hat (G) from Red Dragon.

---2016/07/08 01:11:02---
Oedipus has recieved 1 Green D'Hide Vamb from Red Dragon.

---2016/07/08 01:11:02---
Oedipus has recieved 1 Green D'Hide Chaps from Red Dragon.

---2016/07/08 01:11:02---
Oedipus has recieved 994 Rune Dart from Red Dragon.

---2016/07/08 01:11:02---
Oedipus has recieved 25175 Death Rune from Red Dragon.

---2016/07/08 01:11:02---
Oedipus has recieved 1 Amulet Of Glory(4) from Red Dragon.

---2016/07/08 01:11:02---
Oedipus has recieved 1 Slave Robetop from Red Dragon.

---2016/07/08 01:11:02---
Oedipus has recieved 1657 Blood Rune from Red Dragon.

---2016/07/08 01:11:02---
Oedipus has recieved 12 Dragon Bones from Red Dragon.

---2016/07/08 01:11:02---
Oedipus has recieved 1 Enchanted Gem from Red Dragon.

---2016/07/08 01:11:02---
Oedipus has recieved 927 Rune Arrow from Red Dragon.

---2016/07/08 01:11:02---
Oedipus has recieved 1 Magic Shortbow from Red Dragon.

---2016/07/08 01:11:02---
Oedipus has recieved 1 Crystal Key from Red Dragon.

---2016/07/08 06:47:01---
Oedipus has recieved 2739 Coins from Lava Dragon.

---2016/07/08 21:14:27---
Oedipus has recieved 1 Black D'Hide Chaps from Abyssal Monarch.

---2016/07/08 21:14:27---
Oedipus has recieved 14 Shark from Abyssal Monarch.

---2016/07/08 21:14:27---
Oedipus has recieved 1 Antipoison(2) from Abyssal Monarch.

---2016/07/08 21:14:27---
Oedipus has recieved 1 Climbing Boots from Abyssal Monarch.

---2016/07/08 21:14:27---
Oedipus has recieved 715 Rune Arrow from Abyssal Monarch.

---2016/07/08 21:14:27---
Oedipus has recieved 1 Magic Shortbow from Abyssal Monarch.

---2016/07/08 21:14:27---
Oedipus has recieved 3 Antipoison(4) from Abyssal Monarch.

---2016/07/08 21:14:27---
Oedipus has recieved 1 Amulet Of Glory(3) from Abyssal Monarch.

---2016/07/08 23:23:25---
Oedipus has recieved 1 Berserker Ring from Lava Dragon.

---2016/07/08 23:23:25---
Oedipus has recieved 20 Shark from Lava Dragon.

---2016/07/08 23:23:25---
Oedipus has recieved 1 Climbing Boots from Lava Dragon.

---2016/07/08 23:23:25---
Oedipus has recieved 1 Anti-Dragon Shield from Lava Dragon.

---2016/07/08 23:23:25---
Oedipus has recieved 3 Lava Dragon Bones from Lava Dragon.

---2016/07/08 23:23:25---
Oedipus has recieved 3 Monkfish from Lava Dragon.

---2016/07/08 23:23:25---
Oedipus has recieved 1 Helm Of Neitiznot from Lava Dragon.

---2016/07/08 23:23:25---
Oedipus has recieved 706 Rune Arrow from Lava Dragon.

---2016/07/08 23:23:25---
Oedipus has recieved 1 Amulet Of Glory(3) from Lava Dragon.

---2016/07/08 23:23:25---
Oedipus has recieved 1 Dragon Dagger from Lava Dragon.

---2016/07/10 00:26:03---
Oedipus has recieved 1 Kraken tentacle from Cave Kraken.

---2016/07/10 00:54:01---
Oedipus has recieved 1 Book Of War from Cave Kraken.

---2016/07/10 00:54:01---
Oedipus has recieved 1 Black D'Hide Chaps from Cave Kraken.

---2016/07/10 00:54:01---
Oedipus has recieved 1 Shark from Cave Kraken.

---2016/07/10 00:54:01---
Oedipus has recieved 1 Snakeskin Boots from Cave Kraken.

---2016/07/10 00:54:01---
Oedipus has recieved 1 Slayer Bell from Cave Kraken.

---2016/07/10 00:54:01---
Oedipus has recieved 10 Monkfish from Cave Kraken.

---2016/07/10 00:54:01---
Oedipus has recieved 882 Rune Dart from Cave Kraken.

---2016/07/10 00:54:01---
Oedipus has recieved 549 Rune Arrow from Cave Kraken.

---2016/07/10 00:54:01---
Oedipus has recieved 1 Magic Shortbow from Cave Kraken.

---2016/07/10 00:54:01---
Oedipus has recieved 1 Amulet Of Glory(3) from Cave Kraken.

---2016/07/10 18:45:06---
Oedipus has recieved 1 Black D'Hide Chaps from Steel Dragon.

---2016/07/10 18:45:06---
Oedipus has recieved 1 Climbing Boots from Steel Dragon.

---2016/07/10 18:45:06---
Oedipus has recieved 1 Anti-Dragon Shield from Steel Dragon.

---2016/07/10 18:45:06---
Oedipus has recieved 6 Dragon Bones from Steel Dragon.

---2016/07/10 18:45:06---
Oedipus has recieved 1 Tooth Half Of Key from Steel Dragon.

---2016/07/10 18:45:06---
Oedipus has recieved 1 Antifire Potion(1) from Steel Dragon.

---2016/07/10 18:45:06---
Oedipus has recieved 890 Rune Dart from Steel Dragon.

---2016/07/10 18:45:06---
Oedipus has recieved 496 Rune Arrow from Steel Dragon.

---2016/07/10 18:45:06---
Oedipus has recieved 1 Amulet Of Glory(3) from Steel Dragon.

---2016/07/15 03:56:56---
Oedipus has recieved 1 Black D'Hide Chaps from King Black Dragon.

---2016/07/15 03:56:56---
Oedipus has recieved 16 Shark from King Black Dragon.

---2016/07/15 03:56:56---
Oedipus has recieved 1 Antipoison(2) from King Black Dragon.

---2016/07/15 03:56:56---
Oedipus has recieved 1 Climbing Boots from King Black Dragon.

---2016/07/15 03:56:56---
Oedipus has recieved 1 Anti-Dragon Shield from King Black Dragon.

---2016/07/15 03:56:56---
Oedipus has recieved 1 Antifire Potion(3) from King Black Dragon.

---2016/07/15 03:56:56---
Oedipus has recieved 1 Black D'Hide Body from King Black Dragon.

---2016/07/15 03:56:56---
Oedipus has recieved 3 Dragon Bones from King Black Dragon.

---2016/07/15 03:56:56---
Oedipus has recieved 1 Tooth Half Of Key from King Black Dragon.

---2016/07/15 03:56:56---
Oedipus has recieved 1 Ring Of Wealth from King Black Dragon.

---2016/07/15 03:56:56---
Oedipus has recieved 150 Yew Logs from King Black Dragon.

---2016/07/15 03:56:56---
Oedipus has recieved 1 Dragon Dagger from King Black Dragon.

---2016/07/16 18:28:05---
Oedipus has recieved 11 Shark from Abyssal Demon.

---2016/07/16 18:28:05---
Oedipus has recieved 1 Climbing Boots from Abyssal Demon.

---2016/07/16 18:28:05---
Oedipus has recieved 1 Rune Platebody from Abyssal Demon.

---2016/07/16 18:28:05---
Oedipus has recieved 1 Rune Platelegs from Abyssal Demon.

---2016/07/16 18:28:05---
Oedipus has recieved 1 Slayer Helmet (I) from Abyssal Demon.

---2016/07/16 18:28:05---
Oedipus has recieved 1 Ring Of Wealth from Abyssal Demon.

---2016/07/16 18:28:05---
Oedipus has recieved 1 Dragon Dagger from Abyssal Demon.

---2016/07/17 02:39:25---
Oedipus has recieved 1 Dragon Boots from Cerberus.

---2016/07/17 02:39:25---
Oedipus has recieved 19 Shark from Cerberus.

---2016/07/17 02:39:25---
Oedipus has recieved 7 Anglerfish from Cerberus.

---2016/07/17 02:39:25---
Oedipus has recieved 1 Zamorak Brew(1) from Cerberus.

---2016/07/17 02:39:25---
Oedipus has recieved 1 Dragon Dagger(P++) from Cerberus.

---2016/07/17 02:39:25---
Oedipus has recieved 1 Rune Platelegs from Cerberus.

---2016/07/17 02:39:25---
Oedipus has recieved 1 Amulet Of Fury from Cerberus.

---2016/07/17 02:39:25---
Oedipus has recieved 1 Slayer Helmet (I) from Cerberus.

---2016/07/17 02:39:25---
Oedipus has recieved 1 Ring Of Wealth from Cerberus.

---2016/07/17 02:39:25---
Oedipus has recieved 273 Rune Arrow from Cerberus.

---2016/07/17 23:43:59---
Oedipus has recieved 1 Dragon Boots from Monkey Archer.

---2016/07/17 23:43:59---
Oedipus has recieved 1 Dragon Dagger(P++) from Monkey Archer.

---2016/07/17 23:43:59---
Oedipus has recieved 1 Super Attack(2) from Monkey Archer.

---2016/07/17 23:43:59---
Oedipus has recieved 24 Runite Ore from Monkey Archer.

---2016/07/17 23:43:59---
Oedipus has recieved 1 Abyssal Tentacle from Monkey Archer.

---2016/07/17 23:43:59---
Oedipus has recieved 1 Amulet Of Fury from Monkey Archer.

---2016/07/17 23:43:59---
Oedipus has recieved 1 Slayer Helmet (I) from Monkey Archer.

---2016/07/17 23:43:59---
Oedipus has recieved 1 Enchanted Gem from Monkey Archer.

---2016/07/17 23:43:59---
Oedipus has recieved 1 Ring Of Wealth from Monkey Archer.

---2016/07/17 23:43:59---
Oedipus has recieved 273 Rune Arrow from Monkey Archer.

---2016/07/17 23:43:59---
Oedipus has recieved 10 Sea Turtle from Monkey Archer.

---2016/07/17 23:43:59---
Oedipus has recieved 1 Super Strength(2) from Monkey Archer.

---2016/08/03 03:43:53---
Oedipus has recieved 1 Dragon Boots from Cerberus.

---2016/08/03 03:43:53---
Oedipus has recieved 684960 Coins from Cerberus.

---2016/08/03 03:43:53---
Oedipus has recieved 1 Super Attack(1) from Cerberus.

---2016/08/03 03:43:53---
Oedipus has recieved 1 Abyssal Tentacle from Cerberus.

---2016/08/03 03:43:53---
Oedipus has recieved 1 Amulet Of Fury from Cerberus.

---2016/08/03 03:43:53---
Oedipus has recieved 5 Dragon Bones from Cerberus.

---2016/08/03 03:43:53---
Oedipus has recieved 1 Bandos Tassets from Cerberus.

---2016/08/03 03:43:53---
Oedipus has recieved 13 Monkfish from Cerberus.

---2016/08/03 03:43:53---
Oedipus has recieved 1 Ring Of Wealth from Cerberus.

---2016/08/03 03:43:53---
Oedipus has recieved 273 Rune Arrow from Cerberus.

---2016/08/03 03:43:53---
Oedipus has recieved 1 Unholy Symbol from Cerberus.

---2016/08/03 03:43:53---
Oedipus has recieved 1 List from Cerberus.

---2016/08/07 16:40:49---
Oedipus has recieved 1 Dragon Boots from Ancient Gorilla.

---2016/08/07 16:40:49---
Oedipus has recieved 10 Shark from Ancient Gorilla.

---2016/08/07 16:40:49---
Oedipus has recieved 1 Clue Scroll (Hard) from Ancient Gorilla.

---2016/08/07 16:40:49---
Oedipus has recieved 1 Super Attack(1) from Ancient Gorilla.

---2016/08/07 16:40:49---
Oedipus has recieved 1 Abyssal Tentacle from Ancient Gorilla.

---2016/08/07 16:40:49---
Oedipus has recieved 2 Dragonstone Amulet from Ancient Gorilla.

---2016/08/07 16:40:49---
Oedipus has recieved 1 Amulet Of Fury from Ancient Gorilla.

---2016/08/07 16:40:49---
Oedipus has recieved 1 Bandos Tassets from Ancient Gorilla.

---2016/08/07 16:40:49---
Oedipus has recieved 1 Ring Of Wealth from Ancient Gorilla.

---2016/08/07 16:40:49---
Oedipus has recieved 273 Rune Arrow from Ancient Gorilla.

---2016/08/07 16:40:49---
Oedipus has recieved 1 Super Strength(2) from Ancient Gorilla.

---2016/08/07 16:40:49---
Oedipus has recieved 1 List from Ancient Gorilla.

---2016/08/07 16:54:58---
Oedipus has recieved 1 Dragon Boots from Ancient Gorilla.

---2016/08/07 16:54:58---
Oedipus has recieved 1 Credits Scroll from Ancient Gorilla.

---2016/08/07 16:54:58---
Oedipus has recieved 11 Shark from Ancient Gorilla.

---2016/08/07 16:54:58---
Oedipus has recieved 17731 Coins from Ancient Gorilla.

---2016/08/07 16:54:58---
Oedipus has recieved 1 Abyssal Tentacle from Ancient Gorilla.

---2016/08/07 16:54:58---
Oedipus has recieved 1 Amulet Of Fury from Ancient Gorilla.

---2016/08/07 16:54:58---
Oedipus has recieved 1 Super Combat Potion(3) from Ancient Gorilla.

---2016/08/07 16:54:58---
Oedipus has recieved 1 Bandos Tassets from Ancient Gorilla.

---2016/08/07 16:54:58---
Oedipus has recieved 1 Ring Of Wealth from Ancient Gorilla.

---2016/08/07 16:54:58---
Oedipus has recieved 273 Rune Arrow from Ancient Gorilla.

---2016/08/07 16:54:58---
Oedipus has recieved 1 Rune Claws from Ancient Gorilla.

---2016/08/07 16:54:58---
Oedipus has recieved 1 List from Ancient Gorilla.

---2016/08/12 21:28:19---
Oedipus has recieved 1 Dragon Boots from General Graardor.

---2016/08/12 21:28:19---
Oedipus has recieved 12 Shark from General Graardor.

---2016/08/12 21:28:19---
Oedipus has recieved 1 Abyssal Tentacle from General Graardor.

---2016/08/12 21:28:19---
Oedipus has recieved 1 Rune 2h Sword from General Graardor.

---2016/08/12 21:28:19---
Oedipus has recieved 1 Amulet Of Fury from General Graardor.

---2016/08/12 21:28:19---
Oedipus has recieved 1 Bandos Tassets from General Graardor.

---2016/08/12 21:28:19---
Oedipus has recieved 1 Super Combat Potion(2) from General Graardor.

---2016/08/12 21:28:19---
Oedipus has recieved 1 Prayer Potion(3) from General Graardor.

---2016/08/12 21:28:19---
Oedipus has recieved 1 Ring Of Wealth from General Graardor.

---2016/08/12 21:28:19---
Oedipus has recieved 2 Chilli Potato from General Graardor.
