
---2016/07/01 17:31:51---
Ominous Fish has recieved 1 Bronze Pickaxe from Royal.

---2016/07/01 17:31:51---
Ominous Fish has recieved 770655 Coins from Royal.

---2016/07/01 17:31:51---
Ominous Fish has recieved 277 Dark Fishing Bait from Royal.

---2016/07/01 17:31:51---
Ominous Fish has recieved 1 Lobster Pot from Royal.

---2016/07/01 17:31:51---
Ominous Fish has recieved 5 Raw Dark Crab from Royal.

---2016/07/01 17:31:51---
Ominous Fish has recieved 315 Raw Dark Crab from Royal.
