
---2016/07/30 15:49:35---
One has recieved 23 Cooked Karambwan from Nezikchened.

---2016/07/30 15:49:35---
One has recieved 1 Lobster from Nezikchened.

---2016/07/30 15:49:35---
One has recieved 1 Black Boots from Nezikchened.

---2016/07/30 15:49:35---
One has recieved 1 Prayer Potion(2) from Nezikchened.

---2016/07/30 15:49:35---
One has recieved 95 Dragon Dart from Nezikchened.

---2016/07/31 13:46:24---
One has recieved 1 Book Of War from Callisto.

---2016/07/31 13:46:24---
One has recieved 25 Anglerfish from Callisto.

---2016/07/31 13:46:24---
One has recieved 12407 Coins from Callisto.

---2016/07/31 13:46:24---
One has recieved 2 Prayer Potion(3) from Callisto.

---2016/07/31 13:46:24---
One has recieved 34 Rune Arrow from Callisto.

---2016/07/31 13:46:24---
One has recieved 111 Dragon Dart from Callisto.

---2016/08/02 19:00:45---
One has recieved 1 Climbing Boots from Nezikchened.

---2016/08/02 19:00:45---
One has recieved 6000 Coins from Nezikchened.

---2016/08/02 19:00:45---
One has recieved 1 Book Of Darkness from Nezikchened.

---2016/08/02 19:00:45---
One has recieved 27 Bolt Rack from Nezikchened.

---2016/08/02 19:00:45---
One has recieved 1 Enchanted Robe from Nezikchened.

---2016/08/02 19:00:45---
One has recieved 1 Infinity Hat from Nezikchened.

---2016/08/02 19:00:45---
One has recieved 1 Mage'S Book from Nezikchened.

---2016/08/02 19:00:45---
One has recieved 1 Amulet Of Glory(6) from Nezikchened.

---2016/08/02 19:00:45---
One has recieved 976 Air Rune from Nezikchened.

---2016/08/02 19:00:45---
One has recieved 585 Death Rune from Nezikchened.

---2016/08/02 19:00:45---
One has recieved 1 Fire Battlestaff from Nezikchened.

---2016/08/02 19:00:45---
One has recieved 67 Nature Rune from Nezikchened.

---2016/08/02 19:00:45---
One has recieved 650 Chaos Rune from Nezikchened.

---2016/08/02 19:00:45---
One has recieved 15 Lobster from Nezikchened.

---2016/08/05 19:42:35---
One has recieved 17 Anglerfish from Smoke Devil.

---2016/08/05 19:42:35---
One has recieved 1 Super Combat Potion(4) from Smoke Devil.

---2016/08/05 19:42:35---
One has recieved 1 Super Combat Potion(3) from Smoke Devil.

---2016/08/05 19:42:35---
One has recieved 6 Prayer Potion(3) from Smoke Devil.

---2016/08/05 19:42:35---
One has recieved 758 Rune Arrow from Smoke Devil.

---2016/08/08 19:49:15---
One has recieved 1 Black D'Hide Chaps from Callisto.

---2016/08/08 19:49:15---
One has recieved 10 Shark from Callisto.

---2016/08/08 19:49:15---
One has recieved 10 Super Restore(3) from Callisto.

---2016/08/08 19:49:15---
One has recieved 1 Crystal Bow Full from Callisto.

---2016/08/08 19:49:15---
One has recieved 1 Snakeskin Boots from Callisto.

---2016/08/08 19:49:15---
One has recieved 3 Ranging Potion(3) from Callisto.

---2016/08/08 19:49:15---
One has recieved 7 Dragon Bolts from Callisto.

---2016/08/08 19:49:15---
One has recieved 1 Guthix Coif from Callisto.

---2016/08/11 01:15:07---
One has recieved 1 Karil'S Leathertop from Ancient Gorilla.

---2016/08/11 01:15:07---
One has recieved 1 Dragon Boots from Ancient Gorilla.

---2016/08/11 01:15:07---
One has recieved 13 Shark from Ancient Gorilla.

---2016/08/11 01:15:07---
One has recieved 1 Karil'S Leatherskirt from Ancient Gorilla.

---2016/08/11 01:15:07---
One has recieved 12081038 Coins from Ancient Gorilla.

---2016/08/11 01:15:07---
One has recieved 1 Ring Of Wealth from Ancient Gorilla.

---2016/08/11 01:15:07---
One has recieved 5 Super Restore(4) from Ancient Gorilla.

---2016/08/11 01:15:07---
One has recieved 1 Super Restore(3) from Ancient Gorilla.

---2016/08/11 01:15:07---
One has recieved 1 Super Restore(1) from Ancient Gorilla.

---2016/08/11 01:15:07---
One has recieved 1 Super Combat Potion(4) from Ancient Gorilla.

---2016/08/11 01:15:07---
One has recieved 1 Tooth Half Of Key from Ancient Gorilla.

---2016/08/11 01:15:07---
One has recieved 282 Dragon Bolts (E) from Ancient Gorilla.

---2016/08/11 01:15:07---
One has recieved 1 Super Combat Potion(1) from Ancient Gorilla.

---2016/08/19 06:37:05---
One has recieved 1 Dragon Boots from Demonic Gorilla.

---2016/08/19 06:37:05---
One has recieved 1 Super Restore(4) from Demonic Gorilla.

---2016/08/19 06:37:05---
One has recieved 1 Monkey Paw from Demonic Gorilla.

---2016/08/19 06:37:05---
One has recieved 1 Karil'S Leatherskirt from Demonic Gorilla.

---2016/08/19 06:37:05---
One has recieved 48270 Coins from Demonic Gorilla.

---2016/08/19 06:37:05---
One has recieved 1 Super Restore(2) from Demonic Gorilla.

---2016/08/19 06:37:05---
One has recieved 16 Cooked Karambwan from Demonic Gorilla.

---2016/08/19 06:37:05---
One has recieved 1 Super Combat Potion(2) from Demonic Gorilla.

---2016/08/19 06:37:05---
One has recieved 1 Ring Of Wealth from Demonic Gorilla.

---2016/08/19 06:37:05---
One has recieved 1 Saradomin Brew(4) from Demonic Gorilla.

---2016/08/19 07:58:36---
One has recieved 1 Karil'S Leathertop from Demonic Gorilla.

---2016/08/19 07:58:36---
One has recieved 1 Dragon Boots from Demonic Gorilla.

---2016/08/19 07:58:36---
One has recieved 2 Super Restore(4) from Demonic Gorilla.

---2016/08/19 07:58:36---
One has recieved 1 Karil'S Leatherskirt from Demonic Gorilla.

---2016/08/19 07:58:36---
One has recieved 46957 Coins from Demonic Gorilla.

---2016/08/19 07:58:36---
One has recieved 1 Vial from Demonic Gorilla.

---2016/08/19 07:58:36---
One has recieved 1 Super Restore(1) from Demonic Gorilla.

---2016/08/19 07:58:36---
One has recieved 5 Cooked Karambwan from Demonic Gorilla.

---2016/08/19 07:58:36---
One has recieved 1 Rune Full Helm from Demonic Gorilla.

---2016/08/19 07:58:36---
One has recieved 1 Ring Of Wealth from Demonic Gorilla.

---2016/08/19 07:58:36---
One has recieved 1 Super Combat Potion(1) from Demonic Gorilla.

---2016/08/19 07:58:36---
One has recieved 2 Saradomin Brew(4) from Demonic Gorilla.

---2016/08/20 04:03:44---
One has recieved 1 Black D'Hide Chaps from Tuckah.

---2016/08/20 04:03:44---
One has recieved 20 Dark Crab from Tuckah.

---2016/08/20 04:03:44---
One has recieved 3 Super Restore(4) from Tuckah.

---2016/08/20 04:03:44---
One has recieved 4 Super Restore(3) from Tuckah.

---2016/08/20 04:03:44---
One has recieved 1 Dragonstone Amulet from Tuckah.

---2016/08/20 04:03:44---
One has recieved 1 Crystal Bow Full from Tuckah.

---2016/08/20 04:03:44---
One has recieved 1 Super Restore(1) from Tuckah.

---2016/08/20 04:03:44---
One has recieved 1 Black D'Hide Body from Tuckah.

---2016/08/20 04:03:44---
One has recieved 2 Ranging Potion(3) from Tuckah.

---2016/08/20 04:03:44---
One has recieved 2 Mysterious Emblem from Tuckah.

---2016/08/20 04:03:44---
One has recieved 12 Sea Turtle from Tuckah.

---2016/08/20 04:03:44---
One has recieved 1 Ranging Potion(1) from Tuckah.

---2016/08/27 04:54:11---
One has recieved 300 Pure Essence from Thermonuclear Smoke Devil.

---2016/08/27 04:54:11---
One has recieved 1 Karil'S Leatherskirt from Thermonuclear Smoke Devil.

---2016/08/27 04:54:11---
One has recieved 8 Prayer Potion(4) from Thermonuclear Smoke Devil.

---2016/08/27 04:54:11---
One has recieved 11 Cooked Karambwan from Thermonuclear Smoke Devil.

---2016/08/27 04:54:11---
One has recieved 1 Ranging Potion(3) from Thermonuclear Smoke Devil.

---2016/08/27 04:54:11---
One has recieved 1 Prayer Potion(3) from Thermonuclear Smoke Devil.

---2016/08/27 04:54:11---
One has recieved 1 Ring Of Wealth from Thermonuclear Smoke Devil.

---2016/08/27 04:54:11---
One has recieved 1 Ranging Potion(4) from Thermonuclear Smoke Devil.

---2016/08/27 04:54:11---
One has recieved 1 Dragonstone from Thermonuclear Smoke Devil.

---2016/08/27 04:54:11---
One has recieved 1 Crystal Bow Full from Thermonuclear Smoke Devil.

---2016/08/27 04:54:11---
One has recieved 1 Snakeskin Boots from Thermonuclear Smoke Devil.

---2016/08/27 04:54:11---
One has recieved 1470 Dragon Javelin from Thermonuclear Smoke Devil.

---2016/08/27 04:54:11---
One has recieved 1 Crystal Key from Thermonuclear Smoke Devil.

---2016/08/27 04:54:11---
One has recieved 446 Dragon Dart from Thermonuclear Smoke Devil.
