
---2016/08/01 06:09:51---
Payt021 has recieved 3 Super Restore(4) from Werewolf.

---2016/08/01 06:09:51---
Payt021 has recieved 1 Amulet Of Glory(4) from Werewolf.

---2016/08/01 06:09:51---
Payt021 has recieved 1 Rune Boots from Werewolf.

---2016/08/01 06:09:51---
Payt021 has recieved 1 Super Attack(4) from Werewolf.

---2016/08/01 06:09:51---
Payt021 has recieved 15 Bolt Rack from Werewolf.

---2016/08/01 06:09:51---
Payt021 has recieved 1 Super Strength(4) from Werewolf.

---2016/08/01 06:09:51---
Payt021 has recieved 1 Spade from Werewolf.

---2016/08/01 06:09:51---
Payt021 has recieved 1 Proselyte Hauberk from Werewolf.

---2016/08/01 06:09:51---
Payt021 has recieved 1 Super Defence(4) from Werewolf.

---2016/08/01 06:09:51---
Payt021 has recieved 11 Monkfish from Werewolf.

---2016/08/01 06:09:51---
Payt021 has recieved 1 Proselyte Cuisse from Werewolf.

---2016/08/01 06:09:51---
Payt021 has recieved 1 Warrior Ring from Werewolf.

---2016/08/01 06:29:25---
Payt021 has recieved 1 Rune Boots from Skotizo.

---2016/08/01 06:29:25---
Payt021 has recieved 1 Super Defence(3) from Skotizo.

---2016/08/01 06:29:25---
Payt021 has recieved 15 Bolt Rack from Skotizo.

---2016/08/01 06:29:25---
Payt021 has recieved 1 Proselyte Hauberk from Skotizo.

---2016/08/01 06:29:25---
Payt021 has recieved 7 Monkfish from Skotizo.

---2016/08/01 06:29:25---
Payt021 has recieved 1 Proselyte Cuisse from Skotizo.

---2016/08/01 06:29:25---
Payt021 has recieved 1 Warrior Ring from Skotizo.

---2016/08/01 06:29:25---
Payt021 has recieved 3 Super Restore(4) from Skotizo.

---2016/08/01 06:29:25---
Payt021 has recieved 1 Amulet Of Glory(4) from Skotizo.

---2016/08/01 06:29:25---
Payt021 has recieved 1 Super Attack(3) from Skotizo.

---2016/08/01 06:29:25---
Payt021 has recieved 1 Spade from Skotizo.

---2016/08/01 06:29:25---
Payt021 has recieved 1 Super Strength(3) from Skotizo.

---2016/08/01 06:29:25---
Payt021 has recieved 5 Dragon Dart from Skotizo.

---2016/08/01 06:29:25---
Payt021 has recieved 1 Dragon Dagger from Skotizo.

---2016/08/18 11:48:13---
Payt021 has recieved 3 Super Restore(4) from Red Dragon.

---2016/08/18 11:48:13---
Payt021 has recieved 1 Super Restore(3) from Red Dragon.

---2016/08/18 11:48:13---
Payt021 has recieved 1 Super Attack(2) from Red Dragon.

---2016/08/18 11:48:13---
Payt021 has recieved 1 Super Defence(2) from Red Dragon.

---2016/08/18 11:48:13---
Payt021 has recieved 1 Vial from Red Dragon.

---2016/08/18 11:48:13---
Payt021 has recieved 3 Monkfish from Red Dragon.

---2016/08/18 11:48:13---
Payt021 has recieved 1 Proselyte Cuisse from Red Dragon.

---2016/08/18 11:48:13---
Payt021 has recieved 1 Amulet Of Strength from Red Dragon.

---2016/08/18 11:48:13---
Payt021 has recieved 1 Super Strength(2) from Red Dragon.

---2016/08/26 21:47:56---
Payt021 has recieved 5 Super Restore(4) from Abyssal Scion.

---2016/08/26 21:47:56---
Payt021 has recieved 20 Shark from Abyssal Scion.

---2016/08/26 21:47:56---
Payt021 has recieved 1 Verac'S Flail from Abyssal Scion.

---2016/08/26 21:47:56---
Payt021 has recieved 1 Super Attack(2) from Abyssal Scion.

---2016/08/26 21:47:56---
Payt021 has recieved 1 Super Defence(2) from Abyssal Scion.

---2016/08/26 21:47:56---
Payt021 has recieved 1 Helm Of Neitiznot from Abyssal Scion.

---2016/08/26 21:47:56---
Payt021 has recieved 1 Amulet Of Strength from Abyssal Scion.

---2016/08/26 21:47:56---
Payt021 has recieved 1 Super Strength(2) from Abyssal Scion.

---2016/08/27 02:59:59---
Payt021 has recieved 4 Super Restore(4) from Ancient Gorilla.

---2016/08/27 02:59:59---
Payt021 has recieved 8 Shark from Ancient Gorilla.

---2016/08/27 02:59:59---
Payt021 has recieved 1 Verac'S Flail from Ancient Gorilla.

---2016/08/27 02:59:59---
Payt021 has recieved 1 Super Attack(2) from Ancient Gorilla.

---2016/08/27 02:59:59---
Payt021 has recieved 1 Super Restore(2) from Ancient Gorilla.

---2016/08/27 02:59:59---
Payt021 has recieved 1 Super Defence(2) from Ancient Gorilla.

---2016/08/27 02:59:59---
Payt021 has recieved 1 Spade from Ancient Gorilla.

---2016/08/27 02:59:59---
Payt021 has recieved 1 Helm Of Neitiznot from Ancient Gorilla.

---2016/08/27 02:59:59---
Payt021 has recieved 1 Amulet Of Strength from Ancient Gorilla.

---2016/08/27 02:59:59---
Payt021 has recieved 1 Super Strength(2) from Ancient Gorilla.

---2016/08/27 03:01:09---
Payt021 has recieved 1 Verac'S Flail from Ancient Gorilla.

---2016/08/27 03:01:09---
Payt021 has recieved 1 Helm Of Neitiznot from Ancient Gorilla.

---2016/08/27 03:01:09---
Payt021 has recieved 1 Amulet Of Strength from Ancient Gorilla.

---2016/08/27 03:01:34---
Payt021 has recieved 3 Shark from Ancient Gorilla.
