
---2016/07/01 22:04:45---
Power has recieved 1 Anti-Dragon Shield from Baby Dragon.

---2016/07/01 22:04:45---
Power has recieved 1 Blue Dragonhide from Baby Dragon.

---2016/07/01 22:04:45---
Power has recieved 1 Dragon Bones from Baby Dragon.

---2016/07/01 22:04:45---
Power has recieved 29 Runite Bolts from Baby Dragon.

---2016/07/01 22:04:45---
Power has recieved 1 Snakeskin Boots from Baby Dragon.

---2016/07/01 22:04:45---
Power has recieved 1 Black D'Hide Vamb from Baby Dragon.

---2016/07/01 22:04:45---
Power has recieved 1 Enchanted Gem from Baby Dragon.

---2016/07/01 22:04:45---
Power has recieved 369 Rune Arrow from Baby Dragon.

---2016/07/01 22:04:45---
Power has recieved 1 Magic Shortbow from Baby Dragon.

---2016/07/01 22:04:45---
Power has recieved 1 Crystal Key from Baby Dragon.
