
---2016/06/29 21:30:30---
Pressure has recieved 1 Amulet Of Glory(4) from Lava Dragon.

---2016/06/29 21:30:30---
Pressure has recieved 1 Anti-Dragon Shield from Lava Dragon.

---2016/06/29 21:30:30---
Pressure has recieved 1 Slave Robe from Lava Dragon.

---2016/06/29 21:30:30---
Pressure has recieved 1 Slave Boots from Lava Dragon.

---2016/06/29 21:30:30---
Pressure has recieved 1 Super Combat Potion(4) from Lava Dragon.

---2016/06/29 21:30:30---
Pressure has recieved 2 Lava Dragon Bones from Lava Dragon.

---2016/06/29 21:30:30---
Pressure has recieved 22 Monkfish from Lava Dragon.

---2016/06/29 21:30:30---
Pressure has recieved 19 Rune Javelin from Lava Dragon.

---2016/06/30 20:50:12---
Pressure has recieved 2 Super Restore(4) from Ancient Gorilla.

---2016/06/30 20:50:12---
Pressure has recieved 1 Amulet Of Glory(4) from Ancient Gorilla.

---2016/06/30 20:50:12---
Pressure has recieved 1 Rune Sq Shield from Ancient Gorilla.

---2016/06/30 20:50:12---
Pressure has recieved 22 Shark from Ancient Gorilla.

---2016/06/30 20:50:12---
Pressure has recieved 1 Rapier from Ancient Gorilla.

---2016/06/30 20:50:12---
Pressure has recieved 1 Super Combat Potion(3) from Ancient Gorilla.

---2016/06/30 20:50:12---
Pressure has recieved 1 Helm Of Neitiznot from Ancient Gorilla.

---2016/06/30 20:50:42---
Pressure has recieved 1 Rune Sq Shield from Monkey Archer.

---2016/06/30 20:50:42---
Pressure has recieved 1 Shark from Monkey Archer.

---2016/06/30 20:50:42---
Pressure has recieved 1 Rapier from Monkey Archer.

---2016/06/30 20:50:42---
Pressure has recieved 1 Helm Of Neitiznot from Monkey Archer.

---2016/06/30 21:33:50---
Pressure has recieved 1 Black D'Hide Chaps from Ancient Gorilla.

---2016/06/30 21:33:50---
Pressure has recieved 8 Shark from Ancient Gorilla.

---2016/06/30 21:33:50---
Pressure has recieved 176214 Coins from Ancient Gorilla.

---2016/06/30 21:33:50---
Pressure has recieved 1 Dragonstone Amulet from Ancient Gorilla.

---2016/06/30 21:33:50---
Pressure has recieved 1 Black D'Hide Body from Ancient Gorilla.

---2016/06/30 21:33:50---
Pressure has recieved 387 Rune Dart from Ancient Gorilla.

---2016/06/30 21:33:50---
Pressure has recieved 8 Super Restore(4) from Ancient Gorilla.

---2016/06/30 21:33:50---
Pressure has recieved 130 Death Rune from Ancient Gorilla.

---2016/06/30 21:33:50---
Pressure has recieved 1 Amulet Of Glory(4) from Ancient Gorilla.

---2016/06/30 21:33:50---
Pressure has recieved 625 Blood Rune from Ancient Gorilla.

---2016/06/30 21:33:50---
Pressure has recieved 1 Super Combat Potion(4) from Ancient Gorilla.

---2016/06/30 21:33:50---
Pressure has recieved 1 Tooth Half Of Key from Ancient Gorilla.

---2016/06/30 21:33:50---
Pressure has recieved 1 Black D'Hide Vamb from Ancient Gorilla.

---2016/06/30 21:33:50---
Pressure has recieved 197 Rune Arrow from Ancient Gorilla.

---2016/06/30 21:33:50---
Pressure has recieved 2 Rune Claws from Ancient Gorilla.

---2016/06/30 21:37:12---
Pressure has recieved 5 Super Restore(4) from Ancient Gorilla.

---2016/06/30 21:37:12---
Pressure has recieved 1 Amulet Of Glory(4) from Ancient Gorilla.

---2016/06/30 21:37:12---
Pressure has recieved 20 Shark from Ancient Gorilla.

---2016/06/30 21:37:12---
Pressure has recieved 176214 Coins from Ancient Gorilla.

---2016/06/30 21:37:12---
Pressure has recieved 1 Super Combat Potion(3) from Ancient Gorilla.

---2016/06/30 21:37:12---
Pressure has recieved 1 Black D'Hide Vamb from Ancient Gorilla.

---2016/06/30 21:37:12---
Pressure has recieved 383 Rune Dart from Ancient Gorilla.

---2016/06/30 21:37:12---
Pressure has recieved 197 Rune Arrow from Ancient Gorilla.

---2016/06/30 21:37:12---
Pressure has recieved 1 Bones from Ancient Gorilla.

---2016/07/01 16:31:11---
Pressure has recieved 13 Shark from Monkey Archer.

---2016/07/01 16:31:11---
Pressure has recieved 1 Damaged Unholy Book from Monkey Archer.

---2016/07/01 16:31:11---
Pressure has recieved 35815 Coins from Monkey Archer.

---2016/07/01 16:31:11---
Pressure has recieved 137 Rune Dart from Monkey Archer.

---2016/07/01 16:31:11---
Pressure has recieved 7 Super Restore(4) from Monkey Archer.

---2016/07/01 16:31:11---
Pressure has recieved 110 Death Rune from Monkey Archer.

---2016/07/01 16:31:11---
Pressure has recieved 1 Amulet Of Glory(4) from Monkey Archer.

---2016/07/01 16:31:11---
Pressure has recieved 29 Green Dragon Leather from Monkey Archer.

---2016/07/01 16:31:11---
Pressure has recieved 192 Blood Rune from Monkey Archer.

---2016/07/01 16:31:11---
Pressure has recieved 1 Super Restore(1) from Monkey Archer.

---2016/07/01 16:31:11---
Pressure has recieved 1 Black D'Hide Vamb from Monkey Archer.

---2016/07/01 16:31:11---
Pressure has recieved 10 Runite Bar from Monkey Archer.

---2016/07/01 16:31:11---
Pressure has recieved 197 Rune Arrow from Monkey Archer.

---2016/07/01 17:58:24---
Pressure has recieved 1 Amulet Of Glory(4) from King Black Dragon.

---2016/07/01 17:58:24---
Pressure has recieved 20 Shark from King Black Dragon.

---2016/07/01 17:58:24---
Pressure has recieved 1 Climbing Boots from King Black Dragon.

---2016/07/01 17:58:24---
Pressure has recieved 2 Super Restore(3) from King Black Dragon.

---2016/07/01 17:58:24---
Pressure has recieved 1 Anti-Dragon Shield from King Black Dragon.

---2016/07/01 17:58:24---
Pressure has recieved 1 Dragon Bones from King Black Dragon.

---2016/07/01 17:58:24---
Pressure has recieved 1 Super Combat Potion(2) from King Black Dragon.

---2016/07/01 17:58:24---
Pressure has recieved 441 Dragon Dart from King Black Dragon.

---2016/07/01 18:13:47---
Pressure has recieved 1 Amulet Of Glory(4) from King Black Dragon.

---2016/07/01 18:13:47---
Pressure has recieved 1 Black D'Hide Chaps from King Black Dragon.

---2016/07/01 18:13:47---
Pressure has recieved 11 Shark from King Black Dragon.

---2016/07/01 18:13:47---
Pressure has recieved 1 Climbing Boots from King Black Dragon.

---2016/07/01 18:13:47---
Pressure has recieved 1 Super Restore(3) from King Black Dragon.

---2016/07/01 18:13:47---
Pressure has recieved 1 Super Restore(2) from King Black Dragon.

---2016/07/01 18:13:47---
Pressure has recieved 1 Anti-Dragon Shield from King Black Dragon.

---2016/07/01 18:13:47---
Pressure has recieved 3 Dragon Bones from King Black Dragon.

---2016/07/01 18:13:47---
Pressure has recieved 300 Fire Rune from King Black Dragon.

---2016/07/01 18:13:47---
Pressure has recieved 1 Super Combat Potion(1) from King Black Dragon.

---2016/07/01 18:13:47---
Pressure has recieved 405 Dragon Dart from King Black Dragon.

---2016/07/02 23:17:38---
Pressure has recieved 1 Amulet Of Glory(4) from Abyssal Monarch.

---2016/07/02 23:17:38---
Pressure has recieved 9 Shark from Abyssal Monarch.

---2016/07/02 23:17:38---
Pressure has recieved 2 Prayer Potion(4) from Abyssal Monarch.

---2016/07/02 23:17:38---
Pressure has recieved 1 Rune Boots from Abyssal Monarch.

---2016/07/02 23:17:38---
Pressure has recieved 256996 Coins from Abyssal Monarch.

---2016/07/02 23:17:38---
Pressure has recieved 2 Vial from Abyssal Monarch.

---2016/07/02 23:17:38---
Pressure has recieved 1 Clue Scroll (Easy) from Abyssal Monarch.

---2016/07/02 23:17:38---
Pressure has recieved 1 Prayer Potion(3) from Abyssal Monarch.

---2016/07/02 23:17:38---
Pressure has recieved 1 Helm Of Neitiznot from Abyssal Monarch.

---2016/07/02 23:17:38---
Pressure has recieved 1 Super Combat Potion(1) from Abyssal Monarch.

---2016/07/02 23:17:38---
Pressure has recieved 1 Dragon Dagger from Abyssal Monarch.

---2016/07/03 02:43:37---
Pressure has recieved 1 Amulet Of Glory(4) from Abyssal Monarch.

---2016/07/03 02:43:37---
Pressure has recieved 14 Shark from Abyssal Monarch.

---2016/07/03 02:43:37---
Pressure has recieved 1 Climbing Boots from Abyssal Monarch.

---2016/07/03 02:43:37---
Pressure has recieved 1 Prayer Potion(4) from Abyssal Monarch.

---2016/07/03 02:43:37---
Pressure has recieved 1 Vial from Abyssal Monarch.

---2016/07/03 02:43:37---
Pressure has recieved 1 Helm Of Neitiznot from Abyssal Monarch.

---2016/07/03 02:43:37---
Pressure has recieved 234 Rune Arrow from Abyssal Monarch.

---2016/07/03 02:43:37---
Pressure has recieved 1 Super Combat Potion(1) from Abyssal Monarch.

---2016/07/03 02:43:37---
Pressure has recieved 1 Combat Bracelet(4) from Abyssal Monarch.

---2016/07/03 02:43:37---
Pressure has recieved 1 Dragon Dagger from Abyssal Monarch.

---2016/07/03 03:59:30---
Pressure has recieved 1 Climbing Boots from Abyssal Monarch.

---2016/07/03 03:59:30---
Pressure has recieved 2 Prayer Potion(4) from Abyssal Monarch.

---2016/07/03 03:59:30---
Pressure has recieved 1 Clue Scroll (Hard) from Abyssal Monarch.

---2016/07/03 03:59:30---
Pressure has recieved 403447 Coins from Abyssal Monarch.

---2016/07/03 03:59:30---
Pressure has recieved 2 Vial from Abyssal Monarch.

---2016/07/03 03:59:30---
Pressure has recieved 1 Prayer Potion(3) from Abyssal Monarch.

---2016/07/03 03:59:30---
Pressure has recieved 1 Helm Of Neitiznot from Abyssal Monarch.

---2016/07/03 03:59:30---
Pressure has recieved 1 Combat Bracelet(4) from Abyssal Monarch.

---2016/07/03 03:59:30---
Pressure has recieved 1 Amulet Of Glory(4) from Abyssal Monarch.

---2016/07/03 03:59:30---
Pressure has recieved 350 Blood Rune from Abyssal Monarch.

---2016/07/03 03:59:30---
Pressure has recieved 1 Loop Half Of Key from Abyssal Monarch.

---2016/07/03 03:59:30---
Pressure has recieved 234 Rune Arrow from Abyssal Monarch.

---2016/07/03 03:59:30---
Pressure has recieved 2 Dragon Med Helm from Abyssal Monarch.

---2016/07/03 03:59:30---
Pressure has recieved 1 Crystal Key from Abyssal Monarch.

---2016/07/03 03:59:30---
Pressure has recieved 1 Dragon Dagger from Abyssal Monarch.

---2016/07/03 06:07:42---
Pressure has recieved 1 Dragon Boots from Abyssal Monarch.

---2016/07/03 06:07:42---
Pressure has recieved 1 Amulet Of Glory(4) from Abyssal Monarch.

---2016/07/03 06:07:42---
Pressure has recieved 1 Berserker Ring from Abyssal Monarch.

---2016/07/03 06:07:42---
Pressure has recieved 14 Shark from Abyssal Monarch.

---2016/07/03 06:07:42---
Pressure has recieved 1 Prayer Potion(4) from Abyssal Monarch.

---2016/07/03 06:07:42---
Pressure has recieved 1 Prayer Potion(3) from Abyssal Monarch.

---2016/07/03 06:07:42---
Pressure has recieved 1 Helm Of Neitiznot from Abyssal Monarch.

---2016/07/03 06:07:42---
Pressure has recieved 1 Super Combat Potion(1) from Abyssal Monarch.

---2016/07/03 06:07:42---
Pressure has recieved 1 Combat Bracelet(4) from Abyssal Monarch.

---2016/07/03 06:07:42---
Pressure has recieved 1 Dragon Dagger from Abyssal Monarch.

---2016/07/03 22:03:35---
Pressure has recieved 9 Shark from Inflexion.

---2016/07/03 22:03:35---
Pressure has recieved 1 Climbing Boots from Inflexion.

---2016/07/03 22:03:35---
Pressure has recieved 1 Ancient Staff from Inflexion.

---2016/07/03 22:03:35---
Pressure has recieved 1 Black D'Hide Body from Inflexion.

---2016/07/03 22:03:35---
Pressure has recieved 1 Ahrim'S Robetop from Inflexion.

---2016/07/03 22:03:35---
Pressure has recieved 4 Cooked Karambwan from Inflexion.

---2016/07/03 22:03:35---
Pressure has recieved 1 Dragon Plateskirt from Inflexion.

---2016/07/03 22:03:35---
Pressure has recieved 1 Mage'S Book from Inflexion.

---2016/07/03 22:03:35---
Pressure has recieved 1 Ahrim'S Robeskirt from Inflexion.

---2016/07/03 22:03:35---
Pressure has recieved 1 Dragon Scimitar from Inflexion.

---2016/07/03 22:03:35---
Pressure has recieved 1046 Water Rune from Inflexion.

---2016/07/03 22:03:35---
Pressure has recieved 1 Helm Of Neitiznot from Inflexion.

---2016/07/03 22:03:35---
Pressure has recieved 1 Combat Bracelet(4) from Inflexion.

---2016/07/03 22:03:35---
Pressure has recieved 2 Super Restore(4) from Inflexion.

---2016/07/03 22:03:35---
Pressure has recieved 514 Death Rune from Inflexion.

---2016/07/03 22:03:35---
Pressure has recieved 1 Amulet Of Glory(4) from Inflexion.

---2016/07/03 22:03:35---
Pressure has recieved 1456 Blood Rune from Inflexion.

---2016/07/03 22:03:35---
Pressure has recieved 1 Ring Of Recoil from Inflexion.

---2016/07/03 22:03:35---
Pressure has recieved 1 Super Combat Potion(3) from Inflexion.

---2016/07/03 22:03:35---
Pressure has recieved 1 Dragon Dagger from Inflexion.

---2016/07/03 22:09:51---
Pressure has recieved 3 Shark from Inflexion.

---2016/07/03 22:09:51---
Pressure has recieved 1 Climbing Boots from Inflexion.

---2016/07/03 22:09:51---
Pressure has recieved 1 Ancient Staff from Inflexion.

---2016/07/03 22:09:51---
Pressure has recieved 1 Black D'Hide Body from Inflexion.

---2016/07/03 22:09:51---
Pressure has recieved 1 Ahrim'S Robetop from Inflexion.

---2016/07/03 22:09:51---
Pressure has recieved 4 Cooked Karambwan from Inflexion.

---2016/07/03 22:09:51---
Pressure has recieved 1 Mage'S Book from Inflexion.

---2016/07/03 22:09:51---
Pressure has recieved 1 Ahrim'S Robeskirt from Inflexion.

---2016/07/03 22:09:51---
Pressure has recieved 1 Dragon Scimitar from Inflexion.

---2016/07/03 22:09:51---
Pressure has recieved 907 Water Rune from Inflexion.

---2016/07/03 22:09:51---
Pressure has recieved 1 Helm Of Neitiznot from Inflexion.

---2016/07/03 22:09:51---
Pressure has recieved 1 Combat Bracelet(4) from Inflexion.

---2016/07/03 22:09:51---
Pressure has recieved 1 Super Restore(4) from Inflexion.

---2016/07/03 22:09:51---
Pressure has recieved 538 Death Rune from Inflexion.

---2016/07/03 22:09:51---
Pressure has recieved 1 Amulet Of Glory(4) from Inflexion.

---2016/07/03 22:09:51---
Pressure has recieved 1 Super Restore(3) from Inflexion.

---2016/07/03 22:09:51---
Pressure has recieved 468 Blood Rune from Inflexion.

---2016/07/03 22:09:51---
Pressure has recieved 1 Super Combat Potion(2) from Inflexion.

---2016/07/03 22:09:51---
Pressure has recieved 1 Dragon Dagger from Inflexion.

---2016/07/05 19:45:56---
Pressure has recieved 1 Dragon Boots from Lizardman Shaman.

---2016/07/05 19:45:56---
Pressure has recieved 8 Super Restore(4) from Lizardman Shaman.

---2016/07/05 19:45:56---
Pressure has recieved 1 Berserker Ring from Lizardman Shaman.

---2016/07/05 19:45:56---
Pressure has recieved 9 Shark from Lizardman Shaman.

---2016/07/05 19:45:56---
Pressure has recieved 1 Super Restore(2) from Lizardman Shaman.

---2016/07/05 19:45:56---
Pressure has recieved 1 Vial from Lizardman Shaman.

---2016/07/05 19:45:56---
Pressure has recieved 1 Dwarven Rock Cake from Lizardman Shaman.

---2016/07/05 19:45:56---
Pressure has recieved 1 Super Combat Potion(3) from Lizardman Shaman.

---2016/07/05 19:45:56---
Pressure has recieved 1 Tooth Half Of Key from Lizardman Shaman.

---2016/07/05 19:45:56---
Pressure has recieved 1 Dharok'S Helm from Lizardman Shaman.

---2016/07/05 19:45:56---
Pressure has recieved 234 Rune Arrow from Lizardman Shaman.

---2016/07/05 19:45:56---
Pressure has recieved 1 Dragon Dagger from Lizardman Shaman.

---2016/07/22 22:55:24---
Inflexion has dropped 1 Dragon Boots for Inflexion.

---2016/07/22 22:55:24---
Inflexion has dropped 16 Dark Crab for Inflexion.

---2016/07/22 22:55:24---
Inflexion has dropped 1 Dharok'S Helm for Inflexion.

---2016/07/22 22:55:24---
Inflexion has dropped 120 Earth Rune for Inflexion.

---2016/07/22 22:55:24---
Inflexion has dropped 1 Dharok'S Greataxe for Inflexion.

---2016/07/22 22:55:24---
Inflexion has dropped 1 Dharok'S Platebody for Inflexion.

---2016/07/22 22:55:24---
Inflexion has dropped 1 Super Restore(4) for Inflexion.

---2016/07/22 22:55:24---
Inflexion has dropped 44 Death Rune for Inflexion.

---2016/07/22 22:55:24---
Inflexion has dropped 1 Amulet Of Glory(4) for Inflexion.

---2016/07/22 22:55:24---
Inflexion has dropped 1 Dharok'S Platelegs for Inflexion.

---2016/07/22 22:55:24---
Inflexion has dropped 1 Super Restore(3) for Inflexion.

---2016/07/22 22:55:24---
Inflexion has dropped 88 Astral Rune for Inflexion.

---2016/07/22 22:55:24---
Inflexion has dropped 1 Super Combat Potion(3) for Inflexion.

---2016/07/22 22:55:24---
Inflexion has dropped 1 Saradomin Brew(4) for Inflexion.

---2016/07/22 22:55:24---
Inflexion has dropped 1 Dragon Dagger for Inflexion.

---2016/07/22 22:55:24---
Inflexion has dropped 1 Saradomin Brew(3) for Inflexion.

---2016/07/22 22:58:22---
Inflexion has dropped 1 Dragon Boots for Inflexion.

---2016/07/22 22:58:22---
Inflexion has dropped 9 Dark Crab for Inflexion.

---2016/07/22 22:58:22---
Inflexion has dropped 1 Saradomin Brew(2) for Inflexion.

---2016/07/22 22:58:22---
Inflexion has dropped 1 Dharok'S Helm for Inflexion.

---2016/07/22 22:58:22---
Inflexion has dropped 180 Earth Rune for Inflexion.

---2016/07/22 22:58:22---
Inflexion has dropped 1 Dharok'S Greataxe for Inflexion.

---2016/07/22 22:58:22---
Inflexion has dropped 1 Dharok'S Platebody for Inflexion.

---2016/07/22 22:58:22---
Inflexion has dropped 1 Super Restore(4) for Inflexion.

---2016/07/22 22:58:22---
Inflexion has dropped 46 Death Rune for Inflexion.

---2016/07/22 22:58:22---
Inflexion has dropped 1 Amulet Of Glory(4) for Inflexion.

---2016/07/22 22:58:22---
Inflexion has dropped 1 Dharok'S Platelegs for Inflexion.

---2016/07/22 22:58:22---
Inflexion has dropped 92 Astral Rune for Inflexion.

---2016/07/22 22:58:22---
Inflexion has dropped 1 Super Restore(2) for Inflexion.

---2016/07/22 22:58:22---
Inflexion has dropped 1 Super Combat Potion(2) for Inflexion.

---2016/07/22 22:58:22---
Inflexion has dropped 1 Saradomin Brew(4) for Inflexion.

---2016/07/22 22:58:22---
Inflexion has dropped 1 Saradomin Sword for Inflexion.

---2016/07/22 22:58:26---
Pressure has recieved 1 Dragon Boots from Inflexion.

---2016/07/22 22:58:26---
Pressure has recieved 3 Dark Crab from Inflexion.

---2016/07/22 22:58:26---
Pressure has recieved 14 Shark from Inflexion.

---2016/07/22 22:58:26---
Pressure has recieved 1 Dharok'S Helm from Inflexion.

---2016/07/22 22:58:26---
Pressure has recieved 274 Earth Rune from Inflexion.

---2016/07/22 22:58:26---
Pressure has recieved 1 Dharok'S Greataxe from Inflexion.

---2016/07/22 22:58:26---
Pressure has recieved 2 Super Restore(4) from Inflexion.

---2016/07/22 22:58:26---
Pressure has recieved 390 Death Rune from Inflexion.

---2016/07/22 22:58:26---
Pressure has recieved 1 Berserker Ring from Inflexion.

---2016/07/22 22:58:26---
Pressure has recieved 1 Dharok'S Platelegs from Inflexion.

---2016/07/22 22:58:26---
Pressure has recieved 732 Astral Rune from Inflexion.

---2016/07/22 22:58:26---
Pressure has recieved 1 Abyssal Whip from Inflexion.

---2016/07/22 22:58:26---
Pressure has recieved 1 Amulet Of Fury from Inflexion.

---2016/07/22 22:58:26---
Pressure has recieved 1 Super Combat Potion(2) from Inflexion.

---2016/07/22 22:58:26---
Pressure has recieved 1 Dragon Dagger from Inflexion.

---2016/07/22 23:06:40---
Pressure has recieved 1 Dragon Boots from Inflexion.

---2016/07/22 23:06:40---
Pressure has recieved 2 Super Restore(4) from Inflexion.

---2016/07/22 23:06:40---
Pressure has recieved 36 Death Rune from Inflexion.

---2016/07/22 23:06:40---
Pressure has recieved 1 Amulet Of Glory(4) from Inflexion.

---2016/07/22 23:06:40---
Pressure has recieved 9 Shark from Inflexion.

---2016/07/22 23:06:40---
Pressure has recieved 72 Astral Rune from Inflexion.

---2016/07/22 23:06:40---
Pressure has recieved 1 Super Combat Potion(3) from Inflexion.

---2016/07/22 23:06:40---
Pressure has recieved 1 Dharok'S Helm from Inflexion.

---2016/07/22 23:06:40---
Pressure has recieved 130 Earth Rune from Inflexion.

---2016/07/23 20:16:57---
Pressure has recieved 1 Dragon Boots from Pfraru.

---2016/07/23 20:16:57---
Pressure has recieved 2 Super Restore(4) from Pfraru.

---2016/07/23 20:16:57---
Pressure has recieved 228 Death Rune from Pfraru.

---2016/07/23 20:16:57---
Pressure has recieved 1 Amulet Of Glory(4) from Pfraru.

---2016/07/23 20:16:57---
Pressure has recieved 18 Shark from Pfraru.

---2016/07/23 20:16:57---
Pressure has recieved 206 Astral Rune from Pfraru.

---2016/07/23 20:16:57---
Pressure has recieved 25713520 Coins from Pfraru.

---2016/07/23 20:16:57---
Pressure has recieved 1 Dragon Scimitar from Pfraru.

---2016/07/23 20:16:57---
Pressure has recieved 1 Dharok'S Helm from Pfraru.

---2016/07/23 20:16:57---
Pressure has recieved 140 Earth Rune from Pfraru.

---2016/07/23 20:16:57---
Pressure has recieved 1 Dragon Dagger from Pfraru.

---2016/07/27 18:23:31---
Pressure has recieved 1 Dragon Boots from Floid.

---2016/07/27 18:23:31---
Pressure has recieved 2 Super Restore(4) from Floid.

---2016/07/27 18:23:31---
Pressure has recieved 1 Rune Kiteshield from Floid.

---2016/07/27 18:23:31---
Pressure has recieved 1 Berserker Ring from Floid.

---2016/07/27 18:23:31---
Pressure has recieved 23 Shark from Floid.

---2016/07/27 18:23:31---
Pressure has recieved 1 Abyssal Whip from Floid.

---2016/07/27 18:23:31---
Pressure has recieved 1 Rune Platebody from Floid.

---2016/07/27 18:23:31---
Pressure has recieved 1 Rune Platelegs from Floid.

---2016/07/27 18:23:31---
Pressure has recieved 1 Super Combat Potion(2) from Floid.

---2016/07/27 18:23:31---
Pressure has recieved 1 Helm Of Neitiznot from Floid.

---2016/07/27 18:23:31---
Pressure has recieved 1 Dragon Dagger from Floid.

---2016/07/29 23:26:19---
Pressure has recieved 2 Super Restore(4) from Inflexion.

---2016/07/29 23:26:19---
Pressure has recieved 190 Death Rune from Inflexion.

---2016/07/29 23:26:19---
Pressure has recieved 1 Berserker Ring from Inflexion.

---2016/07/29 23:26:19---
Pressure has recieved 7 Shark from Inflexion.

---2016/07/29 23:26:19---
Pressure has recieved 1 Serpentine Helm from Inflexion.

---2016/07/29 23:26:19---
Pressure has recieved 180 Astral Rune from Inflexion.

---2016/07/29 23:26:19---
Pressure has recieved 1 Dragon Halberd from Inflexion.

---2016/07/29 23:26:19---
Pressure has recieved 1 Abyssal Tentacle from Inflexion.

---2016/07/29 23:26:19---
Pressure has recieved 1 Primordial Boots from Inflexion.

---2016/07/29 23:26:19---
Pressure has recieved 1 Amulet Of Fury from Inflexion.

---2016/07/29 23:26:19---
Pressure has recieved 1 Super Combat Potion(2) from Inflexion.

---2016/07/29 23:26:19---
Pressure has recieved 350 Earth Rune from Inflexion.
