
---2016/07/15 09:00:50---
Purpl3 has recieved 1 Toolkit from Rock Crab.

---2016/07/15 09:00:50---
Purpl3 has recieved 250000 Coins from Rock Crab.

---2016/07/15 09:00:50---
Purpl3 has recieved 1 Staff Of Air from Rock Crab.

---2016/07/15 09:00:50---
Purpl3 has recieved 1 Shortbow from Rock Crab.

---2016/07/15 09:00:50---
Purpl3 has recieved 1 Bronze Scimitar from Rock Crab.

---2016/07/15 09:00:50---
Purpl3 has recieved 300 Fire Rune from Rock Crab.

---2016/07/15 09:00:50---
Purpl3 has recieved 100 Monkfish from Rock Crab.

---2016/07/15 09:00:50---
Purpl3 has recieved 100 Mind Rune from Rock Crab.

---2016/07/15 09:00:50---
Purpl3 has recieved 1 Amulet Of Glory(4) from Rock Crab.

---2016/07/15 09:00:50---
Purpl3 has recieved 100 Chaos Rune from Rock Crab.

---2016/07/15 09:00:50---
Purpl3 has recieved 1 Slave Robetop from Rock Crab.

---2016/07/15 09:00:50---
Purpl3 has recieved 250 Iron Arrow from Rock Crab.

---2016/07/15 09:00:50---
Purpl3 has recieved 1 Slave Robe from Rock Crab.

---2016/07/15 09:00:50---
Purpl3 has recieved 1 Slave Boots from Rock Crab.

---2016/07/15 09:00:50---
Purpl3 has recieved 5 Super Combat Potion(4) from Rock Crab.

---2016/07/15 09:00:50---
Purpl3 has recieved 1 Clue Scroll (Easy) from Rock Crab.

---2016/07/15 09:00:50---
Purpl3 has recieved 100 Rune Arrow from Rock Crab.

---2016/07/15 09:05:33---
Purpl3 has recieved 275887 Coins from Rock Crab.

---2016/07/15 09:05:33---
Purpl3 has recieved 1 Slave Robetop from Rock Crab.

---2016/07/15 09:05:33---
Purpl3 has recieved 1 Slave Robe from Rock Crab.

---2016/07/15 09:05:33---
Purpl3 has recieved 1 Slave Boots from Rock Crab.

---2016/07/15 09:05:33---
Purpl3 has recieved 1 Bronze Scimitar from Rock Crab.

---2016/07/15 09:05:33---
Purpl3 has recieved 1 Monkfish from Rock Crab.
