
---2016/07/18 21:59:43---
Purple has recieved 1 Amulet Of Glory(4) from Moss Giant.

---2016/07/18 21:59:43---
Purple has recieved 1 Climbing Boots from Moss Giant.

---2016/07/18 21:59:43---
Purple has recieved 84192 Coins from Moss Giant.

---2016/07/18 21:59:43---
Purple has recieved 1 Snapdragon Seed from Moss Giant.

---2016/07/18 21:59:43---
Purple has recieved 1 Big Bones from Moss Giant.

---2016/07/18 22:29:26---
Purple has recieved 1 Amulet Of Glory(4) from Moss Giant.

---2016/07/18 22:29:26---
Purple has recieved 1 Climbing Boots from Moss Giant.

---2016/07/18 22:29:26---
Purple has recieved 6000 Coins from Moss Giant.

---2016/07/18 22:29:26---
Purple has recieved 22 Big Bones from Moss Giant.

---2016/07/18 22:29:26---
Purple has recieved 1 Loop Half Of Key from Moss Giant.

---2016/07/19 00:30:06---
Purple has recieved 1 Amulet Of Glory(4) from Green Dragon.

---2016/07/19 00:30:06---
Purple has recieved 1 Rune Kiteshield from Green Dragon.

---2016/07/19 00:30:06---
Purple has recieved 19 Shark from Green Dragon.

---2016/07/19 00:30:06---
Purple has recieved 1 Climbing Boots from Green Dragon.

---2016/07/19 00:30:06---
Purple has recieved 4 Prayer Potion(4) from Green Dragon.

---2016/07/19 00:30:06---
Purple has recieved 1 Super Combat Potion(4) from Green Dragon.

---2016/07/19 00:30:06---
Purple has recieved 1 Dragon Bones from Green Dragon.

---2016/07/19 00:30:06---
Purple has recieved 1 Super Combat Potion(3) from Green Dragon.

---2016/07/19 00:30:06---
Purple has recieved 1 Helm Of Neitiznot from Green Dragon.
