
---2016/08/19 02:54:30---
Pwp Own has recieved 1 Black D'Hide Chaps from Abyssal Scion.

---2016/08/19 02:54:30---
Pwp Own has recieved 2 Prayer Potion(4) from Abyssal Scion.

---2016/08/19 02:54:30---
Pwp Own has recieved 1 Clue Scroll (Hard) from Abyssal Scion.

---2016/08/19 02:54:30---
Pwp Own has recieved 88691 Coins from Abyssal Scion.

---2016/08/19 02:54:30---
Pwp Own has recieved 1 Black D'Hide Body from Abyssal Scion.

---2016/08/19 02:54:30---
Pwp Own has recieved 4 Rune Full Helm from Abyssal Scion.

---2016/08/19 02:54:30---
Pwp Own has recieved 1 Prayer Potion(3) from Abyssal Scion.

---2016/08/19 02:54:30---
Pwp Own has recieved 5 Chaos Talisman from Abyssal Scion.

---2016/08/19 02:54:30---
Pwp Own has recieved 1 Cosmic Talisman from Abyssal Scion.

---2016/08/19 02:54:30---
Pwp Own has recieved 13 Death Rune from Abyssal Scion.

---2016/08/19 02:54:30---
Pwp Own has recieved 1 Snakeskin Boots from Abyssal Scion.

---2016/08/19 02:54:30---
Pwp Own has recieved 6 Clue Scroll (Easy) from Abyssal Scion.

---2016/08/19 02:54:30---
Pwp Own has recieved 1 Rune Med Helm from Abyssal Scion.

---2016/08/19 02:54:30---
Pwp Own has recieved 1 Black D'Hide Vamb from Abyssal Scion.

---2016/08/19 02:54:30---
Pwp Own has recieved 6 Rune Arrow from Abyssal Scion.

---2016/08/19 02:54:30---
Pwp Own has recieved 10 Lobster from Abyssal Scion.

---2016/08/19 02:54:30---
Pwp Own has recieved 1 Amulet Of Strength from Abyssal Scion.

---2016/08/19 02:54:30---
Pwp Own has recieved 1 Magic Shortbow from Abyssal Scion.

---2016/08/19 02:54:30---
Pwp Own has recieved 2 Crystal Key from Abyssal Scion.
