
---2016/07/05 20:04:56---
R4335123 has recieved 459 Bronze Arrow from Rock Crab.

---2016/07/05 20:04:56---
R4335123 has recieved 1 Slave Robetop from Rock Crab.

---2016/07/05 20:04:56---
R4335123 has recieved 232 Iron Arrow from Rock Crab.

---2016/07/05 20:04:56---
R4335123 has recieved 1 Slave Robe from Rock Crab.

---2016/07/05 20:04:56---
R4335123 has recieved 1 Slave Boots from Rock Crab.

---2016/07/05 20:04:56---
R4335123 has recieved 1 Shortbow from Rock Crab.

---2016/07/05 20:04:56---
R4335123 has recieved 98 Rune Arrow from Rock Crab.

---2016/07/05 20:09:07---
R4335123 has recieved 459 Bronze Arrow from Rock Crab.

---2016/07/05 20:09:07---
R4335123 has recieved 1 Slave Robetop from Rock Crab.

---2016/07/05 20:09:07---
R4335123 has recieved 226 Iron Arrow from Rock Crab.

---2016/07/05 20:09:07---
R4335123 has recieved 1 Slave Robe from Rock Crab.

---2016/07/05 20:09:07---
R4335123 has recieved 1 Slave Boots from Rock Crab.

---2016/07/05 20:09:07---
R4335123 has recieved 1 Shortbow from Rock Crab.

---2016/07/05 20:09:07---
R4335123 has recieved 84 Rune Arrow from Rock Crab.
