
---2016/07/18 21:36:51---
Rasmuze has recieved 1 Dragon Boots from Ancient Gorilla.

---2016/07/18 21:36:51---
Rasmuze has recieved 1 Amulet Of Glory(4) from Ancient Gorilla.

---2016/07/18 21:36:51---
Rasmuze has recieved 8 Prayer Potion(4) from Ancient Gorilla.

---2016/07/18 21:36:51---
Rasmuze has recieved 1 Anti-Dragon Shield from Ancient Gorilla.

---2016/07/18 21:36:51---
Rasmuze has recieved 210 Iron Arrow from Ancient Gorilla.

---2016/07/18 21:36:51---
Rasmuze has recieved 1 Super Combat Potion(4) from Ancient Gorilla.

---2016/07/18 21:36:51---
Rasmuze has recieved 19 Monkfish from Ancient Gorilla.

---2016/08/05 09:32:15---
Rasmuze has recieved 1 Dragon Boots from Abyssal Monarch.

---2016/08/05 09:32:15---
Rasmuze has recieved 1 Amulet Of Glory(4) from Abyssal Monarch.

---2016/08/05 09:32:15---
Rasmuze has recieved 17 Prayer Potion(4) from Abyssal Monarch.

---2016/08/05 09:32:15---
Rasmuze has recieved 1 Slayer Bell from Abyssal Monarch.

---2016/08/05 09:32:15---
Rasmuze has recieved 2 Prayer Potion(3) from Abyssal Monarch.

---2016/08/05 11:41:54---
Rasmuze has recieved 1 Amulet Of Glory(4) from Tor.

---2016/08/05 11:41:54---
Rasmuze has recieved 6 Shark from Tor.

---2016/08/05 11:41:54---
Rasmuze has recieved 4 Prayer Potion(4) from Tor.

---2016/08/05 11:41:54---
Rasmuze has recieved 1 Anti-Dragon Shield from Tor.

---2016/08/05 11:41:54---
Rasmuze has recieved 1 Super Combat Potion(4) from Tor.

---2016/08/05 11:41:54---
Rasmuze has recieved 1 Antifire Potion(1) from Tor.

---2016/08/05 11:41:54---
Rasmuze has recieved 1 Super Combat Potion(2) from Tor.

---2016/08/05 11:41:54---
Rasmuze has recieved 2 Prayer Potion(3) from Tor.

---2016/08/05 11:41:54---
Rasmuze has recieved 1 Prayer Potion(1) from Tor.
