
---2016/08/17 07:54:28---
Re Toxic has recieved 1 Amulet Of Glory(4) from Lava Dragon.

---2016/08/17 07:54:28---
Re Toxic has recieved 152 Coins from Lava Dragon.

---2016/08/17 07:54:28---
Re Toxic has recieved 1 Slave Robetop from Lava Dragon.

---2016/08/17 07:54:28---
Re Toxic has recieved 1 Rune Scimitar from Lava Dragon.

---2016/08/17 07:54:28---
Re Toxic has recieved 1 Slave Robe from Lava Dragon.

---2016/08/17 07:54:28---
Re Toxic has recieved 1 Slave Boots from Lava Dragon.

---2016/08/17 07:54:28---
Re Toxic has recieved 4 Monkfish from Lava Dragon.

---2016/08/17 07:54:28---
Re Toxic has recieved 6 Choc-Ice from Lava Dragon.

---2016/08/17 07:54:28---
Re Toxic has recieved 6 Fur from Lava Dragon.
