
---2016/06/30 08:08:17---
S U O M I has recieved 1 Amulet Of Glory(4) from Rock Crab.

---2016/06/30 08:08:17---
S U O M I has recieved 1 Black Sword from Rock Crab.

---2016/06/30 08:08:17---
S U O M I has recieved 162679 Coins from Rock Crab.

---2016/06/30 08:08:17---
S U O M I has recieved 1 Slave Robetop from Rock Crab.

---2016/06/30 08:08:17---
S U O M I has recieved 1 Anti-Dragon Shield from Rock Crab.

---2016/06/30 08:08:17---
S U O M I has recieved 1 Slave Robe from Rock Crab.

---2016/06/30 08:08:17---
S U O M I has recieved 1 Slave Boots from Rock Crab.

---2016/06/30 08:08:17---
S U O M I has recieved 1 Highwayman Mask from Rock Crab.

---2016/06/30 08:08:17---
S U O M I has recieved 1 Spade from Rock Crab.

---2016/06/30 08:08:17---
S U O M I has recieved 1 Bandos Robe Top from Rock Crab.

---2016/06/30 08:08:17---
S U O M I has recieved 1 Bronze Scimitar from Rock Crab.

---2016/06/30 08:08:17---
S U O M I has recieved 1 Black Shield (H2) from Rock Crab.
