
---2016/08/06 10:04:30---
Sacred has recieved 4 Shark from Ancient Gorilla.

---2016/08/06 10:04:30---
Sacred has recieved 2 Prayer Potion(4) from Ancient Gorilla.

---2016/08/06 10:04:30---
Sacred has recieved 1 Crystal Bow Full from Ancient Gorilla.

---2016/08/06 10:04:30---
Sacred has recieved 1 Snakeskin Boots from Ancient Gorilla.

---2016/08/06 10:04:30---
Sacred has recieved 409 Rune Arrow from Ancient Gorilla.

---2016/08/06 10:04:30---
Sacred has recieved 1 Amulet Of Glory(3) from Ancient Gorilla.

---2016/08/06 10:04:30---
Sacred has recieved 2 Prayer Potion(1) from Ancient Gorilla.

---2016/08/09 20:20:28---
Sacred has recieved 9 Prayer Potion(4) from Demonic Gorilla.

---2016/08/09 20:20:28---
Sacred has recieved 1 Rune Boots from Demonic Gorilla.

---2016/08/09 20:20:28---
Sacred has recieved 1 Super Combat Potion(4) from Demonic Gorilla.

---2016/08/09 20:20:28---
Sacred has recieved 1 Amulet Of Fury from Demonic Gorilla.

---2016/08/09 20:20:28---
Sacred has recieved 1 Super Combat Potion(3) from Demonic Gorilla.

---2016/08/09 20:20:28---
Sacred has recieved 1 Prayer Potion(3) from Demonic Gorilla.

---2016/08/09 20:20:28---
Sacred has recieved 1 Helm Of Neitiznot from Demonic Gorilla.
