
---2016/07/02 02:14:03---
Saint has recieved 1 Amulet Of Glory(4) from Bronze Dragon.

---2016/07/02 02:14:03---
Saint has recieved 5 Prayer Potion(4) from Bronze Dragon.

---2016/07/02 02:14:03---
Saint has recieved 1 Rune Boots from Bronze Dragon.

---2016/07/02 02:14:03---
Saint has recieved 100331 Coins from Bronze Dragon.

---2016/07/02 02:14:03---
Saint has recieved 1 Super Combat Potion(3) from Bronze Dragon.

---2016/07/02 02:14:03---
Saint has recieved 12 Monkfish from Bronze Dragon.

---2016/07/02 02:14:03---
Saint has recieved 1 Elemental Shield from Bronze Dragon.

---2016/07/03 19:15:05---
Saint has recieved 2 Super Restore(4) from Abyssal Scion.

---2016/07/03 19:15:05---
Saint has recieved 1 Barrel from Abyssal Scion.

---2016/07/03 19:15:05---
Saint has recieved 1 Karil'S Leatherskirt from Abyssal Scion.

---2016/07/03 19:15:05---
Saint has recieved 1 Super Restore(3) from Abyssal Scion.

---2016/07/03 19:15:05---
Saint has recieved 1 Rune Boots from Abyssal Scion.

---2016/07/03 19:15:05---
Saint has recieved 190 Bolt Rack from Abyssal Scion.

---2016/07/03 19:15:05---
Saint has recieved 1 Vial from Abyssal Scion.

---2016/07/03 19:15:05---
Saint has recieved 1 Mole Claw from Abyssal Scion.

---2016/07/03 19:15:05---
Saint has recieved 1 Karil'S Coif from Abyssal Scion.

---2016/08/31 21:44:04---
Saint has recieved 1 Primordial Boots from Matt.
