
---2016/08/04 18:29:37---
Satanic has recieved 2 Uncut Dragonstone from Ancient Gorilla.

---2016/08/04 18:29:37---
Satanic has recieved 275 Bolt Rack from Ancient Gorilla.

---2016/08/04 18:29:37---
Satanic has recieved 4 Cooked Karambwan from Ancient Gorilla.

---2016/08/04 18:29:37---
Satanic has recieved 1 Dragon Scimitar from Ancient Gorilla.

---2016/08/04 18:29:37---
Satanic has recieved 1 Helm Of Neitiznot from Ancient Gorilla.

---2016/08/04 18:29:37---
Satanic has recieved 1 Super Restore(4) from Ancient Gorilla.

---2016/08/04 18:29:37---
Satanic has recieved 1 Super Attack(2) from Ancient Gorilla.

---2016/08/04 18:29:37---
Satanic has recieved 1 Super Restore(2) from Ancient Gorilla.

---2016/08/04 18:29:37---
Satanic has recieved 1 Abyssal Whip from Ancient Gorilla.

---2016/08/04 18:29:37---
Satanic has recieved 1 Amulet Of Fury from Ancient Gorilla.

---2016/08/04 18:29:37---
Satanic has recieved 1 Enchanted Gem from Ancient Gorilla.

---2016/08/04 18:29:37---
Satanic has recieved 14 Runite Bar from Ancient Gorilla.

---2016/08/04 18:29:37---
Satanic has recieved 1 Rune Claws from Ancient Gorilla.

---2016/08/04 18:29:37---
Satanic has recieved 1 Ring Of Suffering from Ancient Gorilla.

---2016/08/04 18:29:37---
Satanic has recieved 1 Super Strength(2) from Ancient Gorilla.

---2016/08/04 18:29:37---
Satanic has recieved 1 Saradomin Brew(3) from Ancient Gorilla.

---2016/08/13 00:54:58---
Satanic has recieved 4 Super Restore(4) from Bouncer.

---2016/08/13 00:54:58---
Satanic has recieved 2 Super Restore(3) from Bouncer.

---2016/08/13 00:54:58---
Satanic has recieved 1 Book Of Law from Bouncer.

---2016/08/13 00:54:58---
Satanic has recieved 1 Clue Scroll (Hard) from Bouncer.

---2016/08/13 00:54:58---
Satanic has recieved 1 Snakeskin Boots from Bouncer.

---2016/08/13 00:54:58---
Satanic has recieved 1 Ranging Potion(3) from Bouncer.

---2016/08/13 00:54:58---
Satanic has recieved 2 Loop Half Of Key from Bouncer.

---2016/08/13 00:54:58---
Satanic has recieved 42 Dragon Bolts (E) from Bouncer.

---2016/08/13 00:54:58---
Satanic has recieved 1 Ranging Potion(4) from Bouncer.

---2016/08/13 00:54:58---
Satanic has recieved 1 Crystal Key from Bouncer.

---2016/08/13 00:54:58---
Satanic has recieved 1320 Dragon Dart from Bouncer.
