
---2016/08/06 01:32:37---
Scott has recieved 9 Prayer Potion(4) from Verac The Defiled.

---2016/08/06 01:32:37---
Scott has recieved 672632 Coins from Verac The Defiled.

---2016/08/06 01:32:37---
Scott has recieved 1 Spade from Verac The Defiled.

---2016/08/06 01:32:37---
Scott has recieved 1 Elemental Shield from Verac The Defiled.

---2016/08/07 20:24:48---
Scott has recieved 1 Black D'Hide Chaps from Black Dragon.

---2016/08/07 20:24:48---
Scott has recieved 1 Book Of Law from Black Dragon.

---2016/08/07 20:24:48---
Scott has recieved 1260 Mithril Knife from Black Dragon.

---2016/08/07 20:24:48---
Scott has recieved 1 Rune Boots from Black Dragon.

---2016/08/07 20:24:48---
Scott has recieved 1433 Bolt Rack from Black Dragon.

---2016/08/07 20:24:48---
Scott has recieved 1 Black Wizard Hat (T) from Black Dragon.

---2016/08/07 20:24:48---
Scott has recieved 19 Dragon Bones from Black Dragon.

---2016/08/07 20:24:48---
Scott has recieved 1 Ring Of Forging from Black Dragon.

---2016/08/07 20:24:48---
Scott has recieved 1 Tooth Half Of Key from Black Dragon.

---2016/08/07 20:24:48---
Scott has recieved 1 Black D'Hide Vamb from Black Dragon.

---2016/08/07 23:30:46---
Scott has recieved 1 Dragon chainbody from Dust Devil.

---2016/08/09 08:05:54---
Scott has recieved 115 Nature Rune from Sergeant Steelwill.

---2016/08/09 08:05:54---
Scott has recieved 1 Book Of Law from Sergeant Steelwill.

---2016/08/09 08:05:54---
Scott has recieved 1 Clue Scroll (Hard) from Sergeant Steelwill.

---2016/08/09 08:05:54---
Scott has recieved 1620 Adamant Knife from Sergeant Steelwill.

---2016/08/09 08:05:54---
Scott has recieved 1433 Bolt Rack from Sergeant Steelwill.

---2016/08/09 08:05:54---
Scott has recieved 234 Fire Rune from Sergeant Steelwill.

---2016/08/09 08:05:54---
Scott has recieved 1 Prayer Potion(2) from Sergeant Steelwill.

---2016/08/10 22:39:58---
Scott has recieved 9 Shark from Zulrah.

---2016/08/10 22:39:58---
Scott has recieved 1 Prayer Potion(4) from Zulrah.

---2016/08/10 22:39:58---
Scott has recieved 1 Rune Boots from Zulrah.

---2016/08/10 22:39:58---
Scott has recieved 795 Adamant Knife from Zulrah.

---2016/08/10 22:39:58---
Scott has recieved 1 Anti-Dragon Shield from Zulrah.

---2016/08/10 22:39:58---
Scott has recieved 1 Prayer Potion(1) from Zulrah.

---2016/08/21 08:25:46---
Scott has recieved 9 Shark from Penance Queen.

---2016/08/21 08:25:46---
Scott has recieved 1 Dharok'S Platelegs from Penance Queen.

---2016/08/21 08:25:46---
Scott has recieved 5 Super Restore(3) from Penance Queen.

---2016/08/21 08:25:46---
Scott has recieved 1 Rune Boots from Penance Queen.

---2016/08/21 08:25:46---
Scott has recieved 1 Super Restore(2) from Penance Queen.

---2016/08/21 08:25:46---
Scott has recieved 1 Super Combat Potion(4) from Penance Queen.

---2016/08/21 08:25:46---
Scott has recieved 1 Amulet Of Glory from Penance Queen.

---2016/08/21 08:25:46---
Scott has recieved 1 Super Combat Potion(2) from Penance Queen.

---2016/08/21 08:25:46---
Scott has recieved 1 Toktz-Ket-Xil from Penance Queen.

---2016/08/21 08:25:46---
Scott has recieved 1 Ring Of Wealth from Penance Queen.

---2016/08/21 08:48:02---
Scott has recieved 1 Ancient Staff from Penance Queen.

---2016/08/21 08:48:02---
Scott has recieved 1 Rune Boots from Penance Queen.

---2016/08/21 08:48:02---
Scott has recieved 3 Vial from Penance Queen.

---2016/08/21 08:48:02---
Scott has recieved 1 Poisoned Egg from Penance Queen.

---2016/08/21 08:48:02---
Scott has recieved 1 Amulet Of Glory from Penance Queen.

---2016/08/21 08:48:02---
Scott has recieved 1 Ring Of Wealth from Penance Queen.

---2016/08/21 08:48:02---
Scott has recieved 1 Dharok'S Platelegs from Penance Queen.

---2016/08/21 08:48:02---
Scott has recieved 1 Super Restore(3) from Penance Queen.

---2016/08/21 08:48:02---
Scott has recieved 1 Combat Bracelet from Penance Queen.

---2016/08/21 08:48:02---
Scott has recieved 1 Super Restore(1) from Penance Queen.

---2016/08/21 08:48:02---
Scott has recieved 1 Penance Skirt from Penance Queen.

---2016/08/21 08:48:02---
Scott has recieved 1 Toktz-Ket-Xil from Penance Queen.

---2016/08/21 08:48:02---
Scott has recieved 1 Super Combat Potion(1) from Penance Queen.

---2016/08/23 00:20:29---
Scott has recieved 1 Spikes from Penance Fighter.

---2016/08/23 00:20:29---
Scott has recieved 1 Dharok'S Platelegs from Penance Fighter.

---2016/08/23 00:20:29---
Scott has recieved 1 Rune Boots from Penance Fighter.

---2016/08/23 00:20:29---
Scott has recieved 1 Vial from Penance Fighter.

---2016/08/23 00:20:29---
Scott has recieved 1 Super Combat Potion(4) from Penance Fighter.

---2016/08/23 00:20:29---
Scott has recieved 1 Amulet Of Glory from Penance Fighter.

---2016/08/23 00:20:29---
Scott has recieved 1 Toktz-Ket-Xil from Penance Fighter.

---2016/08/23 00:20:29---
Scott has recieved 1 Ring Of Wealth from Penance Fighter.

---2016/08/23 00:20:29---
Scott has recieved 1 Poisoned Worms from Penance Fighter.

---2016/08/31 21:46:33---
Scott has recieved 1 Rune Boots from Nick.

---2016/08/31 21:46:33---
Scott has recieved 393060 Coins from Nick.

---2016/08/31 21:46:33---
Scott has recieved 1 Harpoon from Nick.

---2016/08/31 21:46:33---
Scott has recieved 1 Amulet Of Glory from Nick.

---2016/08/31 21:46:33---
Scott has recieved 1 Toktz-Ket-Xil from Nick.

---2016/08/31 21:46:33---
Scott has recieved 1 Ring Of Wealth from Nick.

---2016/08/31 21:50:36---
Nick has dropped 180007 Coins for Nick.

---2016/08/31 21:50:36---
Nick has dropped 1 Primordial Boots for Nick.

---2016/08/31 21:50:36---
Nick has dropped 1 Amulet Of Fury for Nick.

---2016/08/31 21:50:36---
Nick has dropped 1 Decorative Top for Nick.

---2016/08/31 21:50:36---
Nick has dropped 27 Signed Oak Bow for Nick.

---2016/08/31 21:50:36---
Nick has dropped 1 Partyhat And Specs for Nick.
