
---2016/07/16 07:01:24---
Shannon has recieved 1 Black D'Hide Chaps from Steel Dragon.

---2016/07/16 07:01:24---
Shannon has recieved 3000 Coins from Steel Dragon.

---2016/07/16 07:01:24---
Shannon has recieved 1 Anti-Dragon Shield from Steel Dragon.

---2016/07/16 07:01:24---
Shannon has recieved 1 Black D'Hide Body from Steel Dragon.

---2016/07/16 07:01:24---
Shannon has recieved 14 Monkfish from Steel Dragon.

---2016/07/16 07:01:24---
Shannon has recieved 368 Rune Dart from Steel Dragon.

---2016/07/16 07:01:24---
Shannon has recieved 1 Amulet Of Glory(4) from Steel Dragon.

---2016/07/16 07:01:24---
Shannon has recieved 247 Iron Arrow from Steel Dragon.

---2016/07/16 07:01:24---
Shannon has recieved 1 Antifire Potion(4) from Steel Dragon.

---2016/07/16 07:01:24---
Shannon has recieved 6 Dragon Bones from Steel Dragon.

---2016/07/16 07:01:24---
Shannon has recieved 1 Snakeskin Boots from Steel Dragon.

---2016/07/16 07:01:24---
Shannon has recieved 1 Antifire Potion(2) from Steel Dragon.

---2016/07/16 07:01:24---
Shannon has recieved 1 Tooth Half Of Key from Steel Dragon.

---2016/07/16 07:01:24---
Shannon has recieved 1 Black D'Hide Vamb from Steel Dragon.

---2016/07/17 00:56:47---
Shannon has recieved 1 Prayer Potion(4) from Abyssal Spawn.

---2016/07/17 00:56:47---
Shannon has recieved 1 Clue Scroll (Hard) from Abyssal Spawn.

---2016/07/17 00:56:47---
Shannon has recieved 7 Vial from Abyssal Spawn.

---2016/07/17 00:56:47---
Shannon has recieved 1 Black D'Hide Body from Abyssal Spawn.

---2016/07/17 00:56:47---
Shannon has recieved 2 Rune Full Helm from Abyssal Spawn.

---2016/07/17 00:56:47---
Shannon has recieved 1 Prayer Potion(3) from Abyssal Spawn.

---2016/07/17 00:56:47---
Shannon has recieved 1 Ranging Potion(4) from Abyssal Spawn.

---2016/07/17 00:56:47---
Shannon has recieved 1 Amulet Of Glory(3) from Abyssal Spawn.

---2016/07/17 00:56:47---
Shannon has recieved 1 Antipoison(3) from Abyssal Spawn.

---2016/07/17 00:56:47---
Shannon has recieved 32 Death Rune from Abyssal Spawn.

---2016/07/17 00:56:47---
Shannon has recieved 1 Antipoison(2) from Abyssal Spawn.

---2016/07/17 00:56:47---
Shannon has recieved 1 Crystal Bow Full from Abyssal Spawn.

---2016/07/17 00:56:47---
Shannon has recieved 1 Rune Longsword from Abyssal Spawn.

---2016/07/17 00:56:47---
Shannon has recieved 1 Snakeskin Boots from Abyssal Spawn.

---2016/07/17 00:56:47---
Shannon has recieved 3 Rune Med Helm from Abyssal Spawn.

---2016/07/17 00:56:47---
Shannon has recieved 1 Black D'Hide Vamb from Abyssal Spawn.

---2016/07/17 00:56:47---
Shannon has recieved 1 Crystal Key from Abyssal Spawn.

---2016/07/17 07:43:32---
Shannon has recieved 1 Black D'Hide Chaps from Corporeal Beast.

---2016/07/17 07:43:32---
Shannon has recieved 21 Shark from Corporeal Beast.

---2016/07/17 07:43:32---
Shannon has recieved 1 Prayer Potion(4) from Corporeal Beast.

---2016/07/17 07:43:32---
Shannon has recieved 1 Crystal Bow Full from Corporeal Beast.

---2016/07/17 07:43:32---
Shannon has recieved 1 Snakeskin Boots from Corporeal Beast.

---2016/07/17 07:43:32---
Shannon has recieved 1 Black D'Hide Vamb from Corporeal Beast.

---2016/07/17 07:43:32---
Shannon has recieved 1 Armadyl D'Hide from Corporeal Beast.

---2016/07/17 07:43:32---
Shannon has recieved 1 Ranging Potion(1) from Corporeal Beast.

---2016/07/17 12:17:36---
Shannon has recieved 23 Shark from Corporeal Beast.

---2016/07/17 12:17:36---
Shannon has recieved 1 Prayer Potion(4) from Corporeal Beast.

---2016/07/17 12:17:36---
Shannon has recieved 1 Vial from Corporeal Beast.

---2016/07/17 12:17:36---
Shannon has recieved 1 Prayer Potion(3) from Corporeal Beast.

---2016/07/20 03:28:04---
Shannon has recieved 1 Dragon chainbody from Smoke Devil.

---2016/07/20 03:36:35---
Shannon has recieved 17 Shark from Smoke Devil.

---2016/07/20 03:36:35---
Shannon has recieved 3 Prayer Potion(4) from Smoke Devil.

---2016/07/20 03:36:35---
Shannon has recieved 1 Super Attack(2) from Smoke Devil.

---2016/07/20 03:36:35---
Shannon has recieved 1 Prayer Potion(3) from Smoke Devil.

---2016/07/20 03:36:35---
Shannon has recieved 1 Loop Half Of Key from Smoke Devil.

---2016/07/20 03:36:35---
Shannon has recieved 1 Ring Of Wealth from Smoke Devil.

---2016/07/20 03:36:35---
Shannon has recieved 1 Crystal Key from Smoke Devil.

---2016/07/20 03:36:35---
Shannon has recieved 1 Super Strength(2) from Smoke Devil.

---2016/07/20 04:13:39---
Shannon has recieved 1 Dragon chainbody from Smoke Devil.

---2016/07/20 05:27:19---
Shannon has recieved 1 Dragon chainbody from Dust Devil.

---2016/07/20 11:04:07---
Shannon has recieved 17 Shark from Ancient Gorilla.

---2016/07/20 11:04:07---
Shannon has recieved 10 Prayer Potion(4) from Ancient Gorilla.

---2016/07/20 11:04:07---
Shannon has recieved 1 Malediction Ward from Ancient Gorilla.

---2016/07/20 11:04:07---
Shannon has recieved 1 Infinity Boots from Ancient Gorilla.

---2016/07/20 11:04:07---
Shannon has recieved 1 Ahrim'S Robeskirt from Ancient Gorilla.

---2016/07/20 11:04:07---
Shannon has recieved 1 Monkfish from Ancient Gorilla.

---2016/07/20 11:04:07---
Shannon has recieved 1 Ring Of Wealth from Ancient Gorilla.

---2016/07/20 11:04:36---
Shannon has recieved 4 Shark from Ancient Gorilla.

---2016/07/20 11:04:36---
Shannon has recieved 1 Malediction Ward from Ancient Gorilla.

---2016/07/20 11:04:36---
Shannon has recieved 1 Infinity Boots from Ancient Gorilla.

---2016/07/20 11:04:36---
Shannon has recieved 1 Ahrim'S Robeskirt from Ancient Gorilla.

---2016/07/20 11:04:36---
Shannon has recieved 1 Ring Of Wealth from Ancient Gorilla.

---2016/07/20 11:05:05---
Shannon has recieved 10 Shark from Ancient Gorilla.
