
---2016/08/22 18:36:55---
Shy Glizzy has recieved 1 Dragon Boots from Penance Queen.

---2016/08/22 18:36:55---
Shy Glizzy has recieved 1 Amulet Of Glory(4) from Penance Queen.

---2016/08/22 18:36:55---
Shy Glizzy has recieved 10 Prayer Potion(4) from Penance Queen.

---2016/08/22 18:36:55---
Shy Glizzy has recieved 1 Super Combat Potion(4) from Penance Queen.

---2016/08/22 18:36:55---
Shy Glizzy has recieved 165 Runite Bolts from Penance Queen.

---2016/08/22 18:36:55---
Shy Glizzy has recieved 1 Helm Of Neitiznot from Penance Queen.

---2016/08/22 18:42:51---
Shy Glizzy has recieved 1 Dragon Boots from Penance Queen.

---2016/08/22 18:42:51---
Shy Glizzy has recieved 1 Amulet Of Glory(4) from Penance Queen.

---2016/08/22 18:42:51---
Shy Glizzy has recieved 4 Rune Sq Shield from Penance Queen.

---2016/08/22 18:42:51---
Shy Glizzy has recieved 10 Prayer Potion(4) from Penance Queen.

---2016/08/22 18:42:51---
Shy Glizzy has recieved 1 Runner Hat from Penance Queen.

---2016/08/22 18:42:51---
Shy Glizzy has recieved 165 Runite Bolts from Penance Queen.

---2016/08/22 18:42:51---
Shy Glizzy has recieved 3 Rune Chainbody from Penance Queen.

---2016/08/22 18:42:51---
Shy Glizzy has recieved 1 Super Combat Potion(3) from Penance Queen.

---2016/08/22 18:42:51---
Shy Glizzy has recieved 1 Penance Gloves from Penance Queen.

---2016/08/22 18:42:51---
Shy Glizzy has recieved 2 Rune Med Helm from Penance Queen.

---2016/08/22 18:42:51---
Shy Glizzy has recieved 1 Helm Of Neitiznot from Penance Queen.

---2016/08/23 15:32:27---
Shy Glizzy has recieved 1 Dragon Boots from Ancient Gorilla.

---2016/08/23 15:32:27---
Shy Glizzy has recieved 4 Shark from Ancient Gorilla.

---2016/08/23 15:32:27---
Shy Glizzy has recieved 41 Pure Essence from Ancient Gorilla.

---2016/08/23 15:32:27---
Shy Glizzy has recieved 3 Prayer Potion(4) from Ancient Gorilla.

---2016/08/23 15:32:27---
Shy Glizzy has recieved 427524 Coins from Ancient Gorilla.

---2016/08/23 15:32:27---
Shy Glizzy has recieved 1 Vial from Ancient Gorilla.

---2016/08/23 15:32:27---
Shy Glizzy has recieved 3 Rune Full Helm from Ancient Gorilla.

---2016/08/23 15:32:27---
Shy Glizzy has recieved 1 Prayer Potion(3) from Ancient Gorilla.

---2016/08/23 15:32:27---
Shy Glizzy has recieved 1 Helm Of Neitiznot from Ancient Gorilla.

---2016/08/23 15:32:27---
Shy Glizzy has recieved 5 Antipoison(4) from Ancient Gorilla.

---2016/08/23 15:32:27---
Shy Glizzy has recieved 2 Antipoison(3) from Ancient Gorilla.

---2016/08/23 15:32:27---
Shy Glizzy has recieved 1 Prayer Potion(1) from Ancient Gorilla.

---2016/08/23 15:32:27---
Shy Glizzy has recieved 1 Antipoison(2) from Ancient Gorilla.

---2016/08/23 15:32:27---
Shy Glizzy has recieved 1 Amulet Of Fury from Ancient Gorilla.

---2016/08/23 15:32:27---
Shy Glizzy has recieved 1 Rune Med Helm from Ancient Gorilla.

---2016/08/23 15:32:27---
Shy Glizzy has recieved 1 Super Strength(3) from Ancient Gorilla.

---2016/08/23 15:32:27---
Shy Glizzy has recieved 1 Crystal Key from Ancient Gorilla.

---2016/08/26 20:49:38---
Shy Glizzy has recieved 195619 Coins from Ancient Gorilla.

---2016/08/26 20:50:04---
Shy Glizzy has recieved 195619 Coins from Ancient Gorilla.

---2016/08/27 08:11:09---
Shy Glizzy has recieved 1 Dragon Boots from Skeletal Wyvern.

---2016/08/27 08:11:09---
Shy Glizzy has recieved 3 Super Restore(4) from Skeletal Wyvern.

---2016/08/27 08:11:09---
Shy Glizzy has recieved 1 Super Restore(2) from Skeletal Wyvern.

---2016/08/27 08:11:09---
Shy Glizzy has recieved 1 Antifire Potion(2) from Skeletal Wyvern.

---2016/08/27 08:11:09---
Shy Glizzy has recieved 1 Amulet Of Fury from Skeletal Wyvern.

---2016/08/27 08:11:09---
Shy Glizzy has recieved 1 Super Combat Potion(3) from Skeletal Wyvern.

---2016/08/27 08:11:09---
Shy Glizzy has recieved 1 Helm Of Neitiznot from Skeletal Wyvern.

---2016/08/27 08:11:09---
Shy Glizzy has recieved 1 Ring Of Wealth from Skeletal Wyvern.

---2016/08/27 08:11:09---
Shy Glizzy has recieved 1 Prayer Potion(2) from Skeletal Wyvern.

---2016/08/31 16:31:09---
Shy Glizzy has recieved 1 Super Restore(4) from Cerberus.

---2016/08/31 16:31:09---
Shy Glizzy has recieved 4 Key Master Teleport from Cerberus.

---2016/08/31 16:31:09---
Shy Glizzy has recieved 1 Super Restore(3) from Cerberus.

---2016/08/31 16:31:09---
Shy Glizzy has recieved 1 Vial from Cerberus.

---2016/08/31 16:31:09---
Shy Glizzy has recieved 1 Crystal Bow Full from Cerberus.

---2016/08/31 16:31:09---
Shy Glizzy has recieved 1 Snakeskin Boots from Cerberus.

---2016/08/31 16:31:09---
Shy Glizzy has recieved 19 Dragon Bones from Cerberus.

---2016/08/31 16:31:09---
Shy Glizzy has recieved 1 Ring Of Wealth from Cerberus.

---2016/08/31 16:31:09---
Shy Glizzy has recieved 1 Guthix Chaps from Cerberus.

---2016/09/01 14:50:22---
Shy Glizzy has recieved 1 Karil'S Leathertop from Defence Pro1.

---2016/09/01 14:50:22---
Shy Glizzy has recieved 1 Anti-Dragon Shield from Defence Pro1.

---2016/09/01 14:50:22---
Shy Glizzy has recieved 1 Snakeskin Boots from Defence Pro1.

---2016/09/01 14:50:22---
Shy Glizzy has recieved 10 Monkfish from Defence Pro1.

---2016/09/01 14:50:22---
Shy Glizzy has recieved 1 Ring Of Wealth from Defence Pro1.

---2016/09/01 14:50:22---
Shy Glizzy has recieved 1 Guthix Chaps from Defence Pro1.

---2016/09/01 14:51:26---
Shy Glizzy has recieved 1 'Perfect' Ring from Defence Pro1.
