
---2016/07/13 09:19:08---
Sillu has recieved 1 Tooth Half Of Key from Chaos Elemental.

---2016/07/14 02:28:39---
Sillu has recieved 1 Black D'Hide Chaps from Chaos Elemental.

---2016/07/14 02:28:39---
Sillu has recieved 1 Super Strength(1) from Chaos Elemental.

---2016/07/14 02:28:39---
Sillu has recieved 1 Super Attack(1) from Chaos Elemental.

---2016/07/14 02:28:39---
Sillu has recieved 3 Monkfish from Chaos Elemental.

---2016/07/14 02:28:39---
Sillu has recieved 1 Black D'Hide Vamb from Chaos Elemental.

---2016/07/14 02:28:39---
Sillu has recieved 1 Prayer Potion(3) from Chaos Elemental.

---2016/07/14 02:28:39---
Sillu has recieved 2 Prayer Potion(2) from Chaos Elemental.

---2016/07/14 02:51:50---
Sillu has recieved 14 Dragon Bolts from Zulrah.

---2016/07/14 04:10:01---
Sillu has recieved 1 Rune Crossbow from Zulrah.

---2016/07/14 04:10:01---
Sillu has recieved 1 Black D'Hide Chaps from Zulrah.

---2016/07/14 04:10:01---
Sillu has recieved 1 Climbing Boots from Zulrah.

---2016/07/14 04:10:01---
Sillu has recieved 1 Damaged Unholy Book from Zulrah.

---2016/07/14 04:10:01---
Sillu has recieved 50 Blood Rune from Zulrah.

---2016/07/14 04:10:01---
Sillu has recieved 1 Black D'Hide Body from Zulrah.

---2016/07/14 04:10:01---
Sillu has recieved 1 Amulet Of Glory from Zulrah.

---2016/07/14 04:10:01---
Sillu has recieved 55 Runite Bolts from Zulrah.

---2016/07/14 04:10:01---
Sillu has recieved 1 Prayer Potion(3) from Zulrah.

---2016/07/14 04:10:01---
Sillu has recieved 1 Zamorak Robe from Zulrah.

---2016/07/14 04:10:01---
Sillu has recieved 1 Dragon Dagger from Zulrah.

---2016/08/06 21:53:12---
Sillu has recieved 17 Shark from Chaos Elemental.

---2016/08/06 21:53:12---
Sillu has recieved 25 Feather from Chaos Elemental.

---2016/08/07 21:20:53---
Sillu has recieved 1 Karil'S Leatherskirt from Kree'Arra.

---2016/08/07 21:20:53---
Sillu has recieved 4 Super Restore(3) from Kree'Arra.

---2016/08/07 21:20:53---
Sillu has recieved 17 Vial from Kree'Arra.

---2016/08/07 21:20:53---
Sillu has recieved 1 Pegasian Boots from Kree'Arra.

---2016/08/07 21:20:53---
Sillu has recieved 1 Ranging Potion(3) from Kree'Arra.

---2016/08/07 21:20:53---
Sillu has recieved 1 Ranging Potion(2) from Kree'Arra.

---2016/08/07 21:20:53---
Sillu has recieved 1 Ring Of Wealth from Kree'Arra.

---2016/08/07 21:20:53---
Sillu has recieved 20 Dragon Javelin from Kree'Arra.

---2016/08/07 21:20:53---
Sillu has recieved 1 Karamja Gloves 4 from Kree'Arra.

---2016/08/20 03:57:43---
Sillu has recieved 1 Heavy Ballista from Nick.

---2016/08/20 03:57:43---
Sillu has recieved 6 Dragon Javelin from Nick.

---2016/08/21 04:21:24---
Sillu has recieved 20 Dragon Javelin from Thc.

---2016/08/21 04:21:24---
Sillu has recieved 1 Ranging Potion(1) from Thc.

---2016/08/21 04:34:30---
Sillu has recieved 1 Vial from Thc.

---2016/08/21 04:34:30---
Sillu has recieved 1 Super Combat Potion(1) from Thc.

---2016/08/21 04:42:49---
Sillu has recieved 2 Vial from Ancient Gorilla.

---2016/08/21 05:03:44---
Sillu has recieved 2 Vial from Thc.

---2016/08/21 05:05:44---
Sillu has recieved 1 Super Restore(1) from Range Owns6.

---2016/08/21 05:08:34---
Sillu has recieved 8 Dragon Javelin from Pantera.

---2016/08/21 05:10:57---
Sillu has recieved 2 Vial from Pantera.

---2016/08/21 05:10:57---
Sillu has recieved 5 Dragon Javelin from Pantera.

---2016/08/21 05:12:18---
Sillu has recieved 1 Vial from Pantera.

---2016/08/22 00:23:19---
Sillu has recieved 2 Vial from Zulrah.

---2016/08/22 00:23:19---
Sillu has recieved 8 Dragon Javelin from Zulrah.

---2016/08/22 02:47:55---
Sillu has recieved 2 Vial from Zulrah.

---2016/08/22 02:47:55---
Sillu has recieved 1 Heavy Ballista from Zulrah.

---2016/08/22 02:47:55---
Sillu has recieved 4 Dragon Javelin from Zulrah.

---2016/08/22 03:45:57---
Sillu has recieved 1 Super Combat Potion(1) from Green Dragon.

---2016/08/22 22:50:34---
Sillu has recieved 1 Prayer Potion(1) from Cheese.

---2016/08/26 01:06:25---
Sillu has recieved 4 Prayer Potion(4) from Penance Queen.

---2016/08/26 01:06:25---
Sillu has recieved 1 Pegasian Boots from Penance Queen.

---2016/08/26 01:06:25---
Sillu has recieved 1 Ring Of The Drops from Penance Queen.

---2016/08/26 01:06:25---
Sillu has recieved 1 Prayer Potion(3) from Penance Queen.

---2016/08/26 01:06:25---
Sillu has recieved 1 Amulet Of Drops from Penance Queen.

---2016/08/26 01:06:25---
Sillu has recieved 1 Prayer Potion(2) from Penance Queen.

---2016/08/26 01:06:25---
Sillu has recieved 1 Ranging Potion(1) from Penance Queen.
