
---2016/07/18 10:44:38---
Sluge has recieved 1 Amulet Of Glory(4) from Callisto.

---2016/07/18 10:44:38---
Sluge has recieved 1 Granite Shield from Callisto.

---2016/07/18 10:44:38---
Sluge has recieved 3 Prayer Potion(4) from Callisto.

---2016/07/18 10:44:38---
Sluge has recieved 1 Rune Boots from Callisto.

---2016/07/18 10:44:38---
Sluge has recieved 1 Rune Platebody from Callisto.

---2016/07/18 10:44:38---
Sluge has recieved 1 Rune Platelegs from Callisto.

---2016/07/18 10:44:38---
Sluge has recieved 1 Super Combat Potion(3) from Callisto.

---2016/07/18 10:44:38---
Sluge has recieved 13 Monkfish from Callisto.

---2016/07/18 10:44:38---
Sluge has recieved 1 Prayer Potion(3) from Callisto.

---2016/07/18 10:44:38---
Sluge has recieved 4 Lobster from Callisto.

---2016/07/18 10:44:38---
Sluge has recieved 1 Helm Of Neitiznot from Callisto.

---2016/07/18 21:30:01---
Sluge has recieved 1 Amulet Of Glory(4) from Callisto.

---2016/07/18 21:30:01---
Sluge has recieved 14 Shark from Callisto.

---2016/07/18 21:30:01---
Sluge has recieved 3 Super Restore(4) from Callisto.

---2016/07/18 21:30:01---
Sluge has recieved 1 Climbing Boots from Callisto.

---2016/07/18 21:30:01---
Sluge has recieved 1 Crystal Shield Full from Callisto.

---2016/07/18 21:30:01---
Sluge has recieved 4 Prayer Potion(4) from Callisto.

---2016/07/18 21:30:01---
Sluge has recieved 1 Proselyte Hauberk from Callisto.

---2016/07/18 21:30:01---
Sluge has recieved 1 Prayer Potion(3) from Callisto.

---2016/07/18 21:30:01---
Sluge has recieved 1 Proselyte Cuisse from Callisto.

---2016/07/18 21:30:01---
Sluge has recieved 1 Super Combat Potion(1) from Callisto.

---2016/07/24 02:43:26---
Sluge has recieved 1 Amulet Of Glory(4) from Callisto.

---2016/07/24 02:43:26---
Sluge has recieved 4 Shark from Callisto.

---2016/07/24 02:43:26---
Sluge has recieved 1 Super Attack(3) from Callisto.

---2016/07/24 02:43:26---
Sluge has recieved 1 Climbing Boots from Callisto.

---2016/07/24 02:43:26---
Sluge has recieved 2 Prayer Potion(4) from Callisto.

---2016/07/24 02:43:26---
Sluge has recieved 1 Super Defence(2) from Callisto.

---2016/07/24 02:43:26---
Sluge has recieved 1 Super Strength(3) from Callisto.

---2016/07/24 02:43:26---
Sluge has recieved 1 Prayer Potion(1) from Callisto.

---2016/07/24 02:54:08---
Sluge has recieved 1 Amulet Of Glory(4) from Skotizo.

---2016/07/24 02:54:08---
Sluge has recieved 1 Climbing Boots from Skotizo.

---2016/07/24 02:54:08---
Sluge has recieved 1 Prayer Potion(4) from Skotizo.

---2016/07/24 02:54:08---
Sluge has recieved 1 Super Defence(2) from Skotizo.

---2016/07/24 02:54:08---
Sluge has recieved 2 Vial from Skotizo.

---2016/07/24 02:54:08---
Sluge has recieved 2 Prayer Potion(2) from Skotizo.

---2016/07/26 02:09:58---
Sluge has recieved 1 Rune Crossbow from Skotizo.

---2016/07/26 02:09:58---
Sluge has recieved 6 Prayer Potion(4) from Skotizo.

---2016/07/26 02:09:58---
Sluge has recieved 1 Vial from Skotizo.

---2016/07/26 02:09:58---
Sluge has recieved 1 Odium Ward from Skotizo.

---2016/07/26 02:09:58---
Sluge has recieved 1 Black D'Hide Body from Skotizo.

---2016/07/26 02:09:58---
Sluge has recieved 190 Runite Bolts from Skotizo.

---2016/07/26 02:09:58---
Sluge has recieved 1 Snakeskin Boots from Skotizo.

---2016/07/26 02:09:58---
Sluge has recieved 5 Prayer Potion(3) from Skotizo.

---2016/07/26 02:09:58---
Sluge has recieved 1 Ranging Potion(1) from Skotizo.

---2016/07/26 02:09:58---
Sluge has recieved 25 Rune Javelin from Skotizo.

---2016/07/26 02:09:58---
Sluge has recieved 1 Prayer Potion(1) from Skotizo.

---2016/07/26 17:05:44---
Sluge has recieved 1 Karil'S Leathertop from Lizardman Shaman.

---2016/07/26 17:05:44---
Sluge has recieved 1 Karil'S Leatherskirt from Lizardman Shaman.

---2016/07/26 17:05:44---
Sluge has recieved 1 Snakeskin Boots from Lizardman Shaman.

---2016/07/26 17:05:44---
Sluge has recieved 113 Dragon Javelin from Lizardman Shaman.

---2016/07/27 05:00:59---
Sluge has recieved 4 Super Restore(4) from Lol Omg.

---2016/07/27 05:00:59---
Sluge has recieved 17 Anglerfish from Lol Omg.

---2016/07/27 05:00:59---
Sluge has recieved 1 Snakeskin Boots from Lol Omg.

---2016/07/27 05:00:59---
Sluge has recieved 1 Super Combat Potion(3) from Lol Omg.

---2016/07/27 05:00:59---
Sluge has recieved 1 Ranging Potion(2) from Lol Omg.

---2016/07/27 05:00:59---
Sluge has recieved 297 Dragon Javelin from Lol Omg.

---2016/07/27 05:02:17---
Lol Omg has dropped 1 Super Restore(4) for Lol Omg.

---2016/07/27 05:02:17---
Lol Omg has dropped 16 Anglerfish for Lol Omg.

---2016/07/27 05:02:17---
Lol Omg has dropped 1 Saradomin Brew(2) for Lol Omg.

---2016/07/27 05:02:17---
Lol Omg has dropped 2 Super Restore(3) for Lol Omg.

---2016/07/27 05:02:17---
Lol Omg has dropped 1 Snakeskin Boots for Lol Omg.

---2016/07/27 05:02:17---
Lol Omg has dropped 2 Cooked Karambwan for Lol Omg.

---2016/07/27 05:02:17---
Lol Omg has dropped 1 Ranging Potion(3) for Lol Omg.

---2016/07/27 05:02:17---
Lol Omg has dropped 1 Necklace Of Anguish for Lol Omg.

---2016/07/27 05:02:17---
Lol Omg has dropped 36 Dragon Javelin for Lol Omg.

---2016/07/27 05:02:17---
Lol Omg has dropped 997 Rune Arrow for Lol Omg.

---2016/07/27 05:02:17---
Lol Omg has dropped 1 Archers Ring for Lol Omg.

---2016/07/27 05:02:17---
Lol Omg has dropped 1 Saradomin Brew(4) for Lol Omg.

---2016/07/27 05:06:14---
Sluge has recieved 3 Super Restore(4) from Lol Omg.

---2016/07/27 05:06:14---
Sluge has recieved 1 Abyssal Dagger from Lol Omg.

---2016/07/27 05:06:14---
Sluge has recieved 1 Amulet Of Torture from Lol Omg.

---2016/07/27 05:06:14---
Sluge has recieved 18 Anglerfish from Lol Omg.

---2016/07/27 05:06:14---
Sluge has recieved 1 Snakeskin Boots from Lol Omg.

---2016/07/27 05:06:14---
Sluge has recieved 1 Heavy Ballista from Lol Omg.

---2016/07/27 05:06:14---
Sluge has recieved 1 Super Combat Potion(3) from Lol Omg.

---2016/07/27 05:06:14---
Sluge has recieved 1 Ranging Potion(2) from Lol Omg.

---2016/07/27 05:06:14---
Sluge has recieved 288 Dragon Javelin from Lol Omg.

---2016/07/27 09:20:40---
Sluge has recieved 1 Karil'S Leathertop from Corporeal Beast.

---2016/07/27 09:20:40---
Sluge has recieved 1 Dragon Boots from Corporeal Beast.

---2016/07/27 09:20:40---
Sluge has recieved 3 Dark Crab from Corporeal Beast.

---2016/07/27 09:20:40---
Sluge has recieved 1 Amulet Of Torture from Corporeal Beast.

---2016/07/27 09:20:40---
Sluge has recieved 1 Crystal Shield Full from Corporeal Beast.

---2016/07/27 09:20:40---
Sluge has recieved 1 Karil'S Leatherskirt from Corporeal Beast.

---2016/07/27 09:20:40---
Sluge has recieved 1 Super Restore(3) from Corporeal Beast.

---2016/07/27 09:20:40---
Sluge has recieved 1 Vial from Corporeal Beast.

---2016/07/27 09:20:40---
Sluge has recieved 1 Super Combat Potion(3) from Corporeal Beast.

---2016/07/27 09:20:40---
Sluge has recieved 1 Ring Of Wealth from Corporeal Beast.

---2016/07/27 09:20:40---
Sluge has recieved 1 Saradomin Brew(4) from Corporeal Beast.

---2016/07/27 23:32:49---
Sluge has recieved 1 Dragon chainbody from Dust Devil.

---2016/07/27 23:40:43---
Sluge has recieved 1 Dragon chainbody from Dust Devil.

---2016/07/29 04:17:37---
Lol Omg has dropped 2 Super Restore(4) for Lol Omg.

---2016/07/29 04:17:37---
Lol Omg has dropped 1 Amulet Of Glory(4) for Lol Omg.

---2016/07/29 04:17:37---
Lol Omg has dropped 4 Anglerfish for Lol Omg.

---2016/07/29 04:17:37---
Lol Omg has dropped 1 Rune Boots for Lol Omg.

---2016/07/29 04:17:37---
Lol Omg has dropped 3 Vial for Lol Omg.

---2016/07/29 04:17:37---
Lol Omg has dropped 1 Rune Platebody for Lol Omg.

---2016/07/29 04:17:37---
Lol Omg has dropped 1 Rune Platelegs for Lol Omg.

---2016/07/29 04:17:37---
Lol Omg has dropped 1 Dragon Scimitar for Lol Omg.

---2016/07/29 04:17:37---
Lol Omg has dropped 1 Helm Of Neitiznot for Lol Omg.

---2016/07/29 04:17:37---
Lol Omg has dropped 1 Saradomin Brew(3) for Lol Omg.

---2016/07/29 04:30:19---
Sluge has recieved 1 Dragon Boots from Lol Omg.

---2016/07/29 04:30:19---
Sluge has recieved 1 Super Restore(4) from Lol Omg.

---2016/07/29 04:30:19---
Sluge has recieved 8 Anglerfish from Lol Omg.

---2016/07/29 04:30:19---
Sluge has recieved 1 Super Restore(3) from Lol Omg.

---2016/07/29 04:30:19---
Sluge has recieved 1 Super Restore(1) from Lol Omg.

---2016/07/29 04:30:19---
Sluge has recieved 1 Rune Platelegs from Lol Omg.

---2016/07/29 04:30:19---
Sluge has recieved 1 Saradomin Full Helm from Lol Omg.

---2016/07/29 04:30:19---
Sluge has recieved 1 Super Combat Potion(3) from Lol Omg.

---2016/07/29 04:30:19---
Sluge has recieved 1 Infernal Pickaxe from Lol Omg.

---2016/07/29 04:30:19---
Sluge has recieved 1 Saradomin Brew(3) from Lol Omg.

---2016/07/29 04:36:50---
Sluge has recieved 1 Dragon Boots from Lol Omg.

---2016/07/29 04:36:50---
Sluge has recieved 1 Super Restore(4) from Lol Omg.

---2016/07/29 04:36:50---
Sluge has recieved 1 Amulet Of Torture from Lol Omg.

---2016/07/29 04:36:50---
Sluge has recieved 1 Verac'S Helm from Lol Omg.

---2016/07/29 04:36:50---
Sluge has recieved 2 Anglerfish from Lol Omg.

---2016/07/29 04:36:50---
Sluge has recieved 1 Super Restore(3) from Lol Omg.

---2016/07/29 04:36:50---
Sluge has recieved 1 Super Combat Potion(2) from Lol Omg.

---2016/07/29 04:36:50---
Sluge has recieved 1 Saradomin Brew(3) from Lol Omg.

---2016/07/29 04:43:36---
Sluge has recieved 1 Dragon Boots from Lol Omg.

---2016/07/29 04:43:36---
Sluge has recieved 2 Super Restore(4) from Lol Omg.

---2016/07/29 04:43:36---
Sluge has recieved 16 Anglerfish from Lol Omg.

---2016/07/29 04:43:36---
Sluge has recieved 1 Super Restore(3) from Lol Omg.

---2016/07/29 04:43:36---
Sluge has recieved 1 Book Of Darkness from Lol Omg.

---2016/07/29 04:43:36---
Sluge has recieved 1 Yellow Robe Top from Lol Omg.

---2016/07/29 04:43:36---
Sluge has recieved 1 Yellow Robe Bottoms from Lol Omg.

---2016/07/29 04:43:36---
Sluge has recieved 1 Super Combat Potion(3) from Lol Omg.

---2016/07/29 04:43:36---
Sluge has recieved 1 Saradomin Brew(3) from Lol Omg.

---2016/07/29 04:49:59---
Lol Omg has dropped 2 Super Restore(4) for Lol Omg.

---2016/07/29 04:49:59---
Lol Omg has dropped 2 Saradomin Brew(2) for Lol Omg.

---2016/07/29 04:49:59---
Lol Omg has dropped 3 Anglerfish for Lol Omg.

---2016/07/29 04:49:59---
Lol Omg has dropped 2 Vial for Lol Omg.

---2016/07/29 04:49:59---
Lol Omg has dropped 2 Cooked Karambwan for Lol Omg.

---2016/07/29 04:49:59---
Lol Omg has dropped 1 Snakeskin Boots for Lol Omg.

---2016/07/29 04:49:59---
Lol Omg has dropped 1 Super Combat Potion(3) for Lol Omg.

---2016/07/29 04:49:59---
Lol Omg has dropped 18 Dragon Javelin for Lol Omg.

---2016/07/29 04:49:59---
Lol Omg has dropped 1 Archers Ring for Lol Omg.

---2016/07/30 06:41:26---
Sluge has recieved 1 Super Restore(4) from Lol Omg.

---2016/07/30 06:41:26---
Sluge has recieved 1 Shark from Lol Omg.

---2016/07/30 06:41:26---
Sluge has recieved 2 Super Restore(3) from Lol Omg.

---2016/07/30 06:41:26---
Sluge has recieved 38 Rune Knife from Lol Omg.

---2016/07/30 06:41:26---
Sluge has recieved 1 Vial from Lol Omg.

---2016/07/30 06:41:26---
Sluge has recieved 1 Odium Ward from Lol Omg.

---2016/07/30 06:41:26---
Sluge has recieved 1 Snakeskin Boots from Lol Omg.

---2016/07/30 06:41:26---
Sluge has recieved 219 Dragon Javelin from Lol Omg.

---2016/07/30 06:41:26---
Sluge has recieved 1 Saradomin Brew(4) from Lol Omg.

---2016/07/30 06:47:41---
Sluge has recieved 1 Dragon Boots from Lol Omg.

---2016/07/30 06:47:41---
Sluge has recieved 1 Amulet Of Torture from Lol Omg.

---2016/07/30 06:47:41---
Sluge has recieved 16 Shark from Lol Omg.

---2016/07/30 06:47:41---
Sluge has recieved 1 Super Restore(4) from Lol Omg.

---2016/07/30 06:47:41---
Sluge has recieved 1 Abyssal Dagger from Lol Omg.

---2016/07/30 06:47:41---
Sluge has recieved 1 Verac'S Helm from Lol Omg.

---2016/07/30 06:47:41---
Sluge has recieved 1 Super Restore(3) from Lol Omg.

---2016/07/30 06:47:41---
Sluge has recieved 1 Dragonfire Shield from Lol Omg.

---2016/07/30 06:47:41---
Sluge has recieved 1 Verac'S Brassard from Lol Omg.

---2016/07/30 06:47:41---
Sluge has recieved 1 Ring Of Recoil from Lol Omg.

---2016/07/30 06:47:41---
Sluge has recieved 1 Dragon Platelegs from Lol Omg.

---2016/07/30 06:47:41---
Sluge has recieved 1 Super Combat Potion(2) from Lol Omg.

---2016/07/30 06:47:41---
Sluge has recieved 1 Bandos Godsword from Lol Omg.

---2016/07/30 06:47:41---
Sluge has recieved 1 Saradomin Brew(3) from Lol Omg.

---2016/08/02 07:03:10---
Sluge has recieved 1 Rogue Gloves from 555.

---2016/08/02 07:03:10---
Sluge has recieved 1 Rogue Boots from 555.

---2016/08/02 07:03:10---
Sluge has recieved 2 Yew Logs from 555.

---2016/08/02 07:03:10---
Sluge has recieved 1 Super Combat Potion(1) from 555.

---2016/08/02 07:03:10---
Sluge has recieved 2 Black Skirt (G) from 555.

---2016/08/02 07:03:10---
Sluge has recieved 16 Mahogany Plank from 555.

---2016/08/02 07:03:10---
Sluge has recieved 1 Doctors' Gown from 555.

---2016/08/04 06:41:59---
Sluge has recieved 1 Dragon Boots from Enraged Cow.

---2016/08/04 06:41:59---
Sluge has recieved 18 Dark Crab from Enraged Cow.

---2016/08/04 06:41:59---
Sluge has recieved 4 Super Restore(4) from Enraged Cow.

---2016/08/04 06:41:59---
Sluge has recieved 1 Bucket from Enraged Cow.

---2016/08/04 06:41:59---
Sluge has recieved 1 Super Combat Potion(3) from Enraged Cow.

---2016/08/04 06:41:59---
Sluge has recieved 1 Torag'S Hammers from Enraged Cow.

---2016/08/04 06:41:59---
Sluge has recieved 1 Ring Of Wealth from Enraged Cow.

---2016/08/04 06:41:59---
Sluge has recieved 2 Saradomin Brew(4) from Enraged Cow.

---2016/08/04 07:23:28---
Sluge has recieved 1 Cat Mask from Lol Omg.

---2016/08/04 07:23:28---
Sluge has recieved 1 Penguin Mask from Lol Omg.

---2016/09/01 03:23:39---
Sluge has recieved 4 Dark Crab from Lol Omg.

---2016/09/01 03:23:39---
Sluge has recieved 4 Prayer Potion(4) from Lol Omg.

---2016/09/01 03:23:39---
Sluge has recieved 1 Primordial Boots from Lol Omg.

---2016/09/01 03:23:39---
Sluge has recieved 1 Amulet Of Fury from Lol Omg.

---2016/09/01 03:23:39---
Sluge has recieved 1 Super Combat Potion(3) from Lol Omg.
