
---2016/08/04 17:42:43---
Spartan Milf has recieved 1 Damaged Unholy Book from Ancient Gorilla.

---2016/08/04 17:42:43---
Spartan Milf has recieved 5 Prayer Potion(4) from Ancient Gorilla.

---2016/08/04 17:42:43---
Spartan Milf has recieved 1 Pink Boots from Ancient Gorilla.

---2016/08/04 17:42:43---
Spartan Milf has recieved 21 Monkfish from Ancient Gorilla.

---2016/08/04 17:42:43---
Spartan Milf has recieved 500 Rune Dart from Ancient Gorilla.

---2016/08/04 17:42:43---
Spartan Milf has recieved 1 Proselyte Cuisse from Ancient Gorilla.

---2016/08/04 17:42:43---
Spartan Milf has recieved 600 Rune Arrow from Ancient Gorilla.

---2016/08/04 17:42:43---
Spartan Milf has recieved 1 Magic Shortbow from Ancient Gorilla.

---2016/08/04 17:44:09---
Spartan Milf has recieved 1 Damaged Unholy Book from Monkey Archer.

---2016/08/04 17:44:09---
Spartan Milf has recieved 1 Prayer Potion(4) from Monkey Archer.

---2016/08/04 17:44:09---
Spartan Milf has recieved 1 Pink Boots from Monkey Archer.

---2016/08/04 17:44:09---
Spartan Milf has recieved 1 Bones from Monkey Archer.
