
---2016/07/10 13:13:43---
Squid has recieved 1 Dragon chainbody from Smoke Devil.

---2016/07/10 19:31:02---
Squid has recieved 1 Granite Shield from Ancient Gorilla.

---2016/07/10 19:31:02---
Squid has recieved 383187 Coins from Ancient Gorilla.

---2016/07/10 19:31:02---
Squid has recieved 1 Amulet Of Glory from Ancient Gorilla.

---2016/07/10 19:31:02---
Squid has recieved 1 Helm Of Neitiznot from Ancient Gorilla.

---2016/07/10 19:31:02---
Squid has recieved 1 Black Boots from Ancient Gorilla.

---2016/07/13 17:52:23---
Squid has recieved 1 Black D'Hide Chaps from Ancient Gorilla.

---2016/07/13 17:52:23---
Squid has recieved 9 Prayer Potion(4) from Ancient Gorilla.

---2016/07/13 17:52:23---
Squid has recieved 1 Black D'Hide Body from Ancient Gorilla.

---2016/07/13 17:52:23---
Squid has recieved 1 Snakeskin Boots from Ancient Gorilla.

---2016/07/13 17:52:23---
Squid has recieved 1 Prayer Potion(3) from Ancient Gorilla.

---2016/07/13 17:52:23---
Squid has recieved 1254 Rune Arrow from Ancient Gorilla.

---2016/07/13 17:52:23---
Squid has recieved 3026 Dragon Dart from Ancient Gorilla.

---2016/07/13 17:53:20---
Squid has recieved 3023 Dragon Dart from Ancient Gorilla.
