
---2016/09/01 16:33:06---
Steel Man has recieved 23 Cooked Karambwan from Hellhound.

---2016/09/01 16:33:06---
Steel Man has recieved 1 Slayer Bell from Hellhound.

---2016/09/01 16:33:06---
Steel Man has recieved 1 Signed Oak Bow from Hellhound.

---2016/09/01 16:40:22---
Steel Man has recieved 14 Death Rune from Abyssal Scion.

---2016/09/01 16:40:22---
Steel Man has recieved 1 Antipoison(2) from Abyssal Scion.

---2016/09/01 16:40:22---
Steel Man has recieved 38 Pure Essence from Abyssal Scion.

---2016/09/01 16:40:22---
Steel Man has recieved 4779852 Coins from Abyssal Scion.

---2016/09/01 16:40:22---
Steel Man has recieved 6 Cooked Karambwan from Abyssal Scion.

---2016/09/01 16:40:22---
Steel Man has recieved 1 Slayer Bell from Abyssal Scion.

---2016/09/01 16:40:22---
Steel Man has recieved 123123 Cooked Karambwan from Abyssal Scion.

---2016/09/01 16:40:22---
Steel Man has recieved 1 Clue Scroll (Easy) from Abyssal Scion.

---2016/09/01 16:40:22---
Steel Man has recieved 2 Rune Med Helm from Abyssal Scion.

---2016/09/01 16:40:22---
Steel Man has recieved 1 Signed Oak Bow from Abyssal Scion.

---2016/09/01 16:40:22---
Steel Man has recieved 1 Crystal Key from Abyssal Scion.
