
---2016/06/29 20:56:42---
Testing has dropped 1 Toolkit for Testing.

---2016/06/29 20:56:42---
Testing has dropped 250000 Coins for Testing.

---2016/06/29 20:56:42---
Testing has dropped 1 Staff Of Air for Testing.

---2016/06/29 20:56:42---
Testing has dropped 1 Shortbow for Testing.

---2016/06/29 20:56:42---
Testing has dropped 1 Bronze Scimitar for Testing.

---2016/06/29 20:56:42---
Testing has dropped 300 Fire Rune for Testing.

---2016/06/29 20:56:42---
Testing has dropped 100 Monkfish for Testing.

---2016/06/29 20:56:42---
Testing has dropped 100 Mind Rune for Testing.

---2016/06/29 20:56:42---
Testing has dropped 1 Amulet Of Glory(4) for Testing.

---2016/06/29 20:56:42---
Testing has dropped 100 Chaos Rune for Testing.

---2016/06/29 20:56:42---
Testing has dropped 1 Slave Robetop for Testing.

---2016/06/29 20:56:42---
Testing has dropped 250 Iron Arrow for Testing.

---2016/06/29 20:56:42---
Testing has dropped 1 Slave Robe for Testing.

---2016/06/29 20:56:42---
Testing has dropped 1 Slave Boots for Testing.

---2016/06/29 20:56:42---
Testing has dropped 5 Super Combat Potion(4) for Testing.

---2016/06/29 20:56:42---
Testing has dropped 1 Clue Scroll (Easy) for Testing.

---2016/06/29 20:56:42---
Testing has dropped 100 Rune Arrow for Testing.

---2016/06/30 02:27:42---
Nate has dropped 1 Dragon Spear for Nate.

---2016/07/04 07:20:15---
Stefanos has recieved 1 Amulet Of Glory(4) from Ancient Gorilla.

---2016/07/04 07:20:15---
Stefanos has recieved 3 Shark from Ancient Gorilla.

---2016/07/04 07:20:15---
Stefanos has recieved 10 Prayer Potion(4) from Ancient Gorilla.

---2016/07/04 07:20:15---
Stefanos has recieved 1 Snakeskin Boots from Ancient Gorilla.

---2016/07/04 07:20:15---
Stefanos has recieved 1 Monkfish from Ancient Gorilla.

---2016/07/04 07:20:15---
Stefanos has recieved 1 Black D'Hide Vamb from Ancient Gorilla.

---2016/07/04 07:20:15---
Stefanos has recieved 669 Rune Arrow from Ancient Gorilla.

---2016/07/04 07:20:15---
Stefanos has recieved 594 Dragon Dart from Ancient Gorilla.

---2016/07/04 07:20:15---
Stefanos has recieved 1 Red D'Hide Chaps from Ancient Gorilla.

---2016/07/04 07:51:03---
Stefanos has recieved 1 Super Strength(1) from Lizardman Shaman.

---2016/07/04 07:51:03---
Stefanos has recieved 60 Pure Essence from Lizardman Shaman.

---2016/07/04 07:51:03---
Stefanos has recieved 14 Prayer Potion(4) from Lizardman Shaman.

---2016/07/04 07:51:03---
Stefanos has recieved 1 Rune Boots from Lizardman Shaman.

---2016/07/04 07:51:03---
Stefanos has recieved 477472 Coins from Lizardman Shaman.

---2016/07/04 07:51:03---
Stefanos has recieved 1 Helm Of Neitiznot from Lizardman Shaman.

---2016/07/04 07:51:03---
Stefanos has recieved 1 Ring Of Wealth from Lizardman Shaman.

---2016/07/04 07:51:03---
Stefanos has recieved 1 Prayer Potion(1) from Lizardman Shaman.

---2016/07/04 07:51:03---
Stefanos has recieved 1 Amulet Of Glory(4) from Lizardman Shaman.

---2016/07/04 07:51:03---
Stefanos has recieved 10 Chaos Rune from Lizardman Shaman.

---2016/07/04 07:51:03---
Stefanos has recieved 7 Blood Rune from Lizardman Shaman.

---2016/07/04 07:51:03---
Stefanos has recieved 1 Super Attack(1) from Lizardman Shaman.

---2016/07/04 07:51:03---
Stefanos has recieved 1 Dragon Dagger from Lizardman Shaman.

---2016/07/04 07:51:03---
Stefanos has recieved 1 Dragon Platelegs (G) from Lizardman Shaman.

---2016/07/04 16:32:00---
Stefanos has recieved 1 Prayer Potion(4) from Cerberus.

---2016/07/04 16:32:00---
Stefanos has recieved 1 Rune Boots from Cerberus.

---2016/07/04 16:32:00---
Stefanos has recieved 11 Monkfish from Cerberus.

---2016/07/04 16:32:00---
Stefanos has recieved 1 Helm Of Neitiznot from Cerberus.

---2016/07/04 16:32:00---
Stefanos has recieved 1 Ring Of Wealth from Cerberus.

---2016/07/04 16:32:00---
Stefanos has recieved 1 Prayer Potion(2) from Cerberus.

---2016/07/04 16:32:00---
Stefanos has recieved 1 Amulet Of Glory(4) from Cerberus.

---2016/07/04 16:32:00---
Stefanos has recieved 1 Super Attack(2) from Cerberus.

---2016/07/04 16:32:00---
Stefanos has recieved 7 Uncut Ruby from Cerberus.

---2016/07/04 16:32:00---
Stefanos has recieved 2 Rune Chainbody from Cerberus.

---2016/07/04 16:32:00---
Stefanos has recieved 1 Dragon Dagger from Cerberus.

---2016/07/04 16:32:00---
Stefanos has recieved 1 Super Strength(2) from Cerberus.

---2016/07/04 16:32:00---
Stefanos has recieved 1 Dragon Platelegs (G) from Cerberus.

---2016/07/07 05:35:37---
Stefanos has recieved 1 Karil'S Leathertop from Cerberus.

---2016/07/07 05:35:37---
Stefanos has recieved 1 Archer Helm from Cerberus.

---2016/07/07 05:35:37---
Stefanos has recieved 78 Coal from Cerberus.

---2016/07/07 05:35:37---
Stefanos has recieved 1 Rune 2h Sword from Cerberus.

---2016/07/07 05:35:37---
Stefanos has recieved 3 Black D'Hide Body from Cerberus.

---2016/07/07 05:35:37---
Stefanos has recieved 1 Amulet Of Glory(1) from Cerberus.

---2016/07/07 05:35:37---
Stefanos has recieved 1 Ring Of Wealth from Cerberus.

---2016/07/07 05:35:37---
Stefanos has recieved 1 Ancient Chaps from Cerberus.

---2016/07/07 05:35:37---
Stefanos has recieved 38 Torstol from Cerberus.

---2016/07/07 05:35:37---
Stefanos has recieved 9 Battlestaff from Cerberus.

---2016/07/07 05:35:37---
Stefanos has recieved 6 Super Restore(4) from Cerberus.

---2016/07/07 05:35:37---
Stefanos has recieved 1415 Death Rune from Cerberus.

---2016/07/07 05:35:37---
Stefanos has recieved 1 Smouldering Stone from Cerberus.

---2016/07/07 05:35:37---
Stefanos has recieved 1 Super Restore(3) from Cerberus.

---2016/07/07 05:35:37---
Stefanos has recieved 9 Uncut Ruby from Cerberus.

---2016/07/07 05:35:37---
Stefanos has recieved 441 Soul Rune from Cerberus.

---2016/07/07 05:35:37---
Stefanos has recieved 68 Runite Bolts from Cerberus.

---2016/07/07 05:35:37---
Stefanos has recieved 1 Snakeskin Boots from Cerberus.

---2016/07/07 05:35:37---
Stefanos has recieved 822 Rune Arrow from Cerberus.

---2016/07/07 05:35:37---
Stefanos has recieved 1 Unholy Symbol from Cerberus.

---2016/07/07 05:35:37---
Stefanos has recieved 1 Magic Shortbow from Cerberus.

---2016/07/07 05:35:37---
Stefanos has recieved 52 Dragon Dart from Cerberus.

---2016/07/07 19:08:44---
Stefanos has recieved 32 Dark Crab from Venenatis.

---2016/07/07 19:08:44---
Stefanos has recieved 11 Shark from Venenatis.

---2016/07/07 19:08:44---
Stefanos has recieved 1 Rune Boots from Venenatis.

---2016/07/07 19:08:44---
Stefanos has recieved 46947 Coins from Venenatis.

---2016/07/07 19:08:44---
Stefanos has recieved 1 Amulet Of Glory(1) from Venenatis.

---2016/07/07 19:08:44---
Stefanos has recieved 1 Green D'Hide Chaps from Venenatis.

---2016/07/07 19:08:44---
Stefanos has recieved 1 Ring Of Wealth from Venenatis.

---2016/07/07 19:08:44---
Stefanos has recieved 1 Green D'Hide Body from Venenatis.

---2016/07/07 19:08:44---
Stefanos has recieved 45 Death Rune from Venenatis.

---2016/07/07 19:08:44---
Stefanos has recieved 12 Super Restore(4) from Venenatis.

---2016/07/07 19:08:44---
Stefanos has recieved 1 Super Restore(3) from Venenatis.

---2016/07/07 19:08:44---
Stefanos has recieved 1 Uncut Ruby from Venenatis.

---2016/07/07 19:08:44---
Stefanos has recieved 250 Soul Rune from Venenatis.

---2016/07/07 19:08:44---
Stefanos has recieved 4 Uncut Sapphire from Venenatis.

---2016/07/07 19:08:44---
Stefanos has recieved 4 Rune Pickaxe from Venenatis.

---2016/07/07 19:08:44---
Stefanos has recieved 1 Dragon Dagger from Venenatis.

---2016/07/18 09:17:49---
Stefanos has recieved 3 Shark from Cave Kraken.

---2016/07/18 09:17:49---
Stefanos has recieved 7 Prayer Potion(4) from Cave Kraken.

---2016/07/18 09:17:49---
Stefanos has recieved 6000 Coins from Cave Kraken.

---2016/07/18 09:17:49---
Stefanos has recieved 1 Zamorak Chaps from Cave Kraken.

---2016/07/18 09:17:49---
Stefanos has recieved 1 Staff Of Water from Cave Kraken.

---2016/07/18 09:17:49---
Stefanos has recieved 1 Slayer Bell from Cave Kraken.

---2016/07/18 09:17:49---
Stefanos has recieved 90 Fire Rune from Cave Kraken.

---2016/07/18 09:17:49---
Stefanos has recieved 1 Ranging Potion(2) from Cave Kraken.

---2016/07/18 09:17:49---
Stefanos has recieved 135 Water Rune from Cave Kraken.

---2016/07/18 09:17:49---
Stefanos has recieved 1 Ring Of Wealth from Cave Kraken.

---2016/07/18 09:17:49---
Stefanos has recieved 105 Death Rune from Cave Kraken.

---2016/07/18 09:17:49---
Stefanos has recieved 1 Lantadyme from Cave Kraken.

---2016/07/18 09:17:49---
Stefanos has recieved 1 Crystal Bow Full from Cave Kraken.

---2016/07/18 09:17:49---
Stefanos has recieved 1 Snakeskin Boots from Cave Kraken.

---2016/07/18 09:17:49---
Stefanos has recieved 1 Marrentill from Cave Kraken.

---2016/07/18 09:17:49---
Stefanos has recieved 1 Crystal Key from Cave Kraken.

---2016/07/20 03:32:48---
Stefanos has recieved 13 Dark Crab from Vet'Ion.

---2016/07/20 03:32:48---
Stefanos has recieved 3 Super Restore(4) from Vet'Ion.

---2016/07/20 03:32:48---
Stefanos has recieved 1 Saradomin Brew(2) from Vet'Ion.

---2016/07/20 03:32:48---
Stefanos has recieved 1 Prayer Potion(4) from Vet'Ion.

---2016/07/20 03:32:48---
Stefanos has recieved 148275 Coins from Vet'Ion.

---2016/07/20 03:32:48---
Stefanos has recieved 1 Abyssal Whip from Vet'Ion.

---2016/07/20 03:32:48---
Stefanos has recieved 1 Primordial Boots from Vet'Ion.

---2016/07/20 03:32:48---
Stefanos has recieved 1 Amulet Of Fury from Vet'Ion.

---2016/07/20 03:32:48---
Stefanos has recieved 1 Super Combat Potion(3) from Vet'Ion.

---2016/07/20 03:32:48---
Stefanos has recieved 1 Ring Of Wealth from Vet'Ion.

---2016/07/20 03:32:48---
Stefanos has recieved 4 Saradomin Brew(4) from Vet'Ion.

---2016/07/20 03:35:28---
Stefanos has recieved 1 Dark Crab from Vet'Ion Reborn.

---2016/07/20 03:35:28---
Stefanos has recieved 1 Saradomin Brew(2) from Vet'Ion Reborn.

---2016/07/20 03:35:28---
Stefanos has recieved 1 Prayer Potion(4) from Vet'Ion Reborn.

---2016/07/20 03:35:28---
Stefanos has recieved 148275 Coins from Vet'Ion Reborn.

---2016/07/20 03:35:28---
Stefanos has recieved 1 Ring Of Wealth from Vet'Ion Reborn.

---2016/07/20 03:35:28---
Stefanos has recieved 2 Super Restore(4) from Vet'Ion Reborn.

---2016/07/20 03:35:28---
Stefanos has recieved 1 Super Restore(3) from Vet'Ion Reborn.

---2016/07/20 03:35:28---
Stefanos has recieved 1 Abyssal Whip from Vet'Ion Reborn.

---2016/07/20 03:35:28---
Stefanos has recieved 1 Primordial Boots from Vet'Ion Reborn.

---2016/07/20 03:35:28---
Stefanos has recieved 1 Amulet Of Fury from Vet'Ion Reborn.

---2016/07/20 03:35:28---
Stefanos has recieved 1 Super Combat Potion(2) from Vet'Ion Reborn.

---2016/07/20 03:35:28---
Stefanos has recieved 3 Saradomin Brew(4) from Vet'Ion Reborn.

---2016/07/20 03:35:28---
Stefanos has recieved 1 Saradomin Brew(3) from Vet'Ion Reborn.

---2016/07/22 03:12:43---
Stefanos has recieved 1 Karil'S Leathertop from Demonic Gorilla.

---2016/07/22 03:12:43---
Stefanos has recieved 17 Dark Crab from Demonic Gorilla.

---2016/07/22 03:12:43---
Stefanos has recieved 1 Prayer Potion(4) from Demonic Gorilla.

---2016/07/22 03:12:43---
Stefanos has recieved 1 Abyssal Whip from Demonic Gorilla.

---2016/07/22 03:12:43---
Stefanos has recieved 1 Primordial Boots from Demonic Gorilla.

---2016/07/22 03:12:43---
Stefanos has recieved 1 Super Combat Potion(3) from Demonic Gorilla.

---2016/07/22 03:12:43---
Stefanos has recieved 5 Adamantite Bar from Demonic Gorilla.

---2016/07/22 03:12:43---
Stefanos has recieved 1 Rune Full Helm from Demonic Gorilla.

---2016/07/22 03:12:43---
Stefanos has recieved 1 Ring Of Wealth from Demonic Gorilla.

---2016/07/22 03:12:43---
Stefanos has recieved 113 Dragon Javelin from Demonic Gorilla.

---2016/07/22 03:12:43---
Stefanos has recieved 1 Prayer Potion(2) from Demonic Gorilla.

---2016/07/22 03:12:43---
Stefanos has recieved 1 Dragon Platelegs (G) from Demonic Gorilla.

---2016/07/25 17:20:00---
Stefanos has recieved 1 Karil'S Leathertop from Demonic Gorilla.

---2016/07/25 17:20:00---
Stefanos has recieved 249 Death Rune from Demonic Gorilla.

---2016/07/25 17:20:00---
Stefanos has recieved 22 Anglerfish from Demonic Gorilla.

---2016/07/25 17:20:00---
Stefanos has recieved 1 Prayer Potion(4) from Demonic Gorilla.

---2016/07/25 17:20:00---
Stefanos has recieved 1 Abyssal Whip from Demonic Gorilla.

---2016/07/25 17:20:00---
Stefanos has recieved 1 Primordial Boots from Demonic Gorilla.

---2016/07/25 17:20:00---
Stefanos has recieved 1 Slayer Helmet (I) from Demonic Gorilla.

---2016/07/25 17:20:00---
Stefanos has recieved 1 Super Combat Potion(3) from Demonic Gorilla.

---2016/07/25 17:20:00---
Stefanos has recieved 1 Ring Of Wealth from Demonic Gorilla.

---2016/07/25 17:20:00---
Stefanos has recieved 1 Berserker Ring (I) from Demonic Gorilla.

---2016/07/26 07:29:52---
Stefanos has recieved 1 Karil'S Leathertop from Kalphite Queen.

---2016/07/26 07:29:52---
Stefanos has recieved 1 Karil'S Leatherskirt from Kalphite Queen.

---2016/07/26 07:29:52---
Stefanos has recieved 100 Potato Cactus from Kalphite Queen.

---2016/07/26 07:29:52---
Stefanos has recieved 1 Ranging Potion(2) from Kalphite Queen.

---2016/07/26 07:29:52---
Stefanos has recieved 1 Ring Of Wealth from Kalphite Queen.

---2016/07/26 07:29:52---
Stefanos has recieved 1 Ranging Potion(4) from Kalphite Queen.

---2016/07/26 07:29:52---
Stefanos has recieved 9 Super Restore(4) from Kalphite Queen.

---2016/07/26 07:29:52---
Stefanos has recieved 1 Super Restore(2) from Kalphite Queen.

---2016/07/26 07:29:52---
Stefanos has recieved 200 Blood Rune from Kalphite Queen.

---2016/07/26 07:29:52---
Stefanos has recieved 1 Pegasian Boots from Kalphite Queen.

---2016/07/26 07:29:52---
Stefanos has recieved 60 Wine Of Zamorak from Kalphite Queen.

---2016/07/26 07:29:52---
Stefanos has recieved 1 Super Combat Potion(4) from Kalphite Queen.

---2016/07/26 07:29:52---
Stefanos has recieved 2 Uncut Sapphire from Kalphite Queen.

---2016/07/26 07:29:52---
Stefanos has recieved 1 Slayer Helmet (I) from Kalphite Queen.

---2016/07/26 07:29:52---
Stefanos has recieved 1 Loop Half Of Key from Kalphite Queen.

---2016/07/26 07:29:52---
Stefanos has recieved 24 Dragon Dart from Kalphite Queen.

---2016/07/29 23:38:19---
Stefanos has recieved 1 Karil'S Leathertop from Cerberus.

---2016/07/29 23:38:19---
Stefanos has recieved 1 Karil'S Leatherskirt from Cerberus.

---2016/07/29 23:38:19---
Stefanos has recieved 8 Prayer Potion(4) from Cerberus.

---2016/07/29 23:38:19---
Stefanos has recieved 17 Coal from Cerberus.

---2016/07/29 23:38:19---
Stefanos has recieved 1 Ranging Potion(2) from Cerberus.

---2016/07/29 23:38:19---
Stefanos has recieved 1 Ring Of Wealth from Cerberus.

---2016/07/29 23:38:19---
Stefanos has recieved 1 Ranging Potion(4) from Cerberus.

---2016/07/29 23:38:19---
Stefanos has recieved 1 Prayer Potion(2) from Cerberus.

---2016/07/29 23:38:19---
Stefanos has recieved 3 Battlestaff from Cerberus.

---2016/07/29 23:38:19---
Stefanos has recieved 440 Death Rune from Cerberus.

---2016/07/29 23:38:19---
Stefanos has recieved 1 Smouldering Stone from Cerberus.

---2016/07/29 23:38:19---
Stefanos has recieved 14 Uncut Ruby from Cerberus.

---2016/07/29 23:38:19---
Stefanos has recieved 1 Pegasian Boots from Cerberus.

---2016/07/29 23:38:19---
Stefanos has recieved 1 Dragon Javelin from Cerberus.

---2016/07/29 23:38:19---
Stefanos has recieved 64 Dragon Dart from Cerberus.

---2016/07/30 04:08:43---
Stefanos has recieved 1 Amulet Of Torture from King Black Dragon.

---2016/07/30 04:08:43---
Stefanos has recieved 1 Dragon Dagger(P++) from King Black Dragon.

---2016/07/30 04:08:43---
Stefanos has recieved 1 Rune 2h Sword from King Black Dragon.

---2016/07/30 04:08:43---
Stefanos has recieved 300 Fire Rune from King Black Dragon.

---2016/07/30 04:08:43---
Stefanos has recieved 1 Ring Of Wealth from King Black Dragon.

---2016/07/30 04:08:43---
Stefanos has recieved 750 Yew Logs from King Black Dragon.

---2016/07/30 04:08:43---
Stefanos has recieved 900 Air Rune from King Black Dragon.

---2016/07/30 04:08:43---
Stefanos has recieved 1 Super Restore(3) from King Black Dragon.

---2016/07/30 04:08:43---
Stefanos has recieved 1 Super Restore(2) from King Black Dragon.

---2016/07/30 04:08:43---
Stefanos has recieved 470 Iron Arrow from King Black Dragon.

---2016/07/30 04:08:43---
Stefanos has recieved 1 Antifire Potion(3) from King Black Dragon.

---2016/07/30 04:08:43---
Stefanos has recieved 1 Verac'S Plateskirt from King Black Dragon.

---2016/07/30 04:08:43---
Stefanos has recieved 3 Rune Longsword from King Black Dragon.

---2016/07/30 04:08:43---
Stefanos has recieved 1 Primordial Boots from King Black Dragon.

---2016/07/30 04:08:43---
Stefanos has recieved 19 Runite Bolts from King Black Dragon.

---2016/07/30 04:08:43---
Stefanos has recieved 1 Slayer Helmet (I) from King Black Dragon.

---2016/07/30 04:08:43---
Stefanos has recieved 1 Super Combat Potion(3) from King Black Dragon.

---2016/07/30 04:08:43---
Stefanos has recieved 5 Tooth Half Of Key from King Black Dragon.

---2016/07/30 04:08:43---
Stefanos has recieved 1 Runite Bar from King Black Dragon.

---2016/07/30 04:08:43---
Stefanos has recieved 1 Dragon Med Helm from King Black Dragon.

---2016/07/30 04:08:43---
Stefanos has recieved 1 Rune Battleaxe from King Black Dragon.

---2016/07/30 04:08:43---
Stefanos has recieved 1 Crystal Key from King Black Dragon.

---2016/07/31 06:35:49---
Stefanos has recieved 1 Karil'S Leathertop from Cerberus.

---2016/07/31 06:35:49---
Stefanos has recieved 6 Prayer Potion(4) from Cerberus.

---2016/07/31 06:35:49---
Stefanos has recieved 1 Pegasian Boots from Cerberus.

---2016/07/31 06:35:49---
Stefanos has recieved 1 Slayer Helmet (I) from Cerberus.

---2016/07/31 06:35:49---
Stefanos has recieved 1 Ranging Potion(3) from Cerberus.

---2016/07/31 06:35:49---
Stefanos has recieved 1 Ring Of Wealth from Cerberus.

---2016/07/31 06:35:49---
Stefanos has recieved 1 Dragon Javelin from Cerberus.

---2016/07/31 06:35:49---
Stefanos has recieved 1 Ranging Potion(4) from Cerberus.

---2016/07/31 06:35:49---
Stefanos has recieved 1 List from Cerberus.

---2016/07/31 18:22:36---
Inflexion has dropped 40 Zul-Andra Teleport for Inflexion.

---2016/08/04 08:27:56---
Stefanos has recieved 1 Karil'S Leathertop from Kree'Arra.

---2016/08/04 08:27:56---
Stefanos has recieved 19748 Coins from Kree'Arra.

---2016/08/04 08:27:56---
Stefanos has recieved 1 Ranging Potion(3) from Kree'Arra.

---2016/08/04 08:27:56---
Stefanos has recieved 1 Ring Of Wealth from Kree'Arra.

---2016/08/04 08:27:56---
Stefanos has recieved 56 Dwarf Weed from Kree'Arra.

---2016/08/04 08:27:56---
Stefanos has recieved 3 Ranging Potion(4) from Kree'Arra.

---2016/08/04 08:27:56---
Stefanos has recieved 1 Godsword Shard 3 from Kree'Arra.

---2016/08/04 08:27:56---
Stefanos has recieved 3 Super Restore(4) from Kree'Arra.

---2016/08/04 08:27:56---
Stefanos has recieved 1 Super Restore(3) from Kree'Arra.

---2016/08/04 08:27:56---
Stefanos has recieved 1 Pegasian Boots from Kree'Arra.

---2016/08/04 08:27:56---
Stefanos has recieved 1 Super Restore(1) from Kree'Arra.

---2016/08/04 08:27:56---
Stefanos has recieved 44 Runite Bolts from Kree'Arra.

---2016/08/04 08:27:56---
Stefanos has recieved 1 Necklace Of Anguish from Kree'Arra.

---2016/08/04 08:27:56---
Stefanos has recieved 1 Dragon Javelin from Kree'Arra.

---2016/08/04 08:27:56---
Stefanos has recieved 1 Crystal Key from Kree'Arra.

---2016/08/04 08:27:56---
Stefanos has recieved 12 Dragon Dart from Kree'Arra.

---2016/08/06 01:31:40---
Stefanos has recieved 1 Credits Scroll from Skotizo.

---2016/08/06 01:31:40---
Stefanos has recieved 135818 Coins from Skotizo.

---2016/08/06 01:31:40---
Stefanos has recieved 1 Vial from Skotizo.

---2016/08/06 01:31:40---
Stefanos has recieved 1 Ranging Potion(3) from Skotizo.

---2016/08/06 01:31:40---
Stefanos has recieved 1 Rune Full Helm from Skotizo.

---2016/08/06 01:31:40---
Stefanos has recieved 1 Ring Of Wealth from Skotizo.

---2016/08/06 01:31:40---
Stefanos has recieved 6 Super Restore(4) from Skotizo.

---2016/08/06 01:31:40---
Stefanos has recieved 1072 Death Rune from Skotizo.

---2016/08/06 01:31:40---
Stefanos has recieved 1 Pegasian Boots from Skotizo.

---2016/08/06 01:31:40---
Stefanos has recieved 1 Unstrung Heavy Ballista from Skotizo.

---2016/08/06 01:31:40---
Stefanos has recieved 13 Adamantite Bar from Skotizo.

---2016/08/06 01:31:40---
Stefanos has recieved 27 Runite Bar from Skotizo.

---2016/08/06 01:31:40---
Stefanos has recieved 1 Dragon Javelin from Skotizo.

---2016/08/06 01:31:40---
Stefanos has recieved 1 Saradomin Brew(4) from Skotizo.

---2016/08/06 01:31:40---
Stefanos has recieved 10 Dragon Dart from Skotizo.

---2016/08/08 06:31:37---
Stefanos has recieved 1 Amulet Of Torture from General Graardor.

---2016/08/08 06:31:37---
Stefanos has recieved 1 Shark from General Graardor.

---2016/08/08 06:31:37---
Stefanos has recieved 1 Curved Bone from General Graardor.

---2016/08/08 06:31:37---
Stefanos has recieved 12 Anglerfish from General Graardor.

---2016/08/08 06:31:37---
Stefanos has recieved 75297 Coins from General Graardor.

---2016/08/08 06:31:37---
Stefanos has recieved 1 Vial from General Graardor.

---2016/08/08 06:31:37---
Stefanos has recieved 1 Rune Platebody from General Graardor.

---2016/08/08 06:31:37---
Stefanos has recieved 1 Ring Of Wealth from General Graardor.

---2016/08/08 06:31:37---
Stefanos has recieved 7 Super Restore(4) from General Graardor.

---2016/08/08 06:31:37---
Stefanos has recieved 1 Verac'S Plateskirt from General Graardor.

---2016/08/08 06:31:37---
Stefanos has recieved 1 Rune Longsword from General Graardor.

---2016/08/08 06:31:37---
Stefanos has recieved 1 Super Combat Potion(4) from General Graardor.

---2016/08/08 06:31:37---
Stefanos has recieved 1 Primordial Boots from General Graardor.

---2016/08/08 06:31:37---
Stefanos has recieved 1 Saradomin Brew(4) from General Graardor.

---2016/08/10 22:10:30---
Stefanos has recieved 1 Amulet Of Torture from Corporeal Beast.

---2016/08/10 22:10:30---
Stefanos has recieved 9 Anglerfish from Corporeal Beast.

---2016/08/10 22:10:30---
Stefanos has recieved 1 Super Restore(2) from Corporeal Beast.

---2016/08/10 22:10:30---
Stefanos has recieved 1 Verac'S Plateskirt from Corporeal Beast.

---2016/08/10 22:10:30---
Stefanos has recieved 1 Primordial Boots from Corporeal Beast.

---2016/08/10 22:10:30---
Stefanos has recieved 1 Super Combat Potion(3) from Corporeal Beast.

---2016/08/10 22:10:30---
Stefanos has recieved 1 Ring Of Wealth from Corporeal Beast.

---2016/08/10 22:10:30---
Stefanos has recieved 1 Karamja Gloves 4 from Corporeal Beast.

---2016/08/10 22:22:01---
Stefanos has recieved 1 Amulet Of Torture from Corporeal Beast.

---2016/08/10 22:22:01---
Stefanos has recieved 1 Anglerfish from Corporeal Beast.

---2016/08/10 22:22:01---
Stefanos has recieved 1 Super Restore(2) from Corporeal Beast.

---2016/08/10 22:22:01---
Stefanos has recieved 1 Verac'S Plateskirt from Corporeal Beast.

---2016/08/10 22:22:01---
Stefanos has recieved 1 Primordial Boots from Corporeal Beast.

---2016/08/10 22:22:01---
Stefanos has recieved 1 Super Combat Potion(2) from Corporeal Beast.

---2016/08/10 22:22:01---
Stefanos has recieved 1 Ring Of Wealth from Corporeal Beast.

---2016/08/10 22:22:01---
Stefanos has recieved 1 Berserker Ring (I) from Corporeal Beast.

---2016/08/10 22:22:01---
Stefanos has recieved 1 Karamja Gloves 4 from Corporeal Beast.

---2016/08/10 22:32:44---
Stefanos has recieved 1 Amulet Of Torture from Corporeal Beast.

---2016/08/10 22:32:44---
Stefanos has recieved 8 Anglerfish from Corporeal Beast.

---2016/08/10 22:32:44---
Stefanos has recieved 1 Super Restore(3) from Corporeal Beast.

---2016/08/10 22:32:44---
Stefanos has recieved 1 Verac'S Plateskirt from Corporeal Beast.

---2016/08/10 22:32:44---
Stefanos has recieved 1 Primordial Boots from Corporeal Beast.

---2016/08/10 22:32:44---
Stefanos has recieved 1 Super Combat Potion(2) from Corporeal Beast.

---2016/08/10 22:32:44---
Stefanos has recieved 1 Ring Of Wealth from Corporeal Beast.

---2016/08/10 22:32:44---
Stefanos has recieved 1 Berserker Ring (I) from Corporeal Beast.

---2016/08/10 22:32:44---
Stefanos has recieved 1 Karamja Gloves 4 from Corporeal Beast.

---2016/08/11 06:56:47---
Stefanos has recieved 1 Black D'Hide Chaps from Callisto.

---2016/08/11 06:56:47---
Stefanos has recieved 1 Climbing Boots from Callisto.

---2016/08/11 06:56:47---
Stefanos has recieved 1 Anglerfish from Callisto.

---2016/08/11 06:56:47---
Stefanos has recieved 7 Prayer Potion(4) from Callisto.

---2016/08/11 06:56:47---
Stefanos has recieved 1 Black D'Hide Body from Callisto.

---2016/08/11 06:56:47---
Stefanos has recieved 1 Amulet Of Glory(6) from Callisto.

---2016/08/11 06:56:47---
Stefanos has recieved 2 Mysterious Emblem from Callisto.

---2016/08/11 06:56:47---
Stefanos has recieved 1 Mysterious Emblem (Tier 2) from Callisto.

---2016/08/11 06:56:47---
Stefanos has recieved 1 Ranging Potion(4) from Callisto.

---2016/08/11 06:56:47---
Stefanos has recieved 7 Super Restore(4) from Callisto.

---2016/08/11 06:56:47---
Stefanos has recieved 6 Super Restore(4) from Callisto.

---2016/08/11 06:56:47---
Stefanos has recieved 30 Bear Fur from Callisto.

---2016/08/11 06:56:47---
Stefanos has recieved 1 Super Restore(1) from Callisto.

---2016/08/11 06:56:47---
Stefanos has recieved 1 Dragon Javelin from Callisto.

---2016/08/11 06:56:47---
Stefanos has recieved 11 Saradomin Brew(4) from Callisto.

---2016/08/12 04:02:53---
Stefanos has recieved 20 Dark Crab from Callisto.

---2016/08/12 04:02:53---
Stefanos has recieved 1 Climbing Boots from Callisto.

---2016/08/12 04:02:53---
Stefanos has recieved 2 Anglerfish from Callisto.

---2016/08/12 04:02:53---
Stefanos has recieved 75 Crushed Nest from Callisto.

---2016/08/12 04:02:53---
Stefanos has recieved 1 Black D'Hide Body from Callisto.

---2016/08/12 04:02:53---
Stefanos has recieved 1 Ranging Potion(3) from Callisto.

---2016/08/12 04:02:53---
Stefanos has recieved 1 Amulet Of Glory(6) from Callisto.

---2016/08/12 04:02:53---
Stefanos has recieved 1 Ring Of Wealth from Callisto.

---2016/08/12 04:02:53---
Stefanos has recieved 1 Mysterious Emblem (Tier 2) from Callisto.

---2016/08/12 04:02:53---
Stefanos has recieved 7 Super Restore(4) from Callisto.

---2016/08/12 04:02:53---
Stefanos has recieved 3 Super Restore(4) from Callisto.

---2016/08/12 04:02:53---
Stefanos has recieved 1 Super Restore(2) from Callisto.

---2016/08/12 04:02:53---
Stefanos has recieved 200 Blood Rune from Callisto.

---2016/08/12 04:02:53---
Stefanos has recieved 40 Bear Fur from Callisto.

---2016/08/12 04:02:53---
Stefanos has recieved 500 Soul Rune from Callisto.

---2016/08/12 04:02:53---
Stefanos has recieved 1 Rune Platelegs from Callisto.

---2016/08/12 04:02:53---
Stefanos has recieved 1 Super Combat Potion(4) from Callisto.

---2016/08/12 04:02:53---
Stefanos has recieved 1 Dragon Javelin from Callisto.

---2016/08/12 04:02:53---
Stefanos has recieved 7 Saradomin Brew(4) from Callisto.

---2016/08/12 04:09:30---
Stefanos has recieved 20 Dark Crab from Callisto.

---2016/08/12 04:09:30---
Stefanos has recieved 1 Climbing Boots from Callisto.

---2016/08/12 04:09:30---
Stefanos has recieved 2 Anglerfish from Callisto.

---2016/08/12 04:09:30---
Stefanos has recieved 75 Crushed Nest from Callisto.

---2016/08/12 04:09:30---
Stefanos has recieved 1 Black D'Hide Body from Callisto.

---2016/08/12 04:09:30---
Stefanos has recieved 1 Amulet Of Glory(6) from Callisto.

---2016/08/12 04:09:30---
Stefanos has recieved 1 Ranging Potion(2) from Callisto.

---2016/08/12 04:09:30---
Stefanos has recieved 1 Ring Of Wealth from Callisto.

---2016/08/12 04:09:30---
Stefanos has recieved 1 Ranging Potion(4) from Callisto.

---2016/08/12 04:09:30---
Stefanos has recieved 1 Mysterious Emblem (Tier 2) from Callisto.

---2016/08/12 04:09:30---
Stefanos has recieved 7 Super Restore(4) from Callisto.

---2016/08/12 04:09:30---
Stefanos has recieved 3 Super Restore(4) from Callisto.

---2016/08/12 04:09:30---
Stefanos has recieved 1 Super Restore(3) from Callisto.

---2016/08/12 04:09:30---
Stefanos has recieved 200 Blood Rune from Callisto.

---2016/08/12 04:09:30---
Stefanos has recieved 40 Bear Fur from Callisto.

---2016/08/12 04:09:30---
Stefanos has recieved 500 Soul Rune from Callisto.

---2016/08/12 04:09:30---
Stefanos has recieved 1 Rune Platelegs from Callisto.

---2016/08/12 04:09:30---
Stefanos has recieved 1 Super Combat Potion(4) from Callisto.

---2016/08/12 04:09:30---
Stefanos has recieved 1 Dragon Javelin from Callisto.

---2016/08/12 04:09:30---
Stefanos has recieved 6 Saradomin Brew(4) from Callisto.

---2016/08/12 04:16:49---
Stefanos has recieved 20 Dark Crab from Callisto.

---2016/08/12 04:16:49---
Stefanos has recieved 1 Climbing Boots from Callisto.

---2016/08/12 04:16:49---
Stefanos has recieved 2 Anglerfish from Callisto.

---2016/08/12 04:16:49---
Stefanos has recieved 1 Black D'Hide Body from Callisto.

---2016/08/12 04:16:49---
Stefanos has recieved 1 Amulet Of Glory(6) from Callisto.

---2016/08/12 04:16:49---
Stefanos has recieved 1 Mysterious Emblem from Callisto.

---2016/08/12 04:16:49---
Stefanos has recieved 1 Ring Of Wealth from Callisto.

---2016/08/12 04:16:49---
Stefanos has recieved 2 Ranging Potion(4) from Callisto.

---2016/08/12 04:16:49---
Stefanos has recieved 9 Super Restore(4) from Callisto.

---2016/08/12 04:16:49---
Stefanos has recieved 20 Bear Fur from Callisto.

---2016/08/12 04:16:49---
Stefanos has recieved 1 Super Combat Potion(4) from Callisto.

---2016/08/12 04:16:49---
Stefanos has recieved 1 Dragon Javelin from Callisto.

---2016/08/12 04:16:49---
Stefanos has recieved 10 Saradomin Brew(4) from Callisto.

---2016/08/13 04:03:07---
Stefanos has recieved 9 Prayer Potion(4) from Cerberus.

---2016/08/13 04:03:07---
Stefanos has recieved 27464 Coins from Cerberus.

---2016/08/13 04:03:07---
Stefanos has recieved 1 Vial from Cerberus.

---2016/08/13 04:03:07---
Stefanos has recieved 4 Rune 2h Sword from Cerberus.

---2016/08/13 04:03:07---
Stefanos has recieved 1 Ranging Potion(3) from Cerberus.

---2016/08/13 04:03:07---
Stefanos has recieved 1 Ranging Potion(4) from Cerberus.

---2016/08/13 04:03:07---
Stefanos has recieved 1008 Death Rune from Cerberus.

---2016/08/13 04:03:07---
Stefanos has recieved 1 Pegasian Boots from Cerberus.

---2016/08/13 04:03:07---
Stefanos has recieved 108 Soul Rune from Cerberus.

---2016/08/13 04:03:07---
Stefanos has recieved 31 Runite Bolts from Cerberus.

---2016/08/13 04:03:07---
Stefanos has recieved 1 Pipe Ring from Cerberus.

---2016/08/13 04:03:07---
Stefanos has recieved 1 3rd Age Range Top from Cerberus.

---2016/08/13 04:03:07---
Stefanos has recieved 1 Amulet Of Holthion from Cerberus.

---2016/08/13 04:03:07---
Stefanos has recieved 1 Loop Half Of Key from Cerberus.

---2016/08/13 04:03:07---
Stefanos has recieved 2286 Dragon Javelin from Cerberus.

---2016/08/13 04:03:07---
Stefanos has recieved 1 Crystal Key from Cerberus.

---2016/08/13 04:03:07---
Stefanos has recieved 72 Dragon Dart from Cerberus.

---2016/08/13 07:09:01---
Stefanos has recieved 483 Death Rune from Demonic Gorilla.

---2016/08/13 07:09:01---
Stefanos has recieved 70116 Coins from Demonic Gorilla.

---2016/08/13 07:09:01---
Stefanos has recieved 1 Verac'S Plateskirt from Demonic Gorilla.

---2016/08/13 07:09:01---
Stefanos has recieved 1 Primordial Boots from Demonic Gorilla.

---2016/08/13 07:09:01---
Stefanos has recieved 1 Pipe Ring from Demonic Gorilla.

---2016/08/13 07:09:01---
Stefanos has recieved 1 Super Combat Potion(3) from Demonic Gorilla.

---2016/08/13 07:09:01---
Stefanos has recieved 2 Rune Full Helm from Demonic Gorilla.

---2016/08/13 07:09:01---
Stefanos has recieved 1 Prayer Potion(3) from Demonic Gorilla.

---2016/08/13 07:09:01---
Stefanos has recieved 1 Amulet Of Holthion from Demonic Gorilla.

---2016/08/13 07:09:01---
Stefanos has recieved 1964 Rune Javelin from Demonic Gorilla.

---2016/08/13 07:09:01---
Stefanos has recieved 1 Prayer Potion(1) from Demonic Gorilla.

---2016/08/14 19:17:04---
Stefanos has recieved 9 Prayer Potion(4) from Cave Kraken.

---2016/08/14 19:17:04---
Stefanos has recieved 1 Vial from Cave Kraken.

---2016/08/14 19:17:04---
Stefanos has recieved 1 Slayer Bell from Cave Kraken.

---2016/08/14 19:17:04---
Stefanos has recieved 60 Fire Rune from Cave Kraken.

---2016/08/14 19:17:04---
Stefanos has recieved 1 Ranging Potion(2) from Cave Kraken.

---2016/08/14 19:17:04---
Stefanos has recieved 1 Ranging Potion(4) from Cave Kraken.

---2016/08/14 19:17:04---
Stefanos has recieved 30 Death Rune from Cave Kraken.

---2016/08/14 19:17:04---
Stefanos has recieved 80 Chaos Rune from Cave Kraken.

---2016/08/14 19:17:04---
Stefanos has recieved 60 Swamp Tar from Cave Kraken.

---2016/08/14 19:17:04---
Stefanos has recieved 1 Pegasian Boots from Cave Kraken.

---2016/08/14 19:17:04---
Stefanos has recieved 1 Pipe Ring from Cave Kraken.

---2016/08/14 19:17:04---
Stefanos has recieved 1 3rd Age Range Top from Cave Kraken.

---2016/08/14 19:17:04---
Stefanos has recieved 1 Loop Half Of Key from Cave Kraken.

---2016/08/14 19:17:04---
Stefanos has recieved 1 Amulet Of Holthion from Cave Kraken.

---2016/08/14 19:17:04---
Stefanos has recieved 1 Dragon Javelin from Cave Kraken.

---2016/08/16 21:25:49---
Stefanos has recieved 1 Prayer Potion(4) from Kalphite Queen.

---2016/08/16 21:25:49---
Stefanos has recieved 25 Ranarr Weed from Kalphite Queen.

---2016/08/16 21:25:49---
Stefanos has recieved 1 Rune Warhammer from Kalphite Queen.

---2016/08/16 21:25:49---
Stefanos has recieved 600 Potato Cactus from Kalphite Queen.

---2016/08/16 21:25:49---
Stefanos has recieved 100 Grapes from Kalphite Queen.

---2016/08/16 21:25:49---
Stefanos has recieved 1 Prayer Potion(3) from Kalphite Queen.

---2016/08/16 21:25:49---
Stefanos has recieved 1 Ranging Potion(4) from Kalphite Queen.

---2016/08/16 21:25:49---
Stefanos has recieved 50 Uncut Diamond from Kalphite Queen.

---2016/08/16 21:25:49---
Stefanos has recieved 50 Uncut Emerald from Kalphite Queen.

---2016/08/16 21:25:49---
Stefanos has recieved 3 Super Combat Potion(4) from Kalphite Queen.

---2016/08/16 21:25:49---
Stefanos has recieved 2 Rune Chainbody from Kalphite Queen.

---2016/08/16 21:25:49---
Stefanos has recieved 1 Super Combat Potion(3) from Kalphite Queen.

---2016/08/16 21:25:49---
Stefanos has recieved 1 3rd Age Range Top from Kalphite Queen.

---2016/08/16 21:25:49---
Stefanos has recieved 1 Amulet Of Holthion from Kalphite Queen.

---2016/08/16 21:25:49---
Stefanos has recieved 1 Loop Half Of Key from Kalphite Queen.

---2016/08/16 21:25:49---
Stefanos has recieved 2267 Dragon Javelin from Kalphite Queen.

---2016/08/16 21:25:49---
Stefanos has recieved 1 Crystal Key from Kalphite Queen.

---2016/08/16 21:25:49---
Stefanos has recieved 1658415 Coins from Kalphite Queen.

---2016/08/16 21:25:49---
Stefanos has recieved 1 Ranging Potion(3) from Kalphite Queen.

---2016/08/16 21:25:49---
Stefanos has recieved 120 Magic Logs from Kalphite Queen.

---2016/08/16 21:25:49---
Stefanos has recieved 134 Nature Rune from Kalphite Queen.

---2016/08/16 21:25:49---
Stefanos has recieved 400 Blood Rune from Kalphite Queen.

---2016/08/16 21:25:49---
Stefanos has recieved 1 Pegasian Boots from Kalphite Queen.

---2016/08/16 21:25:49---
Stefanos has recieved 360 Wine Of Zamorak from Kalphite Queen.

---2016/08/16 21:25:49---
Stefanos has recieved 1 Pipe Ring from Kalphite Queen.

---2016/08/16 21:25:49---
Stefanos has recieved 1 Petition Form from Kalphite Queen.

---2016/08/16 21:25:49---
Stefanos has recieved 3 Runite Bar from Kalphite Queen.

---2016/08/16 21:25:49---
Stefanos has recieved 250 Gold Ore from Kalphite Queen.

---2016/08/20 22:41:13---
Stefanos has recieved 14 Anglerfish from Enraged Cow.

---2016/08/20 22:41:13---
Stefanos has recieved 3 Bucket from Enraged Cow.

---2016/08/20 22:41:13---
Stefanos has recieved 3 Uncut Sapphire from Enraged Cow.

---2016/08/20 22:41:13---
Stefanos has recieved 1 Primordial Boots from Enraged Cow.

---2016/08/20 22:41:13---
Stefanos has recieved 1 Super Combat Potion(3) from Enraged Cow.

---2016/08/20 22:41:13---
Stefanos has recieved 1 Bandos Tassets from Enraged Cow.

---2016/08/20 22:41:13---
Stefanos has recieved 1 Prayer Potion(3) from Enraged Cow.

---2016/08/20 22:41:13---
Stefanos has recieved 1 Ring Of Wealth from Enraged Cow.

---2016/08/25 03:03:42---
Stefanos has recieved 11 Shark from Demonic Gorilla.

---2016/08/25 03:03:42---
Stefanos has recieved 1 Prayer Potion(4) from Demonic Gorilla.

---2016/08/25 03:03:42---
Stefanos has recieved 28436 Coins from Demonic Gorilla.

---2016/08/25 03:03:42---
Stefanos has recieved 1 Rune Plateskirt from Demonic Gorilla.

---2016/08/25 03:03:42---
Stefanos has recieved 1 Vial from Demonic Gorilla.

---2016/08/25 03:03:42---
Stefanos has recieved 1 Dragon Scimitar from Demonic Gorilla.

---2016/08/25 03:03:42---
Stefanos has recieved 1 Rune Full Helm from Demonic Gorilla.

---2016/08/25 03:03:42---
Stefanos has recieved 1 Gloves Of Drops from Demonic Gorilla.

---2016/08/25 03:03:42---
Stefanos has recieved 262 Death Rune from Demonic Gorilla.

---2016/08/25 03:03:42---
Stefanos has recieved 1 Verac'S Plateskirt from Demonic Gorilla.

---2016/08/25 03:03:42---
Stefanos has recieved 1 Primordial Boots from Demonic Gorilla.

---2016/08/25 03:03:42---
Stefanos has recieved 1 Ring Of The Drops from Demonic Gorilla.

---2016/08/25 03:03:42---
Stefanos has recieved 1 Super Combat Potion(3) from Demonic Gorilla.

---2016/08/25 03:03:42---
Stefanos has recieved 1 Amulet Of Drops from Demonic Gorilla.

---2016/08/25 03:03:42---
Stefanos has recieved 1 Saradomin Brew(4) from Demonic Gorilla.

---2016/08/25 03:17:14---
Stefanos has recieved 12 Anglerfish from Demonic Gorilla.

---2016/08/25 03:17:14---
Stefanos has recieved 26082 Coins from Demonic Gorilla.

---2016/08/25 03:17:14---
Stefanos has recieved 1 Rune Plateskirt from Demonic Gorilla.

---2016/08/25 03:17:14---
Stefanos has recieved 1 Vial from Demonic Gorilla.

---2016/08/25 03:17:14---
Stefanos has recieved 1 Rune Full Helm from Demonic Gorilla.

---2016/08/25 03:17:14---
Stefanos has recieved 1 Prayer Potion(3) from Demonic Gorilla.

---2016/08/25 03:17:14---
Stefanos has recieved 1 Gloves Of Drops from Demonic Gorilla.

---2016/08/25 03:17:14---
Stefanos has recieved 5 Ranarr Seed from Demonic Gorilla.

---2016/08/25 03:17:14---
Stefanos has recieved 1 Monkey Paw from Demonic Gorilla.

---2016/08/25 03:17:14---
Stefanos has recieved 1 Verac'S Plateskirt from Demonic Gorilla.

---2016/08/25 03:17:14---
Stefanos has recieved 1 Primordial Boots from Demonic Gorilla.

---2016/08/25 03:17:14---
Stefanos has recieved 1 Ring Of The Drops from Demonic Gorilla.

---2016/08/25 03:17:14---
Stefanos has recieved 1 Tooth Half Of Key from Demonic Gorilla.

---2016/08/25 03:17:14---
Stefanos has recieved 9 Adamantite Bar from Demonic Gorilla.

---2016/08/25 03:17:14---
Stefanos has recieved 1 Super Combat Potion(2) from Demonic Gorilla.

---2016/08/25 03:17:14---
Stefanos has recieved 1 Amulet Of Drops from Demonic Gorilla.

---2016/08/25 03:17:14---
Stefanos has recieved 1 Saradomin Brew(4) from Demonic Gorilla.

---2016/08/25 03:17:14---
Stefanos has recieved 2 Crystal Key from Demonic Gorilla.

---2016/08/25 03:17:14---
Stefanos has recieved 16 Rune Javelin from Demonic Gorilla.

---2016/08/29 01:59:57---
Stefanos has recieved 3 Super Restore(4) from Chaos Fanatic.

---2016/08/29 01:59:57---
Stefanos has recieved 3 Anglerfish from Chaos Fanatic.

---2016/08/29 01:59:57---
Stefanos has recieved 1 Pegasian Boots from Chaos Fanatic.

---2016/08/29 01:59:57---
Stefanos has recieved 1 Ring Of The Drops from Chaos Fanatic.

---2016/08/29 01:59:57---
Stefanos has recieved 1 Ranging Potion(3) from Chaos Fanatic.

---2016/08/29 01:59:57---
Stefanos has recieved 1 Amulet Of Drops from Chaos Fanatic.

---2016/08/29 01:59:57---
Stefanos has recieved 3 Dragon Javelin from Chaos Fanatic.

---2016/08/29 01:59:57---
Stefanos has recieved 3 Ranging Potion(4) from Chaos Fanatic.

---2016/08/29 01:59:57---
Stefanos has recieved 1 Gloves Of Drops from Chaos Fanatic.

---2016/08/29 01:59:57---
Stefanos has recieved 1 Holy Force from Chaos Fanatic.

---2016/08/29 01:59:57---
Stefanos has recieved 10 Saradomin Brew(4) from Chaos Fanatic.

---2016/08/29 23:00:39---
Stefanos has recieved 1 Black D'Hide Chaps from Callisto.

---2016/08/29 23:00:39---
Stefanos has recieved 60 Dark Crab from Callisto.

---2016/08/29 23:00:39---
Stefanos has recieved 1 Climbing Boots from Callisto.

---2016/08/29 23:00:39---
Stefanos has recieved 74485 Coins from Callisto.

---2016/08/29 23:00:39---
Stefanos has recieved 1 Ranging Potion(3) from Callisto.

---2016/08/29 23:00:39---
Stefanos has recieved 12 Onyx Bolt Tips from Callisto.

---2016/08/29 23:00:39---
Stefanos has recieved 75 Fire Rune from Callisto.

---2016/08/29 23:00:39---
Stefanos has recieved 2 Ranging Potion(4) from Callisto.

---2016/08/29 23:00:39---
Stefanos has recieved 1 Holy Force from Callisto.

---2016/08/29 23:00:39---
Stefanos has recieved 1 Gloves Of Drops from Callisto.

---2016/08/29 23:00:39---
Stefanos has recieved 4 Super Restore(4) from Callisto.

---2016/08/29 23:00:39---
Stefanos has recieved 9 Super Restore(4) from Callisto.

---2016/08/29 23:00:39---
Stefanos has recieved 67 Nature Rune from Callisto.

---2016/08/29 23:00:39---
Stefanos has recieved 20 Uncut Ruby from Callisto.

---2016/08/29 23:00:39---
Stefanos has recieved 20 Bear Fur from Callisto.

---2016/08/29 23:00:39---
Stefanos has recieved 1 Super Restore(1) from Callisto.

---2016/08/29 23:00:39---
Stefanos has recieved 1 Ring Of The Drops from Callisto.

---2016/08/29 23:00:39---
Stefanos has recieved 1 Amulet Of Drops from Callisto.

---2016/08/29 23:00:39---
Stefanos has recieved 1 Loop Half Of Key from Callisto.

---2016/08/29 23:00:39---
Stefanos has recieved 5 Dragon Javelin from Callisto.

---2016/08/29 23:00:39---
Stefanos has recieved 7 Saradomin Brew(4) from Callisto.

---2016/08/29 23:00:39---
Stefanos has recieved 1 Saradomin Brew(3) from Callisto.

---2016/08/29 23:17:22---
Stefanos has recieved 60 Dark Crab from Callisto.

---2016/08/29 23:17:22---
Stefanos has recieved 1 Climbing Boots from Callisto.

---2016/08/29 23:17:22---
Stefanos has recieved 74485 Coins from Callisto.

---2016/08/29 23:17:22---
Stefanos has recieved 75 Fire Rune from Callisto.

---2016/08/29 23:17:22---
Stefanos has recieved 1 Ranging Potion(2) from Callisto.

---2016/08/29 23:17:22---
Stefanos has recieved 2 Ranging Potion(4) from Callisto.

---2016/08/29 23:17:22---
Stefanos has recieved 1 Holy Force from Callisto.

---2016/08/29 23:17:22---
Stefanos has recieved 1 Gloves Of Drops from Callisto.

---2016/08/29 23:17:22---
Stefanos has recieved 4 Super Restore(4) from Callisto.

---2016/08/29 23:17:22---
Stefanos has recieved 12 Super Restore(4) from Callisto.

---2016/08/29 23:17:22---
Stefanos has recieved 134 Nature Rune from Callisto.

---2016/08/29 23:17:22---
Stefanos has recieved 400 Chaos Rune from Callisto.

---2016/08/29 23:17:22---
Stefanos has recieved 20 Uncut Ruby from Callisto.

---2016/08/29 23:17:22---
Stefanos has recieved 20 Bear Fur from Callisto.

---2016/08/29 23:17:22---
Stefanos has recieved 1 Ring Of The Drops from Callisto.

---2016/08/29 23:17:22---
Stefanos has recieved 1 Amulet Of Drops from Callisto.

---2016/08/29 23:17:22---
Stefanos has recieved 1 Loop Half Of Key from Callisto.

---2016/08/29 23:17:22---
Stefanos has recieved 5 Dragon Javelin from Callisto.

---2016/08/29 23:17:22---
Stefanos has recieved 7 Saradomin Brew(4) from Callisto.

---2016/08/29 23:17:22---
Stefanos has recieved 1 Saradomin Brew(3) from Callisto.

---2016/09/02 20:07:07---
Stefanos has recieved 1 Amulet Of Torture from Catdog.

---2016/09/02 20:07:07---
Stefanos has recieved 19 Anglerfish from Catdog.

---2016/09/02 20:07:07---
Stefanos has recieved 1 Dharok'S Helm from Catdog.

---2016/09/02 20:07:07---
Stefanos has recieved 681 Earth Rune from Catdog.

---2016/09/02 20:07:07---
Stefanos has recieved 1 Dharok'S Greataxe from Catdog.

---2016/09/02 20:07:07---
Stefanos has recieved 1 Super Restore(4) from Catdog.

---2016/09/02 20:07:07---
Stefanos has recieved 11004 Death Rune from Catdog.

---2016/09/02 20:07:07---
Stefanos has recieved 1 Dharok'S Platelegs from Catdog.

---2016/09/02 20:07:07---
Stefanos has recieved 1 Super Restore(3) from Catdog.

---2016/09/02 20:07:07---
Stefanos has recieved 75 Astral Rune from Catdog.

---2016/09/02 20:07:07---
Stefanos has recieved 1 Super Combat Potion(4) from Catdog.

---2016/09/02 20:07:07---
Stefanos has recieved 1 Primordial Boots from Catdog.

---2016/09/02 20:07:07---
Stefanos has recieved 1 Berserker Ring (I) from Catdog.

---2016/09/02 20:07:07---
Stefanos has recieved 1 Saradomin Brew(3) from Catdog.
