
---2016/06/30 23:22:41---
Str8m9 has recieved 1 Climbing Boots from Hill Giant.

---2016/06/30 23:22:41---
Str8m9 has recieved 474431 Coins from Hill Giant.

---2016/06/30 23:22:41---
Str8m9 has recieved 1 Dragon Halberd from Hill Giant.

---2016/06/30 23:22:41---
Str8m9 has recieved 1 Proselyte Hauberk from Hill Giant.

---2016/06/30 23:22:41---
Str8m9 has recieved 1 Helm Of Neitiznot from Hill Giant.

---2016/06/30 23:22:41---
Str8m9 has recieved 1 Proselyte Cuisse from Hill Giant.

---2016/06/30 23:22:41---
Str8m9 has recieved 1 Dragonstone from Hill Giant.

---2016/06/30 23:22:41---
Str8m9 has recieved 1 Rune Kiteshield from Hill Giant.

---2016/06/30 23:22:41---
Str8m9 has recieved 14 Big Bones from Hill Giant.

---2016/06/30 23:22:41---
Str8m9 has recieved 1 Rune Scimitar from Hill Giant.

---2016/06/30 23:22:41---
Str8m9 has recieved 1 Tooth Half Of Key from Hill Giant.

---2016/06/30 23:22:41---
Str8m9 has recieved 1 Runite Bar from Hill Giant.

---2016/06/30 23:22:41---
Str8m9 has recieved 1 Loop Half Of Key from Hill Giant.

---2016/06/30 23:22:41---
Str8m9 has recieved 42 Rune Arrow from Hill Giant.

---2016/06/30 23:22:41---
Str8m9 has recieved 1 Amulet Of Strength from Hill Giant.

---2016/06/30 23:22:41---
Str8m9 has recieved 1 Dragon Dagger from Hill Giant.

---2016/07/30 12:57:43---
Str8m9 has recieved 7 Prayer Potion(4) from Demonic Gorilla.

---2016/07/30 12:57:43---
Str8m9 has recieved 48877 Coins from Demonic Gorilla.

---2016/07/30 12:57:43---
Str8m9 has recieved 5 Monkfish from Demonic Gorilla.

---2016/07/30 12:57:43---
Str8m9 has recieved 1 Black D'Hide Vamb from Demonic Gorilla.

---2016/07/30 12:57:43---
Str8m9 has recieved 1 Prayer Potion(3) from Demonic Gorilla.

---2016/07/30 12:57:43---
Str8m9 has recieved 1041 Rune Arrow from Demonic Gorilla.

---2016/07/30 12:57:43---
Str8m9 has recieved 1 Magic Shortbow from Demonic Gorilla.

---2016/07/30 13:16:37---
Str8m9 has recieved 1 Black D'Hide Chaps from Abyssal Monarch.

---2016/07/30 13:16:37---
Str8m9 has recieved 99 Nature Rune from Abyssal Monarch.

---2016/07/30 13:16:37---
Str8m9 has recieved 9 Prayer Potion(4) from Abyssal Monarch.

---2016/07/30 13:16:37---
Str8m9 has recieved 30319 Coins from Abyssal Monarch.

---2016/07/30 13:16:37---
Str8m9 has recieved 1 Spade from Abyssal Monarch.

---2016/07/30 13:16:37---
Str8m9 has recieved 192 Fire Rune from Abyssal Monarch.

---2016/07/30 13:16:37---
Str8m9 has recieved 1 Staff Of Fire from Abyssal Monarch.

---2016/07/30 13:16:37---
Str8m9 has recieved 1136 Rune Arrow from Abyssal Monarch.

---2016/07/30 13:16:37---
Str8m9 has recieved 1 Magic Shortbow from Abyssal Monarch.

---2016/07/30 13:16:37---
Str8m9 has recieved 4 Antipoison(4) from Abyssal Monarch.

---2016/07/31 00:26:05---
Str8m9 has recieved 1 Black D'Hide Chaps from Abyssal Monarch.

---2016/07/31 00:26:05---
Str8m9 has recieved 114 Pure Essence from Abyssal Monarch.

---2016/07/31 00:26:05---
Str8m9 has recieved 4 Prayer Potion(4) from Abyssal Monarch.

---2016/07/31 00:26:05---
Str8m9 has recieved 181999 Coins from Abyssal Monarch.

---2016/07/31 00:26:05---
Str8m9 has recieved 162 Fire Rune from Abyssal Monarch.

---2016/07/31 00:26:05---
Str8m9 has recieved 1 Staff Of Fire from Abyssal Monarch.

---2016/07/31 00:26:05---
Str8m9 has recieved 3 Prayer Potion(3) from Abyssal Monarch.

---2016/07/31 00:26:05---
Str8m9 has recieved 1 Prayer Potion(2) from Abyssal Monarch.

---2016/07/31 00:26:05---
Str8m9 has recieved 3 Antipoison(4) from Abyssal Monarch.

---2016/07/31 00:26:05---
Str8m9 has recieved 1 Antipoison(3) from Abyssal Monarch.

---2016/07/31 00:26:05---
Str8m9 has recieved 1 Prayer Potion(1) from Abyssal Monarch.

---2016/07/31 00:26:05---
Str8m9 has recieved 5 Death Rune from Abyssal Monarch.

---2016/07/31 00:26:05---
Str8m9 has recieved 90 Nature Rune from Abyssal Monarch.

---2016/07/31 00:26:05---
Str8m9 has recieved 1 Spade from Abyssal Monarch.

---2016/07/31 00:26:05---
Str8m9 has recieved 1 Loop Half Of Key from Abyssal Monarch.

---2016/07/31 00:26:05---
Str8m9 has recieved 1116 Rune Arrow from Abyssal Monarch.

---2016/07/31 00:26:05---
Str8m9 has recieved 19 Lobster from Abyssal Monarch.

---2016/07/31 00:26:05---
Str8m9 has recieved 1 Magic Shortbow from Abyssal Monarch.

---2016/07/31 00:26:05---
Str8m9 has recieved 1 Crystal Key from Abyssal Monarch.
