
---2016/07/12 12:35:10---
Stycal has recieved 1 Amulet Of Glory(4) from Hill Giant.

---2016/07/12 12:35:10---
Stycal has recieved 351890 Coins from Hill Giant.

---2016/07/12 12:35:10---
Stycal has recieved 1 Slave Robetop from Hill Giant.

---2016/07/12 12:35:10---
Stycal has recieved 246 Iron Arrow from Hill Giant.

---2016/07/12 12:35:10---
Stycal has recieved 1 Big Bones from Hill Giant.

---2016/07/12 12:35:10---
Stycal has recieved 1 Staff Of Air from Hill Giant.

---2016/07/12 12:35:10---
Stycal has recieved 482 Blood Rune from Hill Giant.

---2016/07/12 12:35:10---
Stycal has recieved 15 Monkfish from Hill Giant.

---2016/07/12 12:35:10---
Stycal has recieved 891 Fire Rune from Hill Giant.

---2016/07/12 12:35:10---
Stycal has recieved 69 Mind Rune from Hill Giant.

---2016/07/13 09:20:49---
Stycal has recieved 1 Teacher Wand from Demonic Gorilla.

---2016/07/13 09:20:49---
Stycal has recieved 272 Death Rune from Demonic Gorilla.

---2016/07/13 09:20:49---
Stycal has recieved 1 Amulet Of Glory(4) from Demonic Gorilla.

---2016/07/13 09:20:49---
Stycal has recieved 1 Mystic Boots from Demonic Gorilla.

---2016/07/13 09:20:49---
Stycal has recieved 16 Prayer Potion(4) from Demonic Gorilla.

---2016/07/13 09:20:49---
Stycal has recieved 246 Iron Arrow from Demonic Gorilla.

---2016/07/13 09:20:49---
Stycal has recieved 400 Blood Rune from Demonic Gorilla.

---2016/07/13 09:20:49---
Stycal has recieved 3 Vial from Demonic Gorilla.

---2016/07/13 09:20:49---
Stycal has recieved 1 Mystic Hat from Demonic Gorilla.

---2016/07/13 09:20:49---
Stycal has recieved 2026 Fire Rune from Demonic Gorilla.

---2016/07/13 09:20:49---
Stycal has recieved 1 Prayer Potion(3) from Demonic Gorilla.

---2016/07/13 09:20:49---
Stycal has recieved 5097 Air Rune from Demonic Gorilla.
