
---2016/08/23 15:21:53---
Supertramp has recieved 90128790 Coins from Kalphite Queen.

---2016/08/23 15:21:53---
Supertramp has recieved 1 Dragon Sq Shield Ornament Kit from Kalphite Queen.

---2016/08/23 15:21:53---
Supertramp has recieved 248 Iron Arrow from Kalphite Queen.

---2016/08/23 15:21:53---
Supertramp has recieved 1 Shortbow from Kalphite Queen.

---2016/08/23 15:21:53---
Supertramp has recieved 1 Seers Ring from Kalphite Queen.

---2016/08/23 15:21:53---
Supertramp has recieved 1 Archers Ring from Kalphite Queen.

---2016/08/27 07:49:22---
Supertramp has recieved 1 Black D'Hide Chaps from Skeletal Wyvern.

---2016/08/27 07:49:22---
Supertramp has recieved 235044 Coins from Skeletal Wyvern.

---2016/08/27 07:49:22---
Supertramp has recieved 1 Leather Body from Skeletal Wyvern.

---2016/08/27 07:49:22---
Supertramp has recieved 1 Archers Ring from Skeletal Wyvern.

---2016/08/27 07:49:22---
Supertramp has recieved 1 Amulet Of Glory(4) from Skeletal Wyvern.

---2016/08/27 07:49:22---
Supertramp has recieved 67 Nature Rune from Skeletal Wyvern.

---2016/08/27 07:49:22---
Supertramp has recieved 5 Big Bones from Skeletal Wyvern.

---2016/08/27 07:49:22---
Supertramp has recieved 1 Black D'Hide Vamb from Skeletal Wyvern.

---2016/08/27 07:49:22---
Supertramp has recieved 16 Lobster from Skeletal Wyvern.

---2016/08/27 07:49:22---
Supertramp has recieved 704 Dragon Javelin from Skeletal Wyvern.

---2016/08/27 07:49:22---
Supertramp has recieved 125 Rune Arrow from Skeletal Wyvern.

---2016/08/27 07:49:22---
Supertramp has recieved 1 Magic Shortbow from Skeletal Wyvern.

---2016/08/27 07:49:22---
Supertramp has recieved 1 Dragon Dart from Skeletal Wyvern.
