
---2016/08/11 00:05:48---
Tamere has recieved 4 Uncut Ruby from Dog.

---2016/08/11 00:05:48---
Tamere has recieved 3 Uncut Emerald from Dog.

---2016/08/11 00:05:48---
Tamere has recieved 10 Uncut Sapphire from Dog.

---2016/08/11 00:05:48---
Tamere has recieved 1 Mystery Box from Dog.

---2016/08/11 00:05:48---
Tamere has recieved 4 Uncut Red Topaz from Dog.

---2016/08/12 14:05:34---
Tamere has recieved 1 Sliced Red Banana from Callisto.

---2016/08/12 14:05:34---
Tamere has recieved 1 Snakeskin Vambraces from Callisto.

---2016/08/12 14:05:34---
Tamere has recieved 258 Rune Arrow from Callisto.
