
---2016/08/09 03:40:34---
Trapper1 has recieved 1 Toolkit from Jogre.

---2016/08/09 03:40:34---
Trapper1 has recieved 250000 Coins from Jogre.

---2016/08/09 03:40:34---
Trapper1 has recieved 1 Staff Of Air from Jogre.

---2016/08/09 03:40:34---
Trapper1 has recieved 1 Shortbow from Jogre.

---2016/08/09 03:40:34---
Trapper1 has recieved 1 Bronze Scimitar from Jogre.

---2016/08/09 03:40:34---
Trapper1 has recieved 300 Fire Rune from Jogre.

---2016/08/09 03:40:34---
Trapper1 has recieved 100 Monkfish from Jogre.

---2016/08/09 03:40:34---
Trapper1 has recieved 100 Mind Rune from Jogre.

---2016/08/09 03:40:34---
Trapper1 has recieved 1 Amulet Of Glory(4) from Jogre.

---2016/08/09 03:40:34---
Trapper1 has recieved 100 Chaos Rune from Jogre.

---2016/08/09 03:40:34---
Trapper1 has recieved 1 Slave Robetop from Jogre.

---2016/08/09 03:40:34---
Trapper1 has recieved 250 Iron Arrow from Jogre.

---2016/08/09 03:40:34---
Trapper1 has recieved 1 Slave Robe from Jogre.

---2016/08/09 03:40:34---
Trapper1 has recieved 1 Slave Boots from Jogre.

---2016/08/09 03:40:34---
Trapper1 has recieved 5 Super Combat Potion(4) from Jogre.

---2016/08/09 03:40:34---
Trapper1 has recieved 1 Clue Scroll (Easy) from Jogre.

---2016/08/09 03:40:34---
Trapper1 has recieved 100 Rune Arrow from Jogre.
