
---2016/08/05 20:42:02---
Views has recieved 22 Shark from Skotizo.

---2016/08/05 20:42:02---
Views has recieved 1 Prayer Potion(4) from Skotizo.

---2016/08/05 20:42:02---
Views has recieved 154 Runite Bolts from Skotizo.

---2016/08/05 20:42:02---
Views has recieved 1 Ranging Potion(3) from Skotizo.

---2016/08/05 20:42:02---
Views has recieved 1 Ring Of Wealth from Skotizo.

---2016/08/05 20:42:02---
Views has recieved 1 Prayer Potion(1) from Skotizo.

---2016/08/06 17:11:35---
Views has recieved 6 Shark from Demonic Gorilla.

---2016/08/06 17:11:35---
Views has recieved 1 Vial from Demonic Gorilla.

---2016/08/06 17:11:35---
Views has recieved 1 Super Combat Potion(3) from Demonic Gorilla.

---2016/08/06 17:11:35---
Views has recieved 1 Ring Of Wealth from Demonic Gorilla.

---2016/08/06 17:11:35---
Views has recieved 1 Super Combat Potion(1) from Demonic Gorilla.

---2016/08/06 17:11:35---
Views has recieved 1 Prayer Potion(2) from Demonic Gorilla.

---2016/08/06 17:32:38---
Stelios has dropped 1 Amulet Of Glory(4) for Stelios.

---2016/08/06 17:32:38---
Stelios has dropped 4619 Coins for Stelios.

---2016/08/06 17:32:38---
Stelios has dropped 797 Iron Arrow for Stelios.

---2016/08/06 17:32:38---
Stelios has dropped 1 Slave Boots for Stelios.

---2016/08/06 17:32:38---
Stelios has dropped 11 Lava Dragon Bones for Stelios.

---2016/08/06 17:32:38---
Stelios has dropped 5 Monkfish for Stelios.

---2016/08/06 17:32:38---
Stelios has dropped 1 Magic Shortbow for Stelios.

---2016/08/06 17:32:38---
Stelios has dropped 466 Iron Knife for Stelios.

---2016/08/06 20:44:28---
Views has recieved 1 Dragon Boots from Demonic Gorilla.

---2016/08/06 20:44:28---
Views has recieved 2 Dark Crab from Demonic Gorilla.

---2016/08/06 20:44:28---
Views has recieved 10 Shark from Demonic Gorilla.

---2016/08/06 20:44:28---
Views has recieved 1 Prayer Potion(4) from Demonic Gorilla.

---2016/08/06 20:44:28---
Views has recieved 1 Super Combat Potion(2) from Demonic Gorilla.

---2016/08/06 20:44:28---
Views has recieved 1 Ring Of Wealth from Demonic Gorilla.

---2016/08/06 20:44:28---
Views has recieved 1 Bunny Feet from Demonic Gorilla.

---2016/08/06 21:09:18---
Views has recieved 1 Dragon Boots from Demonic Gorilla.

---2016/08/06 21:09:18---
Views has recieved 15 Shark from Demonic Gorilla.

---2016/08/06 21:09:18---
Views has recieved 1 Prayer Potion(4) from Demonic Gorilla.

---2016/08/06 21:09:18---
Views has recieved 1 Prayer Potion(3) from Demonic Gorilla.

---2016/08/06 21:09:18---
Views has recieved 1 Ring Of Wealth from Demonic Gorilla.

---2016/08/06 21:09:18---
Views has recieved 1 Super Combat Potion(1) from Demonic Gorilla.

---2016/08/06 21:14:51---
Views has recieved 1 Dragon Boots from Demonic Gorilla.

---2016/08/06 21:14:51---
Views has recieved 9 Shark from Demonic Gorilla.

---2016/08/06 21:14:51---
Views has recieved 1 Prayer Potion(3) from Demonic Gorilla.

---2016/08/06 21:14:51---
Views has recieved 1 Ring Of Wealth from Demonic Gorilla.

---2016/08/06 21:14:51---
Views has recieved 1 Prayer Potion(2) from Demonic Gorilla.

---2016/08/07 01:10:51---
Views has recieved 1 Dragon Boots from Demonic Gorilla.

---2016/08/07 01:10:51---
Views has recieved 23 Shark from Demonic Gorilla.

---2016/08/07 01:10:51---
Views has recieved 1 Prayer Potion(4) from Demonic Gorilla.

---2016/08/07 01:10:51---
Views has recieved 1 Super Combat Potion(2) from Demonic Gorilla.

---2016/08/07 01:10:51---
Views has recieved 1 Prayer Potion(3) from Demonic Gorilla.

---2016/08/07 01:10:51---
Views has recieved 1 Ring Of Wealth from Demonic Gorilla.

---2016/08/07 03:31:35---
Views has recieved 1 Dragon Boots from Demonic Gorilla.

---2016/08/07 03:31:35---
Views has recieved 5 Shark from Demonic Gorilla.

---2016/08/07 03:31:35---
Views has recieved 1 Prayer Potion(4) from Demonic Gorilla.

---2016/08/07 03:31:35---
Views has recieved 1 Super Combat Potion(2) from Demonic Gorilla.

---2016/08/07 03:31:35---
Views has recieved 1 Ring Of Wealth from Demonic Gorilla.

---2016/08/07 03:31:35---
Views has recieved 1447 Rune Javelin from Demonic Gorilla.

---2016/08/07 03:52:22---
Views has recieved 1 Dragon Boots from Demonic Gorilla.

---2016/08/07 03:52:22---
Views has recieved 4 Shark from Demonic Gorilla.

---2016/08/07 03:52:22---
Views has recieved 1 Prayer Potion(4) from Demonic Gorilla.

---2016/08/07 03:52:22---
Views has recieved 1 Ring Of Wealth from Demonic Gorilla.

---2016/08/07 04:00:39---
Views has recieved 1 Dragon Boots from Demonic Gorilla.

---2016/08/07 04:00:39---
Views has recieved 5 Shark from Demonic Gorilla.

---2016/08/07 04:00:39---
Views has recieved 1 Super Combat Potion(3) from Demonic Gorilla.

---2016/08/07 04:00:39---
Views has recieved 1 Ring Of Wealth from Demonic Gorilla.

---2016/08/07 04:00:39---
Views has recieved 2 Crystal Key from Demonic Gorilla.

---2016/08/07 07:34:44---
Views has recieved 1 Amulet Of Torture from General Graardor.

---2016/08/07 07:34:44---
Views has recieved 13 Anglerfish from General Graardor.

---2016/08/07 07:34:44---
Views has recieved 1 Karil'S Leatherskirt from General Graardor.

---2016/08/07 07:34:44---
Views has recieved 1 Prayer Potion(4) from General Graardor.

---2016/08/07 07:34:44---
Views has recieved 1 Primordial Boots from General Graardor.

---2016/08/07 07:34:44---
Views has recieved 1 Godsword Shard 1 from General Graardor.

---2016/08/07 07:34:44---
Views has recieved 1 Prayer Potion(3) from General Graardor.

---2016/08/07 07:34:44---
Views has recieved 1 Ring Of Wealth from General Graardor.

---2016/08/07 07:34:44---
Views has recieved 1000 Sea Turtle from General Graardor.

---2016/08/07 21:52:21---
Views has recieved 2 Super Restore(4) from Cerberus.

---2016/08/07 21:52:21---
Views has recieved 1 Amulet Of Torture from Cerberus.

---2016/08/07 21:52:21---
Views has recieved 19 Shark from Cerberus.

---2016/08/07 21:52:21---
Views has recieved 1 Crystal Halberd Full from Cerberus.

---2016/08/07 21:52:21---
Views has recieved 1 Super Restore(2) from Cerberus.

---2016/08/07 21:52:21---
Views has recieved 1 Abyssal Tentacle from Cerberus.

---2016/08/07 21:52:21---
Views has recieved 1 Primordial Boots from Cerberus.

---2016/08/07 21:52:21---
Views has recieved 1 Super Combat Potion(2) from Cerberus.

---2016/08/07 21:52:21---
Views has recieved 1 Ring Of Wealth from Cerberus.

---2016/08/08 00:14:08---
Views has recieved 1 Amulet Of Torture from Demonic Gorilla.

---2016/08/08 00:14:08---
Views has recieved 19 Shark from Demonic Gorilla.

---2016/08/08 00:14:08---
Views has recieved 1 Prayer Potion(4) from Demonic Gorilla.

---2016/08/08 00:14:08---
Views has recieved 1 Crystal Halberd Full from Demonic Gorilla.

---2016/08/08 00:14:08---
Views has recieved 1 Primordial Boots from Demonic Gorilla.

---2016/08/08 00:14:08---
Views has recieved 1 Super Combat Potion(2) from Demonic Gorilla.

---2016/08/08 00:14:08---
Views has recieved 1 Ring Of Wealth from Demonic Gorilla.

---2016/08/08 21:38:04---
Views has recieved 1 Amulet Of Torture from Cerberus.

---2016/08/08 21:38:04---
Views has recieved 15 Shark from Cerberus.

---2016/08/08 21:38:04---
Views has recieved 1 Crystal Halberd Full from Cerberus.

---2016/08/08 21:38:04---
Views has recieved 1 Primordial Boots from Cerberus.

---2016/08/08 21:38:04---
Views has recieved 1 Ring Of Wealth from Cerberus.

---2016/08/09 19:47:56---
Views has recieved 1 Amulet Of Torture from Demonic Gorilla.

---2016/08/09 19:47:56---
Views has recieved 1 Primordial Boots from Demonic Gorilla.

---2016/08/09 19:47:56---
Views has recieved 6 Adamantite Bar from Demonic Gorilla.

---2016/08/09 19:47:56---
Views has recieved 2 Dragon Scimitar from Demonic Gorilla.

---2016/08/09 19:47:56---
Views has recieved 1 Ring Of Wealth from Demonic Gorilla.

---2016/08/09 19:47:56---
Views has recieved 22 Runite Bar from Demonic Gorilla.

---2016/08/09 19:47:56---
Views has recieved 257 Dragon Javelin from Demonic Gorilla.

---2016/08/09 19:47:56---
Views has recieved 92 Dragon Bolts (E) from Demonic Gorilla.

---2016/08/10 21:55:28---
Views has recieved 1 Dragon Boots from Jake Xd.

---2016/08/10 21:55:28---
Views has recieved 6 Anglerfish from Jake Xd.

---2016/08/10 21:55:28---
Views has recieved 1 Dragon Dagger(P++) from Jake Xd.

---2016/08/10 21:55:28---
Views has recieved 4 Cooked Karambwan from Jake Xd.

---2016/08/10 21:55:28---
Views has recieved 1 Dharok'S Helm from Jake Xd.

---2016/08/10 21:55:28---
Views has recieved 2 Sea Turtle from Jake Xd.

---2016/08/10 21:55:28---
Views has recieved 180 Earth Rune from Jake Xd.

---2016/08/10 21:55:28---
Views has recieved 1 Dharok'S Greataxe from Jake Xd.

---2016/08/10 21:55:28---
Views has recieved 1 Super Restore(4) from Jake Xd.

---2016/08/10 21:55:28---
Views has recieved 196 Death Rune from Jake Xd.

---2016/08/10 21:55:28---
Views has recieved 1 Berserker Ring from Jake Xd.

---2016/08/10 21:55:28---
Views has recieved 1 Dharok'S Platelegs from Jake Xd.

---2016/08/10 21:55:28---
Views has recieved 1 Super Restore(3) from Jake Xd.

---2016/08/10 21:55:28---
Views has recieved 192 Astral Rune from Jake Xd.

---2016/08/10 21:55:28---
Views has recieved 1 Abyssal Whip from Jake Xd.

---2016/08/10 21:55:28---
Views has recieved 1 Amulet Of Fury from Jake Xd.

---2016/08/10 21:55:28---
Views has recieved 1 Super Combat Potion(3) from Jake Xd.

---2016/08/10 21:55:28---
Views has recieved 1 Saradomin Brew(3) from Jake Xd.

---2016/08/10 22:01:58---
Views has recieved 1 Dragon Boots from Jake Xd.

---2016/08/10 22:01:58---
Views has recieved 1 Saradomin Brew(2) from Jake Xd.

---2016/08/10 22:01:58---
Views has recieved 1 Dharok'S Helm from Jake Xd.

---2016/08/10 22:01:58---
Views has recieved 13 Sea Turtle from Jake Xd.

---2016/08/10 22:01:58---
Views has recieved 170 Earth Rune from Jake Xd.

---2016/08/10 22:01:58---
Views has recieved 1 Dharok'S Greataxe from Jake Xd.

---2016/08/10 22:01:58---
Views has recieved 1 Super Restore(4) from Jake Xd.

---2016/08/10 22:01:58---
Views has recieved 194 Death Rune from Jake Xd.

---2016/08/10 22:01:58---
Views has recieved 1 Dharok'S Platelegs from Jake Xd.

---2016/08/10 22:01:58---
Views has recieved 188 Astral Rune from Jake Xd.

---2016/08/10 22:01:58---
Views has recieved 1 Super Restore(2) from Jake Xd.

---2016/08/10 22:01:58---
Views has recieved 1 Abyssal Whip from Jake Xd.

---2016/08/10 22:01:58---
Views has recieved 1 Amulet Of Fury from Jake Xd.

---2016/08/10 22:01:58---
Views has recieved 1 Super Combat Potion(2) from Jake Xd.

---2016/08/10 22:01:58---
Views has recieved 1 Dragon Dagger from Jake Xd.

---2016/08/10 22:06:31---
Jake Xd has dropped 1 Dragon Boots for Jake Xd.

---2016/08/10 22:06:31---
Jake Xd has dropped 9 Shark for Jake Xd.

---2016/08/10 22:06:31---
Jake Xd has dropped 3 Anglerfish for Jake Xd.

---2016/08/10 22:06:31---
Jake Xd has dropped 1 Saradomin Brew(2) for Jake Xd.

---2016/08/10 22:06:31---
Jake Xd has dropped 1 Prayer Potion(3) for Jake Xd.

---2016/08/10 22:06:31---
Jake Xd has dropped 1 Dharok'S Helm for Jake Xd.

---2016/08/10 22:06:31---
Jake Xd has dropped 2 Sea Turtle for Jake Xd.

---2016/08/10 22:06:31---
Jake Xd has dropped 56 Earth Rune for Jake Xd.

---2016/08/10 22:06:31---
Jake Xd has dropped 1 Dharok'S Greataxe for Jake Xd.

---2016/08/10 22:06:31---
Jake Xd has dropped 1139 Death Rune for Jake Xd.

---2016/08/10 22:06:31---
Jake Xd has dropped 1 Berserker Ring for Jake Xd.

---2016/08/10 22:06:31---
Jake Xd has dropped 1 Dharok'S Platelegs for Jake Xd.

---2016/08/10 22:06:31---
Jake Xd has dropped 347 Astral Rune for Jake Xd.

---2016/08/10 22:06:31---
Jake Xd has dropped 1 Super Restore(2) for Jake Xd.

---2016/08/10 22:06:31---
Jake Xd has dropped 1 Abyssal Whip for Jake Xd.

---2016/08/10 22:06:31---
Jake Xd has dropped 1 Amulet Of Fury for Jake Xd.

---2016/08/10 22:06:31---
Jake Xd has dropped 1 Super Combat Potion(2) for Jake Xd.

---2016/08/10 22:06:31---
Jake Xd has dropped 3 Dragon Javelin for Jake Xd.

---2016/08/10 22:06:31---
Jake Xd has dropped 1 Dragon Dagger for Jake Xd.

---2016/08/10 22:09:59---
Views has recieved 1 Dragon Boots from Zulrah.

---2016/08/10 22:09:59---
Views has recieved 3 Anglerfish from Zulrah.

---2016/08/10 22:09:59---
Views has recieved 1 Vial from Zulrah.

---2016/08/10 22:09:59---
Views has recieved 14 Sea Turtle from Zulrah.

---2016/08/10 22:09:59---
Views has recieved 160 Earth Rune from Zulrah.

---2016/08/10 22:09:59---
Views has recieved 1 Super Restore(4) from Zulrah.

---2016/08/10 22:09:59---
Views has recieved 1331 Death Rune from Zulrah.

---2016/08/10 22:09:59---
Views has recieved 1 Berserker Ring from Zulrah.

---2016/08/10 22:09:59---
Views has recieved 184 Astral Rune from Zulrah.

---2016/08/10 22:09:59---
Views has recieved 1 Super Restore(1) from Zulrah.

---2016/08/10 22:09:59---
Views has recieved 1 Abyssal Whip from Zulrah.

---2016/08/10 22:09:59---
Views has recieved 1 Abyssal Dagger (P++) from Zulrah.

---2016/08/10 22:09:59---
Views has recieved 1 Amulet Of Fury from Zulrah.

---2016/08/10 22:09:59---
Views has recieved 1 Super Combat Potion(2) from Zulrah.

---2016/08/11 04:13:11---
Tuckah has dropped 27 Ashes for Tuckah.

---2016/08/11 04:13:11---
Tuckah has dropped 50000000 Coins for Tuckah.

---2016/08/11 04:13:11---
Tuckah has dropped 1 Dragon Dagger for Tuckah.

---2016/08/11 04:17:00---
Views has recieved 25 Ashes from Tuckah.

---2016/08/11 04:17:00---
Views has recieved 100000000 Coins from Tuckah.

---2016/08/11 04:19:35---
Views has recieved 25 Ashes from Tuckah.

---2016/08/11 04:19:35---
Views has recieved 100000000 Coins from Tuckah.

---2016/08/11 04:23:00---
Tuckah has dropped 25 Ashes for Tuckah.

---2016/08/11 04:23:00---
Tuckah has dropped 70000000 Coins for Tuckah.

---2016/08/11 04:26:01---
Tuckah has dropped 27 Ashes for Tuckah.

---2016/08/11 04:26:01---
Tuckah has dropped 190000000 Coins for Tuckah.

---2016/08/11 04:26:01---
Tuckah has dropped 1 Dragon Dagger for Tuckah.

---2016/08/11 04:28:44---
Views has recieved 25 Ashes from Tuckah.

---2016/08/11 04:28:44---
Views has recieved 100000000 Coins from Tuckah.

---2016/08/11 04:28:44---
Tuckah has dropped 22 Ashes for Tuckah.

---2016/08/11 04:28:44---
Tuckah has dropped 1 Dragon Pickaxe Upgrade Kit for Tuckah.

---2016/08/11 04:28:44---
Tuckah has dropped 1 Crystal Shield Full for Tuckah.

---2016/08/11 04:28:44---
Tuckah has dropped 150000000 Coins for Tuckah.

---2016/08/11 04:28:44---
Tuckah has dropped 1 Odium Shard 2 for Tuckah.

---2016/08/11 04:28:44---
Tuckah has dropped 1 Arclight for Tuckah.

---2016/08/11 04:28:44---
Tuckah has dropped 1 Malediction Shard 2 for Tuckah.

---2016/08/11 04:28:44---
Tuckah has dropped 1 Dragon Dagger for Tuckah.

---2016/08/12 00:56:47---
Views has recieved 5 Red Chinchompa from The Bros 2.

---2016/08/12 00:56:47---
Views has recieved 3 Prayer Potion(4) from The Bros 2.

---2016/08/12 00:56:47---
Views has recieved 130 Black Chinchompa from The Bros 2.

---2016/08/12 00:56:47---
Views has recieved 1 Snakeskin Boots from The Bros 2.

---2016/08/12 00:56:47---
Views has recieved 272 Dragon Javelin from The Bros 2.

---2016/08/12 00:56:47---
Views has recieved 1 Ranging Potion(4) from The Bros 2.

---2016/08/12 00:56:47---
Views has recieved 3 Dragon Dart from The Bros 2.

---2016/08/12 02:29:31---
Views has recieved 15 Red Chinchompa from Trapper.

---2016/08/12 02:29:31---
Views has recieved 111 Black Chinchompa from Trapper.

---2016/08/12 02:29:31---
Views has recieved 1 Snakeskin Boots from Trapper.

---2016/08/12 02:29:31---
Views has recieved 9 Sea Turtle from Trapper.

---2016/08/12 02:29:31---
Views has recieved 1 Prayer Potion(1) from Trapper.

---2016/08/12 02:32:32---
Views has recieved 3 Prayer Potion(4) from The Bros 2.

---2016/08/12 02:32:32---
Views has recieved 5 Black Chinchompa from The Bros 2.

---2016/08/12 02:32:32---
Views has recieved 1 Snakeskin Boots from The Bros 2.

---2016/08/12 02:32:32---
Views has recieved 19 Sea Turtle from The Bros 2.

---2016/08/15 02:32:06---
Views has recieved 3 Super Restore(4) from Zulrah.

---2016/08/15 02:32:06---
Views has recieved 1 Amulet Of Torture from Zulrah.

---2016/08/15 02:32:06---
Views has recieved 12 Anglerfish from Zulrah.

---2016/08/15 02:32:06---
Views has recieved 1 Pegasian Boots from Zulrah.

---2016/08/15 02:32:06---
Views has recieved 96 Dragon Javelin from Zulrah.

---2016/08/15 02:32:06---
Views has recieved 1 Archers Ring from Zulrah.

---2016/08/15 02:32:06---
Views has recieved 1 Ranging Potion(1) from Zulrah.

---2016/08/15 17:22:40---
Fe Squad has dropped 52500 Coins for Fe Squad.

---2016/08/15 17:22:40---
Fe Squad has dropped 1 Hammer for Fe Squad.

---2016/08/15 17:22:40---
Fe Squad has dropped 8 Gold Ore for Fe Squad.

---2016/08/18 07:17:52---
Views has recieved 6 Prayer Potion(4) from Skeletal Wyvern.

---2016/08/18 07:17:52---
Views has recieved 1 Rune Boots from Skeletal Wyvern.

---2016/08/18 07:17:52---
Views has recieved 3320 Coins from Skeletal Wyvern.

---2016/08/18 07:17:52---
Views has recieved 1 Anti-Dragon Shield from Skeletal Wyvern.

---2016/08/18 07:17:52---
Views has recieved 1 Proselyte Hauberk from Skeletal Wyvern.

---2016/08/18 07:17:52---
Views has recieved 1 Helm Of Neitiznot from Skeletal Wyvern.

---2016/08/18 07:17:52---
Views has recieved 1 Ring Of Wealth from Skeletal Wyvern.

---2016/08/18 07:17:52---
Views has recieved 1 Proselyte Cuisse from Skeletal Wyvern.

---2016/08/18 07:17:52---
Views has recieved 1 Amulet Of Glory(2) from Skeletal Wyvern.

---2016/08/18 07:17:52---
Views has recieved 1 Prayer Potion(1) from Skeletal Wyvern.

---2016/08/18 07:17:52---
Views has recieved 1 Antifire Potion(4) from Skeletal Wyvern.

---2016/08/18 07:17:52---
Views has recieved 1 Loop Half Of Key from Skeletal Wyvern.

---2016/08/18 07:17:52---
Views has recieved 1 Super Combat Potion(1) from Skeletal Wyvern.

---2016/08/18 07:17:52---
Views has recieved 1 Dragon Dagger from Skeletal Wyvern.

---2016/08/18 07:20:15---
Views has recieved 6 Prayer Potion(4) from Skeletal Wyvern.

---2016/08/18 07:20:15---
Views has recieved 1 Rune Boots from Skeletal Wyvern.

---2016/08/18 07:20:15---
Views has recieved 3320 Coins from Skeletal Wyvern.

---2016/08/18 07:20:15---
Views has recieved 1 Anti-Dragon Shield from Skeletal Wyvern.

---2016/08/18 07:20:15---
Views has recieved 1 Vial from Skeletal Wyvern.

---2016/08/18 07:20:15---
Views has recieved 1 Proselyte Hauberk from Skeletal Wyvern.

---2016/08/18 07:20:15---
Views has recieved 1 Helm Of Neitiznot from Skeletal Wyvern.

---2016/08/18 07:20:15---
Views has recieved 1 Ring Of Wealth from Skeletal Wyvern.

---2016/08/18 07:20:15---
Views has recieved 1 Proselyte Cuisse from Skeletal Wyvern.

---2016/08/18 07:20:15---
Views has recieved 1 Amulet Of Glory(2) from Skeletal Wyvern.

---2016/08/18 07:20:15---
Views has recieved 1 Prayer Potion(1) from Skeletal Wyvern.

---2016/08/18 07:20:15---
Views has recieved 1 Antifire Potion(4) from Skeletal Wyvern.

---2016/08/18 07:20:15---
Views has recieved 1 Loop Half Of Key from Skeletal Wyvern.

---2016/08/18 07:20:15---
Views has recieved 1 Dragon Med Helm from Skeletal Wyvern.

---2016/08/18 07:20:15---
Views has recieved 1 Dragon Dagger from Skeletal Wyvern.
