
---2016/06/30 12:08:21---
Xp Over Gf has recieved 1 Amulet Of Glory(4) from Rock Crab.

---2016/06/30 12:08:21---
Xp Over Gf has recieved 1 Slave Robetop from Rock Crab.

---2016/06/30 12:08:21---
Xp Over Gf has recieved 1 Slave Robe from Rock Crab.

---2016/06/30 12:08:21---
Xp Over Gf has recieved 1 Slave Boots from Rock Crab.

---2016/06/30 12:08:21---
Xp Over Gf has recieved 1 Bronze Scimitar from Rock Crab.

---2016/06/30 12:08:21---
Xp Over Gf has recieved 23 Monkfish from Rock Crab.

---2016/07/18 13:56:13---
Xp Over Gf has recieved 1 Rune Crossbow from Kraken.

---2016/07/18 13:56:13---
Xp Over Gf has recieved 1 Snakeskin Body from Kraken.

---2016/07/18 13:56:13---
Xp Over Gf has recieved 1 Prayer Potion(4) from Kraken.

---2016/07/18 13:56:13---
Xp Over Gf has recieved 1 Guthix Bracers from Kraken.

---2016/07/18 13:56:13---
Xp Over Gf has recieved 56 Runite Bolts from Kraken.

---2016/07/18 13:56:13---
Xp Over Gf has recieved 1 Snakeskin Boots from Kraken.

---2016/07/18 13:56:13---
Xp Over Gf has recieved 1 Mystic Water Staff from Kraken.

---2016/07/18 13:56:13---
Xp Over Gf has recieved 1 Prayer Potion(2) from Kraken.

---2016/07/18 13:56:13---
Xp Over Gf has recieved 1 Armadyl Chaps from Kraken.

---2016/07/24 09:22:56---
Xp Over Gf has recieved 3 Vial from Hellhound.

---2016/07/24 09:22:56---
Xp Over Gf has recieved 1 Crystal Bow Full from Hellhound.

---2016/07/24 09:22:56---
Xp Over Gf has recieved 1 Abyssal Whip from Hellhound.

---2016/07/24 09:22:56---
Xp Over Gf has recieved 1 Infinity Boots from Hellhound.

---2016/07/24 09:22:56---
Xp Over Gf has recieved 1 Helm Of Neitiznot from Hellhound.

---2016/07/24 09:22:56---
Xp Over Gf has recieved 1 Armadyl Chaps from Hellhound.

---2016/07/24 10:34:25---
Xp Over Gf has recieved 2 Prayer Potion(4) from Callisto.

---2016/07/24 10:34:25---
Xp Over Gf has recieved 1 Uncut Ruby from Callisto.

---2016/07/24 10:34:25---
Xp Over Gf has recieved 39174 Coins from Callisto.

---2016/07/24 10:34:25---
Xp Over Gf has recieved 1 Big Bones from Callisto.

---2016/07/24 10:34:25---
Xp Over Gf has recieved 1 Crystal Bow Full from Callisto.

---2016/07/24 10:34:25---
Xp Over Gf has recieved 1 Infinity Boots from Callisto.

---2016/07/24 10:34:25---
Xp Over Gf has recieved 1 Mysterious Emblem from Callisto.

---2016/07/24 10:34:25---
Xp Over Gf has recieved 2 Prayer Potion(3) from Callisto.

---2016/07/24 10:34:25---
Xp Over Gf has recieved 17 Sea Turtle from Callisto.

---2016/07/24 10:34:25---
Xp Over Gf has recieved 1 Armadyl Chaps from Callisto.

---2016/07/24 10:34:25---
Xp Over Gf has recieved 1 Prayer Potion(1) from Callisto.

---2016/07/25 08:20:28---
Xp Over Gf has recieved 1 Black D'Hide Chaps from Enormous Tentacle.

---2016/07/25 08:20:28---
Xp Over Gf has recieved 26 Shark from Enormous Tentacle.

---2016/07/25 08:20:28---
Xp Over Gf has recieved 1 Crystal Bow Full from Enormous Tentacle.

---2016/07/25 08:20:28---
Xp Over Gf has recieved 1 Snakeskin Boots from Enormous Tentacle.

---2016/07/25 08:20:28---
Xp Over Gf has recieved 1 Black D'Hide Vamb from Enormous Tentacle.

---2016/07/29 09:08:56---
Xp Over Gf has recieved 1 Super Restore(4) from Nezikchened.

---2016/07/29 09:08:56---
Xp Over Gf has recieved 1 Ranger Boots from Nezikchened.

---2016/07/29 09:08:56---
Xp Over Gf has recieved 1 Super Restore(3) from Nezikchened.

---2016/07/29 09:08:56---
Xp Over Gf has recieved 4 Lava Dragon Bones from Nezikchened.

---2016/07/29 09:08:56---
Xp Over Gf has recieved 1 Ranging Potion(3) from Nezikchened.

---2016/07/29 09:08:56---
Xp Over Gf has recieved 1 Super Combat Potion(3) from Nezikchened.

---2016/07/29 09:08:56---
Xp Over Gf has recieved 1 Ring Of Wealth from Nezikchened.

---2016/07/29 09:11:15---
Xp Over Gf has recieved 6 Dark Crab from Nezikchened.

---2016/07/29 09:11:15---
Xp Over Gf has recieved 1 Super Restore(4) from Nezikchened.

---2016/07/29 09:11:15---
Xp Over Gf has recieved 1 Ranger Boots from Nezikchened.

---2016/07/29 09:11:15---
Xp Over Gf has recieved 1 Super Restore(3) from Nezikchened.

---2016/07/29 09:11:15---
Xp Over Gf has recieved 4 Lava Dragon Bones from Nezikchened.

---2016/07/29 09:11:15---
Xp Over Gf has recieved 1 Ranging Potion(3) from Nezikchened.

---2016/07/29 09:11:15---
Xp Over Gf has recieved 1 Super Combat Potion(3) from Nezikchened.

---2016/07/29 09:11:15---
Xp Over Gf has recieved 1 Ring Of Wealth from Nezikchened.

---2016/07/29 09:12:01---
Xp Over Gf has recieved 6 Dark Crab from Nezikchened.

---2016/07/29 09:12:01---
Xp Over Gf has recieved 1 Super Restore(4) from Nezikchened.

---2016/07/29 09:12:01---
Xp Over Gf has recieved 1 Ranger Boots from Nezikchened.

---2016/07/29 09:12:01---
Xp Over Gf has recieved 4 Lava Dragon Bones from Nezikchened.

---2016/07/29 09:12:01---
Xp Over Gf has recieved 1 Super Combat Potion(3) from Nezikchened.

---2016/07/29 09:12:01---
Xp Over Gf has recieved 1 Ring Of Wealth from Nezikchened.

---2016/07/29 14:08:50---
Xp Over Gf has recieved 1 Ranger Boots from Double Agent.

---2016/07/29 14:08:50---
Xp Over Gf has recieved 1 Clue Scroll (Hard) from Double Agent.

---2016/07/29 14:08:50---
Xp Over Gf has recieved 1 Crystal Bow Full from Double Agent.

---2016/07/29 14:08:50---
Xp Over Gf has recieved 1 Elemental Shield from Double Agent.

---2016/07/29 14:08:50---
Xp Over Gf has recieved 1 Blue D'Hide Chaps from Double Agent.
