
---2016/08/08 03:30:44---
Zoxhy has recieved 1 Book Of War from Ancient Gorilla.

---2016/08/08 03:30:44---
Zoxhy has recieved 1 Amulet Of Glory(4) from Ancient Gorilla.

---2016/08/08 03:30:44---
Zoxhy has recieved 1 Climbing Boots from Ancient Gorilla.

---2016/08/08 03:30:44---
Zoxhy has recieved 247 Iron Arrow from Ancient Gorilla.

---2016/08/08 03:30:44---
Zoxhy has recieved 1 Proselyte Cuisse from Ancient Gorilla.

---2016/08/08 03:31:11---
Zoxhy has recieved 1 Amulet Of Glory(4) from Ancient Gorilla.

---2016/08/08 03:31:11---
Zoxhy has recieved 1 Proselyte Cuisse from Ancient Gorilla.

---2016/08/08 20:10:50---
Zoxhy has recieved 1 Book Of War from Demonic Gorilla.

---2016/08/08 20:10:50---
Zoxhy has recieved 1 Amulet Of Glory(4) from Demonic Gorilla.

---2016/08/08 20:10:50---
Zoxhy has recieved 7 Shark from Demonic Gorilla.

---2016/08/08 20:10:50---
Zoxhy has recieved 1 Climbing Boots from Demonic Gorilla.

---2016/08/08 20:10:50---
Zoxhy has recieved 4 Prayer Potion(4) from Demonic Gorilla.

---2016/08/08 20:10:50---
Zoxhy has recieved 1 Super Combat Potion(4) from Demonic Gorilla.

---2016/08/08 20:10:50---
Zoxhy has recieved 1 Proselyte Hauberk from Demonic Gorilla.

---2016/08/08 20:10:50---
Zoxhy has recieved 1 Proselyte Cuisse from Demonic Gorilla.

---2016/08/08 20:10:50---
Zoxhy has recieved 1 Super Combat Potion(1) from Demonic Gorilla.

---2016/08/08 23:42:35---
Zoxhy has recieved 1 Amulet Of Glory(4) from Abyssal Scion.

---2016/08/08 23:42:35---
Zoxhy has recieved 46 Pure Essence from Abyssal Scion.

---2016/08/08 23:42:35---
Zoxhy has recieved 5 Prayer Potion(4) from Abyssal Scion.

---2016/08/08 23:42:35---
Zoxhy has recieved 22516 Coins from Abyssal Scion.

---2016/08/08 23:42:35---
Zoxhy has recieved 1 Snakeskin Boots from Abyssal Scion.

---2016/08/08 23:42:35---
Zoxhy has recieved 1 Tooth Half Of Key from Abyssal Scion.

---2016/08/08 23:42:35---
Zoxhy has recieved 589 Rune Arrow from Abyssal Scion.

---2016/08/08 23:42:35---
Zoxhy has recieved 8 Lobster from Abyssal Scion.

---2016/08/08 23:42:35---
Zoxhy has recieved 1 Prayer Potion(2) from Abyssal Scion.

---2016/08/08 23:42:35---
Zoxhy has recieved 1 Antipoison(4) from Abyssal Scion.
